%!PS-Adobe-3.0 EPSF-3.0
%%Creator: (MATLAB, The Mathworks, Inc. Version 8.6.0.267246 \(R2015b\). Operating System: Windows 8)
%%Title: E:/Projects/skola/rls/pics/SP5/k2_e.eps
%%CreationDate: 2017-03-17T09:59:27
%%Pages: (atend)
%%BoundingBox: 0 0 420 315
%%LanguageLevel: 2
%%EndComments
%%BeginProlog
%%BeginResource: procset (Apache XML Graphics Std ProcSet) 1.2 0
%%Version: 1.2 0
%%Copyright: (Copyright 2001-2003,2010 The Apache Software Foundation. License terms: http://www.apache.org/licenses/LICENSE-2.0)
/bd{bind def}bind def
/ld{load def}bd
/GR/grestore ld
/M/moveto ld
/LJ/setlinejoin ld
/C/curveto ld
/f/fill ld
/LW/setlinewidth ld
/GC/setgray ld
/t/show ld
/N/newpath ld
/CT/concat ld
/cp/closepath ld
/S/stroke ld
/L/lineto ld
/CC/setcmykcolor ld
/A/ashow ld
/GS/gsave ld
/RC/setrgbcolor ld
/RM/rmoveto ld
/ML/setmiterlimit ld
/re {4 2 roll M
1 index 0 rlineto
0 exch rlineto
neg 0 rlineto
cp } bd
/_ctm matrix def
/_tm matrix def
/BT { _ctm currentmatrix pop matrix _tm copy pop 0 0 moveto } bd
/ET { _ctm setmatrix } bd
/iTm { _ctm setmatrix _tm concat } bd
/Tm { _tm astore pop iTm 0 0 moveto } bd
/ux 0.0 def
/uy 0.0 def
/F {
  /Tp exch def
  /Tf exch def
  Tf findfont Tp scalefont setfont
  /cf Tf def  /cs Tp def
} bd
/ULS {currentpoint /uy exch def /ux exch def} bd
/ULE {
  /Tcx currentpoint pop def
  gsave
  newpath
  cf findfont cs scalefont dup
  /FontMatrix get 0 get /Ts exch def /FontInfo get dup
  /UnderlinePosition get Ts mul /To exch def
  /UnderlineThickness get Ts mul /Tt exch def
  ux uy To add moveto  Tcx uy To add lineto
  Tt setlinewidth stroke
  grestore
} bd
/OLE {
  /Tcx currentpoint pop def
  gsave
  newpath
  cf findfont cs scalefont dup
  /FontMatrix get 0 get /Ts exch def /FontInfo get dup
  /UnderlinePosition get Ts mul /To exch def
  /UnderlineThickness get Ts mul /Tt exch def
  ux uy To add cs add moveto Tcx uy To add cs add lineto
  Tt setlinewidth stroke
  grestore
} bd
/SOE {
  /Tcx currentpoint pop def
  gsave
  newpath
  cf findfont cs scalefont dup
  /FontMatrix get 0 get /Ts exch def /FontInfo get dup
  /UnderlinePosition get Ts mul /To exch def
  /UnderlineThickness get Ts mul /Tt exch def
  ux uy To add cs 10 mul 26 idiv add moveto Tcx uy To add cs 10 mul 26 idiv add lineto
  Tt setlinewidth stroke
  grestore
} bd
/QT {
/Y22 exch store
/X22 exch store
/Y21 exch store
/X21 exch store
currentpoint
/Y21 load 2 mul add 3 div exch
/X21 load 2 mul add 3 div exch
/X21 load 2 mul /X22 load add 3 div
/Y21 load 2 mul /Y22 load add 3 div
/X22 load /Y22 load curveto
} bd
/SSPD {
dup length /d exch dict def
{
/v exch def
/k exch def
currentpagedevice k known {
/cpdv currentpagedevice k get def
v cpdv ne {
/upd false def
/nullv v type /nulltype eq def
/nullcpdv cpdv type /nulltype eq def
nullv nullcpdv or
{
/upd true def
} {
/sametype v type cpdv type eq def
sametype {
v type /arraytype eq {
/vlen v length def
/cpdvlen cpdv length def
vlen cpdvlen eq {
0 1 vlen 1 sub {
/i exch def
/obj v i get def
/cpdobj cpdv i get def
obj cpdobj ne {
/upd true def
exit
} if
} for
} {
/upd true def
} ifelse
} {
v type /dicttype eq {
v {
/dv exch def
/dk exch def
/cpddv cpdv dk get def
dv cpddv ne {
/upd true def
exit
} if
} forall
} {
/upd true def
} ifelse
} ifelse
} if
} ifelse
upd true eq {
d k v put
} if
} if
} if
} forall
d length 0 gt {
d setpagedevice
} if
} bd
%%EndResource
%%BeginResource: procset (Apache XML Graphics EPS ProcSet) 1.0 0
%%Version: 1.0 0
%%Copyright: (Copyright 2002-2003 The Apache Software Foundation. License terms: http://www.apache.org/licenses/LICENSE-2.0)
/BeginEPSF { %def
/b4_Inc_state save def         % Save state for cleanup
/dict_count countdictstack def % Count objects on dict stack
/op_count count 1 sub def      % Count objects on operand stack
userdict begin                 % Push userdict on dict stack
/showpage { } def              % Redefine showpage, { } = null proc
0 setgray 0 setlinecap         % Prepare graphics state
1 setlinewidth 0 setlinejoin
10 setmiterlimit [ ] 0 setdash newpath
/languagelevel where           % If level not equal to 1 then
{pop languagelevel             % set strokeadjust and
1 ne                           % overprint to their defaults.
{false setstrokeadjust false setoverprint
} if
} if
} bd
/EndEPSF { %def
count op_count sub {pop} repeat            % Clean up stacks
countdictstack dict_count sub {end} repeat
b4_Inc_state restore
} bd
%%EndResource
%FOPBeginFontDict
%%IncludeResource: font Courier-Bold
%%IncludeResource: font Helvetica
%%IncludeResource: font Courier-BoldOblique
%%IncludeResource: font Courier-Oblique
%%IncludeResource: font Times-Roman
%%IncludeResource: font Helvetica-BoldOblique
%%IncludeResource: font Helvetica-Bold
%%IncludeResource: font Helvetica-Oblique
%%IncludeResource: font Times-BoldItalic
%%IncludeResource: font Courier
%%IncludeResource: font Times-Italic
%%IncludeResource: font Times-Bold
%%IncludeResource: font Symbol
%%IncludeResource: font ZapfDingbats
%FOPEndFontDict
%%BeginResource: encoding WinAnsiEncoding
/WinAnsiEncoding [
/.notdef /.notdef /.notdef /.notdef /.notdef
/.notdef /.notdef /.notdef /.notdef /.notdef
/.notdef /.notdef /.notdef /.notdef /.notdef
/.notdef /.notdef /.notdef /.notdef /.notdef
/.notdef /.notdef /.notdef /.notdef /.notdef
/.notdef /.notdef /.notdef /.notdef /.notdef
/.notdef /.notdef /space /exclam /quotedbl
/numbersign /dollar /percent /ampersand /quotesingle
/parenleft /parenright /asterisk /plus /comma
/hyphen /period /slash /zero /one
/two /three /four /five /six
/seven /eight /nine /colon /semicolon
/less /equal /greater /question /at
/A /B /C /D /E
/F /G /H /I /J
/K /L /M /N /O
/P /Q /R /S /T
/U /V /W /X /Y
/Z /bracketleft /backslash /bracketright /asciicircum
/underscore /quoteleft /a /b /c
/d /e /f /g /h
/i /j /k /l /m
/n /o /p /q /r
/s /t /u /v /w
/x /y /z /braceleft /bar
/braceright /asciitilde /bullet /Euro /bullet
/quotesinglbase /florin /quotedblbase /ellipsis /dagger
/daggerdbl /circumflex /perthousand /Scaron /guilsinglleft
/OE /bullet /Zcaron /bullet /bullet
/quoteleft /quoteright /quotedblleft /quotedblright /bullet
/endash /emdash /asciitilde /trademark /scaron
/guilsinglright /oe /bullet /zcaron /Ydieresis
/space /exclamdown /cent /sterling /currency
/yen /brokenbar /section /dieresis /copyright
/ordfeminine /guillemotleft /logicalnot /sfthyphen /registered
/macron /degree /plusminus /twosuperior /threesuperior
/acute /mu /paragraph /middot /cedilla
/onesuperior /ordmasculine /guillemotright /onequarter /onehalf
/threequarters /questiondown /Agrave /Aacute /Acircumflex
/Atilde /Adieresis /Aring /AE /Ccedilla
/Egrave /Eacute /Ecircumflex /Edieresis /Igrave
/Iacute /Icircumflex /Idieresis /Eth /Ntilde
/Ograve /Oacute /Ocircumflex /Otilde /Odieresis
/multiply /Oslash /Ugrave /Uacute /Ucircumflex
/Udieresis /Yacute /Thorn /germandbls /agrave
/aacute /acircumflex /atilde /adieresis /aring
/ae /ccedilla /egrave /eacute /ecircumflex
/edieresis /igrave /iacute /icircumflex /idieresis
/eth /ntilde /ograve /oacute /ocircumflex
/otilde /odieresis /divide /oslash /ugrave
/uacute /ucircumflex /udieresis /yacute /thorn
/ydieresis
] def
%%EndResource
%FOPBeginFontReencode
/Courier-Bold findfont
dup length dict begin
  {1 index /FID ne {def} {pop pop} ifelse} forall
  /Encoding WinAnsiEncoding def
  currentdict
end
/Courier-Bold exch definefont pop
/Helvetica findfont
dup length dict begin
  {1 index /FID ne {def} {pop pop} ifelse} forall
  /Encoding WinAnsiEncoding def
  currentdict
end
/Helvetica exch definefont pop
/Courier-BoldOblique findfont
dup length dict begin
  {1 index /FID ne {def} {pop pop} ifelse} forall
  /Encoding WinAnsiEncoding def
  currentdict
end
/Courier-BoldOblique exch definefont pop
/Courier-Oblique findfont
dup length dict begin
  {1 index /FID ne {def} {pop pop} ifelse} forall
  /Encoding WinAnsiEncoding def
  currentdict
end
/Courier-Oblique exch definefont pop
/Times-Roman findfont
dup length dict begin
  {1 index /FID ne {def} {pop pop} ifelse} forall
  /Encoding WinAnsiEncoding def
  currentdict
end
/Times-Roman exch definefont pop
/Helvetica-BoldOblique findfont
dup length dict begin
  {1 index /FID ne {def} {pop pop} ifelse} forall
  /Encoding WinAnsiEncoding def
  currentdict
end
/Helvetica-BoldOblique exch definefont pop
/Helvetica-Bold findfont
dup length dict begin
  {1 index /FID ne {def} {pop pop} ifelse} forall
  /Encoding WinAnsiEncoding def
  currentdict
end
/Helvetica-Bold exch definefont pop
/Helvetica-Oblique findfont
dup length dict begin
  {1 index /FID ne {def} {pop pop} ifelse} forall
  /Encoding WinAnsiEncoding def
  currentdict
end
/Helvetica-Oblique exch definefont pop
/Times-BoldItalic findfont
dup length dict begin
  {1 index /FID ne {def} {pop pop} ifelse} forall
  /Encoding WinAnsiEncoding def
  currentdict
end
/Times-BoldItalic exch definefont pop
/Courier findfont
dup length dict begin
  {1 index /FID ne {def} {pop pop} ifelse} forall
  /Encoding WinAnsiEncoding def
  currentdict
end
/Courier exch definefont pop
/Times-Italic findfont
dup length dict begin
  {1 index /FID ne {def} {pop pop} ifelse} forall
  /Encoding WinAnsiEncoding def
  currentdict
end
/Times-Italic exch definefont pop
/Times-Bold findfont
dup length dict begin
  {1 index /FID ne {def} {pop pop} ifelse} forall
  /Encoding WinAnsiEncoding def
  currentdict
end
/Times-Bold exch definefont pop
%FOPEndFontReencode
%%EndProlog
%%Page: 1 1
%%PageBoundingBox: 0 0 420 315
%%BeginPageSetup
[1 0 0 -1 0 315] CT
%%EndPageSetup
GS
[0.75 0 0 0.75 0 0] CT
1 GC
N
0 0 560 420 re
f
GR
GS
[0.75 0 0 0.75 0 0] CT
1 GC
N
0 0 560 420 re
f
GR
GS
[0.75 0 0 0.75 0 0] CT
1 GC
N
73 374 M
507 374 L
507 31 L
73 31 L
cp
f
GR
GS
[0.75 0 0 0.75 0 0] CT
0.149 GC
2 setlinecap
1 LJ
0.667 LW
N
73 374 M
507 374 L
S
GR
GS
[0.75 0 0 0.75 0 0] CT
0.149 GC
2 setlinecap
1 LJ
0.667 LW
N
73 31 M
507 31 L
S
GR
GS
[0.75 0 0 0.75 0 0] CT
0.149 GC
2 setlinecap
1 LJ
0.667 LW
N
73 374 M
73 369.66 L
S
GR
GS
[0.75 0 0 0.75 0 0] CT
0.149 GC
2 setlinecap
1 LJ
0.667 LW
N
145.333 374 M
145.333 369.66 L
S
GR
GS
[0.75 0 0 0.75 0 0] CT
0.149 GC
2 setlinecap
1 LJ
0.667 LW
N
217.667 374 M
217.667 369.66 L
S
GR
GS
[0.75 0 0 0.75 0 0] CT
0.149 GC
2 setlinecap
1 LJ
0.667 LW
N
290 374 M
290 369.66 L
S
GR
GS
[0.75 0 0 0.75 0 0] CT
0.149 GC
2 setlinecap
1 LJ
0.667 LW
N
362.333 374 M
362.333 369.66 L
S
GR
GS
[0.75 0 0 0.75 0 0] CT
0.149 GC
2 setlinecap
1 LJ
0.667 LW
N
434.667 374 M
434.667 369.66 L
S
GR
GS
[0.75 0 0 0.75 0 0] CT
0.149 GC
2 setlinecap
1 LJ
0.667 LW
N
507 374 M
507 369.66 L
S
GR
GS
[0.75 0 0 0.75 0 0] CT
0.149 GC
2 setlinecap
1 LJ
0.667 LW
N
73 31 M
73 35.34 L
S
GR
GS
[0.75 0 0 0.75 0 0] CT
0.149 GC
2 setlinecap
1 LJ
0.667 LW
N
145.333 31 M
145.333 35.34 L
S
GR
GS
[0.75 0 0 0.75 0 0] CT
0.149 GC
2 setlinecap
1 LJ
0.667 LW
N
217.667 31 M
217.667 35.34 L
S
GR
GS
[0.75 0 0 0.75 0 0] CT
0.149 GC
2 setlinecap
1 LJ
0.667 LW
N
290 31 M
290 35.34 L
S
GR
GS
[0.75 0 0 0.75 0 0] CT
0.149 GC
2 setlinecap
1 LJ
0.667 LW
N
362.333 31 M
362.333 35.34 L
S
GR
GS
[0.75 0 0 0.75 0 0] CT
0.149 GC
2 setlinecap
1 LJ
0.667 LW
N
434.667 31 M
434.667 35.34 L
S
GR
GS
[0.75 0 0 0.75 0 0] CT
0.149 GC
2 setlinecap
1 LJ
0.667 LW
N
507 31 M
507 35.34 L
S
GR
GS
[0.75 0 0 0.75 54.75 284.50001] CT
0.149 GC
/Helvetica 13 F
GS
[1 0 0 1 0 0] CT
-4 13 moveto 
1 -1 scale
(0) t 
GR
GR
GS
[0.75 0 0 0.75 109 284.50001] CT
0.149 GC
/Helvetica 13 F
GS
[1 0 0 1 0 0] CT
-11 13 moveto 
1 -1 scale
(200) t 
GR
GR
GS
[0.75 0 0 0.75 163.25 284.50001] CT
0.149 GC
/Helvetica 13 F
GS
[1 0 0 1 0 0] CT
-11 13 moveto 
1 -1 scale
(400) t 
GR
GR
GS
[0.75 0 0 0.75 217.5 284.50001] CT
0.149 GC
/Helvetica 13 F
GS
[1 0 0 1 0 0] CT
-11 13 moveto 
1 -1 scale
(600) t 
GR
GR
GS
[0.75 0 0 0.75 271.75001 284.50001] CT
0.149 GC
/Helvetica 13 F
GS
[1 0 0 1 0 0] CT
-11 13 moveto 
1 -1 scale
(800) t 
GR
GR
GS
[0.75 0 0 0.75 325.99999 284.50001] CT
0.149 GC
/Helvetica 13 F
GS
[1 0 0 1 0 0] CT
-14.5 13 moveto 
1 -1 scale
(1000) t 
GR
GR
GS
[0.75 0 0 0.75 380.25 284.50001] CT
0.149 GC
/Helvetica 13 F
GS
[1 0 0 1 0 0] CT
-14.5 13 moveto 
1 -1 scale
(1200) t 
GR
GR
GS
[0.75 0 0 0.75 217.50016 297.49999] CT
0.149 GC
/Helvetica 15 F
GS
[1 0 0 1 0 0] CT
-11 14 moveto 
1 -1 scale
(t\(s\)) t 
GR
GR
GS
[0.75 0 0 0.75 0 0] CT
0.149 GC
2 setlinecap
1 LJ
0.667 LW
N
73 374 M
73 31 L
S
GR
GS
[0.75 0 0 0.75 0 0] CT
0.149 GC
2 setlinecap
1 LJ
0.667 LW
N
507 374 M
507 31 L
S
GR
GS
[0.75 0 0 0.75 0 0] CT
0.149 GC
2 setlinecap
1 LJ
0.667 LW
N
73 374 M
77.34 374 L
S
GR
GS
[0.75 0 0 0.75 0 0] CT
0.149 GC
2 setlinecap
1 LJ
0.667 LW
N
73 316.833 M
77.34 316.833 L
S
GR
GS
[0.75 0 0 0.75 0 0] CT
0.149 GC
2 setlinecap
1 LJ
0.667 LW
N
73 259.667 M
77.34 259.667 L
S
GR
GS
[0.75 0 0 0.75 0 0] CT
0.149 GC
2 setlinecap
1 LJ
0.667 LW
N
73 202.5 M
77.34 202.5 L
S
GR
GS
[0.75 0 0 0.75 0 0] CT
0.149 GC
2 setlinecap
1 LJ
0.667 LW
N
73 145.333 M
77.34 145.333 L
S
GR
GS
[0.75 0 0 0.75 0 0] CT
0.149 GC
2 setlinecap
1 LJ
0.667 LW
N
73 88.167 M
77.34 88.167 L
S
GR
GS
[0.75 0 0 0.75 0 0] CT
0.149 GC
2 setlinecap
1 LJ
0.667 LW
N
73 31 M
77.34 31 L
S
GR
GS
[0.75 0 0 0.75 0 0] CT
0.149 GC
2 setlinecap
1 LJ
0.667 LW
N
507 374 M
502.66 374 L
S
GR
GS
[0.75 0 0 0.75 0 0] CT
0.149 GC
2 setlinecap
1 LJ
0.667 LW
N
507 316.833 M
502.66 316.833 L
S
GR
GS
[0.75 0 0 0.75 0 0] CT
0.149 GC
2 setlinecap
1 LJ
0.667 LW
N
507 259.667 M
502.66 259.667 L
S
GR
GS
[0.75 0 0 0.75 0 0] CT
0.149 GC
2 setlinecap
1 LJ
0.667 LW
N
507 202.5 M
502.66 202.5 L
S
GR
GS
[0.75 0 0 0.75 0 0] CT
0.149 GC
2 setlinecap
1 LJ
0.667 LW
N
507 145.333 M
502.66 145.333 L
S
GR
GS
[0.75 0 0 0.75 0 0] CT
0.149 GC
2 setlinecap
1 LJ
0.667 LW
N
507 88.167 M
502.66 88.167 L
S
GR
GS
[0.75 0 0 0.75 0 0] CT
0.149 GC
2 setlinecap
1 LJ
0.667 LW
N
507 31 M
502.66 31 L
S
GR
GS
[0.75 0 0 0.75 50.75 280.5] CT
0.149 GC
/Helvetica 13 F
GS
[1 0 0 1 0 0] CT
-30 5 moveto 
1 -1 scale
(-0.15) t 
GR
GR
GS
[0.75 0 0 0.75 50.75 237.62501] CT
0.149 GC
/Helvetica 13 F
GS
[1 0 0 1 0 0] CT
-23 5 moveto 
1 -1 scale
(-0.1) t 
GR
GR
GS
[0.75 0 0 0.75 50.75 194.74999] CT
0.149 GC
/Helvetica 13 F
GS
[1 0 0 1 0 0] CT
-30 5 moveto 
1 -1 scale
(-0.05) t 
GR
GR
GS
[0.75 0 0 0.75 50.75 151.875] CT
0.149 GC
/Helvetica 13 F
GS
[1 0 0 1 0 0] CT
-8 5 moveto 
1 -1 scale
(0) t 
GR
GR
GS
[0.75 0 0 0.75 50.75 109] CT
0.149 GC
/Helvetica 13 F
GS
[1 0 0 1 0 0] CT
-26 5 moveto 
1 -1 scale
(0.05) t 
GR
GR
GS
[0.75 0 0 0.75 50.75 66.125] CT
0.149 GC
/Helvetica 13 F
GS
[1 0 0 1 0 0] CT
-19 5 moveto 
1 -1 scale
(0.1) t 
GR
GR
GS
[0.75 0 0 0.75 50.75 23.24999] CT
0.149 GC
/Helvetica 13 F
GS
[1 0 0 1 0 0] CT
-26 5 moveto 
1 -1 scale
(0.15) t 
GR
GR
GS
[0.75 0 0 0.75 45 13.5] CT
/any-Bold 15 F
GS
[1 0 0 1 0 0] CT
0 0 moveto 
1 -1 scale
(Response of system without \(e) t 
GR
GR
GS
[0.75 0 0 0.75 210.75 18.75] CT
/any-Bold 11 F
GS
[1 0 0 1 0 0] CT
0 0 moveto 
1 -1 scale
(1) t 
GR
GR
GS
[0.75 0 0 0.75 216 13.5] CT
/any-Bold 15 F
GS
[1 0 0 1 0 0] CT
0 0 moveto 
1 -1 scale
(\) and with integration \(e) t 
GR
GR
GS
[0.75 0 0 0.75 343.5 18.75] CT
/any-Bold 11 F
GS
[1 0 0 1 0 0] CT
0 0 moveto 
1 -1 scale
(2) t 
GR
GR
GS
[0.75 0 0 0.75 348.75 13.5] CT
/any-Bold 15 F
GS
[1 0 0 1 0 0] CT
0 0 moveto 
1 -1 scale
(\) - error) t 
GR
GR
GS
[0.75 0 0 0.75 0 0] CT
0 0.447 0.741 RC
1 LJ
0.667 LW
N
73 202.5 M
73.362 202.5 L
73.362 88.167 L
73.362 88.167 L
73.795 88.246 L
74.228 88.478 L
74.79 88.989 L
75.481 89.914 L
76.467 91.74 L
77.707 94.746 L
79.509 100.212 L
81.847 108.596 L
83.324 114.334 L
84.802 120.221 L
86.494 126.986 L
88.253 133.899 L
89.817 139.844 L
91.169 144.773 L
92.517 149.47 L
94.075 154.593 L
95.832 159.965 L
97.508 164.675 L
98.919 168.329 L
100.204 171.413 L
101.623 174.559 L
103.305 177.95 L
105.07 181.139 L
106.606 183.627 L
107.907 185.54 L
109.22 187.305 L
110.78 189.199 L
112.564 191.122 L
114.245 192.717 L
115.629 193.889 L
116.886 194.854 L
118.305 195.838 L
120.018 196.893 L
121.808 197.857 L
123.333 198.577 L
124.605 199.115 L
125.905 199.612 L
127.48 200.147 L
129.296 200.685 L
130.982 201.116 L
132.345 201.42 L
133.58 201.666 L
135 201.916 L
136.736 202.18 L
138.547 202.411 L
140.062 202.572 L
S
GR
GS
[0.75 0 0 0.75 0 0] CT
0 0.447 0.741 RC
1 LJ
0.667 LW
N
138.547 202.411 M
140.062 202.572 L
141.313 202.685 L
142.602 202.786 L
144.188 202.888 L
146.028 202.98 L
147.374 203.031 L
148.721 203.07 L
150.325 203.102 L
152.111 203.121 L
153.742 203.125 L
155.092 203.12 L
156.363 203.11 L
157.83 203.091 L
159.575 203.061 L
161.333 203.024 L
162.805 202.987 L
164.066 202.954 L
165.403 202.916 L
167.028 202.867 L
168.845 202.811 L
170.477 202.759 L
171.802 202.716 L
173.053 202.676 L
174.525 202.628 L
176.298 202.572 L
178.073 202.517 L
179.531 202.473 L
180.768 202.436 L
181.5 202.415 L
181.5 202.415 L
181.5 202.415 L
181.944 202.416 L
182.388 202.471 L
182.994 202.657 L
183.712 203.042 L
184.632 203.765 L
185.847 205.032 L
187.55 207.213 L
189.694 210.275 L
190.93 212.057 L
192.166 213.78 L
193.817 215.91 L
195.785 218.101 L
197.048 219.275 L
198.312 220.251 L
199.944 221.213 L
201.871 221.922 L
203.159 222.152 L
204.447 222.199 L
206.068 222.02 L
207.943 221.521 L
S
GR
GS
[0.75 0 0 0.75 0 0] CT
0 0.447 0.741 RC
1 LJ
0.667 LW
N
206.068 222.02 M
207.943 221.521 L
209.253 221.014 L
210.564 220.396 L
212.175 219.509 L
214.013 218.366 L
215.341 217.477 L
216.67 216.552 L
218.274 215.405 L
220.082 214.1 L
221.731 212.92 L
223.073 211.978 L
224.325 211.124 L
225.78 210.164 L
227.534 209.064 L
229.316 208.02 L
230.795 207.214 L
232.042 206.579 L
233.361 205.95 L
234.982 205.241 L
236.817 204.52 L
238.467 203.943 L
239.79 203.529 L
241.024 203.18 L
242.482 202.81 L
244.258 202.418 L
246.054 202.083 L
247.523 201.851 L
248.753 201.685 L
250.065 201.531 L
251.696 201.372 L
253.55 201.23 L
254.859 201.153 L
256.169 201.092 L
257.776 201.037 L
259.611 200.997 L
261.275 200.978 L
262.607 200.975 L
263.838 200.98 L
265.283 200.992 L
267.049 201.017 L
268.854 201.05 L
270.338 201.083 L
271.571 201.113 L
272.873 201.147 L
274.49 201.191 L
276.343 201.243 L
277.663 201.282 L
278.983 201.32 L
280.59 201.367 L
282.412 201.419 L
284.067 201.464 L
S
GR
GS
[0.75 0 0 0.75 0 0] CT
0 0.447 0.741 RC
1 LJ
0.667 LW
N
282.412 201.419 M
284.067 201.464 L
285.403 201.501 L
286.644 201.535 L
288.095 201.572 L
289.858 201.615 L
290 201.618 L
290 201.618 L
290 201.618 L
291.084 218.389 L
292.162 234.202 L
293.493 252.405 L
295.036 271.506 L
296.844 290.95 L
299.014 310.008 L
300.185 318.374 L
301.356 325.449 L
302.996 333.295 L
305.026 339.937 L
306.281 342.504 L
307.535 344.02 L
309.173 344.589 L
311.105 343.491 L
312.388 341.868 L
313.671 339.647 L
315.292 336.126 L
317.174 331.251 L
318.482 327.48 L
319.79 323.478 L
321.403 318.319 L
323.245 312.248 L
324.571 307.823 L
325.898 303.4 L
327.503 298.099 L
329.314 292.24 L
330.964 287.062 L
332.305 282.984 L
333.554 279.304 L
335.008 275.176 L
336.765 270.418 L
338.549 265.848 L
340.028 262.263 L
341.273 259.384 L
342.59 256.477 L
344.211 253.09 L
346.048 249.493 L
347.7 246.471 L
349.022 244.188 L
350.255 242.165 L
351.711 239.898 L
353.488 237.306 L
355.287 234.864 L
S
GR
GS
[0.75 0 0 0.75 0 0] CT
0 0.447 0.741 RC
1 LJ
0.667 LW
N
353.488 237.306 M
355.287 234.864 L
356.756 232.995 L
357.985 231.515 L
359.295 230.014 L
360.926 228.255 L
362.781 226.388 L
364.091 225.152 L
365.4 223.979 L
367.008 222.621 L
368.843 221.176 L
370.507 219.955 L
371.839 219.035 L
373.07 218.228 L
374.514 217.332 L
376.281 216.306 L
378.086 215.333 L
379.569 214.587 L
380.802 214 L
382.104 213.414 L
383.722 212.73 L
385.575 212.003 L
386.895 211.52 L
388.214 211.064 L
389.822 210.544 L
391.644 209.998 L
393.299 209.541 L
394.635 209.195 L
395.876 208.892 L
397.327 208.56 L
399.089 208.187 L
400.883 207.838 L
402.362 207.571 L
403.601 207.361 L
404.912 207.152 L
406.532 206.913 L
408.378 206.662 L
409.697 206.496 L
411.017 206.34 L
412.623 206.164 L
414.444 205.98 L
416.099 205.828 L
417.437 205.712 L
418.679 205.611 L
420.129 205.502 L
421.889 205.379 L
423.682 205.265 L
425.162 205.178 L
426.403 205.108 L
427.714 205.04 L
429.333 204.961 L
431.177 204.88 L
S
GR
GS
[0.75 0 0 0.75 0 0] CT
0 0.447 0.741 RC
1 LJ
0.667 LW
N
429.333 204.961 M
431.177 204.88 L
432.498 204.824 L
433.819 204.773 L
435.425 204.714 L
437.244 204.653 L
438.898 204.602 L
440.237 204.563 L
441.48 204.528 L
442.931 204.49 L
444.69 204.448 L
446.481 204.408 L
447.961 204.377 L
449.203 204.352 L
450.516 204.327 L
452.135 204.298 L
453.977 204.268 L
455.299 204.247 L
456.62 204.228 L
458.225 204.205 L
460.043 204.182 L
461.697 204.162 L
463.037 204.146 L
464.281 204.132 L
465.731 204.116 L
467.49 204.099 L
469.281 204.083 L
470.761 204.07 L
472.003 204.059 L
473.316 204.048 L
474.935 204.036 L
476.777 204.023 L
478.099 204.014 L
479.421 204.005 L
481.026 203.995 L
482.843 203.985 L
484.497 203.976 L
485.836 203.969 L
487.081 203.962 L
488.532 203.955 L
490.29 203.947 L
492.081 203.94 L
493.561 203.934 L
494.803 203.929 L
496.116 203.924 L
497.735 203.918 L
499.577 203.913 L
500.899 203.908 L
502.221 203.904 L
503.826 203.9 L
505.643 203.896 L
507 203.892 L
S
GR
GS
[0.75 0 0 0.75 0 0] CT
0 0.447 0.741 RC
1 LJ
0.667 LW
N
505.643 203.896 M
507 203.892 L
S
GR
GS
[0.75 0 0 0.75 0 0] CT
0.851 0.325 0.098 RC
1 LJ
0.667 LW
N
73 202.5 M
73.362 202.5 L
73.362 202.5 L
73.362 202.5 L
73.795 202.5 L
74.228 202.515 L
74.79 202.582 L
75.481 202.764 L
76.467 203.243 L
77.707 204.208 L
79.509 206.2 L
81.847 209.421 L
83.324 211.593 L
84.802 213.731 L
86.494 216.023 L
88.253 218.129 L
89.817 219.71 L
91.169 220.83 L
92.517 221.713 L
94.075 222.442 L
95.832 222.901 L
97.508 223.006 L
98.919 222.864 L
100.204 222.571 L
101.623 222.088 L
103.305 221.329 L
105.07 220.356 L
106.606 219.394 L
107.907 218.518 L
109.22 217.592 L
110.78 216.458 L
112.564 215.141 L
114.245 213.904 L
115.629 212.904 L
116.886 212.016 L
118.305 211.047 L
120.018 209.933 L
121.808 208.841 L
123.333 207.976 L
124.605 207.301 L
125.905 206.656 L
127.48 205.937 L
129.296 205.192 L
130.982 204.577 L
132.345 204.132 L
133.58 203.768 L
135 203.394 L
136.736 202.995 L
138.547 202.644 L
140.062 202.397 L
S
GR
GS
[0.75 0 0 0.75 0 0] CT
0.851 0.325 0.098 RC
1 LJ
0.667 LW
N
138.547 202.644 M
140.062 202.397 L
141.313 202.222 L
142.602 202.067 L
144.188 201.909 L
146.028 201.765 L
147.374 201.685 L
148.721 201.622 L
150.325 201.569 L
152.111 201.533 L
153.742 201.518 L
155.092 201.517 L
156.363 201.524 L
157.83 201.541 L
159.575 201.57 L
161.333 201.608 L
162.805 201.644 L
164.066 201.678 L
165.403 201.717 L
167.028 201.766 L
168.845 201.823 L
170.477 201.874 L
171.802 201.916 L
173.053 201.955 L
174.525 202.001 L
176.298 202.055 L
178.073 202.106 L
179.531 202.148 L
180.768 202.181 L
181.5 202.201 L
181.5 87.867 L
181.5 87.867 L
181.944 87.977 L
182.388 88.275 L
182.994 88.967 L
183.712 90.176 L
184.632 92.268 L
185.847 95.823 L
187.55 101.969 L
189.694 110.97 L
190.93 116.517 L
192.166 122.174 L
193.817 129.733 L
195.785 138.512 L
197.048 143.917 L
198.312 149.086 L
199.944 155.361 L
201.871 162.142 L
203.159 166.278 L
204.447 170.097 L
206.068 174.46 L
207.943 178.912 L
S
GR
GS
[0.75 0 0 0.75 0 0] CT
0.851 0.325 0.098 RC
1 LJ
0.667 LW
N
206.068 174.46 M
207.943 178.912 L
209.253 181.667 L
210.564 184.147 L
212.175 186.848 L
214.013 189.499 L
215.341 191.159 L
216.67 192.626 L
218.274 194.167 L
220.082 195.638 L
221.731 196.766 L
223.073 197.556 L
224.325 198.2 L
225.78 198.852 L
227.534 199.518 L
229.316 200.082 L
230.795 200.477 L
232.042 200.768 L
233.361 201.038 L
234.982 201.325 L
236.817 201.599 L
238.467 201.808 L
239.79 201.954 L
241.024 202.074 L
242.482 202.2 L
244.258 202.332 L
246.054 202.446 L
247.523 202.525 L
248.753 202.583 L
250.065 202.637 L
251.696 202.695 L
253.55 202.748 L
254.859 202.779 L
256.169 202.804 L
257.776 202.828 L
259.611 202.846 L
261.275 202.855 L
262.607 202.858 L
263.838 202.857 L
265.283 202.853 L
267.049 202.842 L
268.854 202.826 L
270.338 202.81 L
271.571 202.794 L
272.873 202.776 L
274.49 202.751 L
276.343 202.721 L
277.663 202.698 L
278.983 202.674 L
280.59 202.644 L
282.412 202.61 L
284.067 202.578 L
S
GR
GS
[0.75 0 0 0.75 0 0] CT
0.851 0.325 0.098 RC
1 LJ
0.667 LW
N
282.412 202.61 M
284.067 202.578 L
285.403 202.553 L
286.644 202.529 L
288.095 202.502 L
289.858 202.47 L
290 202.468 L
290 202.468 L
290 202.468 L
291.084 205.54 L
292.162 212.363 L
293.493 222.767 L
295.036 235.143 L
296.844 248.301 L
299.014 261.064 L
300.185 266.431 L
301.356 270.738 L
302.996 275.066 L
305.026 277.895 L
306.281 278.397 L
307.535 278.067 L
309.173 276.551 L
311.105 273.464 L
312.388 270.799 L
313.671 267.756 L
315.292 263.502 L
317.174 258.195 L
318.482 254.38 L
319.79 250.535 L
321.403 245.832 L
323.245 240.614 L
324.571 237.008 L
325.898 233.563 L
327.503 229.636 L
329.314 225.554 L
330.964 222.178 L
332.305 219.676 L
333.554 217.541 L
335.008 215.288 L
336.765 212.889 L
338.549 210.793 L
340.028 209.298 L
341.273 208.198 L
342.59 207.18 L
344.211 206.116 L
346.048 205.137 L
347.7 204.436 L
349.022 203.983 L
350.255 203.637 L
351.711 203.312 L
353.488 203.02 L
355.287 202.823 L
S
GR
GS
[0.75 0 0 0.75 0 0] CT
0.851 0.325 0.098 RC
1 LJ
0.667 LW
N
353.488 203.02 M
355.287 202.823 L
356.756 202.722 L
357.985 202.671 L
359.295 202.646 L
360.926 202.648 L
362.781 202.684 L
364.091 202.725 L
365.4 202.776 L
367.008 202.848 L
368.843 202.936 L
370.507 203.018 L
371.839 203.083 L
373.07 203.141 L
374.514 203.205 L
376.281 203.278 L
378.086 203.344 L
379.569 203.392 L
380.802 203.427 L
382.104 203.459 L
383.722 203.492 L
385.575 203.521 L
386.895 203.536 L
388.214 203.547 L
389.822 203.554 L
391.644 203.557 L
393.299 203.553 L
394.635 203.547 L
395.876 203.539 L
397.327 203.526 L
399.089 203.508 L
400.883 203.486 L
402.362 203.466 L
403.601 203.448 L
404.912 203.428 L
406.532 203.403 L
408.378 203.372 L
409.697 203.35 L
411.017 203.327 L
412.623 203.3 L
414.444 203.269 L
416.099 203.24 L
417.437 203.218 L
418.679 203.197 L
420.129 203.173 L
421.889 203.145 L
423.682 203.118 L
425.162 203.095 L
426.403 203.077 L
427.714 203.059 L
429.333 203.037 L
431.177 203.013 L
S
GR
GS
[0.75 0 0 0.75 0 0] CT
0.851 0.325 0.098 RC
1 LJ
0.667 LW
N
429.333 203.037 M
431.177 203.013 L
432.498 202.996 L
433.819 202.98 L
435.425 202.962 L
437.244 202.942 L
438.898 202.925 L
440.237 202.912 L
441.48 202.9 L
442.931 202.887 L
444.69 202.873 L
446.481 202.859 L
447.961 202.848 L
449.203 202.839 L
450.516 202.831 L
452.135 202.821 L
453.977 202.811 L
455.299 202.804 L
456.62 202.797 L
458.225 202.79 L
460.043 202.782 L
461.697 202.776 L
463.037 202.771 L
464.281 202.767 L
465.731 202.762 L
467.49 202.757 L
469.281 202.753 L
470.761 202.749 L
472.003 202.747 L
473.316 202.744 L
474.935 202.741 L
476.777 202.738 L
478.099 202.736 L
479.421 202.735 L
481.026 202.733 L
482.843 202.731 L
484.497 202.729 L
485.836 202.728 L
487.081 202.727 L
488.532 202.726 L
490.29 202.725 L
492.081 202.724 L
493.561 202.724 L
494.803 202.723 L
496.116 202.723 L
497.735 202.722 L
499.577 202.722 L
500.899 202.721 L
502.221 202.721 L
503.826 202.721 L
505.643 202.721 L
507 202.721 L
S
GR
GS
[0.75 0 0 0.75 0 0] CT
0.851 0.325 0.098 RC
1 LJ
0.667 LW
N
505.643 202.721 M
507 202.721 L
S
GR
GS
[0.75 0 0 0.75 0 0] CT
0.929 0.694 0.125 RC
1 LJ
0.667 LW
N
73 202.5 M
73.362 202.5 L
73.362 88.167 L
73.362 88.167 L
73.795 88.246 L
74.228 88.478 L
74.79 88.989 L
75.481 89.915 L
76.467 91.741 L
77.707 94.749 L
79.509 100.219 L
81.847 108.614 L
83.324 114.36 L
84.802 120.259 L
86.494 127.039 L
88.253 133.97 L
89.817 139.932 L
91.169 144.878 L
92.517 149.593 L
94.075 154.737 L
95.832 160.134 L
97.508 164.868 L
98.919 168.542 L
100.204 171.645 L
101.623 174.812 L
103.305 178.228 L
105.07 181.441 L
106.606 183.95 L
107.907 185.88 L
109.22 187.663 L
110.78 189.576 L
112.564 191.519 L
114.245 193.133 L
115.629 194.32 L
116.886 195.298 L
118.305 196.296 L
120.018 197.366 L
121.808 198.346 L
123.333 199.078 L
124.605 199.626 L
125.905 200.132 L
127.48 200.678 L
129.296 201.227 L
130.982 201.668 L
132.345 201.98 L
133.58 202.232 L
135 202.49 L
136.736 202.761 L
138.547 202.999 L
140.062 203.166 L
S
GR
GS
[0.75 0 0 0.75 0 0] CT
0.929 0.694 0.125 RC
1 LJ
0.667 LW
N
138.547 202.999 M
140.062 203.166 L
141.313 203.284 L
142.602 203.389 L
144.188 203.496 L
146.028 203.593 L
147.374 203.647 L
148.721 203.689 L
150.325 203.725 L
152.111 203.747 L
153.742 203.754 L
155.092 203.751 L
156.363 203.742 L
157.83 203.725 L
159.575 203.697 L
161.333 203.661 L
162.805 203.626 L
164.066 203.593 L
165.403 203.556 L
167.028 203.508 L
168.845 203.453 L
170.477 203.401 L
171.802 203.359 L
173.053 203.318 L
174.525 203.271 L
176.298 203.214 L
178.073 203.159 L
179.531 203.114 L
180.768 203.077 L
181.5 203.056 L
181.5 203.056 L
181.5 203.056 L
181.944 203.057 L
182.388 203.111 L
182.994 203.297 L
183.712 203.683 L
184.632 204.405 L
185.847 205.673 L
187.55 207.855 L
189.694 210.919 L
190.93 212.705 L
192.166 214.429 L
193.817 216.564 L
195.785 218.761 L
197.048 219.938 L
198.312 220.918 L
199.944 221.884 L
201.871 222.598 L
203.159 222.831 L
204.447 222.879 L
206.068 222.702 L
207.943 222.203 L
S
GR
GS
[0.75 0 0 0.75 0 0] CT
0.929 0.694 0.125 RC
1 LJ
0.667 LW
N
206.068 222.702 M
207.943 222.203 L
209.253 221.695 L
210.564 221.076 L
212.175 220.186 L
214.013 219.039 L
215.341 218.146 L
216.67 217.216 L
218.274 216.062 L
220.082 214.748 L
221.731 213.559 L
223.073 212.611 L
224.325 211.749 L
225.78 210.781 L
227.534 209.67 L
229.316 208.615 L
230.795 207.799 L
232.042 207.156 L
233.361 206.52 L
234.982 205.8 L
236.817 205.068 L
238.467 204.482 L
239.79 204.061 L
241.024 203.705 L
242.482 203.328 L
244.258 202.928 L
246.054 202.584 L
247.523 202.347 L
248.753 202.176 L
250.065 202.017 L
251.696 201.853 L
253.55 201.705 L
254.859 201.625 L
256.169 201.56 L
257.776 201.501 L
259.611 201.457 L
261.275 201.436 L
262.607 201.431 L
263.838 201.434 L
265.283 201.445 L
267.049 201.467 L
268.854 201.499 L
270.338 201.53 L
271.571 201.56 L
272.873 201.594 L
274.49 201.637 L
276.343 201.689 L
277.663 201.727 L
278.983 201.766 L
280.59 201.812 L
282.412 201.864 L
284.067 201.91 L
S
GR
GS
[0.75 0 0 0.75 0 0] CT
0.929 0.694 0.125 RC
1 LJ
0.667 LW
N
282.412 201.864 M
284.067 201.91 L
285.403 201.947 L
286.644 201.98 L
288.095 202.018 L
289.858 202.061 L
290 202.065 L
290 202.065 L
290 202.065 L
291.084 218.835 L
292.162 234.649 L
293.493 252.852 L
295.036 271.953 L
296.844 291.396 L
299.014 310.45 L
300.185 318.812 L
301.356 325.882 L
302.996 333.718 L
305.026 340.343 L
306.281 342.897 L
307.535 344.397 L
309.173 344.942 L
311.105 343.811 L
312.388 342.162 L
313.671 339.914 L
315.292 336.356 L
317.174 331.434 L
318.482 327.628 L
319.79 323.59 L
321.403 318.384 L
323.245 312.258 L
324.571 307.792 L
325.898 303.328 L
327.503 297.977 L
329.314 292.06 L
330.964 286.831 L
332.305 282.711 L
333.554 278.994 L
335.008 274.822 L
336.765 270.012 L
338.549 265.392 L
340.028 261.766 L
341.273 258.853 L
342.59 255.911 L
344.211 252.484 L
346.048 248.842 L
347.7 245.782 L
349.022 243.47 L
350.255 241.42 L
351.711 239.124 L
353.488 236.497 L
355.287 234.022 L
S
GR
GS
[0.75 0 0 0.75 0 0] CT
0.929 0.694 0.125 RC
1 LJ
0.667 LW
N
353.488 236.497 M
355.287 234.022 L
356.756 232.127 L
357.985 230.626 L
359.295 229.105 L
360.926 227.32 L
362.781 225.427 L
364.091 224.172 L
365.4 222.982 L
367.008 221.604 L
368.843 220.136 L
370.507 218.897 L
371.839 217.962 L
373.07 217.143 L
374.514 216.233 L
376.281 215.19 L
378.086 214.202 L
379.569 213.443 L
380.802 212.847 L
382.104 212.251 L
383.722 211.556 L
385.575 210.816 L
386.895 210.325 L
388.214 209.861 L
389.822 209.332 L
391.644 208.777 L
393.299 208.311 L
394.635 207.959 L
395.876 207.651 L
397.327 207.313 L
399.089 206.932 L
400.883 206.577 L
402.362 206.305 L
403.601 206.091 L
404.912 205.878 L
406.532 205.634 L
408.378 205.379 L
409.697 205.209 L
411.017 205.051 L
412.623 204.871 L
414.444 204.684 L
416.099 204.529 L
417.437 204.411 L
418.679 204.309 L
420.129 204.197 L
421.889 204.072 L
423.682 203.956 L
425.162 203.867 L
426.403 203.796 L
427.714 203.727 L
429.333 203.647 L
431.177 203.564 L
S
GR
GS
[0.75 0 0 0.75 0 0] CT
0.929 0.694 0.125 RC
1 LJ
0.667 LW
N
429.333 203.647 M
431.177 203.564 L
432.498 203.507 L
433.819 203.455 L
435.425 203.396 L
437.244 203.334 L
438.898 203.282 L
440.237 203.242 L
441.48 203.207 L
442.931 203.168 L
444.69 203.125 L
446.481 203.085 L
447.961 203.054 L
449.203 203.028 L
450.516 203.003 L
452.135 202.974 L
453.977 202.944 L
455.299 202.922 L
456.62 202.902 L
458.225 202.88 L
460.043 202.856 L
461.697 202.836 L
463.037 202.82 L
464.281 202.806 L
465.731 202.79 L
467.49 202.773 L
469.281 202.756 L
470.761 202.743 L
472.003 202.732 L
473.316 202.721 L
474.935 202.709 L
476.777 202.696 L
478.099 202.686 L
479.421 202.677 L
481.026 202.667 L
482.843 202.657 L
484.497 202.648 L
485.836 202.641 L
487.081 202.634 L
488.532 202.627 L
490.29 202.619 L
492.081 202.612 L
493.561 202.606 L
494.803 202.601 L
496.116 202.596 L
497.735 202.59 L
499.577 202.585 L
500.899 202.58 L
502.221 202.576 L
503.826 202.572 L
505.643 202.567 L
507 202.563 L
S
GR
GS
[0.75 0 0 0.75 0 0] CT
0.929 0.694 0.125 RC
1 LJ
0.667 LW
N
505.643 202.567 M
507 202.563 L
S
GR
GS
[0.75 0 0 0.75 0 0] CT
0.494 0.184 0.557 RC
1 LJ
0.667 LW
N
73 202.5 M
73.362 202.5 L
73.362 202.5 L
73.362 202.5 L
73.795 202.5 L
74.228 202.515 L
74.79 202.582 L
75.481 202.764 L
76.467 203.243 L
77.707 204.208 L
79.509 206.202 L
81.847 209.426 L
83.324 211.602 L
84.802 213.743 L
86.494 216.039 L
88.253 218.151 L
89.817 219.737 L
91.169 220.862 L
92.517 221.749 L
94.075 222.482 L
95.832 222.946 L
97.508 223.053 L
98.919 222.913 L
100.204 222.622 L
101.623 222.138 L
103.305 221.378 L
105.07 220.402 L
106.606 219.438 L
107.907 218.558 L
109.22 217.628 L
110.78 216.488 L
112.564 215.162 L
114.245 213.918 L
115.629 212.909 L
116.886 212.015 L
118.305 211.038 L
120.018 209.913 L
121.808 208.81 L
123.333 207.935 L
124.605 207.252 L
125.905 206.599 L
127.48 205.871 L
129.296 205.114 L
130.982 204.489 L
132.345 204.038 L
133.58 203.667 L
135 203.285 L
136.736 202.878 L
138.547 202.519 L
140.062 202.265 L
S
GR
GS
[0.75 0 0 0.75 0 0] CT
0.494 0.184 0.557 RC
1 LJ
0.667 LW
N
138.547 202.519 M
140.062 202.265 L
141.313 202.085 L
142.602 201.925 L
144.188 201.762 L
146.028 201.613 L
147.374 201.528 L
148.721 201.462 L
150.325 201.405 L
152.111 201.365 L
153.742 201.348 L
155.092 201.345 L
156.363 201.35 L
157.83 201.365 L
159.575 201.392 L
161.333 201.428 L
162.805 201.464 L
164.066 201.498 L
165.403 201.536 L
167.028 201.584 L
168.845 201.64 L
170.477 201.691 L
171.802 201.733 L
173.053 201.772 L
174.525 201.818 L
176.298 201.872 L
178.073 201.924 L
179.531 201.966 L
180.768 201.999 L
181.5 202.019 L
181.5 87.686 L
181.5 87.686 L
181.944 87.795 L
182.388 88.094 L
182.994 88.786 L
183.712 89.995 L
184.632 92.089 L
185.847 95.646 L
187.55 101.797 L
189.694 110.809 L
190.93 116.365 L
192.166 122.032 L
193.817 129.608 L
195.785 138.41 L
197.048 143.83 L
198.312 149.016 L
199.944 155.315 L
201.871 162.124 L
203.159 166.28 L
204.447 170.118 L
206.068 174.506 L
207.943 178.986 L
S
GR
GS
[0.75 0 0 0.75 0 0] CT
0.494 0.184 0.557 RC
1 LJ
0.667 LW
N
206.068 174.506 M
207.943 178.986 L
209.253 181.76 L
210.564 184.259 L
212.175 186.983 L
214.013 189.658 L
215.341 191.334 L
216.67 192.817 L
218.274 194.376 L
220.082 195.865 L
221.731 197.008 L
223.073 197.81 L
224.325 198.464 L
225.78 199.127 L
227.534 199.805 L
229.316 200.38 L
230.795 200.784 L
232.042 201.081 L
233.361 201.357 L
234.982 201.651 L
236.817 201.933 L
238.467 202.148 L
239.79 202.298 L
241.024 202.423 L
242.482 202.553 L
244.258 202.69 L
246.054 202.808 L
247.523 202.891 L
248.753 202.951 L
250.065 203.008 L
251.696 203.069 L
253.55 203.125 L
254.859 203.158 L
256.169 203.185 L
257.776 203.211 L
259.611 203.231 L
261.275 203.242 L
262.607 203.247 L
263.838 203.247 L
265.283 203.244 L
267.049 203.234 L
268.854 203.22 L
270.338 203.204 L
271.571 203.189 L
272.873 203.171 L
274.49 203.147 L
276.343 203.117 L
277.663 203.094 L
278.983 203.07 L
280.59 203.041 L
282.412 203.006 L
284.067 202.975 L
S
GR
GS
[0.75 0 0 0.75 0 0] CT
0.494 0.184 0.557 RC
1 LJ
0.667 LW
N
282.412 203.006 M
284.067 202.975 L
285.403 202.949 L
286.644 202.926 L
288.095 202.899 L
289.858 202.867 L
290 202.864 L
290 202.864 L
290 202.864 L
291.084 205.936 L
292.162 212.758 L
293.493 223.163 L
295.036 235.538 L
296.844 248.694 L
299.014 261.454 L
300.185 266.818 L
301.356 271.121 L
302.996 275.44 L
305.026 278.255 L
306.281 278.746 L
307.535 278.404 L
309.173 276.868 L
311.105 273.754 L
312.388 271.069 L
313.671 268.004 L
315.292 263.721 L
317.174 258.377 L
318.482 254.536 L
319.79 250.663 L
321.403 245.926 L
323.245 240.669 L
324.571 237.035 L
325.898 233.561 L
327.503 229.601 L
329.314 225.484 L
330.964 222.076 L
332.305 219.55 L
333.554 217.394 L
335.008 215.119 L
336.765 212.694 L
338.549 210.574 L
340.028 209.062 L
341.273 207.949 L
342.59 206.919 L
344.211 205.842 L
346.048 204.849 L
347.7 204.14 L
349.022 203.681 L
350.255 203.33 L
351.711 203 L
353.488 202.705 L
355.287 202.506 L
S
GR
GS
[0.75 0 0 0.75 0 0] CT
0.494 0.184 0.557 RC
1 LJ
0.667 LW
N
353.488 202.705 M
355.287 202.506 L
356.756 202.404 L
357.985 202.354 L
359.295 202.329 L
360.926 202.332 L
362.781 202.371 L
364.091 202.415 L
365.4 202.469 L
367.008 202.544 L
368.843 202.637 L
370.507 202.723 L
371.839 202.791 L
373.07 202.852 L
374.514 202.921 L
376.281 202.998 L
378.086 203.069 L
379.569 203.121 L
380.802 203.159 L
382.104 203.194 L
383.722 203.231 L
385.575 203.264 L
386.895 203.282 L
388.214 203.295 L
389.822 203.306 L
391.644 203.312 L
393.299 203.311 L
394.635 203.307 L
395.876 203.3 L
397.327 203.29 L
399.089 203.274 L
400.883 203.254 L
402.362 203.236 L
403.601 203.219 L
404.912 203.2 L
406.532 203.175 L
408.378 203.146 L
409.697 203.125 L
411.017 203.103 L
412.623 203.076 L
414.444 203.046 L
416.099 203.018 L
417.437 202.996 L
418.679 202.976 L
420.129 202.952 L
421.889 202.925 L
423.682 202.897 L
425.162 202.875 L
426.403 202.857 L
427.714 202.839 L
429.333 202.817 L
431.177 202.793 L
S
GR
GS
[0.75 0 0 0.75 0 0] CT
0.494 0.184 0.557 RC
1 LJ
0.667 LW
N
429.333 202.817 M
431.177 202.793 L
432.498 202.777 L
433.819 202.761 L
435.425 202.742 L
437.244 202.722 L
438.898 202.705 L
440.237 202.692 L
441.48 202.681 L
442.931 202.668 L
444.69 202.653 L
446.481 202.639 L
447.961 202.628 L
449.203 202.619 L
450.516 202.611 L
452.135 202.601 L
453.977 202.59 L
455.299 202.583 L
456.62 202.577 L
458.225 202.569 L
460.043 202.561 L
461.697 202.555 L
463.037 202.55 L
464.281 202.546 L
465.731 202.541 L
467.49 202.536 L
469.281 202.532 L
470.761 202.528 L
472.003 202.525 L
473.316 202.523 L
474.935 202.52 L
476.777 202.517 L
478.099 202.515 L
479.421 202.513 L
481.026 202.511 L
482.843 202.509 L
484.497 202.507 L
485.836 202.506 L
487.081 202.505 L
488.532 202.504 L
490.29 202.503 L
492.081 202.502 L
493.561 202.502 L
494.803 202.501 L
496.116 202.501 L
497.735 202.5 L
499.577 202.5 L
500.899 202.5 L
502.221 202.499 L
503.826 202.499 L
505.643 202.499 L
507 202.499 L
S
GR
GS
[0.75 0 0 0.75 0 0] CT
0.494 0.184 0.557 RC
1 LJ
0.667 LW
N
505.643 202.499 M
507 202.499 L
S
GR
GS
[0.75 0 0 0.75 0 0] CT
1 GC
N
418 132 M
418 44 L
494 44 L
494 132 L
cp
f
GR
GS
[0.75 0 0 0.75 352.5 44.25] CT
/Helvetica 12 F
GS
[1 0 0 1 0 0] CT
0 0 moveto 
1 -1 scale
(e1) t 
GR
GR
GS
[0.75 0 0 0.75 363 48.75] CT
/Helvetica 9 F
GS
[1 0 0 1 0 0] CT
0 0 moveto 
1 -1 scale
(1) t 
GR
GR
GS
[0.75 0 0 0.75 0 0] CT
0 0.447 0.741 RC
1 LJ
0.667 LW
N
426 56.763 M
466 56.763 L
S
GR
GS
[0.75 0 0 0.75 352.5 60] CT
/Helvetica 12 F
GS
[1 0 0 1 0 0] CT
0 0 moveto 
1 -1 scale
(e2) t 
GR
GR
GS
[0.75 0 0 0.75 363 64.5] CT
/Helvetica 9 F
GS
[1 0 0 1 0 0] CT
0 0 moveto 
1 -1 scale
(1) t 
GR
GR
GS
[0.75 0 0 0.75 0 0] CT
0.851 0.325 0.098 RC
1 LJ
0.667 LW
N
426 77.588 M
466 77.588 L
S
GR
GS
[0.75 0 0 0.75 352.5 75] CT
/Helvetica 12 F
GS
[1 0 0 1 0 0] CT
0 0 moveto 
1 -1 scale
(e1) t 
GR
GR
GS
[0.75 0 0 0.75 363 79.5] CT
/Helvetica 9 F
GS
[1 0 0 1 0 0] CT
0 0 moveto 
1 -1 scale
(2) t 
GR
GR
GS
[0.75 0 0 0.75 0 0] CT
0.929 0.694 0.125 RC
1 LJ
0.667 LW
N
426 98.412 M
466 98.412 L
S
GR
GS
[0.75 0 0 0.75 352.5 90.75] CT
/Helvetica 12 F
GS
[1 0 0 1 0 0] CT
0 0 moveto 
1 -1 scale
(e2) t 
GR
GR
GS
[0.75 0 0 0.75 363 95.25] CT
/Helvetica 9 F
GS
[1 0 0 1 0 0] CT
0 0 moveto 
1 -1 scale
(2) t 
GR
GR
GS
[0.75 0 0 0.75 0 0] CT
0.494 0.184 0.557 RC
1 LJ
0.667 LW
N
426 119.237 M
466 119.237 L
S
GR
GS
[0.75 0 0 0.75 0 0] CT
0.149 GC
10.0 ML
0.667 LW
N
418 132 M
418 44 L
494 44 L
494 132 L
cp
S
GR
%%Trailer
%%Pages: 1
%%EOF
