%!PS-Adobe-3.0 EPSF-3.0
%%Creator: (MATLAB, The Mathworks, Inc. Version 8.6.0.267246 \(R2015b\). Operating System: Windows 8)
%%Title: E:/Projects/skola/rls/pics/SP5/k2_i_sigma.eps
%%CreationDate: 2017-03-17T09:59:08
%%Pages: (atend)
%%BoundingBox: 0 0 420 315
%%LanguageLevel: 2
%%EndComments
%%BeginProlog
%%BeginResource: procset (Apache XML Graphics Std ProcSet) 1.2 0
%%Version: 1.2 0
%%Copyright: (Copyright 2001-2003,2010 The Apache Software Foundation. License terms: http://www.apache.org/licenses/LICENSE-2.0)
/bd{bind def}bind def
/ld{load def}bd
/GR/grestore ld
/M/moveto ld
/LJ/setlinejoin ld
/C/curveto ld
/f/fill ld
/LW/setlinewidth ld
/GC/setgray ld
/t/show ld
/N/newpath ld
/CT/concat ld
/cp/closepath ld
/S/stroke ld
/L/lineto ld
/CC/setcmykcolor ld
/A/ashow ld
/GS/gsave ld
/RC/setrgbcolor ld
/RM/rmoveto ld
/ML/setmiterlimit ld
/re {4 2 roll M
1 index 0 rlineto
0 exch rlineto
neg 0 rlineto
cp } bd
/_ctm matrix def
/_tm matrix def
/BT { _ctm currentmatrix pop matrix _tm copy pop 0 0 moveto } bd
/ET { _ctm setmatrix } bd
/iTm { _ctm setmatrix _tm concat } bd
/Tm { _tm astore pop iTm 0 0 moveto } bd
/ux 0.0 def
/uy 0.0 def
/F {
  /Tp exch def
  /Tf exch def
  Tf findfont Tp scalefont setfont
  /cf Tf def  /cs Tp def
} bd
/ULS {currentpoint /uy exch def /ux exch def} bd
/ULE {
  /Tcx currentpoint pop def
  gsave
  newpath
  cf findfont cs scalefont dup
  /FontMatrix get 0 get /Ts exch def /FontInfo get dup
  /UnderlinePosition get Ts mul /To exch def
  /UnderlineThickness get Ts mul /Tt exch def
  ux uy To add moveto  Tcx uy To add lineto
  Tt setlinewidth stroke
  grestore
} bd
/OLE {
  /Tcx currentpoint pop def
  gsave
  newpath
  cf findfont cs scalefont dup
  /FontMatrix get 0 get /Ts exch def /FontInfo get dup
  /UnderlinePosition get Ts mul /To exch def
  /UnderlineThickness get Ts mul /Tt exch def
  ux uy To add cs add moveto Tcx uy To add cs add lineto
  Tt setlinewidth stroke
  grestore
} bd
/SOE {
  /Tcx currentpoint pop def
  gsave
  newpath
  cf findfont cs scalefont dup
  /FontMatrix get 0 get /Ts exch def /FontInfo get dup
  /UnderlinePosition get Ts mul /To exch def
  /UnderlineThickness get Ts mul /Tt exch def
  ux uy To add cs 10 mul 26 idiv add moveto Tcx uy To add cs 10 mul 26 idiv add lineto
  Tt setlinewidth stroke
  grestore
} bd
/QT {
/Y22 exch store
/X22 exch store
/Y21 exch store
/X21 exch store
currentpoint
/Y21 load 2 mul add 3 div exch
/X21 load 2 mul add 3 div exch
/X21 load 2 mul /X22 load add 3 div
/Y21 load 2 mul /Y22 load add 3 div
/X22 load /Y22 load curveto
} bd
/SSPD {
dup length /d exch dict def
{
/v exch def
/k exch def
currentpagedevice k known {
/cpdv currentpagedevice k get def
v cpdv ne {
/upd false def
/nullv v type /nulltype eq def
/nullcpdv cpdv type /nulltype eq def
nullv nullcpdv or
{
/upd true def
} {
/sametype v type cpdv type eq def
sametype {
v type /arraytype eq {
/vlen v length def
/cpdvlen cpdv length def
vlen cpdvlen eq {
0 1 vlen 1 sub {
/i exch def
/obj v i get def
/cpdobj cpdv i get def
obj cpdobj ne {
/upd true def
exit
} if
} for
} {
/upd true def
} ifelse
} {
v type /dicttype eq {
v {
/dv exch def
/dk exch def
/cpddv cpdv dk get def
dv cpddv ne {
/upd true def
exit
} if
} forall
} {
/upd true def
} ifelse
} ifelse
} if
} ifelse
upd true eq {
d k v put
} if
} if
} if
} forall
d length 0 gt {
d setpagedevice
} if
} bd
%%EndResource
%%BeginResource: procset (Apache XML Graphics EPS ProcSet) 1.0 0
%%Version: 1.0 0
%%Copyright: (Copyright 2002-2003 The Apache Software Foundation. License terms: http://www.apache.org/licenses/LICENSE-2.0)
/BeginEPSF { %def
/b4_Inc_state save def         % Save state for cleanup
/dict_count countdictstack def % Count objects on dict stack
/op_count count 1 sub def      % Count objects on operand stack
userdict begin                 % Push userdict on dict stack
/showpage { } def              % Redefine showpage, { } = null proc
0 setgray 0 setlinecap         % Prepare graphics state
1 setlinewidth 0 setlinejoin
10 setmiterlimit [ ] 0 setdash newpath
/languagelevel where           % If level not equal to 1 then
{pop languagelevel             % set strokeadjust and
1 ne                           % overprint to their defaults.
{false setstrokeadjust false setoverprint
} if
} if
} bd
/EndEPSF { %def
count op_count sub {pop} repeat            % Clean up stacks
countdictstack dict_count sub {end} repeat
b4_Inc_state restore
} bd
%%EndResource
%FOPBeginFontDict
%%IncludeResource: font Courier-Bold
%%IncludeResource: font Helvetica
%%IncludeResource: font Courier-BoldOblique
%%IncludeResource: font Courier-Oblique
%%IncludeResource: font Times-Roman
%%IncludeResource: font Helvetica-BoldOblique
%%IncludeResource: font Helvetica-Bold
%%IncludeResource: font Helvetica-Oblique
%%IncludeResource: font Times-BoldItalic
%%IncludeResource: font Courier
%%IncludeResource: font Times-Italic
%%IncludeResource: font Times-Bold
%%IncludeResource: font Symbol
%%IncludeResource: font ZapfDingbats
%FOPEndFontDict
%%BeginResource: encoding WinAnsiEncoding
/WinAnsiEncoding [
/.notdef /.notdef /.notdef /.notdef /.notdef
/.notdef /.notdef /.notdef /.notdef /.notdef
/.notdef /.notdef /.notdef /.notdef /.notdef
/.notdef /.notdef /.notdef /.notdef /.notdef
/.notdef /.notdef /.notdef /.notdef /.notdef
/.notdef /.notdef /.notdef /.notdef /.notdef
/.notdef /.notdef /space /exclam /quotedbl
/numbersign /dollar /percent /ampersand /quotesingle
/parenleft /parenright /asterisk /plus /comma
/hyphen /period /slash /zero /one
/two /three /four /five /six
/seven /eight /nine /colon /semicolon
/less /equal /greater /question /at
/A /B /C /D /E
/F /G /H /I /J
/K /L /M /N /O
/P /Q /R /S /T
/U /V /W /X /Y
/Z /bracketleft /backslash /bracketright /asciicircum
/underscore /quoteleft /a /b /c
/d /e /f /g /h
/i /j /k /l /m
/n /o /p /q /r
/s /t /u /v /w
/x /y /z /braceleft /bar
/braceright /asciitilde /bullet /Euro /bullet
/quotesinglbase /florin /quotedblbase /ellipsis /dagger
/daggerdbl /circumflex /perthousand /Scaron /guilsinglleft
/OE /bullet /Zcaron /bullet /bullet
/quoteleft /quoteright /quotedblleft /quotedblright /bullet
/endash /emdash /asciitilde /trademark /scaron
/guilsinglright /oe /bullet /zcaron /Ydieresis
/space /exclamdown /cent /sterling /currency
/yen /brokenbar /section /dieresis /copyright
/ordfeminine /guillemotleft /logicalnot /sfthyphen /registered
/macron /degree /plusminus /twosuperior /threesuperior
/acute /mu /paragraph /middot /cedilla
/onesuperior /ordmasculine /guillemotright /onequarter /onehalf
/threequarters /questiondown /Agrave /Aacute /Acircumflex
/Atilde /Adieresis /Aring /AE /Ccedilla
/Egrave /Eacute /Ecircumflex /Edieresis /Igrave
/Iacute /Icircumflex /Idieresis /Eth /Ntilde
/Ograve /Oacute /Ocircumflex /Otilde /Odieresis
/multiply /Oslash /Ugrave /Uacute /Ucircumflex
/Udieresis /Yacute /Thorn /germandbls /agrave
/aacute /acircumflex /atilde /adieresis /aring
/ae /ccedilla /egrave /eacute /ecircumflex
/edieresis /igrave /iacute /icircumflex /idieresis
/eth /ntilde /ograve /oacute /ocircumflex
/otilde /odieresis /divide /oslash /ugrave
/uacute /ucircumflex /udieresis /yacute /thorn
/ydieresis
] def
%%EndResource
%FOPBeginFontReencode
/Courier-Bold findfont
dup length dict begin
  {1 index /FID ne {def} {pop pop} ifelse} forall
  /Encoding WinAnsiEncoding def
  currentdict
end
/Courier-Bold exch definefont pop
/Helvetica findfont
dup length dict begin
  {1 index /FID ne {def} {pop pop} ifelse} forall
  /Encoding WinAnsiEncoding def
  currentdict
end
/Helvetica exch definefont pop
/Courier-BoldOblique findfont
dup length dict begin
  {1 index /FID ne {def} {pop pop} ifelse} forall
  /Encoding WinAnsiEncoding def
  currentdict
end
/Courier-BoldOblique exch definefont pop
/Courier-Oblique findfont
dup length dict begin
  {1 index /FID ne {def} {pop pop} ifelse} forall
  /Encoding WinAnsiEncoding def
  currentdict
end
/Courier-Oblique exch definefont pop
/Times-Roman findfont
dup length dict begin
  {1 index /FID ne {def} {pop pop} ifelse} forall
  /Encoding WinAnsiEncoding def
  currentdict
end
/Times-Roman exch definefont pop
/Helvetica-BoldOblique findfont
dup length dict begin
  {1 index /FID ne {def} {pop pop} ifelse} forall
  /Encoding WinAnsiEncoding def
  currentdict
end
/Helvetica-BoldOblique exch definefont pop
/Helvetica-Bold findfont
dup length dict begin
  {1 index /FID ne {def} {pop pop} ifelse} forall
  /Encoding WinAnsiEncoding def
  currentdict
end
/Helvetica-Bold exch definefont pop
/Helvetica-Oblique findfont
dup length dict begin
  {1 index /FID ne {def} {pop pop} ifelse} forall
  /Encoding WinAnsiEncoding def
  currentdict
end
/Helvetica-Oblique exch definefont pop
/Times-BoldItalic findfont
dup length dict begin
  {1 index /FID ne {def} {pop pop} ifelse} forall
  /Encoding WinAnsiEncoding def
  currentdict
end
/Times-BoldItalic exch definefont pop
/Courier findfont
dup length dict begin
  {1 index /FID ne {def} {pop pop} ifelse} forall
  /Encoding WinAnsiEncoding def
  currentdict
end
/Courier exch definefont pop
/Times-Italic findfont
dup length dict begin
  {1 index /FID ne {def} {pop pop} ifelse} forall
  /Encoding WinAnsiEncoding def
  currentdict
end
/Times-Italic exch definefont pop
/Times-Bold findfont
dup length dict begin
  {1 index /FID ne {def} {pop pop} ifelse} forall
  /Encoding WinAnsiEncoding def
  currentdict
end
/Times-Bold exch definefont pop
%FOPEndFontReencode
%%EndProlog
%%Page: 1 1
%%PageBoundingBox: 0 0 420 315
%%BeginPageSetup
[1 0 0 -1 0 315] CT
%%EndPageSetup
GS
[0.75 0 0 0.75 0 0] CT
1 GC
N
0 0 560 420 re
f
GR
GS
[0.75 0 0 0.75 0 0] CT
1 GC
N
0 0 560 420 re
f
GR
GS
[0.75 0 0 0.75 0 0] CT
1 GC
N
85 374 M
507 374 L
507 51 L
85 51 L
cp
f
GR
GS
[0.75 0 0 0.75 0 0] CT
0.4 GC
2 setlinecap
1 LJ
0.667 LW
N
85 374 M
507 374 L
S
GR
GS
[0.75 0 0 0.75 0 0] CT
0.4 GC
2 setlinecap
1 LJ
0.667 LW
N
85 51 M
507 51 L
S
GR
GS
[0.75 0 0 0.75 0 0] CT
0.4 GC
2 setlinecap
1 LJ
0.667 LW
N
85 374 M
85 369.78 L
S
GR
GS
[0.75 0 0 0.75 0 0] CT
0.4 GC
2 setlinecap
1 LJ
0.667 LW
N
169.4 374 M
169.4 369.78 L
S
GR
GS
[0.75 0 0 0.75 0 0] CT
0.4 GC
2 setlinecap
1 LJ
0.667 LW
N
253.8 374 M
253.8 369.78 L
S
GR
GS
[0.75 0 0 0.75 0 0] CT
0.4 GC
2 setlinecap
1 LJ
0.667 LW
N
338.2 374 M
338.2 369.78 L
S
GR
GS
[0.75 0 0 0.75 0 0] CT
0.4 GC
2 setlinecap
1 LJ
0.667 LW
N
422.6 374 M
422.6 369.78 L
S
GR
GS
[0.75 0 0 0.75 0 0] CT
0.4 GC
2 setlinecap
1 LJ
0.667 LW
N
507 374 M
507 369.78 L
S
GR
GS
[0.75 0 0 0.75 0 0] CT
0.4 GC
2 setlinecap
1 LJ
0.667 LW
N
85 51 M
85 55.22 L
S
GR
GS
[0.75 0 0 0.75 0 0] CT
0.4 GC
2 setlinecap
1 LJ
0.667 LW
N
169.4 51 M
169.4 55.22 L
S
GR
GS
[0.75 0 0 0.75 0 0] CT
0.4 GC
2 setlinecap
1 LJ
0.667 LW
N
253.8 51 M
253.8 55.22 L
S
GR
GS
[0.75 0 0 0.75 0 0] CT
0.4 GC
2 setlinecap
1 LJ
0.667 LW
N
338.2 51 M
338.2 55.22 L
S
GR
GS
[0.75 0 0 0.75 0 0] CT
0.4 GC
2 setlinecap
1 LJ
0.667 LW
N
422.6 51 M
422.6 55.22 L
S
GR
GS
[0.75 0 0 0.75 0 0] CT
0.4 GC
2 setlinecap
1 LJ
0.667 LW
N
507 51 M
507 55.22 L
S
GR
GS
[0.75 0 0 0.75 0 0] CT
0.4 GC
2 setlinecap
1 LJ
0.667 LW
N
110.407 374 M
110.407 371.89 L
S
GR
GS
[0.75 0 0 0.75 0 0] CT
0.4 GC
2 setlinecap
1 LJ
0.667 LW
N
125.269 374 M
125.269 371.89 L
S
GR
GS
[0.75 0 0 0.75 0 0] CT
0.4 GC
2 setlinecap
1 LJ
0.667 LW
N
135.814 374 M
135.814 371.89 L
S
GR
GS
[0.75 0 0 0.75 0 0] CT
0.4 GC
2 setlinecap
1 LJ
0.667 LW
N
143.993 374 M
143.993 371.89 L
S
GR
GS
[0.75 0 0 0.75 0 0] CT
0.4 GC
2 setlinecap
1 LJ
0.667 LW
N
150.676 374 M
150.676 371.89 L
S
GR
GS
[0.75 0 0 0.75 0 0] CT
0.4 GC
2 setlinecap
1 LJ
0.667 LW
N
156.326 374 M
156.326 371.89 L
S
GR
GS
[0.75 0 0 0.75 0 0] CT
0.4 GC
2 setlinecap
1 LJ
0.667 LW
N
161.221 374 M
161.221 371.89 L
S
GR
GS
[0.75 0 0 0.75 0 0] CT
0.4 GC
2 setlinecap
1 LJ
0.667 LW
N
165.538 374 M
165.538 371.89 L
S
GR
GS
[0.75 0 0 0.75 0 0] CT
0.4 GC
2 setlinecap
1 LJ
0.667 LW
N
194.807 374 M
194.807 371.89 L
S
GR
GS
[0.75 0 0 0.75 0 0] CT
0.4 GC
2 setlinecap
1 LJ
0.667 LW
N
209.669 374 M
209.669 371.89 L
S
GR
GS
[0.75 0 0 0.75 0 0] CT
0.4 GC
2 setlinecap
1 LJ
0.667 LW
N
220.214 374 M
220.214 371.89 L
S
GR
GS
[0.75 0 0 0.75 0 0] CT
0.4 GC
2 setlinecap
1 LJ
0.667 LW
N
228.393 374 M
228.393 371.89 L
S
GR
GS
[0.75 0 0 0.75 0 0] CT
0.4 GC
2 setlinecap
1 LJ
0.667 LW
N
235.076 374 M
235.076 371.89 L
S
GR
GS
[0.75 0 0 0.75 0 0] CT
0.4 GC
2 setlinecap
1 LJ
0.667 LW
N
240.726 374 M
240.726 371.89 L
S
GR
GS
[0.75 0 0 0.75 0 0] CT
0.4 GC
2 setlinecap
1 LJ
0.667 LW
N
245.621 374 M
245.621 371.89 L
S
GR
GS
[0.75 0 0 0.75 0 0] CT
0.4 GC
2 setlinecap
1 LJ
0.667 LW
N
249.938 374 M
249.938 371.89 L
S
GR
GS
[0.75 0 0 0.75 0 0] CT
0.4 GC
2 setlinecap
1 LJ
0.667 LW
N
279.207 374 M
279.207 371.89 L
S
GR
GS
[0.75 0 0 0.75 0 0] CT
0.4 GC
2 setlinecap
1 LJ
0.667 LW
N
294.069 374 M
294.069 371.89 L
S
GR
GS
[0.75 0 0 0.75 0 0] CT
0.4 GC
2 setlinecap
1 LJ
0.667 LW
N
304.614 374 M
304.614 371.89 L
S
GR
GS
[0.75 0 0 0.75 0 0] CT
0.4 GC
2 setlinecap
1 LJ
0.667 LW
N
312.793 374 M
312.793 371.89 L
S
GR
GS
[0.75 0 0 0.75 0 0] CT
0.4 GC
2 setlinecap
1 LJ
0.667 LW
N
319.476 374 M
319.476 371.89 L
S
GR
GS
[0.75 0 0 0.75 0 0] CT
0.4 GC
2 setlinecap
1 LJ
0.667 LW
N
325.126 374 M
325.126 371.89 L
S
GR
GS
[0.75 0 0 0.75 0 0] CT
0.4 GC
2 setlinecap
1 LJ
0.667 LW
N
330.021 374 M
330.021 371.89 L
S
GR
GS
[0.75 0 0 0.75 0 0] CT
0.4 GC
2 setlinecap
1 LJ
0.667 LW
N
334.338 374 M
334.338 371.89 L
S
GR
GS
[0.75 0 0 0.75 0 0] CT
0.4 GC
2 setlinecap
1 LJ
0.667 LW
N
363.607 374 M
363.607 371.89 L
S
GR
GS
[0.75 0 0 0.75 0 0] CT
0.4 GC
2 setlinecap
1 LJ
0.667 LW
N
378.469 374 M
378.469 371.89 L
S
GR
GS
[0.75 0 0 0.75 0 0] CT
0.4 GC
2 setlinecap
1 LJ
0.667 LW
N
389.014 374 M
389.014 371.89 L
S
GR
GS
[0.75 0 0 0.75 0 0] CT
0.4 GC
2 setlinecap
1 LJ
0.667 LW
N
397.193 374 M
397.193 371.89 L
S
GR
GS
[0.75 0 0 0.75 0 0] CT
0.4 GC
2 setlinecap
1 LJ
0.667 LW
N
403.876 374 M
403.876 371.89 L
S
GR
GS
[0.75 0 0 0.75 0 0] CT
0.4 GC
2 setlinecap
1 LJ
0.667 LW
N
409.526 374 M
409.526 371.89 L
S
GR
GS
[0.75 0 0 0.75 0 0] CT
0.4 GC
2 setlinecap
1 LJ
0.667 LW
N
414.421 374 M
414.421 371.89 L
S
GR
GS
[0.75 0 0 0.75 0 0] CT
0.4 GC
2 setlinecap
1 LJ
0.667 LW
N
418.738 374 M
418.738 371.89 L
S
GR
GS
[0.75 0 0 0.75 0 0] CT
0.4 GC
2 setlinecap
1 LJ
0.667 LW
N
448.007 374 M
448.007 371.89 L
S
GR
GS
[0.75 0 0 0.75 0 0] CT
0.4 GC
2 setlinecap
1 LJ
0.667 LW
N
462.869 374 M
462.869 371.89 L
S
GR
GS
[0.75 0 0 0.75 0 0] CT
0.4 GC
2 setlinecap
1 LJ
0.667 LW
N
473.414 374 M
473.414 371.89 L
S
GR
GS
[0.75 0 0 0.75 0 0] CT
0.4 GC
2 setlinecap
1 LJ
0.667 LW
N
481.593 374 M
481.593 371.89 L
S
GR
GS
[0.75 0 0 0.75 0 0] CT
0.4 GC
2 setlinecap
1 LJ
0.667 LW
N
488.276 374 M
488.276 371.89 L
S
GR
GS
[0.75 0 0 0.75 0 0] CT
0.4 GC
2 setlinecap
1 LJ
0.667 LW
N
493.926 374 M
493.926 371.89 L
S
GR
GS
[0.75 0 0 0.75 0 0] CT
0.4 GC
2 setlinecap
1 LJ
0.667 LW
N
498.821 374 M
498.821 371.89 L
S
GR
GS
[0.75 0 0 0.75 0 0] CT
0.4 GC
2 setlinecap
1 LJ
0.667 LW
N
503.138 374 M
503.138 371.89 L
S
GR
GS
[0.75 0 0 0.75 0 0] CT
0.4 GC
2 setlinecap
1 LJ
0.667 LW
N
110.407 51 M
110.407 53.11 L
S
GR
GS
[0.75 0 0 0.75 0 0] CT
0.4 GC
2 setlinecap
1 LJ
0.667 LW
N
125.269 51 M
125.269 53.11 L
S
GR
GS
[0.75 0 0 0.75 0 0] CT
0.4 GC
2 setlinecap
1 LJ
0.667 LW
N
135.814 51 M
135.814 53.11 L
S
GR
GS
[0.75 0 0 0.75 0 0] CT
0.4 GC
2 setlinecap
1 LJ
0.667 LW
N
143.993 51 M
143.993 53.11 L
S
GR
GS
[0.75 0 0 0.75 0 0] CT
0.4 GC
2 setlinecap
1 LJ
0.667 LW
N
150.676 51 M
150.676 53.11 L
S
GR
GS
[0.75 0 0 0.75 0 0] CT
0.4 GC
2 setlinecap
1 LJ
0.667 LW
N
156.326 51 M
156.326 53.11 L
S
GR
GS
[0.75 0 0 0.75 0 0] CT
0.4 GC
2 setlinecap
1 LJ
0.667 LW
N
161.221 51 M
161.221 53.11 L
S
GR
GS
[0.75 0 0 0.75 0 0] CT
0.4 GC
2 setlinecap
1 LJ
0.667 LW
N
165.538 51 M
165.538 53.11 L
S
GR
GS
[0.75 0 0 0.75 0 0] CT
0.4 GC
2 setlinecap
1 LJ
0.667 LW
N
194.807 51 M
194.807 53.11 L
S
GR
GS
[0.75 0 0 0.75 0 0] CT
0.4 GC
2 setlinecap
1 LJ
0.667 LW
N
209.669 51 M
209.669 53.11 L
S
GR
GS
[0.75 0 0 0.75 0 0] CT
0.4 GC
2 setlinecap
1 LJ
0.667 LW
N
220.214 51 M
220.214 53.11 L
S
GR
GS
[0.75 0 0 0.75 0 0] CT
0.4 GC
2 setlinecap
1 LJ
0.667 LW
N
228.393 51 M
228.393 53.11 L
S
GR
GS
[0.75 0 0 0.75 0 0] CT
0.4 GC
2 setlinecap
1 LJ
0.667 LW
N
235.076 51 M
235.076 53.11 L
S
GR
GS
[0.75 0 0 0.75 0 0] CT
0.4 GC
2 setlinecap
1 LJ
0.667 LW
N
240.726 51 M
240.726 53.11 L
S
GR
GS
[0.75 0 0 0.75 0 0] CT
0.4 GC
2 setlinecap
1 LJ
0.667 LW
N
245.621 51 M
245.621 53.11 L
S
GR
GS
[0.75 0 0 0.75 0 0] CT
0.4 GC
2 setlinecap
1 LJ
0.667 LW
N
249.938 51 M
249.938 53.11 L
S
GR
GS
[0.75 0 0 0.75 0 0] CT
0.4 GC
2 setlinecap
1 LJ
0.667 LW
N
279.207 51 M
279.207 53.11 L
S
GR
GS
[0.75 0 0 0.75 0 0] CT
0.4 GC
2 setlinecap
1 LJ
0.667 LW
N
294.069 51 M
294.069 53.11 L
S
GR
GS
[0.75 0 0 0.75 0 0] CT
0.4 GC
2 setlinecap
1 LJ
0.667 LW
N
304.614 51 M
304.614 53.11 L
S
GR
GS
[0.75 0 0 0.75 0 0] CT
0.4 GC
2 setlinecap
1 LJ
0.667 LW
N
312.793 51 M
312.793 53.11 L
S
GR
GS
[0.75 0 0 0.75 0 0] CT
0.4 GC
2 setlinecap
1 LJ
0.667 LW
N
319.476 51 M
319.476 53.11 L
S
GR
GS
[0.75 0 0 0.75 0 0] CT
0.4 GC
2 setlinecap
1 LJ
0.667 LW
N
325.126 51 M
325.126 53.11 L
S
GR
GS
[0.75 0 0 0.75 0 0] CT
0.4 GC
2 setlinecap
1 LJ
0.667 LW
N
330.021 51 M
330.021 53.11 L
S
GR
GS
[0.75 0 0 0.75 0 0] CT
0.4 GC
2 setlinecap
1 LJ
0.667 LW
N
334.338 51 M
334.338 53.11 L
S
GR
GS
[0.75 0 0 0.75 0 0] CT
0.4 GC
2 setlinecap
1 LJ
0.667 LW
N
363.607 51 M
363.607 53.11 L
S
GR
GS
[0.75 0 0 0.75 0 0] CT
0.4 GC
2 setlinecap
1 LJ
0.667 LW
N
378.469 51 M
378.469 53.11 L
S
GR
GS
[0.75 0 0 0.75 0 0] CT
0.4 GC
2 setlinecap
1 LJ
0.667 LW
N
389.014 51 M
389.014 53.11 L
S
GR
GS
[0.75 0 0 0.75 0 0] CT
0.4 GC
2 setlinecap
1 LJ
0.667 LW
N
397.193 51 M
397.193 53.11 L
S
GR
GS
[0.75 0 0 0.75 0 0] CT
0.4 GC
2 setlinecap
1 LJ
0.667 LW
N
403.876 51 M
403.876 53.11 L
S
GR
GS
[0.75 0 0 0.75 0 0] CT
0.4 GC
2 setlinecap
1 LJ
0.667 LW
N
409.526 51 M
409.526 53.11 L
S
GR
GS
[0.75 0 0 0.75 0 0] CT
0.4 GC
2 setlinecap
1 LJ
0.667 LW
N
414.421 51 M
414.421 53.11 L
S
GR
GS
[0.75 0 0 0.75 0 0] CT
0.4 GC
2 setlinecap
1 LJ
0.667 LW
N
418.738 51 M
418.738 53.11 L
S
GR
GS
[0.75 0 0 0.75 0 0] CT
0.4 GC
2 setlinecap
1 LJ
0.667 LW
N
448.007 51 M
448.007 53.11 L
S
GR
GS
[0.75 0 0 0.75 0 0] CT
0.4 GC
2 setlinecap
1 LJ
0.667 LW
N
462.869 51 M
462.869 53.11 L
S
GR
GS
[0.75 0 0 0.75 0 0] CT
0.4 GC
2 setlinecap
1 LJ
0.667 LW
N
473.414 51 M
473.414 53.11 L
S
GR
GS
[0.75 0 0 0.75 0 0] CT
0.4 GC
2 setlinecap
1 LJ
0.667 LW
N
481.593 51 M
481.593 53.11 L
S
GR
GS
[0.75 0 0 0.75 0 0] CT
0.4 GC
2 setlinecap
1 LJ
0.667 LW
N
488.276 51 M
488.276 53.11 L
S
GR
GS
[0.75 0 0 0.75 0 0] CT
0.4 GC
2 setlinecap
1 LJ
0.667 LW
N
493.926 51 M
493.926 53.11 L
S
GR
GS
[0.75 0 0 0.75 0 0] CT
0.4 GC
2 setlinecap
1 LJ
0.667 LW
N
498.821 51 M
498.821 53.11 L
S
GR
GS
[0.75 0 0 0.75 0 0] CT
0.4 GC
2 setlinecap
1 LJ
0.667 LW
N
503.138 51 M
503.138 53.11 L
S
GR
GS
[0.75 0 0 0.75 54 297] CT
0.4 GC
/Helvetica 13 F
GS
[1 0 0 1 0 0] CT
0 0 moveto 
1 -1 scale
(10) t 
GR
GR
GS
[0.75 0 0 0.75 65.25 292.5] CT
0.4 GC
/Helvetica 11 F
GS
[1 0 0 1 0 0] CT
0 0 moveto 
1 -1 scale
(-4) t 
GR
GR
GS
[0.75 0 0 0.75 117 297] CT
0.4 GC
/Helvetica 13 F
GS
[1 0 0 1 0 0] CT
0 0 moveto 
1 -1 scale
(10) t 
GR
GR
GS
[0.75 0 0 0.75 128.25 292.5] CT
0.4 GC
/Helvetica 11 F
GS
[1 0 0 1 0 0] CT
0 0 moveto 
1 -1 scale
(-3) t 
GR
GR
GS
[0.75 0 0 0.75 180.75 297] CT
0.4 GC
/Helvetica 13 F
GS
[1 0 0 1 0 0] CT
0 0 moveto 
1 -1 scale
(10) t 
GR
GR
GS
[0.75 0 0 0.75 192 292.5] CT
0.4 GC
/Helvetica 11 F
GS
[1 0 0 1 0 0] CT
0 0 moveto 
1 -1 scale
(-2) t 
GR
GR
GS
[0.75 0 0 0.75 243.75 297] CT
0.4 GC
/Helvetica 13 F
GS
[1 0 0 1 0 0] CT
0 0 moveto 
1 -1 scale
(10) t 
GR
GR
GS
[0.75 0 0 0.75 255 292.5] CT
0.4 GC
/Helvetica 11 F
GS
[1 0 0 1 0 0] CT
0 0 moveto 
1 -1 scale
(-1) t 
GR
GR
GS
[0.75 0 0 0.75 309 297] CT
0.4 GC
/Helvetica 13 F
GS
[1 0 0 1 0 0] CT
0 0 moveto 
1 -1 scale
(10) t 
GR
GR
GS
[0.75 0 0 0.75 320.25 292.5] CT
0.4 GC
/Helvetica 11 F
GS
[1 0 0 1 0 0] CT
0 0 moveto 
1 -1 scale
(0) t 
GR
GR
GS
[0.75 0 0 0.75 372 297] CT
0.4 GC
/Helvetica 13 F
GS
[1 0 0 1 0 0] CT
0 0 moveto 
1 -1 scale
(10) t 
GR
GR
GS
[0.75 0 0 0.75 383.25 292.5] CT
0.4 GC
/Helvetica 11 F
GS
[1 0 0 1 0 0] CT
0 0 moveto 
1 -1 scale
(1) t 
GR
GR
GS
[0.75 0 0 0.75 0 0] CT
0.4 GC
2 setlinecap
1 LJ
0.667 LW
N
85 374 M
85 51 L
S
GR
GS
[0.75 0 0 0.75 0 0] CT
0.4 GC
2 setlinecap
1 LJ
0.667 LW
N
507 374 M
507 51 L
S
GR
GS
[0.75 0 0 0.75 0 0] CT
0.4 GC
2 setlinecap
1 LJ
0.667 LW
N
85 374 M
89.22 374 L
S
GR
GS
[0.75 0 0 0.75 0 0] CT
0.4 GC
2 setlinecap
1 LJ
0.667 LW
N
85 341.7 M
89.22 341.7 L
S
GR
GS
[0.75 0 0 0.75 0 0] CT
0.4 GC
2 setlinecap
1 LJ
0.667 LW
N
85 309.4 M
89.22 309.4 L
S
GR
GS
[0.75 0 0 0.75 0 0] CT
0.4 GC
2 setlinecap
1 LJ
0.667 LW
N
85 277.1 M
89.22 277.1 L
S
GR
GS
[0.75 0 0 0.75 0 0] CT
0.4 GC
2 setlinecap
1 LJ
0.667 LW
N
85 244.8 M
89.22 244.8 L
S
GR
GS
[0.75 0 0 0.75 0 0] CT
0.4 GC
2 setlinecap
1 LJ
0.667 LW
N
85 212.5 M
89.22 212.5 L
S
GR
GS
[0.75 0 0 0.75 0 0] CT
0.4 GC
2 setlinecap
1 LJ
0.667 LW
N
85 180.2 M
89.22 180.2 L
S
GR
GS
[0.75 0 0 0.75 0 0] CT
0.4 GC
2 setlinecap
1 LJ
0.667 LW
N
85 147.9 M
89.22 147.9 L
S
GR
GS
[0.75 0 0 0.75 0 0] CT
0.4 GC
2 setlinecap
1 LJ
0.667 LW
N
85 115.6 M
89.22 115.6 L
S
GR
GS
[0.75 0 0 0.75 0 0] CT
0.4 GC
2 setlinecap
1 LJ
0.667 LW
N
85 83.3 M
89.22 83.3 L
S
GR
GS
[0.75 0 0 0.75 0 0] CT
0.4 GC
2 setlinecap
1 LJ
0.667 LW
N
85 51 M
89.22 51 L
S
GR
GS
[0.75 0 0 0.75 0 0] CT
0.4 GC
2 setlinecap
1 LJ
0.667 LW
N
507 374 M
502.78 374 L
S
GR
GS
[0.75 0 0 0.75 0 0] CT
0.4 GC
2 setlinecap
1 LJ
0.667 LW
N
507 341.7 M
502.78 341.7 L
S
GR
GS
[0.75 0 0 0.75 0 0] CT
0.4 GC
2 setlinecap
1 LJ
0.667 LW
N
507 309.4 M
502.78 309.4 L
S
GR
GS
[0.75 0 0 0.75 0 0] CT
0.4 GC
2 setlinecap
1 LJ
0.667 LW
N
507 277.1 M
502.78 277.1 L
S
GR
GS
[0.75 0 0 0.75 0 0] CT
0.4 GC
2 setlinecap
1 LJ
0.667 LW
N
507 244.8 M
502.78 244.8 L
S
GR
GS
[0.75 0 0 0.75 0 0] CT
0.4 GC
2 setlinecap
1 LJ
0.667 LW
N
507 212.5 M
502.78 212.5 L
S
GR
GS
[0.75 0 0 0.75 0 0] CT
0.4 GC
2 setlinecap
1 LJ
0.667 LW
N
507 180.2 M
502.78 180.2 L
S
GR
GS
[0.75 0 0 0.75 0 0] CT
0.4 GC
2 setlinecap
1 LJ
0.667 LW
N
507 147.9 M
502.78 147.9 L
S
GR
GS
[0.75 0 0 0.75 0 0] CT
0.4 GC
2 setlinecap
1 LJ
0.667 LW
N
507 115.6 M
502.78 115.6 L
S
GR
GS
[0.75 0 0 0.75 0 0] CT
0.4 GC
2 setlinecap
1 LJ
0.667 LW
N
507 83.3 M
502.78 83.3 L
S
GR
GS
[0.75 0 0 0.75 0 0] CT
0.4 GC
2 setlinecap
1 LJ
0.667 LW
N
507 51 M
502.78 51 L
S
GR
GS
[0.75 0 0 0.75 59.75 280.5] CT
0.4 GC
/Helvetica 13 F
GS
[1 0 0 1 0 0] CT
-27 5 moveto 
1 -1 scale
(-100) t 
GR
GR
GS
[0.75 0 0 0.75 59.75 256.27501] CT
0.4 GC
/Helvetica 13 F
GS
[1 0 0 1 0 0] CT
-19 5 moveto 
1 -1 scale
(-80) t 
GR
GR
GS
[0.75 0 0 0.75 59.75 232.05] CT
0.4 GC
/Helvetica 13 F
GS
[1 0 0 1 0 0] CT
-19 5 moveto 
1 -1 scale
(-60) t 
GR
GR
GS
[0.75 0 0 0.75 59.75 207.825] CT
0.4 GC
/Helvetica 13 F
GS
[1 0 0 1 0 0] CT
-19 5 moveto 
1 -1 scale
(-40) t 
GR
GR
GS
[0.75 0 0 0.75 59.75 183.6] CT
0.4 GC
/Helvetica 13 F
GS
[1 0 0 1 0 0] CT
-19 5 moveto 
1 -1 scale
(-20) t 
GR
GR
GS
[0.75 0 0 0.75 59.75 159.375] CT
0.4 GC
/Helvetica 13 F
GS
[1 0 0 1 0 0] CT
-8 5 moveto 
1 -1 scale
(0) t 
GR
GR
GS
[0.75 0 0 0.75 59.75 135.15] CT
0.4 GC
/Helvetica 13 F
GS
[1 0 0 1 0 0] CT
-15 5 moveto 
1 -1 scale
(20) t 
GR
GR
GS
[0.75 0 0 0.75 59.75 110.92501] CT
0.4 GC
/Helvetica 13 F
GS
[1 0 0 1 0 0] CT
-15 5 moveto 
1 -1 scale
(40) t 
GR
GR
GS
[0.75 0 0 0.75 59.75 86.7] CT
0.4 GC
/Helvetica 13 F
GS
[1 0 0 1 0 0] CT
-15 5 moveto 
1 -1 scale
(60) t 
GR
GR
GS
[0.75 0 0 0.75 59.75 62.47501] CT
0.4 GC
/Helvetica 13 F
GS
[1 0 0 1 0 0] CT
-15 5 moveto 
1 -1 scale
(80) t 
GR
GR
GS
[0.75 0 0 0.75 59.75 38.25] CT
0.4 GC
/Helvetica 13 F
GS
[1 0 0 1 0 0] CT
-22 5 moveto 
1 -1 scale
(100) t 
GR
GR
GS
[0.75 0 0 0.75 0 0] CT
0 0.447 0.741 RC
1 LJ
0.667 LW
N
84.958 282.652 M
108.347 273.701 L
117.436 270.222 L
123.076 268.064 L
128.716 265.906 L
134.355 263.747 L
139.995 261.589 L
145.635 259.431 L
151.275 257.272 L
156.915 255.114 L
162.554 252.956 L
168.194 250.797 L
173.834 248.639 L
179.474 246.481 L
185.113 244.323 L
190.753 242.165 L
196.393 240.007 L
202.033 237.85 L
207.673 235.693 L
213.312 233.537 L
218.952 231.382 L
224.592 229.231 L
230.232 227.084 L
235.872 224.946 L
241.511 222.823 L
247.151 220.728 L
252.791 218.678 L
258.431 216.707 L
264.071 214.864 L
269.71 213.218 L
275.35 211.851 L
280.99 210.839 L
286.63 210.219 L
292.269 209.964 L
297.909 209.995 L
303.549 209.78 L
309.189 209.212 L
314.829 209.081 L
320.468 209.279 L
326.108 209.67 L
331.748 210.136 L
337.388 210.597 L
343.028 211.011 L
348.667 211.36 L
354.307 211.642 L
359.947 211.863 L
365.587 212.032 L
371.227 212.159 L
376.866 212.253 L
382.506 212.322 L
S
GR
GS
[0.75 0 0 0.75 0 0] CT
0 0.447 0.741 RC
1 LJ
0.667 LW
N
376.866 212.253 M
382.506 212.322 L
388.146 212.372 L
393.786 212.408 L
399.425 212.434 L
405.065 212.453 L
410.705 212.466 L
416.345 212.475 L
421.985 212.482 L
427.624 212.487 L
433.264 212.491 L
438.904 212.493 L
444.544 212.495 L
450.184 212.496 L
455.823 212.497 L
461.463 212.498 L
467.103 212.499 L
472.743 212.499 L
478.383 212.499 L
484.022 212.499 L
489.662 212.5 L
495.302 212.5 L
500.942 212.5 L
506.581 212.5 L
507.042 212.5 L
S
GR
GS
[0.75 0 0 0.75 0 0] CT
0 0.447 0.741 RC
1 LJ
0.667 LW
N
84.958 291.148 M
108.347 282.197 L
117.436 278.718 L
123.076 276.56 L
128.716 274.402 L
134.355 272.243 L
139.995 270.085 L
145.635 267.926 L
151.275 265.768 L
156.915 263.609 L
162.554 261.451 L
168.194 259.292 L
173.834 257.133 L
179.474 254.974 L
185.113 252.815 L
190.753 250.656 L
196.393 248.496 L
202.033 246.336 L
207.673 244.175 L
213.312 242.013 L
218.952 239.85 L
224.592 237.685 L
230.232 235.518 L
235.872 233.349 L
241.511 231.176 L
247.151 229 L
252.791 226.821 L
258.431 224.639 L
264.071 222.458 L
269.71 220.287 L
275.35 218.143 L
280.99 216.056 L
286.63 214.082 L
292.269 212.307 L
297.909 210.843 L
303.549 210.228 L
309.189 210.531 L
314.829 210.861 L
320.468 211.172 L
326.108 211.444 L
331.748 211.671 L
337.388 211.853 L
343.028 211.997 L
348.667 212.109 L
354.307 212.195 L
359.947 212.263 L
365.587 212.315 L
371.227 212.355 L
376.866 212.387 L
382.506 212.412 L
S
GR
GS
[0.75 0 0 0.75 0 0] CT
0 0.447 0.741 RC
1 LJ
0.667 LW
N
376.866 212.387 M
382.506 212.412 L
388.146 212.432 L
393.786 212.447 L
399.425 212.46 L
405.065 212.469 L
410.705 212.477 L
416.345 212.482 L
421.985 212.487 L
427.624 212.49 L
433.264 212.493 L
438.904 212.494 L
444.544 212.496 L
450.184 212.497 L
455.823 212.498 L
461.463 212.498 L
467.103 212.499 L
472.743 212.499 L
478.383 212.499 L
484.022 212.5 L
489.662 212.5 L
495.302 212.5 L
500.942 212.5 L
506.581 212.5 L
507.042 212.5 L
S
GR
GS
[0.75 0 0 0.75 0 0] CT
0.851 0.325 0.098 RC
1 LJ
0.667 LW
N
84.958 212.5 M
124.255 212.5 L
129.926 212.5 L
135.596 212.5 L
141.266 212.5 L
146.937 212.5 L
152.607 212.5 L
158.278 212.5 L
163.948 212.5 L
169.618 212.501 L
175.289 212.501 L
180.959 212.501 L
186.63 212.502 L
192.3 212.502 L
197.971 212.503 L
203.641 212.504 L
209.311 212.505 L
214.982 212.507 L
220.652 212.51 L
226.323 212.514 L
231.993 212.52 L
237.663 212.528 L
243.334 212.541 L
249.004 212.56 L
254.675 212.588 L
260.345 212.634 L
266.016 212.706 L
271.686 212.825 L
277.356 213.021 L
283.027 213.348 L
288.697 213.886 L
294.368 214.751 L
300.038 216.08 L
305.708 217.992 L
311.379 220.532 L
317.049 223.648 L
322.72 227.22 L
328.39 231.116 L
334.061 235.229 L
339.731 239.486 L
345.401 243.841 L
351.072 248.269 L
356.742 252.754 L
362.413 257.289 L
368.083 261.864 L
373.753 266.473 L
379.424 271.106 L
385.094 275.754 L
390.765 280.408 L
396.435 285.059 L
S
GR
GS
[0.75 0 0 0.75 0 0] CT
0.851 0.325 0.098 RC
1 LJ
0.667 LW
N
390.765 280.408 M
396.435 285.059 L
402.105 289.701 L
407.776 294.328 L
413.446 298.933 L
419.117 303.515 L
424.787 308.069 L
430.458 312.594 L
436.128 317.09 L
441.798 321.559 L
447.469 326.002 L
453.139 330.424 L
458.81 334.828 L
464.48 339.217 L
470.15 343.594 L
475.821 347.963 L
481.491 352.324 L
487.162 356.679 L
492.832 361.031 L
498.503 365.38 L
504.173 369.726 L
507.042 371.925 L
S
GR
GS
[0.75 0 0 0.75 0 0] CT
0.851 0.325 0.098 RC
1 LJ
0.667 LW
N
84.958 212.5 M
124.255 212.501 L
129.926 212.501 L
135.596 212.501 L
141.266 212.501 L
146.937 212.502 L
152.607 212.503 L
158.278 212.504 L
163.948 212.505 L
169.618 212.507 L
175.289 212.509 L
180.959 212.512 L
186.63 212.517 L
192.3 212.523 L
197.971 212.531 L
203.641 212.543 L
209.311 212.559 L
214.982 212.581 L
220.652 212.613 L
226.323 212.657 L
231.993 212.719 L
237.663 212.81 L
243.334 212.942 L
249.004 213.136 L
254.675 213.426 L
260.345 213.862 L
266.016 214.514 L
271.686 215.475 L
277.356 216.848 L
283.027 218.716 L
288.697 221.111 L
294.368 223.997 L
300.038 227.283 L
305.708 230.861 L
311.379 234.629 L
317.049 238.507 L
322.72 242.435 L
328.39 246.369 L
334.061 250.278 L
339.731 254.142 L
345.401 257.949 L
351.072 261.696 L
356.742 265.391 L
362.413 269.05 L
368.083 272.695 L
373.753 276.35 L
379.424 280.037 L
385.094 283.774 L
390.765 287.574 L
396.435 291.443 L
S
GR
GS
[0.75 0 0 0.75 0 0] CT
0.851 0.325 0.098 RC
1 LJ
0.667 LW
N
390.765 287.574 M
396.435 291.443 L
402.105 295.381 L
407.776 299.386 L
413.446 303.451 L
419.117 307.57 L
424.787 311.734 L
430.458 315.935 L
436.128 320.168 L
441.798 324.425 L
447.469 328.701 L
453.139 332.993 L
458.81 337.297 L
464.48 341.609 L
470.15 345.929 L
475.821 350.254 L
481.491 354.583 L
487.162 358.915 L
492.832 363.249 L
498.503 367.584 L
504.173 371.921 L
506.933 374.032 L
S
GR
GS
[0.75 0 0 0.75 0 0] CT
0.929 0.694 0.125 RC
1 LJ
0.667 LW
N
84.958 154.992 M
109.497 154.992 L
118.34 154.991 L
123.968 154.99 L
129.597 154.99 L
135.225 154.989 L
140.853 154.987 L
146.481 154.985 L
152.109 154.983 L
157.738 154.98 L
163.366 154.975 L
168.994 154.969 L
174.622 154.96 L
180.25 154.949 L
185.879 154.933 L
191.507 154.912 L
197.135 154.883 L
202.763 154.845 L
208.391 154.793 L
214.02 154.725 L
219.648 154.635 L
225.276 154.516 L
230.904 154.363 L
236.532 154.17 L
242.161 153.931 L
247.789 153.648 L
253.417 153.331 L
259.045 153.008 L
264.673 152.728 L
270.301 152.571 L
275.93 152.636 L
281.558 153.019 L
287.186 153.784 L
292.814 154.931 L
298.442 156.407 L
304.071 158.131 L
309.699 160.023 L
315.327 162.024 L
320.955 164.089 L
326.583 166.192 L
332.212 168.317 L
337.84 170.455 L
343.468 172.599 L
349.096 174.745 L
354.724 176.88 L
360.353 179.021 L
365.981 181.168 L
371.609 183.318 L
377.237 185.47 L
382.865 187.623 L
S
GR
GS
[0.75 0 0 0.75 0 0] CT
0.929 0.694 0.125 RC
1 LJ
0.667 LW
N
377.237 185.47 M
382.865 187.623 L
388.494 189.776 L
394.122 191.93 L
399.75 194.084 L
405.378 196.238 L
411.006 198.391 L
416.635 200.545 L
422.263 202.699 L
427.891 204.853 L
433.519 207.007 L
439.147 209.161 L
444.776 211.315 L
450.404 213.469 L
456.032 215.623 L
461.66 217.777 L
467.288 219.931 L
472.917 222.084 L
478.545 224.238 L
484.173 226.392 L
489.801 228.546 L
495.429 230.7 L
501.058 232.854 L
506.686 235.008 L
507.042 235.144 L
S
GR
GS
[0.75 0 0 0.75 0 0] CT
0.929 0.694 0.125 RC
1 LJ
0.667 LW
N
84.958 171.867 M
109.497 171.866 L
118.34 171.866 L
123.968 171.865 L
129.597 171.864 L
135.225 171.863 L
140.853 171.861 L
146.481 171.859 L
152.109 171.856 L
157.738 171.852 L
163.366 171.846 L
168.994 171.838 L
174.622 171.828 L
180.25 171.813 L
185.879 171.794 L
191.507 171.768 L
197.135 171.732 L
202.763 171.684 L
208.391 171.62 L
214.02 171.533 L
219.648 171.417 L
225.276 171.263 L
230.904 171.059 L
236.532 170.792 L
242.161 170.446 L
247.789 170.004 L
253.417 169.452 L
259.045 168.776 L
264.673 167.97 L
270.301 167.042 L
275.93 166.016 L
281.558 164.942 L
287.186 163.904 L
292.814 163.023 L
298.442 162.446 L
304.071 162.318 L
309.699 162.726 L
315.327 163.659 L
320.955 165.025 L
326.583 166.702 L
332.212 168.579 L
337.84 170.577 L
343.468 172.646 L
349.096 174.756 L
354.724 176.9 L
360.353 179.052 L
365.981 181.204 L
371.609 183.358 L
377.237 185.511 L
382.865 187.665 L
S
GR
GS
[0.75 0 0 0.75 0 0] CT
0.929 0.694 0.125 RC
1 LJ
0.667 LW
N
377.237 185.511 M
382.865 187.665 L
388.494 189.819 L
394.122 191.972 L
399.75 194.126 L
405.378 196.28 L
411.006 198.434 L
416.635 200.588 L
422.263 202.742 L
427.891 204.896 L
433.519 207.05 L
439.147 209.204 L
444.776 211.358 L
450.404 213.511 L
456.032 215.665 L
461.66 217.819 L
467.288 219.973 L
472.917 222.127 L
478.545 224.281 L
484.173 226.435 L
489.801 228.589 L
495.429 230.743 L
501.058 232.897 L
506.686 235.051 L
507.042 235.187 L
S
GR
GS
[0.75 0 0 0.75 0 0] CT
0.494 0.184 0.557 RC
1 LJ
0.667 LW
N
84.958 84.818 M
106.89 93.211 L
117.67 97.336 L
123.307 99.493 L
128.943 101.649 L
134.58 103.805 L
140.217 105.961 L
145.854 108.117 L
151.491 110.271 L
157.127 112.425 L
162.764 114.578 L
168.401 116.729 L
174.038 118.878 L
179.674 121.024 L
185.311 123.166 L
190.948 125.302 L
196.585 127.431 L
202.222 129.55 L
207.858 131.656 L
213.495 133.745 L
219.132 135.81 L
224.769 137.845 L
230.406 139.842 L
236.042 141.789 L
241.679 143.676 L
247.316 145.491 L
252.953 147.224 L
258.59 148.868 L
264.226 150.421 L
269.863 151.891 L
275.5 153.294 L
281.137 154.654 L
286.774 156.002 L
292.41 157.37 L
298.047 158.788 L
303.684 160.279 L
309.321 161.855 L
314.957 163.522 L
320.594 165.276 L
326.231 167.11 L
331.868 169.012 L
337.505 170.971 L
343.141 172.976 L
348.778 175.016 L
354.415 177.083 L
360.052 179.172 L
365.689 181.276 L
371.325 183.392 L
376.962 185.517 L
382.599 187.649 L
S
GR
GS
[0.75 0 0 0.75 0 0] CT
0.494 0.184 0.557 RC
1 LJ
0.667 LW
N
376.962 185.517 M
382.599 187.649 L
388.236 189.786 L
393.873 191.923 L
399.509 194.057 L
405.146 196.196 L
410.783 198.34 L
416.42 200.487 L
422.057 202.638 L
427.693 204.79 L
433.33 206.944 L
438.967 209.098 L
444.604 211.254 L
450.241 213.41 L
455.877 215.566 L
461.514 217.723 L
467.151 219.879 L
472.788 222.036 L
478.424 224.193 L
484.061 226.35 L
489.698 228.507 L
495.335 230.664 L
500.972 232.821 L
506.608 234.979 L
507.042 235.145 L
S
GR
GS
[0.75 0 0 0.75 0 0] CT
0.494 0.184 0.557 RC
1 LJ
0.667 LW
N
84.958 93.241 M
106.89 101.634 L
117.67 105.759 L
123.307 107.915 L
128.943 110.072 L
134.58 112.228 L
140.217 114.383 L
145.854 116.538 L
151.491 118.693 L
157.127 120.846 L
162.764 122.998 L
168.401 125.148 L
174.038 127.295 L
179.674 129.439 L
185.311 131.578 L
190.948 133.711 L
196.585 135.835 L
202.222 137.948 L
207.858 140.044 L
213.495 142.12 L
219.132 144.169 L
224.769 146.181 L
230.406 148.147 L
236.042 150.053 L
241.679 151.884 L
247.316 153.624 L
252.953 155.258 L
258.59 156.77 L
264.226 158.151 L
269.863 159.398 L
275.5 160.517 L
281.137 161.526 L
286.774 162.448 L
292.41 163.316 L
298.047 164.168 L
303.684 165.043 L
309.321 165.976 L
314.957 167.001 L
320.594 168.14 L
326.231 169.41 L
331.868 170.814 L
337.505 172.35 L
343.141 174.005 L
348.778 175.767 L
354.415 177.617 L
360.052 179.541 L
365.689 181.523 L
371.325 183.549 L
376.962 185.611 L
382.599 187.699 L
S
GR
GS
[0.75 0 0 0.75 0 0] CT
0.494 0.184 0.557 RC
1 LJ
0.667 LW
N
376.962 185.611 M
382.599 187.699 L
388.236 189.806 L
393.873 191.932 L
399.509 194.075 L
405.146 196.222 L
410.783 198.372 L
416.42 200.524 L
422.057 202.676 L
427.693 204.83 L
433.33 206.985 L
438.967 209.14 L
444.604 211.296 L
450.241 213.452 L
455.877 215.609 L
461.514 217.765 L
467.151 219.922 L
472.788 222.079 L
478.424 224.236 L
484.061 226.393 L
489.698 228.55 L
495.335 230.707 L
500.972 232.864 L
506.608 235.021 L
507.042 235.187 L
S
GR
GS
[0.75 0 0 0.75 0 0] CT
1 GC
N
414 132 M
414 64 L
494 64 L
494 132 L
cp
f
GR
GS
[0.75 0 0 0.75 349.5 55.70049] CT
/Helvetica 12 F
GS
[1 0 0 1 0 0] CT
0 4.5 moveto 
1 -1 scale
(S2) t 
GR
GR
GS
[0.75 0 0 0.75 0 0] CT
0 0.447 0.741 RC
1 LJ
0.667 LW
N
422 74.267 M
462 74.267 L
S
GR
GS
[0.75 0 0 0.75 349.5 67.56683] CT
/Helvetica 12 F
GS
[1 0 0 1 0 0] CT
0 4.5 moveto 
1 -1 scale
(T2) t 
GR
GR
GS
[0.75 0 0 0.75 0 0] CT
0.851 0.325 0.098 RC
1 LJ
0.667 LW
N
422 90.089 M
462 90.089 L
S
GR
GS
[0.75 0 0 0.75 349.5 79.43317] CT
/Helvetica 12 F
GS
[1 0 0 1 0 0] CT
0 4.5 moveto 
1 -1 scale
(CS2) t 
GR
GR
GS
[0.75 0 0 0.75 0 0] CT
0.929 0.694 0.125 RC
1 LJ
0.667 LW
N
422 105.911 M
462 105.911 L
S
GR
GS
[0.75 0 0 0.75 349.5 91.29951] CT
/Helvetica 12 F
GS
[1 0 0 1 0 0] CT
0 4.5 moveto 
1 -1 scale
(K2) t 
GR
GR
GS
[0.75 0 0 0.75 0 0] CT
0.494 0.184 0.557 RC
1 LJ
0.667 LW
N
422 121.733 M
462 121.733 L
S
GR
GS
[0.75 0 0 0.75 0 0] CT
0.149 GC
10.0 ML
0.667 LW
N
414 132 M
414 64 L
494 64 L
494 132 L
cp
S
GR
GS
[0.75 0 0 0.75 221.25 33.52501] CT
/any-Bold 15 F
GS
[1 0 0 1 0 0] CT
-56.5 -4 moveto 
1 -1 scale
(Singular Values) t 
GR
GR
GS
[0.75 0 0 0.75 221.25 298.99999] CT
/Helvetica 15 F
GS
[1 0 0 1 0 0] CT
-59.5 14 moveto 
1 -1 scale
(Frequency \(rad/s\)) t 
GR
GR
GS
[0 -0.75 0.75 0 36.5 160.3875] CT
/Helvetica 15 F
GS
[1 0 0 1 0 0] CT
-69 -4 moveto 
1 -1 scale
(Singular Values \(dB\)) t 
GR
GR
%%Trailer
%%Pages: 1
%%EOF
