%!PS-Adobe-3.0 EPSF-3.0
%%Creator: (MATLAB, The Mathworks, Inc. Version 8.6.0.267246 \(R2015b\). Operating System: Windows 8)
%%Title: E:/Projects/skola/rls/pics/SP5/k2_sigma.eps
%%CreationDate: 2017-03-17T09:59:43
%%Pages: (atend)
%%BoundingBox: 0 0 420 315
%%LanguageLevel: 2
%%EndComments
%%BeginProlog
%%BeginResource: procset (Apache XML Graphics Std ProcSet) 1.2 0
%%Version: 1.2 0
%%Copyright: (Copyright 2001-2003,2010 The Apache Software Foundation. License terms: http://www.apache.org/licenses/LICENSE-2.0)
/bd{bind def}bind def
/ld{load def}bd
/GR/grestore ld
/M/moveto ld
/LJ/setlinejoin ld
/C/curveto ld
/f/fill ld
/LW/setlinewidth ld
/GC/setgray ld
/t/show ld
/N/newpath ld
/CT/concat ld
/cp/closepath ld
/S/stroke ld
/L/lineto ld
/CC/setcmykcolor ld
/A/ashow ld
/GS/gsave ld
/RC/setrgbcolor ld
/RM/rmoveto ld
/ML/setmiterlimit ld
/re {4 2 roll M
1 index 0 rlineto
0 exch rlineto
neg 0 rlineto
cp } bd
/_ctm matrix def
/_tm matrix def
/BT { _ctm currentmatrix pop matrix _tm copy pop 0 0 moveto } bd
/ET { _ctm setmatrix } bd
/iTm { _ctm setmatrix _tm concat } bd
/Tm { _tm astore pop iTm 0 0 moveto } bd
/ux 0.0 def
/uy 0.0 def
/F {
  /Tp exch def
  /Tf exch def
  Tf findfont Tp scalefont setfont
  /cf Tf def  /cs Tp def
} bd
/ULS {currentpoint /uy exch def /ux exch def} bd
/ULE {
  /Tcx currentpoint pop def
  gsave
  newpath
  cf findfont cs scalefont dup
  /FontMatrix get 0 get /Ts exch def /FontInfo get dup
  /UnderlinePosition get Ts mul /To exch def
  /UnderlineThickness get Ts mul /Tt exch def
  ux uy To add moveto  Tcx uy To add lineto
  Tt setlinewidth stroke
  grestore
} bd
/OLE {
  /Tcx currentpoint pop def
  gsave
  newpath
  cf findfont cs scalefont dup
  /FontMatrix get 0 get /Ts exch def /FontInfo get dup
  /UnderlinePosition get Ts mul /To exch def
  /UnderlineThickness get Ts mul /Tt exch def
  ux uy To add cs add moveto Tcx uy To add cs add lineto
  Tt setlinewidth stroke
  grestore
} bd
/SOE {
  /Tcx currentpoint pop def
  gsave
  newpath
  cf findfont cs scalefont dup
  /FontMatrix get 0 get /Ts exch def /FontInfo get dup
  /UnderlinePosition get Ts mul /To exch def
  /UnderlineThickness get Ts mul /Tt exch def
  ux uy To add cs 10 mul 26 idiv add moveto Tcx uy To add cs 10 mul 26 idiv add lineto
  Tt setlinewidth stroke
  grestore
} bd
/QT {
/Y22 exch store
/X22 exch store
/Y21 exch store
/X21 exch store
currentpoint
/Y21 load 2 mul add 3 div exch
/X21 load 2 mul add 3 div exch
/X21 load 2 mul /X22 load add 3 div
/Y21 load 2 mul /Y22 load add 3 div
/X22 load /Y22 load curveto
} bd
/SSPD {
dup length /d exch dict def
{
/v exch def
/k exch def
currentpagedevice k known {
/cpdv currentpagedevice k get def
v cpdv ne {
/upd false def
/nullv v type /nulltype eq def
/nullcpdv cpdv type /nulltype eq def
nullv nullcpdv or
{
/upd true def
} {
/sametype v type cpdv type eq def
sametype {
v type /arraytype eq {
/vlen v length def
/cpdvlen cpdv length def
vlen cpdvlen eq {
0 1 vlen 1 sub {
/i exch def
/obj v i get def
/cpdobj cpdv i get def
obj cpdobj ne {
/upd true def
exit
} if
} for
} {
/upd true def
} ifelse
} {
v type /dicttype eq {
v {
/dv exch def
/dk exch def
/cpddv cpdv dk get def
dv cpddv ne {
/upd true def
exit
} if
} forall
} {
/upd true def
} ifelse
} ifelse
} if
} ifelse
upd true eq {
d k v put
} if
} if
} if
} forall
d length 0 gt {
d setpagedevice
} if
} bd
%%EndResource
%%BeginResource: procset (Apache XML Graphics EPS ProcSet) 1.0 0
%%Version: 1.0 0
%%Copyright: (Copyright 2002-2003 The Apache Software Foundation. License terms: http://www.apache.org/licenses/LICENSE-2.0)
/BeginEPSF { %def
/b4_Inc_state save def         % Save state for cleanup
/dict_count countdictstack def % Count objects on dict stack
/op_count count 1 sub def      % Count objects on operand stack
userdict begin                 % Push userdict on dict stack
/showpage { } def              % Redefine showpage, { } = null proc
0 setgray 0 setlinecap         % Prepare graphics state
1 setlinewidth 0 setlinejoin
10 setmiterlimit [ ] 0 setdash newpath
/languagelevel where           % If level not equal to 1 then
{pop languagelevel             % set strokeadjust and
1 ne                           % overprint to their defaults.
{false setstrokeadjust false setoverprint
} if
} if
} bd
/EndEPSF { %def
count op_count sub {pop} repeat            % Clean up stacks
countdictstack dict_count sub {end} repeat
b4_Inc_state restore
} bd
%%EndResource
%FOPBeginFontDict
%%IncludeResource: font Courier-Bold
%%IncludeResource: font Helvetica
%%IncludeResource: font Courier-BoldOblique
%%IncludeResource: font Courier-Oblique
%%IncludeResource: font Times-Roman
%%IncludeResource: font Helvetica-BoldOblique
%%IncludeResource: font Helvetica-Bold
%%IncludeResource: font Helvetica-Oblique
%%IncludeResource: font Times-BoldItalic
%%IncludeResource: font Courier
%%IncludeResource: font Times-Italic
%%IncludeResource: font Times-Bold
%%IncludeResource: font Symbol
%%IncludeResource: font ZapfDingbats
%FOPEndFontDict
%%BeginResource: encoding WinAnsiEncoding
/WinAnsiEncoding [
/.notdef /.notdef /.notdef /.notdef /.notdef
/.notdef /.notdef /.notdef /.notdef /.notdef
/.notdef /.notdef /.notdef /.notdef /.notdef
/.notdef /.notdef /.notdef /.notdef /.notdef
/.notdef /.notdef /.notdef /.notdef /.notdef
/.notdef /.notdef /.notdef /.notdef /.notdef
/.notdef /.notdef /space /exclam /quotedbl
/numbersign /dollar /percent /ampersand /quotesingle
/parenleft /parenright /asterisk /plus /comma
/hyphen /period /slash /zero /one
/two /three /four /five /six
/seven /eight /nine /colon /semicolon
/less /equal /greater /question /at
/A /B /C /D /E
/F /G /H /I /J
/K /L /M /N /O
/P /Q /R /S /T
/U /V /W /X /Y
/Z /bracketleft /backslash /bracketright /asciicircum
/underscore /quoteleft /a /b /c
/d /e /f /g /h
/i /j /k /l /m
/n /o /p /q /r
/s /t /u /v /w
/x /y /z /braceleft /bar
/braceright /asciitilde /bullet /Euro /bullet
/quotesinglbase /florin /quotedblbase /ellipsis /dagger
/daggerdbl /circumflex /perthousand /Scaron /guilsinglleft
/OE /bullet /Zcaron /bullet /bullet
/quoteleft /quoteright /quotedblleft /quotedblright /bullet
/endash /emdash /asciitilde /trademark /scaron
/guilsinglright /oe /bullet /zcaron /Ydieresis
/space /exclamdown /cent /sterling /currency
/yen /brokenbar /section /dieresis /copyright
/ordfeminine /guillemotleft /logicalnot /sfthyphen /registered
/macron /degree /plusminus /twosuperior /threesuperior
/acute /mu /paragraph /middot /cedilla
/onesuperior /ordmasculine /guillemotright /onequarter /onehalf
/threequarters /questiondown /Agrave /Aacute /Acircumflex
/Atilde /Adieresis /Aring /AE /Ccedilla
/Egrave /Eacute /Ecircumflex /Edieresis /Igrave
/Iacute /Icircumflex /Idieresis /Eth /Ntilde
/Ograve /Oacute /Ocircumflex /Otilde /Odieresis
/multiply /Oslash /Ugrave /Uacute /Ucircumflex
/Udieresis /Yacute /Thorn /germandbls /agrave
/aacute /acircumflex /atilde /adieresis /aring
/ae /ccedilla /egrave /eacute /ecircumflex
/edieresis /igrave /iacute /icircumflex /idieresis
/eth /ntilde /ograve /oacute /ocircumflex
/otilde /odieresis /divide /oslash /ugrave
/uacute /ucircumflex /udieresis /yacute /thorn
/ydieresis
] def
%%EndResource
%FOPBeginFontReencode
/Courier-Bold findfont
dup length dict begin
  {1 index /FID ne {def} {pop pop} ifelse} forall
  /Encoding WinAnsiEncoding def
  currentdict
end
/Courier-Bold exch definefont pop
/Helvetica findfont
dup length dict begin
  {1 index /FID ne {def} {pop pop} ifelse} forall
  /Encoding WinAnsiEncoding def
  currentdict
end
/Helvetica exch definefont pop
/Courier-BoldOblique findfont
dup length dict begin
  {1 index /FID ne {def} {pop pop} ifelse} forall
  /Encoding WinAnsiEncoding def
  currentdict
end
/Courier-BoldOblique exch definefont pop
/Courier-Oblique findfont
dup length dict begin
  {1 index /FID ne {def} {pop pop} ifelse} forall
  /Encoding WinAnsiEncoding def
  currentdict
end
/Courier-Oblique exch definefont pop
/Times-Roman findfont
dup length dict begin
  {1 index /FID ne {def} {pop pop} ifelse} forall
  /Encoding WinAnsiEncoding def
  currentdict
end
/Times-Roman exch definefont pop
/Helvetica-BoldOblique findfont
dup length dict begin
  {1 index /FID ne {def} {pop pop} ifelse} forall
  /Encoding WinAnsiEncoding def
  currentdict
end
/Helvetica-BoldOblique exch definefont pop
/Helvetica-Bold findfont
dup length dict begin
  {1 index /FID ne {def} {pop pop} ifelse} forall
  /Encoding WinAnsiEncoding def
  currentdict
end
/Helvetica-Bold exch definefont pop
/Helvetica-Oblique findfont
dup length dict begin
  {1 index /FID ne {def} {pop pop} ifelse} forall
  /Encoding WinAnsiEncoding def
  currentdict
end
/Helvetica-Oblique exch definefont pop
/Times-BoldItalic findfont
dup length dict begin
  {1 index /FID ne {def} {pop pop} ifelse} forall
  /Encoding WinAnsiEncoding def
  currentdict
end
/Times-BoldItalic exch definefont pop
/Courier findfont
dup length dict begin
  {1 index /FID ne {def} {pop pop} ifelse} forall
  /Encoding WinAnsiEncoding def
  currentdict
end
/Courier exch definefont pop
/Times-Italic findfont
dup length dict begin
  {1 index /FID ne {def} {pop pop} ifelse} forall
  /Encoding WinAnsiEncoding def
  currentdict
end
/Times-Italic exch definefont pop
/Times-Bold findfont
dup length dict begin
  {1 index /FID ne {def} {pop pop} ifelse} forall
  /Encoding WinAnsiEncoding def
  currentdict
end
/Times-Bold exch definefont pop
%FOPEndFontReencode
%%EndProlog
%%Page: 1 1
%%PageBoundingBox: 0 0 420 315
%%BeginPageSetup
[1 0 0 -1 0 315] CT
%%EndPageSetup
GS
[0.75 0 0 0.75 0 0] CT
1 GC
N
0 0 560 420 re
f
GR
GS
[0.75 0 0 0.75 0 0] CT
1 GC
N
0 0 560 420 re
f
GR
GS
[0.75 0 0 0.75 0 0] CT
1 GC
N
85 374 M
507 374 L
507 51 L
85 51 L
cp
f
GR
GS
[0.75 0 0 0.75 0 0] CT
0.4 GC
2 setlinecap
1 LJ
0.667 LW
N
85 374 M
507 374 L
S
GR
GS
[0.75 0 0 0.75 0 0] CT
0.4 GC
2 setlinecap
1 LJ
0.667 LW
N
85 51 M
507 51 L
S
GR
GS
[0.75 0 0 0.75 0 0] CT
0.4 GC
2 setlinecap
1 LJ
0.667 LW
N
85 374 M
85 369.78 L
S
GR
GS
[0.75 0 0 0.75 0 0] CT
0.4 GC
2 setlinecap
1 LJ
0.667 LW
N
205.571 374 M
205.571 369.78 L
S
GR
GS
[0.75 0 0 0.75 0 0] CT
0.4 GC
2 setlinecap
1 LJ
0.667 LW
N
326.143 374 M
326.143 369.78 L
S
GR
GS
[0.75 0 0 0.75 0 0] CT
0.4 GC
2 setlinecap
1 LJ
0.667 LW
N
446.714 374 M
446.714 369.78 L
S
GR
GS
[0.75 0 0 0.75 0 0] CT
0.4 GC
2 setlinecap
1 LJ
0.667 LW
N
85 51 M
85 55.22 L
S
GR
GS
[0.75 0 0 0.75 0 0] CT
0.4 GC
2 setlinecap
1 LJ
0.667 LW
N
205.571 51 M
205.571 55.22 L
S
GR
GS
[0.75 0 0 0.75 0 0] CT
0.4 GC
2 setlinecap
1 LJ
0.667 LW
N
326.143 51 M
326.143 55.22 L
S
GR
GS
[0.75 0 0 0.75 0 0] CT
0.4 GC
2 setlinecap
1 LJ
0.667 LW
N
446.714 51 M
446.714 55.22 L
S
GR
GS
[0.75 0 0 0.75 54 297] CT
0.4 GC
/Helvetica 13 F
GS
[1 0 0 1 0 0] CT
0 0 moveto 
1 -1 scale
(10) t 
GR
GR
GS
[0.75 0 0 0.75 65.25 292.5] CT
0.4 GC
/Helvetica 11 F
GS
[1 0 0 1 0 0] CT
0 0 moveto 
1 -1 scale
(-6) t 
GR
GR
GS
[0.75 0 0 0.75 144.75 297] CT
0.4 GC
/Helvetica 13 F
GS
[1 0 0 1 0 0] CT
0 0 moveto 
1 -1 scale
(10) t 
GR
GR
GS
[0.75 0 0 0.75 156 292.5] CT
0.4 GC
/Helvetica 11 F
GS
[1 0 0 1 0 0] CT
0 0 moveto 
1 -1 scale
(-4) t 
GR
GR
GS
[0.75 0 0 0.75 234.75 297] CT
0.4 GC
/Helvetica 13 F
GS
[1 0 0 1 0 0] CT
0 0 moveto 
1 -1 scale
(10) t 
GR
GR
GS
[0.75 0 0 0.75 246 292.5] CT
0.4 GC
/Helvetica 11 F
GS
[1 0 0 1 0 0] CT
0 0 moveto 
1 -1 scale
(-2) t 
GR
GR
GS
[0.75 0 0 0.75 327 297] CT
0.4 GC
/Helvetica 13 F
GS
[1 0 0 1 0 0] CT
0 0 moveto 
1 -1 scale
(10) t 
GR
GR
GS
[0.75 0 0 0.75 338.25 292.5] CT
0.4 GC
/Helvetica 11 F
GS
[1 0 0 1 0 0] CT
0 0 moveto 
1 -1 scale
(0) t 
GR
GR
GS
[0.75 0 0 0.75 0 0] CT
0.4 GC
2 setlinecap
1 LJ
0.667 LW
N
85 374 M
85 51 L
S
GR
GS
[0.75 0 0 0.75 0 0] CT
0.4 GC
2 setlinecap
1 LJ
0.667 LW
N
507 374 M
507 51 L
S
GR
GS
[0.75 0 0 0.75 0 0] CT
0.4 GC
2 setlinecap
1 LJ
0.667 LW
N
85 374 M
89.22 374 L
S
GR
GS
[0.75 0 0 0.75 0 0] CT
0.4 GC
2 setlinecap
1 LJ
0.667 LW
N
85 338.111 M
89.22 338.111 L
S
GR
GS
[0.75 0 0 0.75 0 0] CT
0.4 GC
2 setlinecap
1 LJ
0.667 LW
N
85 302.222 M
89.22 302.222 L
S
GR
GS
[0.75 0 0 0.75 0 0] CT
0.4 GC
2 setlinecap
1 LJ
0.667 LW
N
85 266.333 M
89.22 266.333 L
S
GR
GS
[0.75 0 0 0.75 0 0] CT
0.4 GC
2 setlinecap
1 LJ
0.667 LW
N
85 230.444 M
89.22 230.444 L
S
GR
GS
[0.75 0 0 0.75 0 0] CT
0.4 GC
2 setlinecap
1 LJ
0.667 LW
N
85 194.556 M
89.22 194.556 L
S
GR
GS
[0.75 0 0 0.75 0 0] CT
0.4 GC
2 setlinecap
1 LJ
0.667 LW
N
85 158.667 M
89.22 158.667 L
S
GR
GS
[0.75 0 0 0.75 0 0] CT
0.4 GC
2 setlinecap
1 LJ
0.667 LW
N
85 122.778 M
89.22 122.778 L
S
GR
GS
[0.75 0 0 0.75 0 0] CT
0.4 GC
2 setlinecap
1 LJ
0.667 LW
N
85 86.889 M
89.22 86.889 L
S
GR
GS
[0.75 0 0 0.75 0 0] CT
0.4 GC
2 setlinecap
1 LJ
0.667 LW
N
85 51 M
89.22 51 L
S
GR
GS
[0.75 0 0 0.75 0 0] CT
0.4 GC
2 setlinecap
1 LJ
0.667 LW
N
507 374 M
502.78 374 L
S
GR
GS
[0.75 0 0 0.75 0 0] CT
0.4 GC
2 setlinecap
1 LJ
0.667 LW
N
507 338.111 M
502.78 338.111 L
S
GR
GS
[0.75 0 0 0.75 0 0] CT
0.4 GC
2 setlinecap
1 LJ
0.667 LW
N
507 302.222 M
502.78 302.222 L
S
GR
GS
[0.75 0 0 0.75 0 0] CT
0.4 GC
2 setlinecap
1 LJ
0.667 LW
N
507 266.333 M
502.78 266.333 L
S
GR
GS
[0.75 0 0 0.75 0 0] CT
0.4 GC
2 setlinecap
1 LJ
0.667 LW
N
507 230.444 M
502.78 230.444 L
S
GR
GS
[0.75 0 0 0.75 0 0] CT
0.4 GC
2 setlinecap
1 LJ
0.667 LW
N
507 194.556 M
502.78 194.556 L
S
GR
GS
[0.75 0 0 0.75 0 0] CT
0.4 GC
2 setlinecap
1 LJ
0.667 LW
N
507 158.667 M
502.78 158.667 L
S
GR
GS
[0.75 0 0 0.75 0 0] CT
0.4 GC
2 setlinecap
1 LJ
0.667 LW
N
507 122.778 M
502.78 122.778 L
S
GR
GS
[0.75 0 0 0.75 0 0] CT
0.4 GC
2 setlinecap
1 LJ
0.667 LW
N
507 86.889 M
502.78 86.889 L
S
GR
GS
[0.75 0 0 0.75 0 0] CT
0.4 GC
2 setlinecap
1 LJ
0.667 LW
N
507 51 M
502.78 51 L
S
GR
GS
[0.75 0 0 0.75 59.75 280.5] CT
0.4 GC
/Helvetica 13 F
GS
[1 0 0 1 0 0] CT
-27 5 moveto 
1 -1 scale
(-100) t 
GR
GR
GS
[0.75 0 0 0.75 59.75 253.58334] CT
0.4 GC
/Helvetica 13 F
GS
[1 0 0 1 0 0] CT
-19 5 moveto 
1 -1 scale
(-80) t 
GR
GR
GS
[0.75 0 0 0.75 59.75 226.66667] CT
0.4 GC
/Helvetica 13 F
GS
[1 0 0 1 0 0] CT
-19 5 moveto 
1 -1 scale
(-60) t 
GR
GR
GS
[0.75 0 0 0.75 59.75 199.75001] CT
0.4 GC
/Helvetica 13 F
GS
[1 0 0 1 0 0] CT
-19 5 moveto 
1 -1 scale
(-40) t 
GR
GR
GS
[0.75 0 0 0.75 59.75 172.83333] CT
0.4 GC
/Helvetica 13 F
GS
[1 0 0 1 0 0] CT
-19 5 moveto 
1 -1 scale
(-20) t 
GR
GR
GS
[0.75 0 0 0.75 59.75 145.91666] CT
0.4 GC
/Helvetica 13 F
GS
[1 0 0 1 0 0] CT
-8 5 moveto 
1 -1 scale
(0) t 
GR
GR
GS
[0.75 0 0 0.75 59.75 118.99999] CT
0.4 GC
/Helvetica 13 F
GS
[1 0 0 1 0 0] CT
-15 5 moveto 
1 -1 scale
(20) t 
GR
GR
GS
[0.75 0 0 0.75 59.75 92.08333] CT
0.4 GC
/Helvetica 13 F
GS
[1 0 0 1 0 0] CT
-15 5 moveto 
1 -1 scale
(40) t 
GR
GR
GS
[0.75 0 0 0.75 59.75 65.16666] CT
0.4 GC
/Helvetica 13 F
GS
[1 0 0 1 0 0] CT
-15 5 moveto 
1 -1 scale
(60) t 
GR
GR
GS
[0.75 0 0 0.75 59.75 38.25] CT
0.4 GC
/Helvetica 13 F
GS
[1 0 0 1 0 0] CT
-15 5 moveto 
1 -1 scale
(80) t 
GR
GR
GS
[0.75 0 0 0.75 0 0] CT
0 0.447 0.741 RC
1 LJ
0.667 LW
N
84.958 272.587 M
103.148 272.586 L
107.183 272.585 L
111.218 272.583 L
115.253 272.581 L
119.288 272.578 L
123.323 272.574 L
127.357 272.569 L
131.392 272.562 L
135.427 272.552 L
139.462 272.539 L
143.497 272.521 L
147.532 272.497 L
151.567 272.464 L
155.602 272.419 L
159.637 272.359 L
163.672 272.278 L
167.707 272.168 L
171.742 272.022 L
175.777 271.827 L
179.812 271.569 L
183.847 271.232 L
187.882 270.794 L
191.917 270.236 L
195.952 269.536 L
199.986 268.673 L
204.021 267.635 L
208.056 266.412 L
212.091 265.007 L
216.126 263.428 L
220.161 261.692 L
224.196 259.818 L
228.231 257.828 L
232.266 255.744 L
236.301 253.583 L
240.336 251.364 L
244.371 249.099 L
248.406 246.799 L
252.441 244.473 L
256.476 242.127 L
260.511 239.767 L
264.546 237.395 L
268.581 235.016 L
272.616 232.631 L
276.65 230.241 L
280.685 227.848 L
284.72 225.453 L
288.755 223.057 L
292.79 220.66 L
296.825 218.263 L
S
GR
GS
[0.75 0 0 0.75 0 0] CT
0 0.447 0.741 RC
1 LJ
0.667 LW
N
292.79 220.66 M
296.825 218.263 L
300.86 215.866 L
304.895 213.472 L
308.93 211.083 L
312.965 208.702 L
317 206.337 L
321.035 203.999 L
325.07 201.71 L
329.105 199.503 L
333.14 197.431 L
337.175 195.568 L
341.21 194.008 L
345.245 192.835 L
349.279 192.097 L
353.314 191.773 L
357.349 191.779 L
361.384 191.627 L
365.419 190.952 L
369.454 190.767 L
373.489 190.962 L
377.524 191.384 L
381.559 191.897 L
385.594 192.412 L
389.629 192.875 L
393.664 193.268 L
397.699 193.586 L
401.734 193.835 L
405.769 194.027 L
409.804 194.17 L
413.839 194.277 L
417.874 194.355 L
421.908 194.411 L
425.943 194.452 L
429.978 194.481 L
434.013 194.502 L
438.048 194.517 L
442.083 194.528 L
446.118 194.535 L
450.153 194.541 L
454.188 194.545 L
458.223 194.548 L
462.258 194.55 L
466.293 194.551 L
470.328 194.553 L
474.363 194.553 L
478.398 194.554 L
482.433 194.554 L
486.468 194.555 L
490.503 194.555 L
494.537 194.555 L
498.572 194.555 L
S
GR
GS
[0.75 0 0 0.75 0 0] CT
0 0.447 0.741 RC
1 LJ
0.667 LW
N
494.537 194.555 M
498.572 194.555 L
502.607 194.555 L
506.642 194.555 L
507.042 194.555 L
S
GR
GS
[0.75 0 0 0.75 0 0] CT
0 0.447 0.741 RC
1 LJ
0.667 LW
N
84.958 281.979 M
103.148 281.978 L
107.183 281.977 L
111.218 281.976 L
115.253 281.974 L
119.288 281.971 L
123.323 281.967 L
127.357 281.962 L
131.392 281.954 L
135.427 281.945 L
139.462 281.932 L
143.497 281.914 L
147.532 281.889 L
151.567 281.857 L
155.602 281.812 L
159.637 281.752 L
163.672 281.67 L
167.707 281.561 L
171.742 281.415 L
175.777 281.22 L
179.812 280.962 L
183.847 280.624 L
187.882 280.187 L
191.917 279.629 L
195.952 278.928 L
199.986 278.066 L
204.021 277.027 L
208.056 275.805 L
212.091 274.4 L
216.126 272.821 L
220.161 271.085 L
224.196 269.211 L
228.231 267.221 L
232.266 265.136 L
236.301 262.976 L
240.336 260.756 L
244.371 258.491 L
248.406 256.191 L
252.441 253.865 L
256.476 251.519 L
260.511 249.158 L
264.546 246.786 L
268.581 244.406 L
272.616 242.02 L
276.65 239.63 L
280.685 237.236 L
284.72 234.839 L
288.755 232.439 L
292.79 230.038 L
296.825 227.635 L
S
GR
GS
[0.75 0 0 0.75 0 0] CT
0 0.447 0.741 RC
1 LJ
0.667 LW
N
292.79 230.038 M
296.825 227.635 L
300.86 225.229 L
304.895 222.822 L
308.93 220.411 L
312.965 217.998 L
317 215.581 L
321.035 213.16 L
325.07 210.735 L
329.105 208.307 L
333.14 205.879 L
337.175 203.461 L
341.21 201.07 L
345.245 198.738 L
349.279 196.526 L
353.314 194.525 L
357.349 192.858 L
361.384 192.022 L
365.419 192.348 L
369.454 192.713 L
373.489 193.061 L
377.524 193.366 L
381.559 193.62 L
385.594 193.826 L
389.629 193.988 L
393.664 194.114 L
397.699 194.212 L
401.734 194.288 L
405.769 194.347 L
409.804 194.392 L
413.839 194.428 L
417.874 194.456 L
421.908 194.479 L
425.943 194.496 L
429.978 194.51 L
434.013 194.521 L
438.048 194.529 L
442.083 194.536 L
446.118 194.541 L
450.153 194.544 L
454.188 194.547 L
458.223 194.549 L
462.258 194.551 L
466.293 194.552 L
470.328 194.553 L
474.363 194.554 L
478.398 194.554 L
482.433 194.555 L
486.468 194.555 L
490.503 194.555 L
494.537 194.555 L
498.572 194.555 L
S
GR
GS
[0.75 0 0 0.75 0 0] CT
0 0.447 0.741 RC
1 LJ
0.667 LW
N
494.537 194.555 M
498.572 194.555 L
502.607 194.555 L
506.642 194.555 L
507.042 194.555 L
S
GR
GS
[0.75 0 0 0.75 0 0] CT
0.851 0.325 0.098 RC
1 LJ
0.667 LW
N
84.958 194.613 M
173.325 194.613 L
233.611 194.613 L
237.661 194.613 L
241.711 194.613 L
245.762 194.613 L
249.812 194.613 L
253.862 194.613 L
257.913 194.613 L
261.963 194.613 L
266.013 194.613 L
270.063 194.614 L
274.114 194.614 L
278.164 194.614 L
282.214 194.615 L
286.265 194.616 L
290.315 194.617 L
294.365 194.619 L
298.416 194.621 L
302.466 194.624 L
306.516 194.628 L
310.566 194.635 L
314.617 194.644 L
318.667 194.658 L
322.717 194.678 L
326.768 194.71 L
330.818 194.76 L
334.868 194.84 L
338.919 194.971 L
342.969 195.188 L
347.019 195.548 L
351.069 196.142 L
355.12 197.098 L
359.17 198.568 L
363.22 200.684 L
367.271 203.498 L
371.321 206.953 L
375.371 210.918 L
379.422 215.244 L
383.472 219.812 L
387.522 224.541 L
391.572 229.379 L
395.623 234.299 L
399.673 239.283 L
403.723 244.321 L
407.774 249.405 L
411.824 254.526 L
415.874 259.673 L
419.924 264.838 L
423.975 270.009 L
S
GR
GS
[0.75 0 0 0.75 0 0] CT
0.851 0.325 0.098 RC
1 LJ
0.667 LW
N
419.924 264.838 M
423.975 270.009 L
428.025 275.177 L
432.075 280.335 L
436.126 285.475 L
440.176 290.593 L
444.226 295.683 L
448.277 300.743 L
452.327 305.771 L
456.377 310.767 L
460.427 315.732 L
464.478 320.669 L
468.528 325.583 L
472.578 330.476 L
476.629 335.352 L
480.679 340.216 L
484.729 345.07 L
488.78 349.915 L
492.83 354.755 L
496.88 359.59 L
500.93 364.422 L
504.981 369.251 L
507.042 371.709 L
S
GR
GS
[0.75 0 0 0.75 0 0] CT
0.851 0.325 0.098 RC
1 LJ
0.667 LW
N
84.958 194.66 M
173.325 194.66 L
233.611 194.661 L
237.661 194.661 L
241.711 194.661 L
245.762 194.662 L
249.812 194.662 L
253.862 194.663 L
257.913 194.664 L
261.963 194.666 L
266.013 194.667 L
270.063 194.67 L
274.114 194.674 L
278.164 194.679 L
282.214 194.685 L
286.265 194.695 L
290.315 194.707 L
294.365 194.725 L
298.416 194.749 L
302.466 194.784 L
306.516 194.832 L
310.566 194.901 L
314.617 195 L
318.667 195.145 L
322.717 195.359 L
326.768 195.677 L
330.818 196.156 L
334.868 196.874 L
338.919 197.932 L
342.969 199.445 L
347.019 201.507 L
351.069 204.156 L
355.12 207.352 L
359.17 210.995 L
363.22 214.965 L
367.271 219.148 L
371.321 223.455 L
375.371 227.818 L
379.422 232.189 L
383.472 236.532 L
387.522 240.825 L
391.572 245.054 L
395.623 249.218 L
399.673 253.323 L
403.723 257.389 L
407.774 261.439 L
411.824 265.5 L
415.874 269.596 L
419.924 273.749 L
423.975 277.971 L
S
GR
GS
[0.75 0 0 0.75 0 0] CT
0.851 0.325 0.098 RC
1 LJ
0.667 LW
N
419.924 273.749 M
423.975 277.971 L
428.025 282.27 L
432.075 286.646 L
436.126 291.095 L
440.176 295.612 L
444.226 300.189 L
448.277 304.815 L
452.327 309.484 L
456.377 314.186 L
460.427 318.916 L
464.478 323.668 L
468.528 328.437 L
472.578 333.219 L
476.629 338.01 L
480.679 342.81 L
484.729 347.616 L
488.78 352.425 L
492.83 357.239 L
496.88 362.054 L
500.93 366.871 L
504.981 371.69 L
506.949 374.032 L
S
GR
GS
[0.75 0 0 0.75 0 0] CT
0.929 0.694 0.125 RC
1 LJ
0.667 LW
N
84.958 130.763 M
103.148 130.763 L
107.183 130.763 L
111.218 130.763 L
115.253 130.763 L
119.288 130.763 L
123.323 130.763 L
127.357 130.763 L
131.392 130.763 L
135.427 130.763 L
139.462 130.763 L
143.497 130.763 L
147.532 130.763 L
151.567 130.763 L
155.602 130.763 L
159.637 130.763 L
163.672 130.763 L
167.707 130.763 L
171.742 130.763 L
175.777 130.763 L
179.812 130.763 L
183.847 130.763 L
187.882 130.763 L
191.917 130.763 L
195.952 130.763 L
199.986 130.763 L
204.021 130.763 L
208.056 130.763 L
212.091 130.762 L
216.126 130.762 L
220.161 130.762 L
224.196 130.762 L
228.231 130.761 L
232.266 130.761 L
236.301 130.76 L
240.336 130.759 L
244.371 130.758 L
248.406 130.756 L
252.441 130.753 L
256.476 130.75 L
260.511 130.745 L
264.546 130.738 L
268.581 130.729 L
272.616 130.717 L
276.65 130.701 L
280.685 130.679 L
284.72 130.649 L
288.755 130.609 L
292.79 130.556 L
296.825 130.484 L
S
GR
GS
[0.75 0 0 0.75 0 0] CT
0.929 0.694 0.125 RC
1 LJ
0.667 LW
N
292.79 130.556 M
296.825 130.484 L
300.86 130.389 L
304.895 130.263 L
308.93 130.101 L
312.965 129.894 L
317 129.637 L
321.035 129.329 L
325.07 128.979 L
329.105 128.611 L
333.14 128.278 L
337.175 128.06 L
341.21 128.066 L
345.245 128.41 L
349.279 129.172 L
353.314 130.368 L
357.349 131.947 L
361.384 133.823 L
365.419 135.904 L
369.454 138.117 L
373.489 140.41 L
377.524 142.749 L
381.559 145.116 L
385.594 147.498 L
389.629 149.888 L
393.664 152.281 L
397.699 154.663 L
401.734 157.05 L
405.769 159.443 L
409.804 161.841 L
413.839 164.24 L
417.874 166.641 L
421.908 169.043 L
425.943 171.444 L
429.978 173.846 L
434.013 176.248 L
438.048 178.65 L
442.083 181.052 L
446.118 183.454 L
450.153 185.856 L
454.188 188.258 L
458.223 190.66 L
462.258 193.062 L
466.293 195.465 L
470.328 197.867 L
474.363 200.269 L
478.398 202.671 L
482.433 205.073 L
486.468 207.475 L
490.503 209.877 L
494.537 212.279 L
498.572 214.681 L
S
GR
GS
[0.75 0 0 0.75 0 0] CT
0.929 0.694 0.125 RC
1 LJ
0.667 LW
N
494.537 212.279 M
498.572 214.681 L
502.607 217.083 L
506.642 219.485 L
507.042 219.723 L
S
GR
GS
[0.75 0 0 0.75 0 0] CT
0.929 0.694 0.125 RC
1 LJ
0.667 LW
N
84.958 149.465 M
103.148 149.465 L
107.183 149.465 L
111.218 149.465 L
115.253 149.465 L
119.288 149.465 L
123.323 149.465 L
127.357 149.465 L
131.392 149.465 L
135.427 149.465 L
139.462 149.465 L
143.497 149.465 L
147.532 149.465 L
151.567 149.465 L
155.602 149.465 L
159.637 149.465 L
163.672 149.465 L
167.707 149.465 L
171.742 149.465 L
175.777 149.465 L
179.812 149.465 L
183.847 149.465 L
187.882 149.465 L
191.917 149.465 L
195.952 149.465 L
199.986 149.465 L
204.021 149.465 L
208.056 149.465 L
212.091 149.465 L
216.126 149.465 L
220.161 149.464 L
224.196 149.464 L
228.231 149.464 L
232.266 149.463 L
236.301 149.462 L
240.336 149.461 L
244.371 149.459 L
248.406 149.457 L
252.441 149.454 L
256.476 149.449 L
260.511 149.443 L
264.546 149.435 L
268.581 149.424 L
272.616 149.41 L
276.65 149.39 L
280.685 149.363 L
284.72 149.326 L
288.755 149.276 L
292.79 149.209 L
296.825 149.118 L
S
GR
GS
[0.75 0 0 0.75 0 0] CT
0.929 0.694 0.125 RC
1 LJ
0.667 LW
N
292.79 149.209 M
296.825 149.118 L
300.86 148.997 L
304.895 148.835 L
308.93 148.621 L
312.965 148.339 L
317 147.973 L
321.035 147.504 L
325.07 146.914 L
329.105 146.187 L
333.14 145.316 L
337.175 144.305 L
341.21 143.176 L
345.245 141.981 L
349.279 140.804 L
353.314 139.774 L
357.349 139.054 L
361.384 138.811 L
365.419 139.158 L
369.454 140.102 L
373.489 141.553 L
377.524 143.375 L
381.559 145.44 L
385.594 147.652 L
389.629 149.949 L
393.664 152.296 L
397.699 154.684 L
401.734 157.083 L
405.769 159.483 L
409.804 161.884 L
413.839 164.286 L
417.874 166.688 L
421.908 169.09 L
425.943 171.492 L
429.978 173.894 L
434.013 176.296 L
438.048 178.698 L
442.083 181.1 L
446.118 183.502 L
450.153 185.904 L
454.188 188.306 L
458.223 190.708 L
462.258 193.11 L
466.293 195.512 L
470.328 197.914 L
474.363 200.316 L
478.398 202.718 L
482.433 205.12 L
486.468 207.522 L
490.503 209.924 L
494.537 212.326 L
498.572 214.728 L
S
GR
GS
[0.75 0 0 0.75 0 0] CT
0.929 0.694 0.125 RC
1 LJ
0.667 LW
N
494.537 212.326 M
498.572 214.728 L
502.607 217.13 L
506.642 219.533 L
507.042 219.771 L
S
GR
GS
[0.75 0 0 0.75 0 0] CT
0.494 0.184 0.557 RC
1 LJ
0.667 LW
N
84.958 52.707 M
103.148 52.708 L
107.183 52.71 L
111.218 52.711 L
115.253 52.713 L
119.288 52.716 L
123.323 52.72 L
127.357 52.725 L
131.392 52.732 L
135.427 52.742 L
139.462 52.755 L
143.497 52.773 L
147.532 52.797 L
151.567 52.83 L
155.602 52.875 L
159.637 52.935 L
163.672 53.016 L
167.707 53.126 L
171.742 53.272 L
175.777 53.467 L
179.812 53.725 L
183.847 54.062 L
187.882 54.5 L
191.917 55.058 L
195.952 55.758 L
199.986 56.62 L
204.021 57.659 L
208.056 58.881 L
212.091 60.287 L
216.126 61.865 L
220.161 63.601 L
224.196 65.475 L
228.231 67.464 L
232.266 69.548 L
236.301 71.708 L
240.336 73.926 L
244.371 76.19 L
248.406 78.488 L
252.441 80.812 L
256.476 83.154 L
260.511 85.51 L
264.546 87.874 L
268.581 90.245 L
272.616 92.618 L
276.65 94.992 L
280.685 97.362 L
284.72 99.728 L
288.755 102.084 L
292.79 104.428 L
296.825 106.754 L
S
GR
GS
[0.75 0 0 0.75 0 0] CT
0.494 0.184 0.557 RC
1 LJ
0.667 LW
N
292.79 104.428 M
296.825 106.754 L
300.86 109.055 L
304.895 111.325 L
308.93 113.553 L
312.965 115.728 L
317 117.837 L
321.035 119.868 L
325.07 121.809 L
329.105 123.651 L
333.14 125.391 L
337.175 127.038 L
341.21 128.606 L
345.245 130.124 L
349.279 131.625 L
353.314 133.145 L
357.349 134.717 L
361.384 136.368 L
365.419 138.113 L
369.454 139.96 L
373.489 141.905 L
377.524 143.939 L
381.559 146.051 L
385.594 148.228 L
389.629 150.456 L
393.664 152.725 L
397.699 155.025 L
401.734 157.349 L
405.769 159.691 L
409.804 162.046 L
413.839 164.412 L
417.874 166.785 L
421.908 169.165 L
425.943 171.545 L
429.978 173.92 L
434.013 176.301 L
438.048 178.688 L
442.083 181.08 L
446.118 183.474 L
450.153 185.871 L
454.188 188.269 L
458.223 190.668 L
462.258 193.068 L
466.293 195.468 L
470.328 197.869 L
474.363 200.271 L
478.398 202.672 L
482.433 205.074 L
486.468 207.476 L
490.503 209.877 L
494.537 212.279 L
498.572 214.681 L
S
GR
GS
[0.75 0 0 0.75 0 0] CT
0.494 0.184 0.557 RC
1 LJ
0.667 LW
N
494.537 212.279 M
498.572 214.681 L
502.607 217.083 L
506.642 219.485 L
507.042 219.723 L
S
GR
GS
[0.75 0 0 0.75 0 0] CT
0.494 0.184 0.557 RC
1 LJ
0.667 LW
N
84.958 62.066 M
103.148 62.067 L
107.183 62.068 L
111.218 62.07 L
115.253 62.072 L
119.288 62.075 L
123.323 62.079 L
127.357 62.084 L
131.392 62.091 L
135.427 62.101 L
139.462 62.114 L
143.497 62.132 L
147.532 62.156 L
151.567 62.189 L
155.602 62.234 L
159.637 62.294 L
163.672 62.375 L
167.707 62.485 L
171.742 62.631 L
175.777 62.826 L
179.812 63.084 L
183.847 63.421 L
187.882 63.858 L
191.917 64.416 L
195.952 65.117 L
199.986 65.979 L
204.021 67.018 L
208.056 68.24 L
212.091 69.645 L
216.126 71.224 L
220.161 72.96 L
224.196 74.833 L
228.231 76.823 L
232.266 78.907 L
236.301 81.066 L
240.336 83.284 L
244.371 85.548 L
248.406 87.846 L
252.441 90.169 L
256.476 92.51 L
260.511 94.865 L
264.546 97.229 L
268.581 99.598 L
272.616 101.969 L
276.65 104.34 L
280.685 106.706 L
284.72 109.066 L
288.755 111.416 L
292.79 113.75 L
296.825 116.062 L
S
GR
GS
[0.75 0 0 0.75 0 0] CT
0.494 0.184 0.557 RC
1 LJ
0.667 LW
N
292.79 113.75 M
296.825 116.062 L
300.86 118.346 L
304.895 120.591 L
308.93 122.786 L
312.965 124.916 L
317 126.966 L
321.035 128.916 L
325.07 130.75 L
329.105 132.449 L
333.14 134.004 L
337.175 135.409 L
341.21 136.67 L
345.245 137.804 L
349.279 138.84 L
353.314 139.811 L
357.349 140.759 L
361.384 141.729 L
365.419 142.76 L
369.454 143.89 L
373.489 145.147 L
377.524 146.547 L
381.559 148.098 L
385.594 149.796 L
389.629 151.629 L
393.664 153.581 L
397.699 155.635 L
401.734 157.771 L
405.769 159.973 L
409.804 162.227 L
413.839 164.52 L
417.874 166.843 L
421.908 169.189 L
425.943 171.554 L
429.978 173.94 L
434.013 176.331 L
438.048 178.724 L
442.083 181.12 L
446.118 183.517 L
450.153 185.915 L
454.188 188.314 L
458.223 190.714 L
462.258 193.115 L
466.293 195.516 L
470.328 197.917 L
474.363 200.318 L
478.398 202.72 L
482.433 205.121 L
486.468 207.523 L
490.503 209.925 L
494.537 212.327 L
498.572 214.729 L
S
GR
GS
[0.75 0 0 0.75 0 0] CT
0.494 0.184 0.557 RC
1 LJ
0.667 LW
N
494.537 212.327 M
498.572 214.729 L
502.607 217.131 L
506.642 219.533 L
507.042 219.771 L
S
GR
GS
[0.75 0 0 0.75 0 0] CT
1 GC
N
421 132 M
421 64 L
494 64 L
494 132 L
cp
f
GR
GS
[0.75 0 0 0.75 354.75 55.70049] CT
/Helvetica 12 F
GS
[1 0 0 1 0 0] CT
0 4.5 moveto 
1 -1 scale
(S) t 
GR
GR
GS
[0.75 0 0 0.75 0 0] CT
0 0.447 0.741 RC
1 LJ
0.667 LW
N
429 74.267 M
469 74.267 L
S
GR
GS
[0.75 0 0 0.75 354.75 67.56683] CT
/Helvetica 12 F
GS
[1 0 0 1 0 0] CT
0 4.5 moveto 
1 -1 scale
(T) t 
GR
GR
GS
[0.75 0 0 0.75 0 0] CT
0.851 0.325 0.098 RC
1 LJ
0.667 LW
N
429 90.089 M
469 90.089 L
S
GR
GS
[0.75 0 0 0.75 354.75 79.43317] CT
/Helvetica 12 F
GS
[1 0 0 1 0 0] CT
0 4.5 moveto 
1 -1 scale
(CS) t 
GR
GR
GS
[0.75 0 0 0.75 0 0] CT
0.929 0.694 0.125 RC
1 LJ
0.667 LW
N
429 105.911 M
469 105.911 L
S
GR
GS
[0.75 0 0 0.75 354.75 91.29951] CT
/Helvetica 12 F
GS
[1 0 0 1 0 0] CT
0 4.5 moveto 
1 -1 scale
(K) t 
GR
GR
GS
[0.75 0 0 0.75 0 0] CT
0.494 0.184 0.557 RC
1 LJ
0.667 LW
N
429 121.733 M
469 121.733 L
S
GR
GS
[0.75 0 0 0.75 0 0] CT
0.149 GC
10.0 ML
0.667 LW
N
421 132 M
421 64 L
494 64 L
494 132 L
cp
S
GR
GS
[0.75 0 0 0.75 221.25 33.52501] CT
/any-Bold 15 F
GS
[1 0 0 1 0 0] CT
-56.5 -4 moveto 
1 -1 scale
(Singular Values) t 
GR
GR
GS
[0.75 0 0 0.75 221.25 298.99999] CT
/Helvetica 15 F
GS
[1 0 0 1 0 0] CT
-59.5 14 moveto 
1 -1 scale
(Frequency \(rad/s\)) t 
GR
GR
GS
[0 -0.75 0.75 0 36.5 160.3875] CT
/Helvetica 15 F
GS
[1 0 0 1 0 0] CT
-69 -4 moveto 
1 -1 scale
(Singular Values \(dB\)) t 
GR
GR
%%Trailer
%%Pages: 1
%%EOF
