%!PS-Adobe-3.0 EPSF-3.0
%%Creator: (MATLAB, The Mathworks, Inc. Version 8.6.0.267246 \(R2015b\). Operating System: Windows 8)
%%Title: E:/Projects/skola/rls/pics/SP5/k2_u.eps
%%CreationDate: 2017-03-17T09:59:17
%%Pages: (atend)
%%BoundingBox: 0 0 420 315
%%LanguageLevel: 2
%%EndComments
%%BeginProlog
%%BeginResource: procset (Apache XML Graphics Std ProcSet) 1.2 0
%%Version: 1.2 0
%%Copyright: (Copyright 2001-2003,2010 The Apache Software Foundation. License terms: http://www.apache.org/licenses/LICENSE-2.0)
/bd{bind def}bind def
/ld{load def}bd
/GR/grestore ld
/M/moveto ld
/LJ/setlinejoin ld
/C/curveto ld
/f/fill ld
/LW/setlinewidth ld
/GC/setgray ld
/t/show ld
/N/newpath ld
/CT/concat ld
/cp/closepath ld
/S/stroke ld
/L/lineto ld
/CC/setcmykcolor ld
/A/ashow ld
/GS/gsave ld
/RC/setrgbcolor ld
/RM/rmoveto ld
/ML/setmiterlimit ld
/re {4 2 roll M
1 index 0 rlineto
0 exch rlineto
neg 0 rlineto
cp } bd
/_ctm matrix def
/_tm matrix def
/BT { _ctm currentmatrix pop matrix _tm copy pop 0 0 moveto } bd
/ET { _ctm setmatrix } bd
/iTm { _ctm setmatrix _tm concat } bd
/Tm { _tm astore pop iTm 0 0 moveto } bd
/ux 0.0 def
/uy 0.0 def
/F {
  /Tp exch def
  /Tf exch def
  Tf findfont Tp scalefont setfont
  /cf Tf def  /cs Tp def
} bd
/ULS {currentpoint /uy exch def /ux exch def} bd
/ULE {
  /Tcx currentpoint pop def
  gsave
  newpath
  cf findfont cs scalefont dup
  /FontMatrix get 0 get /Ts exch def /FontInfo get dup
  /UnderlinePosition get Ts mul /To exch def
  /UnderlineThickness get Ts mul /Tt exch def
  ux uy To add moveto  Tcx uy To add lineto
  Tt setlinewidth stroke
  grestore
} bd
/OLE {
  /Tcx currentpoint pop def
  gsave
  newpath
  cf findfont cs scalefont dup
  /FontMatrix get 0 get /Ts exch def /FontInfo get dup
  /UnderlinePosition get Ts mul /To exch def
  /UnderlineThickness get Ts mul /Tt exch def
  ux uy To add cs add moveto Tcx uy To add cs add lineto
  Tt setlinewidth stroke
  grestore
} bd
/SOE {
  /Tcx currentpoint pop def
  gsave
  newpath
  cf findfont cs scalefont dup
  /FontMatrix get 0 get /Ts exch def /FontInfo get dup
  /UnderlinePosition get Ts mul /To exch def
  /UnderlineThickness get Ts mul /Tt exch def
  ux uy To add cs 10 mul 26 idiv add moveto Tcx uy To add cs 10 mul 26 idiv add lineto
  Tt setlinewidth stroke
  grestore
} bd
/QT {
/Y22 exch store
/X22 exch store
/Y21 exch store
/X21 exch store
currentpoint
/Y21 load 2 mul add 3 div exch
/X21 load 2 mul add 3 div exch
/X21 load 2 mul /X22 load add 3 div
/Y21 load 2 mul /Y22 load add 3 div
/X22 load /Y22 load curveto
} bd
/SSPD {
dup length /d exch dict def
{
/v exch def
/k exch def
currentpagedevice k known {
/cpdv currentpagedevice k get def
v cpdv ne {
/upd false def
/nullv v type /nulltype eq def
/nullcpdv cpdv type /nulltype eq def
nullv nullcpdv or
{
/upd true def
} {
/sametype v type cpdv type eq def
sametype {
v type /arraytype eq {
/vlen v length def
/cpdvlen cpdv length def
vlen cpdvlen eq {
0 1 vlen 1 sub {
/i exch def
/obj v i get def
/cpdobj cpdv i get def
obj cpdobj ne {
/upd true def
exit
} if
} for
} {
/upd true def
} ifelse
} {
v type /dicttype eq {
v {
/dv exch def
/dk exch def
/cpddv cpdv dk get def
dv cpddv ne {
/upd true def
exit
} if
} forall
} {
/upd true def
} ifelse
} ifelse
} if
} ifelse
upd true eq {
d k v put
} if
} if
} if
} forall
d length 0 gt {
d setpagedevice
} if
} bd
%%EndResource
%%BeginResource: procset (Apache XML Graphics EPS ProcSet) 1.0 0
%%Version: 1.0 0
%%Copyright: (Copyright 2002-2003 The Apache Software Foundation. License terms: http://www.apache.org/licenses/LICENSE-2.0)
/BeginEPSF { %def
/b4_Inc_state save def         % Save state for cleanup
/dict_count countdictstack def % Count objects on dict stack
/op_count count 1 sub def      % Count objects on operand stack
userdict begin                 % Push userdict on dict stack
/showpage { } def              % Redefine showpage, { } = null proc
0 setgray 0 setlinecap         % Prepare graphics state
1 setlinewidth 0 setlinejoin
10 setmiterlimit [ ] 0 setdash newpath
/languagelevel where           % If level not equal to 1 then
{pop languagelevel             % set strokeadjust and
1 ne                           % overprint to their defaults.
{false setstrokeadjust false setoverprint
} if
} if
} bd
/EndEPSF { %def
count op_count sub {pop} repeat            % Clean up stacks
countdictstack dict_count sub {end} repeat
b4_Inc_state restore
} bd
%%EndResource
%FOPBeginFontDict
%%IncludeResource: font Courier-Bold
%%IncludeResource: font Helvetica
%%IncludeResource: font Courier-BoldOblique
%%IncludeResource: font Courier-Oblique
%%IncludeResource: font Times-Roman
%%IncludeResource: font Helvetica-BoldOblique
%%IncludeResource: font Helvetica-Bold
%%IncludeResource: font Helvetica-Oblique
%%IncludeResource: font Times-BoldItalic
%%IncludeResource: font Courier
%%IncludeResource: font Times-Italic
%%IncludeResource: font Times-Bold
%%IncludeResource: font Symbol
%%IncludeResource: font ZapfDingbats
%FOPEndFontDict
%%BeginResource: encoding WinAnsiEncoding
/WinAnsiEncoding [
/.notdef /.notdef /.notdef /.notdef /.notdef
/.notdef /.notdef /.notdef /.notdef /.notdef
/.notdef /.notdef /.notdef /.notdef /.notdef
/.notdef /.notdef /.notdef /.notdef /.notdef
/.notdef /.notdef /.notdef /.notdef /.notdef
/.notdef /.notdef /.notdef /.notdef /.notdef
/.notdef /.notdef /space /exclam /quotedbl
/numbersign /dollar /percent /ampersand /quotesingle
/parenleft /parenright /asterisk /plus /comma
/hyphen /period /slash /zero /one
/two /three /four /five /six
/seven /eight /nine /colon /semicolon
/less /equal /greater /question /at
/A /B /C /D /E
/F /G /H /I /J
/K /L /M /N /O
/P /Q /R /S /T
/U /V /W /X /Y
/Z /bracketleft /backslash /bracketright /asciicircum
/underscore /quoteleft /a /b /c
/d /e /f /g /h
/i /j /k /l /m
/n /o /p /q /r
/s /t /u /v /w
/x /y /z /braceleft /bar
/braceright /asciitilde /bullet /Euro /bullet
/quotesinglbase /florin /quotedblbase /ellipsis /dagger
/daggerdbl /circumflex /perthousand /Scaron /guilsinglleft
/OE /bullet /Zcaron /bullet /bullet
/quoteleft /quoteright /quotedblleft /quotedblright /bullet
/endash /emdash /asciitilde /trademark /scaron
/guilsinglright /oe /bullet /zcaron /Ydieresis
/space /exclamdown /cent /sterling /currency
/yen /brokenbar /section /dieresis /copyright
/ordfeminine /guillemotleft /logicalnot /sfthyphen /registered
/macron /degree /plusminus /twosuperior /threesuperior
/acute /mu /paragraph /middot /cedilla
/onesuperior /ordmasculine /guillemotright /onequarter /onehalf
/threequarters /questiondown /Agrave /Aacute /Acircumflex
/Atilde /Adieresis /Aring /AE /Ccedilla
/Egrave /Eacute /Ecircumflex /Edieresis /Igrave
/Iacute /Icircumflex /Idieresis /Eth /Ntilde
/Ograve /Oacute /Ocircumflex /Otilde /Odieresis
/multiply /Oslash /Ugrave /Uacute /Ucircumflex
/Udieresis /Yacute /Thorn /germandbls /agrave
/aacute /acircumflex /atilde /adieresis /aring
/ae /ccedilla /egrave /eacute /ecircumflex
/edieresis /igrave /iacute /icircumflex /idieresis
/eth /ntilde /ograve /oacute /ocircumflex
/otilde /odieresis /divide /oslash /ugrave
/uacute /ucircumflex /udieresis /yacute /thorn
/ydieresis
] def
%%EndResource
%FOPBeginFontReencode
/Courier-Bold findfont
dup length dict begin
  {1 index /FID ne {def} {pop pop} ifelse} forall
  /Encoding WinAnsiEncoding def
  currentdict
end
/Courier-Bold exch definefont pop
/Helvetica findfont
dup length dict begin
  {1 index /FID ne {def} {pop pop} ifelse} forall
  /Encoding WinAnsiEncoding def
  currentdict
end
/Helvetica exch definefont pop
/Courier-BoldOblique findfont
dup length dict begin
  {1 index /FID ne {def} {pop pop} ifelse} forall
  /Encoding WinAnsiEncoding def
  currentdict
end
/Courier-BoldOblique exch definefont pop
/Courier-Oblique findfont
dup length dict begin
  {1 index /FID ne {def} {pop pop} ifelse} forall
  /Encoding WinAnsiEncoding def
  currentdict
end
/Courier-Oblique exch definefont pop
/Times-Roman findfont
dup length dict begin
  {1 index /FID ne {def} {pop pop} ifelse} forall
  /Encoding WinAnsiEncoding def
  currentdict
end
/Times-Roman exch definefont pop
/Helvetica-BoldOblique findfont
dup length dict begin
  {1 index /FID ne {def} {pop pop} ifelse} forall
  /Encoding WinAnsiEncoding def
  currentdict
end
/Helvetica-BoldOblique exch definefont pop
/Helvetica-Bold findfont
dup length dict begin
  {1 index /FID ne {def} {pop pop} ifelse} forall
  /Encoding WinAnsiEncoding def
  currentdict
end
/Helvetica-Bold exch definefont pop
/Helvetica-Oblique findfont
dup length dict begin
  {1 index /FID ne {def} {pop pop} ifelse} forall
  /Encoding WinAnsiEncoding def
  currentdict
end
/Helvetica-Oblique exch definefont pop
/Times-BoldItalic findfont
dup length dict begin
  {1 index /FID ne {def} {pop pop} ifelse} forall
  /Encoding WinAnsiEncoding def
  currentdict
end
/Times-BoldItalic exch definefont pop
/Courier findfont
dup length dict begin
  {1 index /FID ne {def} {pop pop} ifelse} forall
  /Encoding WinAnsiEncoding def
  currentdict
end
/Courier exch definefont pop
/Times-Italic findfont
dup length dict begin
  {1 index /FID ne {def} {pop pop} ifelse} forall
  /Encoding WinAnsiEncoding def
  currentdict
end
/Times-Italic exch definefont pop
/Times-Bold findfont
dup length dict begin
  {1 index /FID ne {def} {pop pop} ifelse} forall
  /Encoding WinAnsiEncoding def
  currentdict
end
/Times-Bold exch definefont pop
%FOPEndFontReencode
%%EndProlog
%%Page: 1 1
%%PageBoundingBox: 0 0 420 315
%%BeginPageSetup
[1 0 0 -1 0 315] CT
%%EndPageSetup
GS
[0.75 0 0 0.75 0 0] CT
1 GC
N
0 0 560 420 re
f
GR
GS
[0.75 0 0 0.75 0 0] CT
1 GC
N
0 0 560 420 re
f
GR
GS
[0.75 0 0 0.75 0 0] CT
1 GC
N
73 374 M
507 374 L
507 31 L
73 31 L
cp
f
GR
GS
[0.75 0 0 0.75 0 0] CT
0.149 GC
2 setlinecap
1 LJ
0.667 LW
N
73 374 M
507 374 L
S
GR
GS
[0.75 0 0 0.75 0 0] CT
0.149 GC
2 setlinecap
1 LJ
0.667 LW
N
73 31 M
507 31 L
S
GR
GS
[0.75 0 0 0.75 0 0] CT
0.149 GC
2 setlinecap
1 LJ
0.667 LW
N
73 374 M
73 369.66 L
S
GR
GS
[0.75 0 0 0.75 0 0] CT
0.149 GC
2 setlinecap
1 LJ
0.667 LW
N
145.333 374 M
145.333 369.66 L
S
GR
GS
[0.75 0 0 0.75 0 0] CT
0.149 GC
2 setlinecap
1 LJ
0.667 LW
N
217.667 374 M
217.667 369.66 L
S
GR
GS
[0.75 0 0 0.75 0 0] CT
0.149 GC
2 setlinecap
1 LJ
0.667 LW
N
290 374 M
290 369.66 L
S
GR
GS
[0.75 0 0 0.75 0 0] CT
0.149 GC
2 setlinecap
1 LJ
0.667 LW
N
362.333 374 M
362.333 369.66 L
S
GR
GS
[0.75 0 0 0.75 0 0] CT
0.149 GC
2 setlinecap
1 LJ
0.667 LW
N
434.667 374 M
434.667 369.66 L
S
GR
GS
[0.75 0 0 0.75 0 0] CT
0.149 GC
2 setlinecap
1 LJ
0.667 LW
N
507 374 M
507 369.66 L
S
GR
GS
[0.75 0 0 0.75 0 0] CT
0.149 GC
2 setlinecap
1 LJ
0.667 LW
N
73 31 M
73 35.34 L
S
GR
GS
[0.75 0 0 0.75 0 0] CT
0.149 GC
2 setlinecap
1 LJ
0.667 LW
N
145.333 31 M
145.333 35.34 L
S
GR
GS
[0.75 0 0 0.75 0 0] CT
0.149 GC
2 setlinecap
1 LJ
0.667 LW
N
217.667 31 M
217.667 35.34 L
S
GR
GS
[0.75 0 0 0.75 0 0] CT
0.149 GC
2 setlinecap
1 LJ
0.667 LW
N
290 31 M
290 35.34 L
S
GR
GS
[0.75 0 0 0.75 0 0] CT
0.149 GC
2 setlinecap
1 LJ
0.667 LW
N
362.333 31 M
362.333 35.34 L
S
GR
GS
[0.75 0 0 0.75 0 0] CT
0.149 GC
2 setlinecap
1 LJ
0.667 LW
N
434.667 31 M
434.667 35.34 L
S
GR
GS
[0.75 0 0 0.75 0 0] CT
0.149 GC
2 setlinecap
1 LJ
0.667 LW
N
507 31 M
507 35.34 L
S
GR
GS
[0.75 0 0 0.75 54.75 284.50001] CT
0.149 GC
/Helvetica 13 F
GS
[1 0 0 1 0 0] CT
-4 13 moveto 
1 -1 scale
(0) t 
GR
GR
GS
[0.75 0 0 0.75 109 284.50001] CT
0.149 GC
/Helvetica 13 F
GS
[1 0 0 1 0 0] CT
-11 13 moveto 
1 -1 scale
(200) t 
GR
GR
GS
[0.75 0 0 0.75 163.25 284.50001] CT
0.149 GC
/Helvetica 13 F
GS
[1 0 0 1 0 0] CT
-11 13 moveto 
1 -1 scale
(400) t 
GR
GR
GS
[0.75 0 0 0.75 217.5 284.50001] CT
0.149 GC
/Helvetica 13 F
GS
[1 0 0 1 0 0] CT
-11 13 moveto 
1 -1 scale
(600) t 
GR
GR
GS
[0.75 0 0 0.75 271.75001 284.50001] CT
0.149 GC
/Helvetica 13 F
GS
[1 0 0 1 0 0] CT
-11 13 moveto 
1 -1 scale
(800) t 
GR
GR
GS
[0.75 0 0 0.75 325.99999 284.50001] CT
0.149 GC
/Helvetica 13 F
GS
[1 0 0 1 0 0] CT
-14.5 13 moveto 
1 -1 scale
(1000) t 
GR
GR
GS
[0.75 0 0 0.75 380.25 284.50001] CT
0.149 GC
/Helvetica 13 F
GS
[1 0 0 1 0 0] CT
-14.5 13 moveto 
1 -1 scale
(1200) t 
GR
GR
GS
[0.75 0 0 0.75 217.50016 297.49999] CT
0.149 GC
/Helvetica 15 F
GS
[1 0 0 1 0 0] CT
-11 14 moveto 
1 -1 scale
(t\(s\)) t 
GR
GR
GS
[0.75 0 0 0.75 0 0] CT
0.149 GC
2 setlinecap
1 LJ
0.667 LW
N
73 374 M
73 31 L
S
GR
GS
[0.75 0 0 0.75 0 0] CT
0.149 GC
2 setlinecap
1 LJ
0.667 LW
N
507 374 M
507 31 L
S
GR
GS
[0.75 0 0 0.75 0 0] CT
0.149 GC
2 setlinecap
1 LJ
0.667 LW
N
73 374 M
77.34 374 L
S
GR
GS
[0.75 0 0 0.75 0 0] CT
0.149 GC
2 setlinecap
1 LJ
0.667 LW
N
73 335.889 M
77.34 335.889 L
S
GR
GS
[0.75 0 0 0.75 0 0] CT
0.149 GC
2 setlinecap
1 LJ
0.667 LW
N
73 297.778 M
77.34 297.778 L
S
GR
GS
[0.75 0 0 0.75 0 0] CT
0.149 GC
2 setlinecap
1 LJ
0.667 LW
N
73 259.667 M
77.34 259.667 L
S
GR
GS
[0.75 0 0 0.75 0 0] CT
0.149 GC
2 setlinecap
1 LJ
0.667 LW
N
73 221.556 M
77.34 221.556 L
S
GR
GS
[0.75 0 0 0.75 0 0] CT
0.149 GC
2 setlinecap
1 LJ
0.667 LW
N
73 183.444 M
77.34 183.444 L
S
GR
GS
[0.75 0 0 0.75 0 0] CT
0.149 GC
2 setlinecap
1 LJ
0.667 LW
N
73 145.333 M
77.34 145.333 L
S
GR
GS
[0.75 0 0 0.75 0 0] CT
0.149 GC
2 setlinecap
1 LJ
0.667 LW
N
73 107.222 M
77.34 107.222 L
S
GR
GS
[0.75 0 0 0.75 0 0] CT
0.149 GC
2 setlinecap
1 LJ
0.667 LW
N
73 69.111 M
77.34 69.111 L
S
GR
GS
[0.75 0 0 0.75 0 0] CT
0.149 GC
2 setlinecap
1 LJ
0.667 LW
N
73 31 M
77.34 31 L
S
GR
GS
[0.75 0 0 0.75 0 0] CT
0.149 GC
2 setlinecap
1 LJ
0.667 LW
N
507 374 M
502.66 374 L
S
GR
GS
[0.75 0 0 0.75 0 0] CT
0.149 GC
2 setlinecap
1 LJ
0.667 LW
N
507 335.889 M
502.66 335.889 L
S
GR
GS
[0.75 0 0 0.75 0 0] CT
0.149 GC
2 setlinecap
1 LJ
0.667 LW
N
507 297.778 M
502.66 297.778 L
S
GR
GS
[0.75 0 0 0.75 0 0] CT
0.149 GC
2 setlinecap
1 LJ
0.667 LW
N
507 259.667 M
502.66 259.667 L
S
GR
GS
[0.75 0 0 0.75 0 0] CT
0.149 GC
2 setlinecap
1 LJ
0.667 LW
N
507 221.556 M
502.66 221.556 L
S
GR
GS
[0.75 0 0 0.75 0 0] CT
0.149 GC
2 setlinecap
1 LJ
0.667 LW
N
507 183.444 M
502.66 183.444 L
S
GR
GS
[0.75 0 0 0.75 0 0] CT
0.149 GC
2 setlinecap
1 LJ
0.667 LW
N
507 145.333 M
502.66 145.333 L
S
GR
GS
[0.75 0 0 0.75 0 0] CT
0.149 GC
2 setlinecap
1 LJ
0.667 LW
N
507 107.222 M
502.66 107.222 L
S
GR
GS
[0.75 0 0 0.75 0 0] CT
0.149 GC
2 setlinecap
1 LJ
0.667 LW
N
507 69.111 M
502.66 69.111 L
S
GR
GS
[0.75 0 0 0.75 0 0] CT
0.149 GC
2 setlinecap
1 LJ
0.667 LW
N
507 31 M
502.66 31 L
S
GR
GS
[0.75 0 0 0.75 50.75 280.5] CT
0.149 GC
/Helvetica 13 F
GS
[1 0 0 1 0 0] CT
-12 5 moveto 
1 -1 scale
(-4) t 
GR
GR
GS
[0.75 0 0 0.75 50.75 251.91666] CT
0.149 GC
/Helvetica 13 F
GS
[1 0 0 1 0 0] CT
-12 5 moveto 
1 -1 scale
(-2) t 
GR
GR
GS
[0.75 0 0 0.75 50.75 223.33333] CT
0.149 GC
/Helvetica 13 F
GS
[1 0 0 1 0 0] CT
-8 5 moveto 
1 -1 scale
(0) t 
GR
GR
GS
[0.75 0 0 0.75 50.75 194.74999] CT
0.149 GC
/Helvetica 13 F
GS
[1 0 0 1 0 0] CT
-8 5 moveto 
1 -1 scale
(2) t 
GR
GR
GS
[0.75 0 0 0.75 50.75 166.16667] CT
0.149 GC
/Helvetica 13 F
GS
[1 0 0 1 0 0] CT
-8 5 moveto 
1 -1 scale
(4) t 
GR
GR
GS
[0.75 0 0 0.75 50.75 137.58333] CT
0.149 GC
/Helvetica 13 F
GS
[1 0 0 1 0 0] CT
-8 5 moveto 
1 -1 scale
(6) t 
GR
GR
GS
[0.75 0 0 0.75 50.75 109] CT
0.149 GC
/Helvetica 13 F
GS
[1 0 0 1 0 0] CT
-8 5 moveto 
1 -1 scale
(8) t 
GR
GR
GS
[0.75 0 0 0.75 50.75 80.41667] CT
0.149 GC
/Helvetica 13 F
GS
[1 0 0 1 0 0] CT
-15 5 moveto 
1 -1 scale
(10) t 
GR
GR
GS
[0.75 0 0 0.75 50.75 51.83334] CT
0.149 GC
/Helvetica 13 F
GS
[1 0 0 1 0 0] CT
-15 5 moveto 
1 -1 scale
(12) t 
GR
GR
GS
[0.75 0 0 0.75 50.75 23.25] CT
0.149 GC
/Helvetica 13 F
GS
[1 0 0 1 0 0] CT
-15 5 moveto 
1 -1 scale
(14) t 
GR
GR
GS
[0.75 0 0 0.75 39 13.5] CT
/any-Bold 15 F
GS
[1 0 0 1 0 0] CT
0 0 moveto 
1 -1 scale
(Response of system without \(u) t 
GR
GR
GS
[0.75 0 0 0.75 205.5 18.75] CT
/any-Bold 11 F
GS
[1 0 0 1 0 0] CT
0 0 moveto 
1 -1 scale
(1) t 
GR
GR
GS
[0.75 0 0 0.75 210.75 13.5] CT
/any-Bold 15 F
GS
[1 0 0 1 0 0] CT
0 0 moveto 
1 -1 scale
(\) and with integration \(u) t 
GR
GR
GS
[0.75 0 0 0.75 338.25 18.75] CT
/any-Bold 11 F
GS
[1 0 0 1 0 0] CT
0 0 moveto 
1 -1 scale
(2) t 
GR
GR
GS
[0.75 0 0 0.75 343.5 13.5] CT
/any-Bold 15 F
GS
[1 0 0 1 0 0] CT
0 0 moveto 
1 -1 scale
(\) - control) t 
GR
GR
GS
[0.75 0 0 0.75 0 0] CT
0 0.447 0.741 RC
1 LJ
0.667 LW
N
73 297.778 M
73.362 297.778 L
73.362 297.778 L
73.362 297.778 L
73.795 293.324 L
74.228 289.034 L
74.79 283.71 L
75.481 277.525 L
76.467 269.352 L
77.707 260.112 L
79.509 248.564 L
81.847 236.522 L
83.324 230.39 L
84.802 225.252 L
86.494 220.437 L
88.253 216.469 L
89.817 213.697 L
91.169 211.793 L
92.517 210.281 L
94.075 208.95 L
95.832 207.893 L
97.508 207.247 L
98.919 206.926 L
100.204 206.78 L
101.623 206.754 L
103.305 206.872 L
105.07 207.132 L
106.606 207.445 L
107.907 207.758 L
109.22 208.109 L
110.78 208.561 L
112.564 209.109 L
114.245 209.645 L
115.629 210.095 L
116.886 210.506 L
118.305 210.969 L
120.018 211.524 L
121.808 212.095 L
123.333 212.571 L
124.605 212.96 L
125.905 213.349 L
127.48 213.808 L
129.296 214.319 L
130.982 214.775 L
132.345 215.129 L
133.58 215.44 L
135 215.785 L
136.736 216.188 L
138.547 216.586 L
140.062 216.902 L
S
GR
GS
[0.75 0 0 0.75 0 0] CT
0 0.447 0.741 RC
1 LJ
0.667 LW
N
138.547 216.586 M
140.062 216.902 L
141.313 217.151 L
142.602 217.396 L
144.188 217.682 L
146.028 217.993 L
147.374 218.206 L
148.721 218.408 L
150.325 218.633 L
152.111 218.865 L
153.742 219.06 L
155.092 219.21 L
156.363 219.342 L
157.83 219.483 L
159.575 219.636 L
161.333 219.775 L
162.805 219.881 L
164.066 219.963 L
165.403 220.043 L
167.028 220.131 L
168.845 220.218 L
170.477 220.286 L
171.802 220.335 L
173.053 220.376 L
174.525 220.419 L
176.298 220.463 L
178.073 220.5 L
179.531 220.525 L
180.768 220.543 L
181.5 220.552 L
181.5 220.552 L
181.5 220.552 L
181.944 220.395 L
182.388 220.311 L
182.994 220.311 L
183.712 220.472 L
184.632 220.91 L
185.847 221.849 L
187.55 223.741 L
189.694 226.854 L
190.93 228.911 L
192.166 231.096 L
193.817 234.137 L
195.785 237.823 L
197.048 240.167 L
198.312 242.457 L
199.944 245.296 L
201.871 248.427 L
203.159 250.363 L
204.447 252.161 L
206.068 254.221 L
207.943 256.312 L
S
GR
GS
[0.75 0 0 0.75 0 0] CT
0 0.447 0.741 RC
1 LJ
0.667 LW
N
206.068 254.221 M
207.943 256.312 L
209.253 257.589 L
210.564 258.717 L
212.175 259.907 L
214.013 261.012 L
215.341 261.656 L
216.67 262.178 L
218.274 262.661 L
220.082 263.029 L
221.731 263.222 L
223.073 263.291 L
224.325 263.293 L
225.78 263.228 L
227.534 263.07 L
229.316 262.835 L
230.795 262.596 L
232.042 262.368 L
233.361 262.109 L
234.982 261.769 L
236.817 261.365 L
238.467 260.994 L
239.79 260.696 L
241.024 260.418 L
242.482 260.094 L
244.258 259.71 L
246.054 259.335 L
247.523 259.042 L
248.753 258.806 L
250.065 258.565 L
251.696 258.281 L
253.55 257.98 L
254.859 257.781 L
256.169 257.594 L
257.776 257.38 L
259.611 257.157 L
261.275 256.972 L
262.607 256.836 L
263.838 256.72 L
265.283 256.594 L
267.049 256.455 L
268.854 256.329 L
270.338 256.236 L
271.571 256.166 L
272.873 256.099 L
274.49 256.024 L
276.343 255.95 L
277.663 255.903 L
278.983 255.862 L
280.59 255.817 L
282.412 255.775 L
284.067 255.742 L
S
GR
GS
[0.75 0 0 0.75 0 0] CT
0 0.447 0.741 RC
1 LJ
0.667 LW
N
282.412 255.775 M
284.067 255.742 L
285.403 255.72 L
286.644 255.702 L
288.095 255.685 L
289.858 255.667 L
290 255.666 L
290 65.111 L
290 65.111 L
291.084 65.919 L
292.162 68.2 L
293.493 72.731 L
295.036 79.877 L
296.844 90.138 L
299.014 104.152 L
300.185 112.134 L
301.356 120.238 L
302.996 131.584 L
305.026 145.308 L
306.281 153.469 L
307.535 161.315 L
309.173 171.018 L
311.105 181.604 L
312.388 188.096 L
313.671 194.155 L
315.292 201.202 L
317.174 208.548 L
318.482 213.153 L
319.79 217.37 L
321.403 222.067 L
323.245 226.803 L
324.571 229.836 L
325.898 232.579 L
327.503 235.546 L
329.314 238.479 L
330.964 240.808 L
332.305 242.489 L
333.554 243.9 L
335.008 245.374 L
336.765 246.94 L
338.549 248.32 L
340.028 249.323 L
341.273 250.08 L
342.59 250.802 L
344.211 251.592 L
346.048 252.371 L
347.7 252.979 L
349.022 253.409 L
350.255 253.769 L
351.711 254.15 L
353.488 254.553 L
355.287 254.901 L
S
GR
GS
[0.75 0 0 0.75 0 0] CT
0 0.447 0.741 RC
1 LJ
0.667 LW
N
353.488 254.553 M
355.287 254.901 L
356.756 255.144 L
357.985 255.323 L
359.295 255.49 L
360.926 255.667 L
362.781 255.831 L
364.091 255.925 L
365.4 256.003 L
367.008 256.078 L
368.843 256.138 L
370.507 256.173 L
371.839 256.188 L
373.07 256.194 L
374.514 256.19 L
376.281 256.174 L
378.086 256.144 L
379.569 256.112 L
380.802 256.081 L
382.104 256.044 L
383.722 255.994 L
385.575 255.931 L
386.895 255.884 L
388.214 255.835 L
389.822 255.774 L
391.644 255.704 L
393.299 255.641 L
394.635 255.59 L
395.876 255.543 L
397.327 255.489 L
399.089 255.425 L
400.883 255.363 L
402.362 255.313 L
403.601 255.273 L
404.912 255.232 L
406.532 255.184 L
408.378 255.133 L
409.697 255.099 L
411.017 255.066 L
412.623 255.029 L
414.444 254.99 L
416.099 254.958 L
417.437 254.933 L
418.679 254.912 L
420.129 254.89 L
421.889 254.865 L
423.682 254.842 L
425.162 254.825 L
426.403 254.812 L
427.714 254.8 L
429.333 254.786 L
431.177 254.773 L
S
GR
GS
[0.75 0 0 0.75 0 0] CT
0 0.447 0.741 RC
1 LJ
0.667 LW
N
429.333 254.786 M
431.177 254.773 L
432.498 254.764 L
433.819 254.757 L
435.425 254.749 L
437.244 254.741 L
438.898 254.735 L
440.237 254.732 L
441.48 254.729 L
442.931 254.726 L
444.69 254.723 L
446.481 254.721 L
447.961 254.72 L
449.203 254.719 L
450.516 254.719 L
452.135 254.719 L
453.977 254.719 L
455.299 254.72 L
456.62 254.721 L
458.225 254.722 L
460.043 254.723 L
461.697 254.724 L
463.037 254.726 L
464.281 254.727 L
465.731 254.728 L
467.49 254.73 L
469.281 254.732 L
470.761 254.733 L
472.003 254.735 L
473.316 254.736 L
474.935 254.738 L
476.777 254.739 L
478.099 254.741 L
479.421 254.742 L
481.026 254.743 L
482.843 254.745 L
484.497 254.746 L
485.836 254.747 L
487.081 254.748 L
488.532 254.749 L
490.29 254.75 L
492.081 254.751 L
493.561 254.752 L
494.803 254.753 L
496.116 254.753 L
497.735 254.754 L
499.577 254.755 L
500.899 254.755 L
502.221 254.756 L
503.826 254.756 L
505.643 254.757 L
507 254.757 L
S
GR
GS
[0.75 0 0 0.75 0 0] CT
0 0.447 0.741 RC
1 LJ
0.667 LW
N
505.643 254.757 M
507 254.757 L
S
GR
GS
[0.75 0 0 0.75 0 0] CT
0.851 0.325 0.098 RC
1 LJ
0.667 LW
N
73 297.778 M
73.362 297.778 L
73.362 297.778 L
73.362 297.778 L
73.795 297.989 L
74.228 298.258 L
74.79 298.687 L
75.481 299.333 L
76.467 300.462 L
77.707 302.189 L
79.509 305.201 L
81.847 309.752 L
83.324 312.868 L
84.802 316.078 L
86.494 319.784 L
88.253 323.585 L
89.817 326.857 L
91.169 329.564 L
92.517 332.132 L
94.075 334.907 L
95.832 337.77 L
97.508 340.221 L
98.919 342.068 L
100.204 343.577 L
101.623 345.056 L
103.305 346.56 L
105.07 347.862 L
106.606 348.78 L
107.907 349.411 L
109.22 349.923 L
110.78 350.379 L
112.564 350.72 L
114.245 350.886 L
115.629 350.923 L
116.886 350.889 L
118.305 350.782 L
120.018 350.573 L
121.808 350.275 L
123.333 349.972 L
124.605 349.691 L
125.905 349.385 L
127.48 348.992 L
129.296 348.522 L
130.982 348.077 L
132.345 347.716 L
133.58 347.39 L
135 347.021 L
136.736 346.581 L
138.547 346.139 L
140.062 345.784 L
S
GR
GS
[0.75 0 0 0.75 0 0] CT
0.851 0.325 0.098 RC
1 LJ
0.667 LW
N
138.547 346.139 M
140.062 345.784 L
141.313 345.503 L
142.602 345.225 L
144.188 344.901 L
146.028 344.548 L
147.374 344.307 L
148.721 344.08 L
150.325 343.827 L
152.111 343.569 L
153.742 343.354 L
155.092 343.189 L
156.363 343.046 L
157.83 342.893 L
159.575 342.729 L
161.333 342.581 L
162.805 342.47 L
164.066 342.383 L
165.403 342.3 L
167.028 342.209 L
168.845 342.12 L
170.477 342.051 L
171.802 342.002 L
173.053 341.96 L
174.525 341.917 L
176.298 341.873 L
178.073 341.836 L
179.531 341.811 L
180.768 341.793 L
181.5 341.784 L
181.5 341.784 L
181.5 341.784 L
181.944 337.225 L
182.388 332.853 L
182.994 327.176 L
183.712 320.877 L
184.632 313.459 L
185.847 304.699 L
187.55 294.246 L
189.694 283.756 L
190.93 278.884 L
192.166 274.759 L
193.817 270.273 L
195.785 266.226 L
197.048 264.254 L
198.312 262.695 L
199.944 261.198 L
201.871 260.045 L
203.159 259.572 L
204.447 259.291 L
206.068 259.159 L
207.943 259.242 L
S
GR
GS
[0.75 0 0 0.75 0 0] CT
0.851 0.325 0.098 RC
1 LJ
0.667 LW
N
206.068 259.159 M
207.943 259.242 L
209.253 259.414 L
210.564 259.655 L
212.175 260.023 L
214.013 260.507 L
215.341 260.884 L
216.67 261.273 L
218.274 261.75 L
220.082 262.287 L
221.731 262.769 L
223.073 263.151 L
224.325 263.499 L
225.78 263.891 L
227.534 264.346 L
229.316 264.787 L
230.795 265.137 L
232.042 265.422 L
233.361 265.712 L
234.982 266.055 L
236.817 266.424 L
238.467 266.741 L
239.79 266.985 L
241.024 267.205 L
242.482 267.455 L
244.258 267.746 L
246.054 268.025 L
247.523 268.243 L
248.753 268.419 L
250.065 268.598 L
251.696 268.811 L
253.55 269.04 L
254.859 269.193 L
256.169 269.339 L
257.776 269.508 L
259.611 269.688 L
261.275 269.84 L
262.607 269.954 L
263.838 270.053 L
265.283 270.163 L
267.049 270.286 L
268.854 270.401 L
270.338 270.487 L
271.571 270.553 L
272.873 270.618 L
274.49 270.691 L
276.343 270.766 L
277.663 270.813 L
278.983 270.857 L
280.59 270.904 L
282.412 270.95 L
284.067 270.986 L
S
GR
GS
[0.75 0 0 0.75 0 0] CT
0.851 0.325 0.098 RC
1 LJ
0.667 LW
N
282.412 270.95 M
284.067 270.986 L
285.403 271.012 L
286.644 271.033 L
288.095 271.054 L
289.858 271.075 L
290 271.077 L
290 271.077 L
290 271.077 L
291.084 271.15 L
292.162 271.592 L
293.493 272.861 L
295.036 275.293 L
296.844 279.127 L
299.014 284.496 L
300.185 287.497 L
301.356 290.449 L
302.996 294.359 L
305.026 298.636 L
306.281 300.887 L
307.535 302.807 L
309.173 304.792 L
311.105 306.375 L
312.388 306.986 L
313.671 307.267 L
315.292 307.184 L
317.174 306.54 L
318.482 305.791 L
319.79 304.829 L
321.403 303.399 L
323.245 301.502 L
324.571 300.004 L
325.898 298.427 L
327.503 296.449 L
329.314 294.171 L
330.964 292.097 L
332.305 290.433 L
333.554 288.915 L
335.008 287.2 L
336.765 285.221 L
338.549 283.329 L
340.028 281.862 L
341.273 280.7 L
342.59 279.547 L
344.211 278.237 L
346.048 276.895 L
347.7 275.815 L
349.022 275.035 L
350.255 274.372 L
351.711 273.666 L
353.488 272.91 L
355.287 272.256 L
S
GR
GS
[0.75 0 0 0.75 0 0] CT
0.851 0.325 0.098 RC
1 LJ
0.667 LW
N
353.488 272.91 M
355.287 272.256 L
356.756 271.797 L
357.985 271.462 L
359.295 271.15 L
360.926 270.82 L
362.781 270.517 L
364.091 270.344 L
365.4 270.202 L
367.008 270.064 L
368.843 269.952 L
370.507 269.884 L
371.839 269.851 L
373.07 269.834 L
374.514 269.829 L
376.281 269.842 L
378.086 269.872 L
379.569 269.908 L
380.802 269.944 L
382.104 269.986 L
383.722 270.044 L
385.575 270.115 L
386.895 270.169 L
388.214 270.223 L
389.822 270.29 L
391.644 270.366 L
393.299 270.435 L
394.635 270.489 L
395.876 270.538 L
397.327 270.594 L
399.089 270.66 L
400.883 270.723 L
402.362 270.773 L
403.601 270.813 L
404.912 270.853 L
406.532 270.9 L
408.378 270.95 L
409.697 270.984 L
411.017 271.015 L
412.623 271.051 L
414.444 271.088 L
416.099 271.119 L
417.437 271.142 L
418.679 271.162 L
420.129 271.184 L
421.889 271.207 L
423.682 271.229 L
425.162 271.244 L
426.403 271.257 L
427.714 271.268 L
429.333 271.281 L
431.177 271.294 L
S
GR
GS
[0.75 0 0 0.75 0 0] CT
0.851 0.325 0.098 RC
1 LJ
0.667 LW
N
429.333 271.281 M
431.177 271.294 L
432.498 271.302 L
433.819 271.309 L
435.425 271.317 L
437.244 271.324 L
438.898 271.33 L
440.237 271.333 L
441.48 271.336 L
442.931 271.339 L
444.69 271.342 L
446.481 271.344 L
447.961 271.345 L
449.203 271.346 L
450.516 271.346 L
452.135 271.346 L
453.977 271.346 L
455.299 271.346 L
456.62 271.345 L
458.225 271.344 L
460.043 271.343 L
461.697 271.342 L
463.037 271.341 L
464.281 271.339 L
465.731 271.338 L
467.49 271.336 L
469.281 271.335 L
470.761 271.333 L
472.003 271.332 L
473.316 271.331 L
474.935 271.329 L
476.777 271.327 L
478.099 271.326 L
479.421 271.325 L
481.026 271.324 L
482.843 271.322 L
484.497 271.321 L
485.836 271.32 L
487.081 271.319 L
488.532 271.318 L
490.29 271.317 L
492.081 271.316 L
493.561 271.315 L
494.803 271.314 L
496.116 271.314 L
497.735 271.313 L
499.577 271.312 L
500.899 271.312 L
502.221 271.311 L
503.826 271.311 L
505.643 271.31 L
507 271.31 L
S
GR
GS
[0.75 0 0 0.75 0 0] CT
0.851 0.325 0.098 RC
1 LJ
0.667 LW
N
505.643 271.31 M
507 271.31 L
S
GR
GS
[0.75 0 0 0.75 0 0] CT
0.929 0.694 0.125 RC
1 LJ
0.667 LW
N
73 297.778 M
73.362 297.778 L
73.362 297.778 L
73.362 297.778 L
73.795 293.323 L
74.228 289.033 L
74.79 283.707 L
75.481 277.519 L
76.467 269.339 L
77.707 260.088 L
79.509 248.519 L
81.847 236.443 L
83.324 230.288 L
84.802 225.125 L
86.494 220.28 L
88.253 216.281 L
89.817 213.481 L
91.169 211.553 L
92.517 210.019 L
94.075 208.662 L
95.832 207.579 L
97.508 206.908 L
98.919 206.568 L
100.204 206.406 L
101.623 206.363 L
103.305 206.462 L
105.07 206.704 L
106.606 207.003 L
107.907 207.305 L
109.22 207.646 L
110.78 208.087 L
112.564 208.624 L
114.245 209.151 L
115.629 209.593 L
116.886 209.998 L
118.305 210.456 L
120.018 211.005 L
121.808 211.57 L
123.333 212.043 L
124.605 212.43 L
125.905 212.816 L
127.48 213.273 L
129.296 213.781 L
130.982 214.236 L
132.345 214.59 L
133.58 214.901 L
135 215.246 L
136.736 215.649 L
138.547 216.048 L
140.062 216.364 L
S
GR
GS
[0.75 0 0 0.75 0 0] CT
0.929 0.694 0.125 RC
1 LJ
0.667 LW
N
138.547 216.048 M
140.062 216.364 L
141.313 216.614 L
142.602 216.861 L
144.188 217.148 L
146.028 217.461 L
147.374 217.676 L
148.721 217.88 L
150.325 218.107 L
152.111 218.341 L
153.742 218.539 L
155.092 218.69 L
156.363 218.824 L
157.83 218.967 L
159.575 219.123 L
161.333 219.265 L
162.805 219.372 L
164.066 219.457 L
165.403 219.539 L
167.028 219.629 L
168.845 219.717 L
170.477 219.787 L
171.802 219.838 L
173.053 219.88 L
174.525 219.925 L
176.298 219.971 L
178.073 220.009 L
179.531 220.035 L
180.768 220.055 L
181.5 220.064 L
181.5 220.064 L
181.5 220.064 L
181.944 219.907 L
182.388 219.824 L
182.994 219.825 L
183.712 219.985 L
184.632 220.425 L
185.847 221.364 L
187.55 223.259 L
189.694 226.376 L
190.93 228.437 L
192.166 230.627 L
193.817 233.675 L
195.785 237.373 L
197.048 239.725 L
198.312 242.025 L
199.944 244.877 L
201.871 248.026 L
203.159 249.974 L
204.447 251.785 L
206.068 253.861 L
207.943 255.972 L
S
GR
GS
[0.75 0 0 0.75 0 0] CT
0.929 0.694 0.125 RC
1 LJ
0.667 LW
N
206.068 253.861 M
207.943 255.972 L
209.253 257.262 L
210.564 258.404 L
212.175 259.611 L
214.013 260.735 L
215.341 261.391 L
216.67 261.926 L
218.274 262.423 L
220.082 262.806 L
221.731 263.012 L
223.073 263.09 L
224.325 263.1 L
225.78 263.044 L
227.534 262.895 L
229.316 262.669 L
230.795 262.435 L
232.042 262.212 L
233.361 261.956 L
234.982 261.62 L
236.817 261.221 L
238.467 260.852 L
239.79 260.555 L
241.024 260.278 L
242.482 259.955 L
244.258 259.571 L
246.054 259.196 L
247.523 258.902 L
248.753 258.665 L
250.065 258.423 L
251.696 258.138 L
253.55 257.835 L
254.859 257.635 L
256.169 257.446 L
257.776 257.23 L
259.611 257.004 L
261.275 256.817 L
262.607 256.68 L
263.838 256.562 L
265.283 256.434 L
267.049 256.292 L
268.854 256.164 L
270.338 256.069 L
271.571 255.998 L
272.873 255.929 L
274.49 255.852 L
276.343 255.776 L
277.663 255.728 L
278.983 255.685 L
280.59 255.639 L
282.412 255.595 L
284.067 255.561 L
S
GR
GS
[0.75 0 0 0.75 0 0] CT
0.929 0.694 0.125 RC
1 LJ
0.667 LW
N
282.412 255.595 M
284.067 255.561 L
285.403 255.538 L
286.644 255.519 L
288.095 255.501 L
289.858 255.483 L
290 255.481 L
290 64.926 L
290 64.926 L
291.084 65.733 L
292.162 68.015 L
293.493 72.546 L
295.036 79.697 L
296.844 89.966 L
299.014 103.998 L
300.185 111.993 L
301.356 120.111 L
302.996 131.482 L
305.026 145.241 L
306.281 153.427 L
307.535 161.299 L
309.173 171.039 L
311.105 181.669 L
312.388 188.192 L
313.671 194.282 L
315.292 201.369 L
317.174 208.76 L
318.482 213.397 L
319.79 217.645 L
321.403 222.379 L
323.245 227.156 L
324.571 230.217 L
325.898 232.988 L
327.503 235.987 L
329.314 238.953 L
330.964 241.311 L
332.305 243.014 L
333.554 244.446 L
335.008 245.942 L
336.765 247.532 L
338.549 248.936 L
340.028 249.957 L
341.273 250.728 L
342.59 251.465 L
344.211 252.271 L
346.048 253.068 L
347.7 253.69 L
349.022 254.131 L
350.255 254.501 L
351.711 254.892 L
353.488 255.307 L
355.287 255.666 L
S
GR
GS
[0.75 0 0 0.75 0 0] CT
0.929 0.694 0.125 RC
1 LJ
0.667 LW
N
353.488 255.307 M
355.287 255.666 L
356.756 255.919 L
357.985 256.104 L
359.295 256.278 L
360.926 256.462 L
362.781 256.634 L
364.091 256.734 L
365.4 256.816 L
367.008 256.896 L
368.843 256.963 L
370.507 257.002 L
371.839 257.021 L
373.07 257.029 L
374.514 257.029 L
376.281 257.015 L
378.086 256.989 L
379.569 256.959 L
380.802 256.929 L
382.104 256.893 L
383.722 256.844 L
385.575 256.783 L
386.895 256.736 L
388.214 256.688 L
389.822 256.628 L
391.644 256.558 L
393.299 256.495 L
394.635 256.444 L
395.876 256.397 L
397.327 256.342 L
399.089 256.278 L
400.883 256.215 L
402.362 256.165 L
403.601 256.125 L
404.912 256.084 L
406.532 256.035 L
408.378 255.983 L
409.697 255.948 L
411.017 255.915 L
412.623 255.877 L
414.444 255.837 L
416.099 255.804 L
417.437 255.779 L
418.679 255.757 L
420.129 255.734 L
421.889 255.708 L
423.682 255.685 L
425.162 255.668 L
426.403 255.654 L
427.714 255.641 L
429.333 255.627 L
431.177 255.613 L
S
GR
GS
[0.75 0 0 0.75 0 0] CT
0.929 0.694 0.125 RC
1 LJ
0.667 LW
N
429.333 255.627 M
431.177 255.613 L
432.498 255.604 L
433.819 255.596 L
435.425 255.588 L
437.244 255.58 L
438.898 255.574 L
440.237 255.57 L
441.48 255.566 L
442.931 255.563 L
444.69 255.56 L
446.481 255.558 L
447.961 255.557 L
449.203 255.556 L
450.516 255.555 L
452.135 255.555 L
453.977 255.555 L
455.299 255.556 L
456.62 255.556 L
458.225 255.557 L
460.043 255.559 L
461.697 255.56 L
463.037 255.561 L
464.281 255.562 L
465.731 255.564 L
467.49 255.565 L
469.281 255.567 L
470.761 255.569 L
472.003 255.57 L
473.316 255.571 L
474.935 255.573 L
476.777 255.575 L
478.099 255.576 L
479.421 255.577 L
481.026 255.579 L
482.843 255.58 L
484.497 255.582 L
485.836 255.583 L
487.081 255.583 L
488.532 255.584 L
490.29 255.586 L
492.081 255.587 L
493.561 255.588 L
494.803 255.588 L
496.116 255.589 L
497.735 255.59 L
499.577 255.59 L
500.899 255.591 L
502.221 255.591 L
503.826 255.592 L
505.643 255.593 L
507 255.593 L
S
GR
GS
[0.75 0 0 0.75 0 0] CT
0.929 0.694 0.125 RC
1 LJ
0.667 LW
N
505.643 255.593 M
507 255.593 L
S
GR
GS
[0.75 0 0 0.75 0 0] CT
0.494 0.184 0.557 RC
1 LJ
0.667 LW
N
73 297.778 M
73.362 297.778 L
73.362 297.778 L
73.362 297.778 L
73.795 297.989 L
74.228 298.258 L
74.79 298.687 L
75.481 299.333 L
76.467 300.463 L
77.707 302.191 L
79.509 305.207 L
81.847 309.764 L
83.324 312.886 L
84.802 316.104 L
86.494 319.82 L
88.253 323.634 L
89.817 326.919 L
91.169 329.638 L
92.517 332.219 L
94.075 335.01 L
95.832 337.894 L
97.508 340.364 L
98.919 342.228 L
100.204 343.752 L
101.623 345.248 L
103.305 346.772 L
105.07 348.095 L
106.606 349.03 L
107.907 349.676 L
109.22 350.201 L
110.78 350.673 L
112.564 351.031 L
114.245 351.211 L
115.629 351.259 L
116.886 351.234 L
118.305 351.138 L
120.018 350.939 L
121.808 350.651 L
123.333 350.355 L
124.605 350.079 L
125.905 349.777 L
127.48 349.389 L
129.296 348.923 L
130.982 348.481 L
132.345 348.122 L
133.58 347.798 L
135 347.43 L
136.736 346.99 L
138.547 346.548 L
140.062 346.192 L
S
GR
GS
[0.75 0 0 0.75 0 0] CT
0.494 0.184 0.557 RC
1 LJ
0.667 LW
N
138.547 346.548 M
140.062 346.192 L
141.313 345.911 L
142.602 345.632 L
144.188 345.306 L
146.028 344.951 L
147.374 344.708 L
148.721 344.479 L
150.325 344.225 L
152.111 343.964 L
153.742 343.746 L
155.092 343.579 L
156.363 343.434 L
157.83 343.279 L
159.575 343.112 L
161.333 342.961 L
162.805 342.848 L
164.066 342.76 L
165.403 342.675 L
167.028 342.582 L
168.845 342.491 L
170.477 342.419 L
171.802 342.368 L
173.053 342.326 L
174.525 342.281 L
176.298 342.235 L
178.073 342.197 L
179.531 342.17 L
180.768 342.151 L
181.5 342.142 L
181.5 342.142 L
181.5 342.142 L
181.944 337.582 L
182.388 333.209 L
182.994 327.53 L
183.712 321.226 L
184.632 313.802 L
185.847 305.03 L
187.55 294.557 L
189.694 284.037 L
190.93 279.145 L
192.166 275.001 L
193.817 270.487 L
195.785 266.408 L
197.048 264.415 L
198.312 262.836 L
199.944 261.315 L
201.871 260.134 L
203.159 259.644 L
204.447 259.347 L
206.068 259.196 L
207.943 259.259 L
S
GR
GS
[0.75 0 0 0.75 0 0] CT
0.494 0.184 0.557 RC
1 LJ
0.667 LW
N
206.068 259.196 M
207.943 259.259 L
209.253 259.418 L
210.564 259.648 L
212.175 260.003 L
214.013 260.473 L
215.341 260.841 L
216.67 261.223 L
218.274 261.692 L
220.082 262.221 L
221.731 262.695 L
223.073 263.073 L
224.325 263.417 L
225.78 263.805 L
227.534 264.256 L
229.316 264.693 L
230.795 265.04 L
232.042 265.323 L
233.361 265.611 L
234.982 265.952 L
236.817 266.32 L
238.467 266.636 L
239.79 266.879 L
241.024 267.099 L
242.482 267.348 L
244.258 267.639 L
246.054 267.919 L
247.523 268.138 L
248.753 268.313 L
250.065 268.494 L
251.696 268.708 L
253.55 268.938 L
254.859 269.091 L
256.169 269.238 L
257.776 269.409 L
259.611 269.591 L
261.275 269.744 L
262.607 269.86 L
263.838 269.96 L
265.283 270.071 L
267.049 270.196 L
268.854 270.313 L
270.338 270.4 L
271.571 270.468 L
272.873 270.534 L
274.49 270.609 L
276.343 270.685 L
277.663 270.734 L
278.983 270.778 L
280.59 270.827 L
282.412 270.875 L
284.067 270.912 L
S
GR
GS
[0.75 0 0 0.75 0 0] CT
0.494 0.184 0.557 RC
1 LJ
0.667 LW
N
282.412 270.875 M
284.067 270.912 L
285.403 270.939 L
286.644 270.96 L
288.095 270.982 L
289.858 271.005 L
290 271.007 L
290 271.007 L
290 271.007 L
291.084 271.081 L
292.162 271.523 L
293.493 272.793 L
295.036 275.227 L
296.844 279.065 L
299.014 284.441 L
300.185 287.446 L
301.356 290.404 L
302.996 294.323 L
305.026 298.611 L
306.281 300.87 L
307.535 302.797 L
309.173 304.792 L
311.105 306.384 L
312.388 307.001 L
313.671 307.287 L
315.292 307.208 L
317.174 306.567 L
318.482 305.817 L
319.79 304.855 L
321.403 303.421 L
323.245 301.517 L
324.571 300.013 L
325.898 298.429 L
327.503 296.44 L
329.314 294.148 L
330.964 292.06 L
332.305 290.383 L
333.554 288.853 L
335.008 287.123 L
336.765 285.125 L
338.549 283.214 L
340.028 281.73 L
341.273 280.555 L
342.59 279.388 L
344.211 278.06 L
346.048 276.698 L
347.7 275.601 L
349.022 274.808 L
350.255 274.133 L
351.711 273.413 L
353.488 272.642 L
355.287 271.973 L
S
GR
GS
[0.75 0 0 0.75 0 0] CT
0.494 0.184 0.557 RC
1 LJ
0.667 LW
N
353.488 272.642 M
355.287 271.973 L
356.756 271.503 L
357.985 271.159 L
359.295 270.838 L
360.926 270.498 L
362.781 270.184 L
364.091 270.004 L
365.4 269.855 L
367.008 269.711 L
368.843 269.591 L
370.507 269.517 L
371.839 269.48 L
373.07 269.459 L
374.514 269.451 L
376.281 269.46 L
378.086 269.487 L
379.569 269.52 L
380.802 269.554 L
382.104 269.595 L
383.722 269.651 L
385.575 269.721 L
386.895 269.774 L
388.214 269.828 L
389.822 269.894 L
391.644 269.97 L
393.299 270.039 L
394.635 270.093 L
395.876 270.142 L
397.327 270.198 L
399.089 270.264 L
400.883 270.328 L
402.362 270.379 L
403.601 270.419 L
404.912 270.46 L
406.532 270.508 L
408.378 270.558 L
409.697 270.592 L
411.017 270.624 L
412.623 270.661 L
414.444 270.699 L
416.099 270.73 L
417.437 270.754 L
418.679 270.774 L
420.129 270.797 L
421.889 270.821 L
423.682 270.843 L
425.162 270.859 L
426.403 270.872 L
427.714 270.884 L
429.333 270.898 L
431.177 270.911 L
S
GR
GS
[0.75 0 0 0.75 0 0] CT
0.494 0.184 0.557 RC
1 LJ
0.667 LW
N
429.333 270.898 M
431.177 270.911 L
432.498 270.919 L
433.819 270.927 L
435.425 270.935 L
437.244 270.943 L
438.898 270.949 L
440.237 270.953 L
441.48 270.956 L
442.931 270.959 L
444.69 270.962 L
446.481 270.964 L
447.961 270.966 L
449.203 270.966 L
450.516 270.967 L
452.135 270.967 L
453.977 270.967 L
455.299 270.967 L
456.62 270.966 L
458.225 270.966 L
460.043 270.964 L
461.697 270.963 L
463.037 270.962 L
464.281 270.961 L
465.731 270.96 L
467.49 270.958 L
469.281 270.956 L
470.761 270.955 L
472.003 270.954 L
473.316 270.952 L
474.935 270.951 L
476.777 270.949 L
478.099 270.948 L
479.421 270.947 L
481.026 270.945 L
482.843 270.944 L
484.497 270.942 L
485.836 270.941 L
487.081 270.941 L
488.532 270.94 L
490.29 270.938 L
492.081 270.937 L
493.561 270.936 L
494.803 270.936 L
496.116 270.935 L
497.735 270.934 L
499.577 270.933 L
500.899 270.933 L
502.221 270.932 L
503.826 270.932 L
505.643 270.931 L
507 270.931 L
S
GR
GS
[0.75 0 0 0.75 0 0] CT
0.494 0.184 0.557 RC
1 LJ
0.667 LW
N
505.643 270.931 M
507 270.931 L
S
GR
GS
[0.75 0 0 0.75 0 0] CT
1 GC
N
418 132 M
418 44 L
494 44 L
494 132 L
cp
f
GR
GS
[0.75 0 0 0.75 352.5 44.25] CT
/Helvetica 12 F
GS
[1 0 0 1 0 0] CT
0 0 moveto 
1 -1 scale
(u1) t 
GR
GR
GS
[0.75 0 0 0.75 363 48.75] CT
/Helvetica 9 F
GS
[1 0 0 1 0 0] CT
0 0 moveto 
1 -1 scale
(1) t 
GR
GR
GS
[0.75 0 0 0.75 0 0] CT
0 0.447 0.741 RC
1 LJ
0.667 LW
N
426 56.763 M
466 56.763 L
S
GR
GS
[0.75 0 0 0.75 352.5 60] CT
/Helvetica 12 F
GS
[1 0 0 1 0 0] CT
0 0 moveto 
1 -1 scale
(u2) t 
GR
GR
GS
[0.75 0 0 0.75 363 64.5] CT
/Helvetica 9 F
GS
[1 0 0 1 0 0] CT
0 0 moveto 
1 -1 scale
(1) t 
GR
GR
GS
[0.75 0 0 0.75 0 0] CT
0.851 0.325 0.098 RC
1 LJ
0.667 LW
N
426 77.588 M
466 77.588 L
S
GR
GS
[0.75 0 0 0.75 352.5 75] CT
/Helvetica 12 F
GS
[1 0 0 1 0 0] CT
0 0 moveto 
1 -1 scale
(u1) t 
GR
GR
GS
[0.75 0 0 0.75 363 79.5] CT
/Helvetica 9 F
GS
[1 0 0 1 0 0] CT
0 0 moveto 
1 -1 scale
(2) t 
GR
GR
GS
[0.75 0 0 0.75 0 0] CT
0.929 0.694 0.125 RC
1 LJ
0.667 LW
N
426 98.412 M
466 98.412 L
S
GR
GS
[0.75 0 0 0.75 352.5 90.75] CT
/Helvetica 12 F
GS
[1 0 0 1 0 0] CT
0 0 moveto 
1 -1 scale
(u2) t 
GR
GR
GS
[0.75 0 0 0.75 363 95.25] CT
/Helvetica 9 F
GS
[1 0 0 1 0 0] CT
0 0 moveto 
1 -1 scale
(2) t 
GR
GR
GS
[0.75 0 0 0.75 0 0] CT
0.494 0.184 0.557 RC
1 LJ
0.667 LW
N
426 119.237 M
466 119.237 L
S
GR
GS
[0.75 0 0 0.75 0 0] CT
0.149 GC
10.0 ML
0.667 LW
N
418 132 M
418 44 L
494 44 L
494 132 L
cp
S
GR
%%Trailer
%%Pages: 1
%%EOF
