%!PS-Adobe-3.0 EPSF-3.0
%%Creator: (MATLAB, The Mathworks, Inc. Version 8.6.0.267246 \(R2015b\). Operating System: Windows 8)
%%Title: E:/Projects/skola/rls/pics/SP5/k2_w1_sigma.eps
%%CreationDate: 2017-03-17T09:59:54
%%Pages: (atend)
%%BoundingBox: 0 0 420 315
%%LanguageLevel: 2
%%EndComments
%%BeginProlog
%%BeginResource: procset (Apache XML Graphics Std ProcSet) 1.2 0
%%Version: 1.2 0
%%Copyright: (Copyright 2001-2003,2010 The Apache Software Foundation. License terms: http://www.apache.org/licenses/LICENSE-2.0)
/bd{bind def}bind def
/ld{load def}bd
/GR/grestore ld
/M/moveto ld
/LJ/setlinejoin ld
/C/curveto ld
/f/fill ld
/LW/setlinewidth ld
/GC/setgray ld
/t/show ld
/N/newpath ld
/CT/concat ld
/cp/closepath ld
/S/stroke ld
/L/lineto ld
/CC/setcmykcolor ld
/A/ashow ld
/GS/gsave ld
/RC/setrgbcolor ld
/RM/rmoveto ld
/ML/setmiterlimit ld
/re {4 2 roll M
1 index 0 rlineto
0 exch rlineto
neg 0 rlineto
cp } bd
/_ctm matrix def
/_tm matrix def
/BT { _ctm currentmatrix pop matrix _tm copy pop 0 0 moveto } bd
/ET { _ctm setmatrix } bd
/iTm { _ctm setmatrix _tm concat } bd
/Tm { _tm astore pop iTm 0 0 moveto } bd
/ux 0.0 def
/uy 0.0 def
/F {
  /Tp exch def
  /Tf exch def
  Tf findfont Tp scalefont setfont
  /cf Tf def  /cs Tp def
} bd
/ULS {currentpoint /uy exch def /ux exch def} bd
/ULE {
  /Tcx currentpoint pop def
  gsave
  newpath
  cf findfont cs scalefont dup
  /FontMatrix get 0 get /Ts exch def /FontInfo get dup
  /UnderlinePosition get Ts mul /To exch def
  /UnderlineThickness get Ts mul /Tt exch def
  ux uy To add moveto  Tcx uy To add lineto
  Tt setlinewidth stroke
  grestore
} bd
/OLE {
  /Tcx currentpoint pop def
  gsave
  newpath
  cf findfont cs scalefont dup
  /FontMatrix get 0 get /Ts exch def /FontInfo get dup
  /UnderlinePosition get Ts mul /To exch def
  /UnderlineThickness get Ts mul /Tt exch def
  ux uy To add cs add moveto Tcx uy To add cs add lineto
  Tt setlinewidth stroke
  grestore
} bd
/SOE {
  /Tcx currentpoint pop def
  gsave
  newpath
  cf findfont cs scalefont dup
  /FontMatrix get 0 get /Ts exch def /FontInfo get dup
  /UnderlinePosition get Ts mul /To exch def
  /UnderlineThickness get Ts mul /Tt exch def
  ux uy To add cs 10 mul 26 idiv add moveto Tcx uy To add cs 10 mul 26 idiv add lineto
  Tt setlinewidth stroke
  grestore
} bd
/QT {
/Y22 exch store
/X22 exch store
/Y21 exch store
/X21 exch store
currentpoint
/Y21 load 2 mul add 3 div exch
/X21 load 2 mul add 3 div exch
/X21 load 2 mul /X22 load add 3 div
/Y21 load 2 mul /Y22 load add 3 div
/X22 load /Y22 load curveto
} bd
/SSPD {
dup length /d exch dict def
{
/v exch def
/k exch def
currentpagedevice k known {
/cpdv currentpagedevice k get def
v cpdv ne {
/upd false def
/nullv v type /nulltype eq def
/nullcpdv cpdv type /nulltype eq def
nullv nullcpdv or
{
/upd true def
} {
/sametype v type cpdv type eq def
sametype {
v type /arraytype eq {
/vlen v length def
/cpdvlen cpdv length def
vlen cpdvlen eq {
0 1 vlen 1 sub {
/i exch def
/obj v i get def
/cpdobj cpdv i get def
obj cpdobj ne {
/upd true def
exit
} if
} for
} {
/upd true def
} ifelse
} {
v type /dicttype eq {
v {
/dv exch def
/dk exch def
/cpddv cpdv dk get def
dv cpddv ne {
/upd true def
exit
} if
} forall
} {
/upd true def
} ifelse
} ifelse
} if
} ifelse
upd true eq {
d k v put
} if
} if
} if
} forall
d length 0 gt {
d setpagedevice
} if
} bd
%%EndResource
%%BeginResource: procset (Apache XML Graphics EPS ProcSet) 1.0 0
%%Version: 1.0 0
%%Copyright: (Copyright 2002-2003 The Apache Software Foundation. License terms: http://www.apache.org/licenses/LICENSE-2.0)
/BeginEPSF { %def
/b4_Inc_state save def         % Save state for cleanup
/dict_count countdictstack def % Count objects on dict stack
/op_count count 1 sub def      % Count objects on operand stack
userdict begin                 % Push userdict on dict stack
/showpage { } def              % Redefine showpage, { } = null proc
0 setgray 0 setlinecap         % Prepare graphics state
1 setlinewidth 0 setlinejoin
10 setmiterlimit [ ] 0 setdash newpath
/languagelevel where           % If level not equal to 1 then
{pop languagelevel             % set strokeadjust and
1 ne                           % overprint to their defaults.
{false setstrokeadjust false setoverprint
} if
} if
} bd
/EndEPSF { %def
count op_count sub {pop} repeat            % Clean up stacks
countdictstack dict_count sub {end} repeat
b4_Inc_state restore
} bd
%%EndResource
%FOPBeginFontDict
%%IncludeResource: font Courier-Bold
%%IncludeResource: font Helvetica
%%IncludeResource: font Courier-BoldOblique
%%IncludeResource: font Courier-Oblique
%%IncludeResource: font Times-Roman
%%IncludeResource: font Helvetica-BoldOblique
%%IncludeResource: font Helvetica-Bold
%%IncludeResource: font Helvetica-Oblique
%%IncludeResource: font Times-BoldItalic
%%IncludeResource: font Courier
%%IncludeResource: font Times-Italic
%%IncludeResource: font Times-Bold
%%IncludeResource: font Symbol
%%IncludeResource: font ZapfDingbats
%FOPEndFontDict
%%BeginResource: encoding WinAnsiEncoding
/WinAnsiEncoding [
/.notdef /.notdef /.notdef /.notdef /.notdef
/.notdef /.notdef /.notdef /.notdef /.notdef
/.notdef /.notdef /.notdef /.notdef /.notdef
/.notdef /.notdef /.notdef /.notdef /.notdef
/.notdef /.notdef /.notdef /.notdef /.notdef
/.notdef /.notdef /.notdef /.notdef /.notdef
/.notdef /.notdef /space /exclam /quotedbl
/numbersign /dollar /percent /ampersand /quotesingle
/parenleft /parenright /asterisk /plus /comma
/hyphen /period /slash /zero /one
/two /three /four /five /six
/seven /eight /nine /colon /semicolon
/less /equal /greater /question /at
/A /B /C /D /E
/F /G /H /I /J
/K /L /M /N /O
/P /Q /R /S /T
/U /V /W /X /Y
/Z /bracketleft /backslash /bracketright /asciicircum
/underscore /quoteleft /a /b /c
/d /e /f /g /h
/i /j /k /l /m
/n /o /p /q /r
/s /t /u /v /w
/x /y /z /braceleft /bar
/braceright /asciitilde /bullet /Euro /bullet
/quotesinglbase /florin /quotedblbase /ellipsis /dagger
/daggerdbl /circumflex /perthousand /Scaron /guilsinglleft
/OE /bullet /Zcaron /bullet /bullet
/quoteleft /quoteright /quotedblleft /quotedblright /bullet
/endash /emdash /asciitilde /trademark /scaron
/guilsinglright /oe /bullet /zcaron /Ydieresis
/space /exclamdown /cent /sterling /currency
/yen /brokenbar /section /dieresis /copyright
/ordfeminine /guillemotleft /logicalnot /sfthyphen /registered
/macron /degree /plusminus /twosuperior /threesuperior
/acute /mu /paragraph /middot /cedilla
/onesuperior /ordmasculine /guillemotright /onequarter /onehalf
/threequarters /questiondown /Agrave /Aacute /Acircumflex
/Atilde /Adieresis /Aring /AE /Ccedilla
/Egrave /Eacute /Ecircumflex /Edieresis /Igrave
/Iacute /Icircumflex /Idieresis /Eth /Ntilde
/Ograve /Oacute /Ocircumflex /Otilde /Odieresis
/multiply /Oslash /Ugrave /Uacute /Ucircumflex
/Udieresis /Yacute /Thorn /germandbls /agrave
/aacute /acircumflex /atilde /adieresis /aring
/ae /ccedilla /egrave /eacute /ecircumflex
/edieresis /igrave /iacute /icircumflex /idieresis
/eth /ntilde /ograve /oacute /ocircumflex
/otilde /odieresis /divide /oslash /ugrave
/uacute /ucircumflex /udieresis /yacute /thorn
/ydieresis
] def
%%EndResource
%FOPBeginFontReencode
/Courier-Bold findfont
dup length dict begin
  {1 index /FID ne {def} {pop pop} ifelse} forall
  /Encoding WinAnsiEncoding def
  currentdict
end
/Courier-Bold exch definefont pop
/Helvetica findfont
dup length dict begin
  {1 index /FID ne {def} {pop pop} ifelse} forall
  /Encoding WinAnsiEncoding def
  currentdict
end
/Helvetica exch definefont pop
/Courier-BoldOblique findfont
dup length dict begin
  {1 index /FID ne {def} {pop pop} ifelse} forall
  /Encoding WinAnsiEncoding def
  currentdict
end
/Courier-BoldOblique exch definefont pop
/Courier-Oblique findfont
dup length dict begin
  {1 index /FID ne {def} {pop pop} ifelse} forall
  /Encoding WinAnsiEncoding def
  currentdict
end
/Courier-Oblique exch definefont pop
/Times-Roman findfont
dup length dict begin
  {1 index /FID ne {def} {pop pop} ifelse} forall
  /Encoding WinAnsiEncoding def
  currentdict
end
/Times-Roman exch definefont pop
/Helvetica-BoldOblique findfont
dup length dict begin
  {1 index /FID ne {def} {pop pop} ifelse} forall
  /Encoding WinAnsiEncoding def
  currentdict
end
/Helvetica-BoldOblique exch definefont pop
/Helvetica-Bold findfont
dup length dict begin
  {1 index /FID ne {def} {pop pop} ifelse} forall
  /Encoding WinAnsiEncoding def
  currentdict
end
/Helvetica-Bold exch definefont pop
/Helvetica-Oblique findfont
dup length dict begin
  {1 index /FID ne {def} {pop pop} ifelse} forall
  /Encoding WinAnsiEncoding def
  currentdict
end
/Helvetica-Oblique exch definefont pop
/Times-BoldItalic findfont
dup length dict begin
  {1 index /FID ne {def} {pop pop} ifelse} forall
  /Encoding WinAnsiEncoding def
  currentdict
end
/Times-BoldItalic exch definefont pop
/Courier findfont
dup length dict begin
  {1 index /FID ne {def} {pop pop} ifelse} forall
  /Encoding WinAnsiEncoding def
  currentdict
end
/Courier exch definefont pop
/Times-Italic findfont
dup length dict begin
  {1 index /FID ne {def} {pop pop} ifelse} forall
  /Encoding WinAnsiEncoding def
  currentdict
end
/Times-Italic exch definefont pop
/Times-Bold findfont
dup length dict begin
  {1 index /FID ne {def} {pop pop} ifelse} forall
  /Encoding WinAnsiEncoding def
  currentdict
end
/Times-Bold exch definefont pop
%FOPEndFontReencode
%%EndProlog
%%Page: 1 1
%%PageBoundingBox: 0 0 420 315
%%BeginPageSetup
[1 0 0 -1 0 315] CT
%%EndPageSetup
GS
[0.75 0 0 0.75 0 0] CT
1 GC
N
0 0 560 420 re
f
GR
GS
[0.75 0 0 0.75 0 0] CT
1 GC
N
0 0 560 420 re
f
GR
GS
[0.75 0 0 0.75 0 0] CT
1 GC
N
85 374 M
507 374 L
507 51 L
85 51 L
cp
f
GR
GS
[0.75 0 0 0.75 0 0] CT
0.4 GC
2 setlinecap
1 LJ
0.667 LW
N
85 374 M
507 374 L
S
GR
GS
[0.75 0 0 0.75 0 0] CT
0.4 GC
2 setlinecap
1 LJ
0.667 LW
N
85 51 M
507 51 L
S
GR
GS
[0.75 0 0 0.75 0 0] CT
0.4 GC
2 setlinecap
1 LJ
0.667 LW
N
85 374 M
85 369.78 L
S
GR
GS
[0.75 0 0 0.75 0 0] CT
0.4 GC
2 setlinecap
1 LJ
0.667 LW
N
190.5 374 M
190.5 369.78 L
S
GR
GS
[0.75 0 0 0.75 0 0] CT
0.4 GC
2 setlinecap
1 LJ
0.667 LW
N
296 374 M
296 369.78 L
S
GR
GS
[0.75 0 0 0.75 0 0] CT
0.4 GC
2 setlinecap
1 LJ
0.667 LW
N
401.5 374 M
401.5 369.78 L
S
GR
GS
[0.75 0 0 0.75 0 0] CT
0.4 GC
2 setlinecap
1 LJ
0.667 LW
N
507 374 M
507 369.78 L
S
GR
GS
[0.75 0 0 0.75 0 0] CT
0.4 GC
2 setlinecap
1 LJ
0.667 LW
N
85 51 M
85 55.22 L
S
GR
GS
[0.75 0 0 0.75 0 0] CT
0.4 GC
2 setlinecap
1 LJ
0.667 LW
N
190.5 51 M
190.5 55.22 L
S
GR
GS
[0.75 0 0 0.75 0 0] CT
0.4 GC
2 setlinecap
1 LJ
0.667 LW
N
296 51 M
296 55.22 L
S
GR
GS
[0.75 0 0 0.75 0 0] CT
0.4 GC
2 setlinecap
1 LJ
0.667 LW
N
401.5 51 M
401.5 55.22 L
S
GR
GS
[0.75 0 0 0.75 0 0] CT
0.4 GC
2 setlinecap
1 LJ
0.667 LW
N
507 51 M
507 55.22 L
S
GR
GS
[0.75 0 0 0.75 54 297] CT
0.4 GC
/Helvetica 13 F
GS
[1 0 0 1 0 0] CT
0 0 moveto 
1 -1 scale
(10) t 
GR
GR
GS
[0.75 0 0 0.75 65.25 292.5] CT
0.4 GC
/Helvetica 11 F
GS
[1 0 0 1 0 0] CT
0 0 moveto 
1 -1 scale
(-6) t 
GR
GR
GS
[0.75 0 0 0.75 133.5 297] CT
0.4 GC
/Helvetica 13 F
GS
[1 0 0 1 0 0] CT
0 0 moveto 
1 -1 scale
(10) t 
GR
GR
GS
[0.75 0 0 0.75 144.75 292.5] CT
0.4 GC
/Helvetica 11 F
GS
[1 0 0 1 0 0] CT
0 0 moveto 
1 -1 scale
(-4) t 
GR
GR
GS
[0.75 0 0 0.75 212.25 297] CT
0.4 GC
/Helvetica 13 F
GS
[1 0 0 1 0 0] CT
0 0 moveto 
1 -1 scale
(10) t 
GR
GR
GS
[0.75 0 0 0.75 223.5 292.5] CT
0.4 GC
/Helvetica 11 F
GS
[1 0 0 1 0 0] CT
0 0 moveto 
1 -1 scale
(-2) t 
GR
GR
GS
[0.75 0 0 0.75 293.25 297] CT
0.4 GC
/Helvetica 13 F
GS
[1 0 0 1 0 0] CT
0 0 moveto 
1 -1 scale
(10) t 
GR
GR
GS
[0.75 0 0 0.75 304.5 292.5] CT
0.4 GC
/Helvetica 11 F
GS
[1 0 0 1 0 0] CT
0 0 moveto 
1 -1 scale
(0) t 
GR
GR
GS
[0.75 0 0 0.75 372 297] CT
0.4 GC
/Helvetica 13 F
GS
[1 0 0 1 0 0] CT
0 0 moveto 
1 -1 scale
(10) t 
GR
GR
GS
[0.75 0 0 0.75 383.25 292.5] CT
0.4 GC
/Helvetica 11 F
GS
[1 0 0 1 0 0] CT
0 0 moveto 
1 -1 scale
(2) t 
GR
GR
GS
[0.75 0 0 0.75 0 0] CT
0.4 GC
2 setlinecap
1 LJ
0.667 LW
N
85 374 M
85 51 L
S
GR
GS
[0.75 0 0 0.75 0 0] CT
0.4 GC
2 setlinecap
1 LJ
0.667 LW
N
507 374 M
507 51 L
S
GR
GS
[0.75 0 0 0.75 0 0] CT
0.4 GC
2 setlinecap
1 LJ
0.667 LW
N
85 374 M
89.22 374 L
S
GR
GS
[0.75 0 0 0.75 0 0] CT
0.4 GC
2 setlinecap
1 LJ
0.667 LW
N
85 338.111 M
89.22 338.111 L
S
GR
GS
[0.75 0 0 0.75 0 0] CT
0.4 GC
2 setlinecap
1 LJ
0.667 LW
N
85 302.222 M
89.22 302.222 L
S
GR
GS
[0.75 0 0 0.75 0 0] CT
0.4 GC
2 setlinecap
1 LJ
0.667 LW
N
85 266.333 M
89.22 266.333 L
S
GR
GS
[0.75 0 0 0.75 0 0] CT
0.4 GC
2 setlinecap
1 LJ
0.667 LW
N
85 230.444 M
89.22 230.444 L
S
GR
GS
[0.75 0 0 0.75 0 0] CT
0.4 GC
2 setlinecap
1 LJ
0.667 LW
N
85 194.556 M
89.22 194.556 L
S
GR
GS
[0.75 0 0 0.75 0 0] CT
0.4 GC
2 setlinecap
1 LJ
0.667 LW
N
85 158.667 M
89.22 158.667 L
S
GR
GS
[0.75 0 0 0.75 0 0] CT
0.4 GC
2 setlinecap
1 LJ
0.667 LW
N
85 122.778 M
89.22 122.778 L
S
GR
GS
[0.75 0 0 0.75 0 0] CT
0.4 GC
2 setlinecap
1 LJ
0.667 LW
N
85 86.889 M
89.22 86.889 L
S
GR
GS
[0.75 0 0 0.75 0 0] CT
0.4 GC
2 setlinecap
1 LJ
0.667 LW
N
85 51 M
89.22 51 L
S
GR
GS
[0.75 0 0 0.75 0 0] CT
0.4 GC
2 setlinecap
1 LJ
0.667 LW
N
507 374 M
502.78 374 L
S
GR
GS
[0.75 0 0 0.75 0 0] CT
0.4 GC
2 setlinecap
1 LJ
0.667 LW
N
507 338.111 M
502.78 338.111 L
S
GR
GS
[0.75 0 0 0.75 0 0] CT
0.4 GC
2 setlinecap
1 LJ
0.667 LW
N
507 302.222 M
502.78 302.222 L
S
GR
GS
[0.75 0 0 0.75 0 0] CT
0.4 GC
2 setlinecap
1 LJ
0.667 LW
N
507 266.333 M
502.78 266.333 L
S
GR
GS
[0.75 0 0 0.75 0 0] CT
0.4 GC
2 setlinecap
1 LJ
0.667 LW
N
507 230.444 M
502.78 230.444 L
S
GR
GS
[0.75 0 0 0.75 0 0] CT
0.4 GC
2 setlinecap
1 LJ
0.667 LW
N
507 194.556 M
502.78 194.556 L
S
GR
GS
[0.75 0 0 0.75 0 0] CT
0.4 GC
2 setlinecap
1 LJ
0.667 LW
N
507 158.667 M
502.78 158.667 L
S
GR
GS
[0.75 0 0 0.75 0 0] CT
0.4 GC
2 setlinecap
1 LJ
0.667 LW
N
507 122.778 M
502.78 122.778 L
S
GR
GS
[0.75 0 0 0.75 0 0] CT
0.4 GC
2 setlinecap
1 LJ
0.667 LW
N
507 86.889 M
502.78 86.889 L
S
GR
GS
[0.75 0 0 0.75 0 0] CT
0.4 GC
2 setlinecap
1 LJ
0.667 LW
N
507 51 M
502.78 51 L
S
GR
GS
[0.75 0 0 0.75 59.75 280.5] CT
0.4 GC
/Helvetica 13 F
GS
[1 0 0 1 0 0] CT
-19 5 moveto 
1 -1 scale
(-80) t 
GR
GR
GS
[0.75 0 0 0.75 59.75 253.58334] CT
0.4 GC
/Helvetica 13 F
GS
[1 0 0 1 0 0] CT
-19 5 moveto 
1 -1 scale
(-70) t 
GR
GR
GS
[0.75 0 0 0.75 59.75 226.66667] CT
0.4 GC
/Helvetica 13 F
GS
[1 0 0 1 0 0] CT
-19 5 moveto 
1 -1 scale
(-60) t 
GR
GR
GS
[0.75 0 0 0.75 59.75 199.75001] CT
0.4 GC
/Helvetica 13 F
GS
[1 0 0 1 0 0] CT
-19 5 moveto 
1 -1 scale
(-50) t 
GR
GR
GS
[0.75 0 0 0.75 59.75 172.83333] CT
0.4 GC
/Helvetica 13 F
GS
[1 0 0 1 0 0] CT
-19 5 moveto 
1 -1 scale
(-40) t 
GR
GR
GS
[0.75 0 0 0.75 59.75 145.91666] CT
0.4 GC
/Helvetica 13 F
GS
[1 0 0 1 0 0] CT
-19 5 moveto 
1 -1 scale
(-30) t 
GR
GR
GS
[0.75 0 0 0.75 59.75 118.99999] CT
0.4 GC
/Helvetica 13 F
GS
[1 0 0 1 0 0] CT
-19 5 moveto 
1 -1 scale
(-20) t 
GR
GR
GS
[0.75 0 0 0.75 59.75 92.08333] CT
0.4 GC
/Helvetica 13 F
GS
[1 0 0 1 0 0] CT
-19 5 moveto 
1 -1 scale
(-10) t 
GR
GR
GS
[0.75 0 0 0.75 59.75 65.16666] CT
0.4 GC
/Helvetica 13 F
GS
[1 0 0 1 0 0] CT
-8 5 moveto 
1 -1 scale
(0) t 
GR
GR
GS
[0.75 0 0 0.75 59.75 38.25] CT
0.4 GC
/Helvetica 13 F
GS
[1 0 0 1 0 0] CT
-15 5 moveto 
1 -1 scale
(10) t 
GR
GR
GS
[0.75 0 0 0.75 0 0] CT
0 0.447 0.741 RC
1 LJ
0.667 LW
N
84.958 373.996 M
100.879 373.994 L
104.411 373.992 L
107.942 373.988 L
111.474 373.984 L
115.005 373.979 L
118.537 373.971 L
122.068 373.96 L
125.6 373.946 L
129.131 373.927 L
132.663 373.9 L
136.194 373.865 L
139.726 373.816 L
143.257 373.75 L
146.789 373.661 L
150.32 373.54 L
153.852 373.377 L
157.383 373.158 L
160.915 372.865 L
164.446 372.474 L
167.978 371.958 L
171.509 371.282 L
175.04 370.406 L
178.572 369.288 L
182.103 367.885 L
185.635 366.158 L
189.166 364.077 L
192.698 361.629 L
196.229 358.816 L
199.761 355.655 L
203.292 352.18 L
206.824 348.429 L
210.355 344.447 L
213.887 340.275 L
217.418 335.952 L
220.95 331.511 L
224.481 326.979 L
228.013 322.377 L
231.544 317.723 L
235.076 313.03 L
238.607 308.308 L
242.139 303.564 L
245.67 298.803 L
249.202 294.031 L
252.733 289.25 L
256.265 284.463 L
259.796 279.671 L
263.328 274.875 L
269.625 266.318 L
296 230.443 L
S
GR
GS
[0.75 0 0 0.75 0 0] CT
0 0.447 0.741 RC
1 LJ
0.667 LW
N
269.625 266.318 M
296 230.443 L
322.375 194.559 L
330.426 183.608 L
333.957 178.806 L
337.489 174.005 L
341.02 169.204 L
344.552 164.406 L
348.083 159.611 L
351.615 154.819 L
355.146 150.031 L
358.678 145.25 L
362.209 140.478 L
365.741 135.718 L
369.272 130.974 L
372.804 126.252 L
376.335 121.558 L
379.867 116.904 L
383.398 112.303 L
386.93 107.771 L
390.461 103.33 L
393.993 99.007 L
397.524 94.835 L
401.055 90.853 L
404.587 87.102 L
408.118 83.626 L
411.65 80.466 L
415.181 77.652 L
418.713 75.204 L
422.244 73.124 L
425.776 71.397 L
429.307 69.994 L
432.839 68.876 L
436.37 68 L
439.902 67.324 L
443.433 66.807 L
446.965 66.417 L
450.496 66.124 L
454.028 65.905 L
457.559 65.742 L
461.091 65.621 L
464.622 65.532 L
468.154 65.466 L
471.685 65.417 L
475.217 65.381 L
478.748 65.355 L
482.28 65.335 L
485.811 65.321 L
489.343 65.311 L
492.874 65.303 L
496.406 65.297 L
499.937 65.293 L
S
GR
GS
[0.75 0 0 0.75 0 0] CT
0 0.447 0.741 RC
1 LJ
0.667 LW
N
496.406 65.297 M
499.937 65.293 L
503.469 65.29 L
507 65.288 L
507.042 65.288 L
S
GR
GS
[0.75 0 0 0.75 0 0] CT
1 GC
N
412 85 M
412 64 L
494 64 L
494 85 L
cp
f
GR
GS
[0.75 0 0 0.75 348 55.875] CT
/Helvetica 12 F
GS
[1 0 0 1 0 0] CT
0 4.5 moveto 
1 -1 scale
(1/w1) t 
GR
GR
GS
[0.75 0 0 0.75 0 0] CT
0 0.447 0.741 RC
1 LJ
0.667 LW
N
420 74.5 M
460 74.5 L
S
GR
GS
[0.75 0 0 0.75 0 0] CT
0.149 GC
10.0 ML
0.667 LW
N
412 85 M
412 64 L
494 64 L
494 85 L
cp
S
GR
GS
[0.75 0 0 0.75 221.25 33.52501] CT
/any-Bold 15 F
GS
[1 0 0 1 0 0] CT
-56.5 -4 moveto 
1 -1 scale
(Singular Values) t 
GR
GR
GS
[0.75 0 0 0.75 221.25 298.99999] CT
/Helvetica 15 F
GS
[1 0 0 1 0 0] CT
-59.5 14 moveto 
1 -1 scale
(Frequency \(rad/s\)) t 
GR
GR
GS
[0 -0.75 0.75 0 42.5 160.3875] CT
/Helvetica 15 F
GS
[1 0 0 1 0 0] CT
-69 -4 moveto 
1 -1 scale
(Singular Values \(dB\)) t 
GR
GR
%%Trailer
%%Pages: 1
%%EOF
