%!PS-Adobe-3.0 EPSF-3.0
%%Creator: (MATLAB, The Mathworks, Inc. Version 8.6.0.267246 \(R2015b\). Operating System: Windows 8)
%%Title: E:/Projects/skola/rls/pics/SP5/k2_y.eps
%%CreationDate: 2017-03-17T09:59:34
%%Pages: (atend)
%%BoundingBox: 0 0 420 315
%%LanguageLevel: 2
%%EndComments
%%BeginProlog
%%BeginResource: procset (Apache XML Graphics Std ProcSet) 1.2 0
%%Version: 1.2 0
%%Copyright: (Copyright 2001-2003,2010 The Apache Software Foundation. License terms: http://www.apache.org/licenses/LICENSE-2.0)
/bd{bind def}bind def
/ld{load def}bd
/GR/grestore ld
/M/moveto ld
/LJ/setlinejoin ld
/C/curveto ld
/f/fill ld
/LW/setlinewidth ld
/GC/setgray ld
/t/show ld
/N/newpath ld
/CT/concat ld
/cp/closepath ld
/S/stroke ld
/L/lineto ld
/CC/setcmykcolor ld
/A/ashow ld
/GS/gsave ld
/RC/setrgbcolor ld
/RM/rmoveto ld
/ML/setmiterlimit ld
/re {4 2 roll M
1 index 0 rlineto
0 exch rlineto
neg 0 rlineto
cp } bd
/_ctm matrix def
/_tm matrix def
/BT { _ctm currentmatrix pop matrix _tm copy pop 0 0 moveto } bd
/ET { _ctm setmatrix } bd
/iTm { _ctm setmatrix _tm concat } bd
/Tm { _tm astore pop iTm 0 0 moveto } bd
/ux 0.0 def
/uy 0.0 def
/F {
  /Tp exch def
  /Tf exch def
  Tf findfont Tp scalefont setfont
  /cf Tf def  /cs Tp def
} bd
/ULS {currentpoint /uy exch def /ux exch def} bd
/ULE {
  /Tcx currentpoint pop def
  gsave
  newpath
  cf findfont cs scalefont dup
  /FontMatrix get 0 get /Ts exch def /FontInfo get dup
  /UnderlinePosition get Ts mul /To exch def
  /UnderlineThickness get Ts mul /Tt exch def
  ux uy To add moveto  Tcx uy To add lineto
  Tt setlinewidth stroke
  grestore
} bd
/OLE {
  /Tcx currentpoint pop def
  gsave
  newpath
  cf findfont cs scalefont dup
  /FontMatrix get 0 get /Ts exch def /FontInfo get dup
  /UnderlinePosition get Ts mul /To exch def
  /UnderlineThickness get Ts mul /Tt exch def
  ux uy To add cs add moveto Tcx uy To add cs add lineto
  Tt setlinewidth stroke
  grestore
} bd
/SOE {
  /Tcx currentpoint pop def
  gsave
  newpath
  cf findfont cs scalefont dup
  /FontMatrix get 0 get /Ts exch def /FontInfo get dup
  /UnderlinePosition get Ts mul /To exch def
  /UnderlineThickness get Ts mul /Tt exch def
  ux uy To add cs 10 mul 26 idiv add moveto Tcx uy To add cs 10 mul 26 idiv add lineto
  Tt setlinewidth stroke
  grestore
} bd
/QT {
/Y22 exch store
/X22 exch store
/Y21 exch store
/X21 exch store
currentpoint
/Y21 load 2 mul add 3 div exch
/X21 load 2 mul add 3 div exch
/X21 load 2 mul /X22 load add 3 div
/Y21 load 2 mul /Y22 load add 3 div
/X22 load /Y22 load curveto
} bd
/SSPD {
dup length /d exch dict def
{
/v exch def
/k exch def
currentpagedevice k known {
/cpdv currentpagedevice k get def
v cpdv ne {
/upd false def
/nullv v type /nulltype eq def
/nullcpdv cpdv type /nulltype eq def
nullv nullcpdv or
{
/upd true def
} {
/sametype v type cpdv type eq def
sametype {
v type /arraytype eq {
/vlen v length def
/cpdvlen cpdv length def
vlen cpdvlen eq {
0 1 vlen 1 sub {
/i exch def
/obj v i get def
/cpdobj cpdv i get def
obj cpdobj ne {
/upd true def
exit
} if
} for
} {
/upd true def
} ifelse
} {
v type /dicttype eq {
v {
/dv exch def
/dk exch def
/cpddv cpdv dk get def
dv cpddv ne {
/upd true def
exit
} if
} forall
} {
/upd true def
} ifelse
} ifelse
} if
} ifelse
upd true eq {
d k v put
} if
} if
} if
} forall
d length 0 gt {
d setpagedevice
} if
} bd
%%EndResource
%%BeginResource: procset (Apache XML Graphics EPS ProcSet) 1.0 0
%%Version: 1.0 0
%%Copyright: (Copyright 2002-2003 The Apache Software Foundation. License terms: http://www.apache.org/licenses/LICENSE-2.0)
/BeginEPSF { %def
/b4_Inc_state save def         % Save state for cleanup
/dict_count countdictstack def % Count objects on dict stack
/op_count count 1 sub def      % Count objects on operand stack
userdict begin                 % Push userdict on dict stack
/showpage { } def              % Redefine showpage, { } = null proc
0 setgray 0 setlinecap         % Prepare graphics state
1 setlinewidth 0 setlinejoin
10 setmiterlimit [ ] 0 setdash newpath
/languagelevel where           % If level not equal to 1 then
{pop languagelevel             % set strokeadjust and
1 ne                           % overprint to their defaults.
{false setstrokeadjust false setoverprint
} if
} if
} bd
/EndEPSF { %def
count op_count sub {pop} repeat            % Clean up stacks
countdictstack dict_count sub {end} repeat
b4_Inc_state restore
} bd
%%EndResource
%FOPBeginFontDict
%%IncludeResource: font Courier-Bold
%%IncludeResource: font Helvetica
%%IncludeResource: font Courier-BoldOblique
%%IncludeResource: font Courier-Oblique
%%IncludeResource: font Times-Roman
%%IncludeResource: font Helvetica-BoldOblique
%%IncludeResource: font Helvetica-Bold
%%IncludeResource: font Helvetica-Oblique
%%IncludeResource: font Times-BoldItalic
%%IncludeResource: font Courier
%%IncludeResource: font Times-Italic
%%IncludeResource: font Times-Bold
%%IncludeResource: font Symbol
%%IncludeResource: font ZapfDingbats
%FOPEndFontDict
%%BeginResource: encoding WinAnsiEncoding
/WinAnsiEncoding [
/.notdef /.notdef /.notdef /.notdef /.notdef
/.notdef /.notdef /.notdef /.notdef /.notdef
/.notdef /.notdef /.notdef /.notdef /.notdef
/.notdef /.notdef /.notdef /.notdef /.notdef
/.notdef /.notdef /.notdef /.notdef /.notdef
/.notdef /.notdef /.notdef /.notdef /.notdef
/.notdef /.notdef /space /exclam /quotedbl
/numbersign /dollar /percent /ampersand /quotesingle
/parenleft /parenright /asterisk /plus /comma
/hyphen /period /slash /zero /one
/two /three /four /five /six
/seven /eight /nine /colon /semicolon
/less /equal /greater /question /at
/A /B /C /D /E
/F /G /H /I /J
/K /L /M /N /O
/P /Q /R /S /T
/U /V /W /X /Y
/Z /bracketleft /backslash /bracketright /asciicircum
/underscore /quoteleft /a /b /c
/d /e /f /g /h
/i /j /k /l /m
/n /o /p /q /r
/s /t /u /v /w
/x /y /z /braceleft /bar
/braceright /asciitilde /bullet /Euro /bullet
/quotesinglbase /florin /quotedblbase /ellipsis /dagger
/daggerdbl /circumflex /perthousand /Scaron /guilsinglleft
/OE /bullet /Zcaron /bullet /bullet
/quoteleft /quoteright /quotedblleft /quotedblright /bullet
/endash /emdash /asciitilde /trademark /scaron
/guilsinglright /oe /bullet /zcaron /Ydieresis
/space /exclamdown /cent /sterling /currency
/yen /brokenbar /section /dieresis /copyright
/ordfeminine /guillemotleft /logicalnot /sfthyphen /registered
/macron /degree /plusminus /twosuperior /threesuperior
/acute /mu /paragraph /middot /cedilla
/onesuperior /ordmasculine /guillemotright /onequarter /onehalf
/threequarters /questiondown /Agrave /Aacute /Acircumflex
/Atilde /Adieresis /Aring /AE /Ccedilla
/Egrave /Eacute /Ecircumflex /Edieresis /Igrave
/Iacute /Icircumflex /Idieresis /Eth /Ntilde
/Ograve /Oacute /Ocircumflex /Otilde /Odieresis
/multiply /Oslash /Ugrave /Uacute /Ucircumflex
/Udieresis /Yacute /Thorn /germandbls /agrave
/aacute /acircumflex /atilde /adieresis /aring
/ae /ccedilla /egrave /eacute /ecircumflex
/edieresis /igrave /iacute /icircumflex /idieresis
/eth /ntilde /ograve /oacute /ocircumflex
/otilde /odieresis /divide /oslash /ugrave
/uacute /ucircumflex /udieresis /yacute /thorn
/ydieresis
] def
%%EndResource
%FOPBeginFontReencode
/Courier-Bold findfont
dup length dict begin
  {1 index /FID ne {def} {pop pop} ifelse} forall
  /Encoding WinAnsiEncoding def
  currentdict
end
/Courier-Bold exch definefont pop
/Helvetica findfont
dup length dict begin
  {1 index /FID ne {def} {pop pop} ifelse} forall
  /Encoding WinAnsiEncoding def
  currentdict
end
/Helvetica exch definefont pop
/Courier-BoldOblique findfont
dup length dict begin
  {1 index /FID ne {def} {pop pop} ifelse} forall
  /Encoding WinAnsiEncoding def
  currentdict
end
/Courier-BoldOblique exch definefont pop
/Courier-Oblique findfont
dup length dict begin
  {1 index /FID ne {def} {pop pop} ifelse} forall
  /Encoding WinAnsiEncoding def
  currentdict
end
/Courier-Oblique exch definefont pop
/Times-Roman findfont
dup length dict begin
  {1 index /FID ne {def} {pop pop} ifelse} forall
  /Encoding WinAnsiEncoding def
  currentdict
end
/Times-Roman exch definefont pop
/Helvetica-BoldOblique findfont
dup length dict begin
  {1 index /FID ne {def} {pop pop} ifelse} forall
  /Encoding WinAnsiEncoding def
  currentdict
end
/Helvetica-BoldOblique exch definefont pop
/Helvetica-Bold findfont
dup length dict begin
  {1 index /FID ne {def} {pop pop} ifelse} forall
  /Encoding WinAnsiEncoding def
  currentdict
end
/Helvetica-Bold exch definefont pop
/Helvetica-Oblique findfont
dup length dict begin
  {1 index /FID ne {def} {pop pop} ifelse} forall
  /Encoding WinAnsiEncoding def
  currentdict
end
/Helvetica-Oblique exch definefont pop
/Times-BoldItalic findfont
dup length dict begin
  {1 index /FID ne {def} {pop pop} ifelse} forall
  /Encoding WinAnsiEncoding def
  currentdict
end
/Times-BoldItalic exch definefont pop
/Courier findfont
dup length dict begin
  {1 index /FID ne {def} {pop pop} ifelse} forall
  /Encoding WinAnsiEncoding def
  currentdict
end
/Courier exch definefont pop
/Times-Italic findfont
dup length dict begin
  {1 index /FID ne {def} {pop pop} ifelse} forall
  /Encoding WinAnsiEncoding def
  currentdict
end
/Times-Italic exch definefont pop
/Times-Bold findfont
dup length dict begin
  {1 index /FID ne {def} {pop pop} ifelse} forall
  /Encoding WinAnsiEncoding def
  currentdict
end
/Times-Bold exch definefont pop
%FOPEndFontReencode
%%EndProlog
%%Page: 1 1
%%PageBoundingBox: 0 0 420 315
%%BeginPageSetup
[1 0 0 -1 0 315] CT
%%EndPageSetup
GS
[0.75 0 0 0.75 0 0] CT
1 GC
N
0 0 560 420 re
f
GR
GS
[0.75 0 0 0.75 0 0] CT
1 GC
N
0 0 560 420 re
f
GR
GS
[0.75 0 0 0.75 0 0] CT
1 GC
N
73 374 M
507 374 L
507 31 L
73 31 L
cp
f
GR
GS
[0.75 0 0 0.75 0 0] CT
0.149 GC
2 setlinecap
1 LJ
0.667 LW
N
73 374 M
507 374 L
S
GR
GS
[0.75 0 0 0.75 0 0] CT
0.149 GC
2 setlinecap
1 LJ
0.667 LW
N
73 31 M
507 31 L
S
GR
GS
[0.75 0 0 0.75 0 0] CT
0.149 GC
2 setlinecap
1 LJ
0.667 LW
N
73 374 M
73 369.66 L
S
GR
GS
[0.75 0 0 0.75 0 0] CT
0.149 GC
2 setlinecap
1 LJ
0.667 LW
N
145.333 374 M
145.333 369.66 L
S
GR
GS
[0.75 0 0 0.75 0 0] CT
0.149 GC
2 setlinecap
1 LJ
0.667 LW
N
217.667 374 M
217.667 369.66 L
S
GR
GS
[0.75 0 0 0.75 0 0] CT
0.149 GC
2 setlinecap
1 LJ
0.667 LW
N
290 374 M
290 369.66 L
S
GR
GS
[0.75 0 0 0.75 0 0] CT
0.149 GC
2 setlinecap
1 LJ
0.667 LW
N
362.333 374 M
362.333 369.66 L
S
GR
GS
[0.75 0 0 0.75 0 0] CT
0.149 GC
2 setlinecap
1 LJ
0.667 LW
N
434.667 374 M
434.667 369.66 L
S
GR
GS
[0.75 0 0 0.75 0 0] CT
0.149 GC
2 setlinecap
1 LJ
0.667 LW
N
507 374 M
507 369.66 L
S
GR
GS
[0.75 0 0 0.75 0 0] CT
0.149 GC
2 setlinecap
1 LJ
0.667 LW
N
73 31 M
73 35.34 L
S
GR
GS
[0.75 0 0 0.75 0 0] CT
0.149 GC
2 setlinecap
1 LJ
0.667 LW
N
145.333 31 M
145.333 35.34 L
S
GR
GS
[0.75 0 0 0.75 0 0] CT
0.149 GC
2 setlinecap
1 LJ
0.667 LW
N
217.667 31 M
217.667 35.34 L
S
GR
GS
[0.75 0 0 0.75 0 0] CT
0.149 GC
2 setlinecap
1 LJ
0.667 LW
N
290 31 M
290 35.34 L
S
GR
GS
[0.75 0 0 0.75 0 0] CT
0.149 GC
2 setlinecap
1 LJ
0.667 LW
N
362.333 31 M
362.333 35.34 L
S
GR
GS
[0.75 0 0 0.75 0 0] CT
0.149 GC
2 setlinecap
1 LJ
0.667 LW
N
434.667 31 M
434.667 35.34 L
S
GR
GS
[0.75 0 0 0.75 0 0] CT
0.149 GC
2 setlinecap
1 LJ
0.667 LW
N
507 31 M
507 35.34 L
S
GR
GS
[0.75 0 0 0.75 54.75 284.50001] CT
0.149 GC
/Helvetica 13 F
GS
[1 0 0 1 0 0] CT
-4 13 moveto 
1 -1 scale
(0) t 
GR
GR
GS
[0.75 0 0 0.75 109 284.50001] CT
0.149 GC
/Helvetica 13 F
GS
[1 0 0 1 0 0] CT
-11 13 moveto 
1 -1 scale
(200) t 
GR
GR
GS
[0.75 0 0 0.75 163.25 284.50001] CT
0.149 GC
/Helvetica 13 F
GS
[1 0 0 1 0 0] CT
-11 13 moveto 
1 -1 scale
(400) t 
GR
GR
GS
[0.75 0 0 0.75 217.5 284.50001] CT
0.149 GC
/Helvetica 13 F
GS
[1 0 0 1 0 0] CT
-11 13 moveto 
1 -1 scale
(600) t 
GR
GR
GS
[0.75 0 0 0.75 271.75001 284.50001] CT
0.149 GC
/Helvetica 13 F
GS
[1 0 0 1 0 0] CT
-11 13 moveto 
1 -1 scale
(800) t 
GR
GR
GS
[0.75 0 0 0.75 325.99999 284.50001] CT
0.149 GC
/Helvetica 13 F
GS
[1 0 0 1 0 0] CT
-14.5 13 moveto 
1 -1 scale
(1000) t 
GR
GR
GS
[0.75 0 0 0.75 380.25 284.50001] CT
0.149 GC
/Helvetica 13 F
GS
[1 0 0 1 0 0] CT
-14.5 13 moveto 
1 -1 scale
(1200) t 
GR
GR
GS
[0.75 0 0 0.75 217.50016 297.49999] CT
0.149 GC
/Helvetica 15 F
GS
[1 0 0 1 0 0] CT
-11 14 moveto 
1 -1 scale
(t\(s\)) t 
GR
GR
GS
[0.75 0 0 0.75 0 0] CT
0.149 GC
2 setlinecap
1 LJ
0.667 LW
N
73 374 M
73 31 L
S
GR
GS
[0.75 0 0 0.75 0 0] CT
0.149 GC
2 setlinecap
1 LJ
0.667 LW
N
507 374 M
507 31 L
S
GR
GS
[0.75 0 0 0.75 0 0] CT
0.149 GC
2 setlinecap
1 LJ
0.667 LW
N
73 374 M
77.34 374 L
S
GR
GS
[0.75 0 0 0.75 0 0] CT
0.149 GC
2 setlinecap
1 LJ
0.667 LW
N
73 316.833 M
77.34 316.833 L
S
GR
GS
[0.75 0 0 0.75 0 0] CT
0.149 GC
2 setlinecap
1 LJ
0.667 LW
N
73 259.667 M
77.34 259.667 L
S
GR
GS
[0.75 0 0 0.75 0 0] CT
0.149 GC
2 setlinecap
1 LJ
0.667 LW
N
73 202.5 M
77.34 202.5 L
S
GR
GS
[0.75 0 0 0.75 0 0] CT
0.149 GC
2 setlinecap
1 LJ
0.667 LW
N
73 145.333 M
77.34 145.333 L
S
GR
GS
[0.75 0 0 0.75 0 0] CT
0.149 GC
2 setlinecap
1 LJ
0.667 LW
N
73 88.167 M
77.34 88.167 L
S
GR
GS
[0.75 0 0 0.75 0 0] CT
0.149 GC
2 setlinecap
1 LJ
0.667 LW
N
73 31 M
77.34 31 L
S
GR
GS
[0.75 0 0 0.75 0 0] CT
0.149 GC
2 setlinecap
1 LJ
0.667 LW
N
507 374 M
502.66 374 L
S
GR
GS
[0.75 0 0 0.75 0 0] CT
0.149 GC
2 setlinecap
1 LJ
0.667 LW
N
507 316.833 M
502.66 316.833 L
S
GR
GS
[0.75 0 0 0.75 0 0] CT
0.149 GC
2 setlinecap
1 LJ
0.667 LW
N
507 259.667 M
502.66 259.667 L
S
GR
GS
[0.75 0 0 0.75 0 0] CT
0.149 GC
2 setlinecap
1 LJ
0.667 LW
N
507 202.5 M
502.66 202.5 L
S
GR
GS
[0.75 0 0 0.75 0 0] CT
0.149 GC
2 setlinecap
1 LJ
0.667 LW
N
507 145.333 M
502.66 145.333 L
S
GR
GS
[0.75 0 0 0.75 0 0] CT
0.149 GC
2 setlinecap
1 LJ
0.667 LW
N
507 88.167 M
502.66 88.167 L
S
GR
GS
[0.75 0 0 0.75 0 0] CT
0.149 GC
2 setlinecap
1 LJ
0.667 LW
N
507 31 M
502.66 31 L
S
GR
GS
[0.75 0 0 0.75 50.75 280.5] CT
0.149 GC
/Helvetica 13 F
GS
[1 0 0 1 0 0] CT
-30 5 moveto 
1 -1 scale
(-0.05) t 
GR
GR
GS
[0.75 0 0 0.75 50.75 237.62501] CT
0.149 GC
/Helvetica 13 F
GS
[1 0 0 1 0 0] CT
-8 5 moveto 
1 -1 scale
(0) t 
GR
GR
GS
[0.75 0 0 0.75 50.75 194.74999] CT
0.149 GC
/Helvetica 13 F
GS
[1 0 0 1 0 0] CT
-26 5 moveto 
1 -1 scale
(0.05) t 
GR
GR
GS
[0.75 0 0 0.75 50.75 151.875] CT
0.149 GC
/Helvetica 13 F
GS
[1 0 0 1 0 0] CT
-19 5 moveto 
1 -1 scale
(0.1) t 
GR
GR
GS
[0.75 0 0 0.75 50.75 109] CT
0.149 GC
/Helvetica 13 F
GS
[1 0 0 1 0 0] CT
-26 5 moveto 
1 -1 scale
(0.15) t 
GR
GR
GS
[0.75 0 0 0.75 50.75 66.125] CT
0.149 GC
/Helvetica 13 F
GS
[1 0 0 1 0 0] CT
-19 5 moveto 
1 -1 scale
(0.2) t 
GR
GR
GS
[0.75 0 0 0.75 50.75 23.25] CT
0.149 GC
/Helvetica 13 F
GS
[1 0 0 1 0 0] CT
-26 5 moveto 
1 -1 scale
(0.25) t 
GR
GR
GS
[0.75 0 0 0.75 63.75 13.5] CT
/any-Bold 15 F
GS
[1 0 0 1 0 0] CT
0 0 moveto 
1 -1 scale
(Response of system without \(y) t 
GR
GR
GS
[0.75 0 0 0.75 229.5 18.75] CT
/any-Bold 11 F
GS
[1 0 0 1 0 0] CT
0 0 moveto 
1 -1 scale
(1) t 
GR
GR
GS
[0.75 0 0 0.75 234.75 13.5] CT
/any-Bold 15 F
GS
[1 0 0 1 0 0] CT
0 0 moveto 
1 -1 scale
(\) and with integration \(y) t 
GR
GR
GS
[0.75 0 0 0.75 362.25 18.75] CT
/any-Bold 11 F
GS
[1 0 0 1 0 0] CT
0 0 moveto 
1 -1 scale
(2) t 
GR
GR
GS
[0.75 0 0 0.75 367.5 13.5] CT
/any-Bold 15 F
GS
[1 0 0 1 0 0] CT
0 0 moveto 
1 -1 scale
(\)) t 
GR
GR
GS
[0.75 0 0 0.75 0 0] CT
0 0.447 0.741 RC
1 LJ
0.667 LW
N
73 316.833 M
73.362 316.833 L
73.362 202.5 L
73.362 202.5 L
73.795 202.5 L
74.228 202.5 L
74.79 202.5 L
75.481 202.5 L
76.467 202.5 L
77.707 202.5 L
79.509 202.5 L
81.847 202.5 L
83.324 202.5 L
84.802 202.5 L
86.494 202.5 L
88.253 202.5 L
89.817 202.5 L
91.169 202.5 L
92.517 202.5 L
94.075 202.5 L
95.832 202.5 L
97.508 202.5 L
98.919 202.5 L
100.204 202.5 L
101.623 202.5 L
103.305 202.5 L
105.07 202.5 L
106.606 202.5 L
107.907 202.5 L
109.22 202.5 L
110.78 202.5 L
112.564 202.5 L
114.245 202.5 L
115.629 202.5 L
116.886 202.5 L
118.305 202.5 L
120.018 202.5 L
121.808 202.5 L
123.333 202.5 L
124.605 202.5 L
125.905 202.5 L
127.48 202.5 L
129.296 202.5 L
130.982 202.5 L
132.345 202.5 L
133.58 202.5 L
135 202.5 L
136.736 202.5 L
138.547 202.5 L
140.062 202.5 L
S
GR
GS
[0.75 0 0 0.75 0 0] CT
0 0.447 0.741 RC
1 LJ
0.667 LW
N
138.547 202.5 M
140.062 202.5 L
141.313 202.5 L
142.602 202.5 L
144.188 202.5 L
146.028 202.5 L
147.374 202.5 L
148.721 202.5 L
150.325 202.5 L
152.111 202.5 L
153.742 202.5 L
155.092 202.5 L
156.363 202.5 L
157.83 202.5 L
159.575 202.5 L
161.333 202.5 L
162.805 202.5 L
164.066 202.5 L
165.403 202.5 L
167.028 202.5 L
168.845 202.5 L
170.477 202.5 L
171.802 202.5 L
173.053 202.5 L
174.525 202.5 L
176.298 202.5 L
178.073 202.5 L
179.531 202.5 L
180.768 202.5 L
181.5 202.5 L
181.5 202.5 L
181.5 202.5 L
181.944 202.5 L
182.388 202.5 L
182.994 202.5 L
183.712 202.5 L
184.632 202.5 L
185.847 202.5 L
187.55 202.5 L
189.694 202.5 L
190.93 202.5 L
192.166 202.5 L
193.817 202.5 L
195.785 202.5 L
197.048 202.5 L
198.312 202.5 L
199.944 202.5 L
201.871 202.5 L
203.159 202.5 L
204.447 202.5 L
206.068 202.5 L
207.943 202.5 L
S
GR
GS
[0.75 0 0 0.75 0 0] CT
0 0.447 0.741 RC
1 LJ
0.667 LW
N
206.068 202.5 M
207.943 202.5 L
209.253 202.5 L
210.564 202.5 L
212.175 202.5 L
214.013 202.5 L
215.341 202.5 L
216.67 202.5 L
218.274 202.5 L
220.082 202.5 L
221.731 202.5 L
223.073 202.5 L
224.325 202.5 L
225.78 202.5 L
227.534 202.5 L
229.316 202.5 L
230.795 202.5 L
232.042 202.5 L
233.361 202.5 L
234.982 202.5 L
236.817 202.5 L
238.467 202.5 L
239.79 202.5 L
241.024 202.5 L
242.482 202.5 L
244.258 202.5 L
246.054 202.5 L
247.523 202.5 L
248.753 202.5 L
250.065 202.5 L
251.696 202.5 L
253.55 202.5 L
254.859 202.5 L
256.169 202.5 L
257.776 202.5 L
259.611 202.5 L
261.275 202.5 L
262.607 202.5 L
263.838 202.5 L
265.283 202.5 L
267.049 202.5 L
268.854 202.5 L
270.338 202.5 L
271.571 202.5 L
272.873 202.5 L
274.49 202.5 L
276.343 202.5 L
277.663 202.5 L
278.983 202.5 L
280.59 202.5 L
282.412 202.5 L
284.067 202.5 L
S
GR
GS
[0.75 0 0 0.75 0 0] CT
0 0.447 0.741 RC
1 LJ
0.667 LW
N
282.412 202.5 M
284.067 202.5 L
285.403 202.5 L
286.644 202.5 L
288.095 202.5 L
289.858 202.5 L
290 202.5 L
290 202.5 L
290 202.5 L
291.084 202.5 L
292.162 202.5 L
293.493 202.5 L
295.036 202.5 L
296.844 202.5 L
299.014 202.5 L
300.185 202.5 L
301.356 202.5 L
302.996 202.5 L
305.026 202.5 L
306.281 202.5 L
307.535 202.5 L
309.173 202.5 L
311.105 202.5 L
312.388 202.5 L
313.671 202.5 L
315.292 202.5 L
317.174 202.5 L
318.482 202.5 L
319.79 202.5 L
321.403 202.5 L
323.245 202.5 L
324.571 202.5 L
325.898 202.5 L
327.503 202.5 L
329.314 202.5 L
330.964 202.5 L
332.305 202.5 L
333.554 202.5 L
335.008 202.5 L
336.765 202.5 L
338.549 202.5 L
340.028 202.5 L
341.273 202.5 L
342.59 202.5 L
344.211 202.5 L
346.048 202.5 L
347.7 202.5 L
349.022 202.5 L
350.255 202.5 L
351.711 202.5 L
353.488 202.5 L
355.287 202.5 L
S
GR
GS
[0.75 0 0 0.75 0 0] CT
0 0.447 0.741 RC
1 LJ
0.667 LW
N
353.488 202.5 M
355.287 202.5 L
356.756 202.5 L
357.985 202.5 L
359.295 202.5 L
360.926 202.5 L
362.781 202.5 L
364.091 202.5 L
365.4 202.5 L
367.008 202.5 L
368.843 202.5 L
370.507 202.5 L
371.839 202.5 L
373.07 202.5 L
374.514 202.5 L
376.281 202.5 L
378.086 202.5 L
379.569 202.5 L
380.802 202.5 L
382.104 202.5 L
383.722 202.5 L
385.575 202.5 L
386.895 202.5 L
388.214 202.5 L
389.822 202.5 L
391.644 202.5 L
393.299 202.5 L
394.635 202.5 L
395.876 202.5 L
397.327 202.5 L
399.089 202.5 L
400.883 202.5 L
402.362 202.5 L
403.601 202.5 L
404.912 202.5 L
406.532 202.5 L
408.378 202.5 L
409.697 202.5 L
411.017 202.5 L
412.623 202.5 L
414.444 202.5 L
416.099 202.5 L
417.437 202.5 L
418.679 202.5 L
420.129 202.5 L
421.889 202.5 L
423.682 202.5 L
425.162 202.5 L
426.403 202.5 L
427.714 202.5 L
429.333 202.5 L
431.177 202.5 L
S
GR
GS
[0.75 0 0 0.75 0 0] CT
0 0.447 0.741 RC
1 LJ
0.667 LW
N
429.333 202.5 M
431.177 202.5 L
432.498 202.5 L
433.819 202.5 L
435.425 202.5 L
437.244 202.5 L
438.898 202.5 L
440.237 202.5 L
441.48 202.5 L
442.931 202.5 L
444.69 202.5 L
446.481 202.5 L
447.961 202.5 L
449.203 202.5 L
450.516 202.5 L
452.135 202.5 L
453.977 202.5 L
455.299 202.5 L
456.62 202.5 L
458.225 202.5 L
460.043 202.5 L
461.697 202.5 L
463.037 202.5 L
464.281 202.5 L
465.731 202.5 L
467.49 202.5 L
469.281 202.5 L
470.761 202.5 L
472.003 202.5 L
473.316 202.5 L
474.935 202.5 L
476.777 202.5 L
478.099 202.5 L
479.421 202.5 L
481.026 202.5 L
482.843 202.5 L
484.497 202.5 L
485.836 202.5 L
487.081 202.5 L
488.532 202.5 L
490.29 202.5 L
492.081 202.5 L
493.561 202.5 L
494.803 202.5 L
496.116 202.5 L
497.735 202.5 L
499.577 202.5 L
500.899 202.5 L
502.221 202.5 L
503.826 202.5 L
505.643 202.5 L
507 202.5 L
S
GR
GS
[0.75 0 0 0.75 0 0] CT
0 0.447 0.741 RC
1 LJ
0.667 LW
N
505.643 202.5 M
507 202.5 L
S
GR
GS
[0.75 0 0 0.75 0 0] CT
0.851 0.325 0.098 RC
1 LJ
0.667 LW
N
73 316.833 M
73.362 316.833 L
73.362 316.833 L
73.362 316.833 L
73.795 316.833 L
74.228 316.833 L
74.79 316.833 L
75.481 316.833 L
76.467 316.833 L
77.707 316.833 L
79.509 316.833 L
81.847 316.833 L
83.324 316.833 L
84.802 316.833 L
86.494 316.833 L
88.253 316.833 L
89.817 316.833 L
91.169 316.833 L
92.517 316.833 L
94.075 316.833 L
95.832 316.833 L
97.508 316.833 L
98.919 316.833 L
100.204 316.833 L
101.623 316.833 L
103.305 316.833 L
105.07 316.833 L
106.606 316.833 L
107.907 316.833 L
109.22 316.833 L
110.78 316.833 L
112.564 316.833 L
114.245 316.833 L
115.629 316.833 L
116.886 316.833 L
118.305 316.833 L
120.018 316.833 L
121.808 316.833 L
123.333 316.833 L
124.605 316.833 L
125.905 316.833 L
127.48 316.833 L
129.296 316.833 L
130.982 316.833 L
132.345 316.833 L
133.58 316.833 L
135 316.833 L
136.736 316.833 L
138.547 316.833 L
140.062 316.833 L
S
GR
GS
[0.75 0 0 0.75 0 0] CT
0.851 0.325 0.098 RC
1 LJ
0.667 LW
N
138.547 316.833 M
140.062 316.833 L
141.313 316.833 L
142.602 316.833 L
144.188 316.833 L
146.028 316.833 L
147.374 316.833 L
148.721 316.833 L
150.325 316.833 L
152.111 316.833 L
153.742 316.833 L
155.092 316.833 L
156.363 316.833 L
157.83 316.833 L
159.575 316.833 L
161.333 316.833 L
162.805 316.833 L
164.066 316.833 L
165.403 316.833 L
167.028 316.833 L
168.845 316.833 L
170.477 316.833 L
171.802 316.833 L
173.053 316.833 L
174.525 316.833 L
176.298 316.833 L
178.073 316.833 L
179.531 316.833 L
180.768 316.833 L
181.5 316.833 L
181.5 202.5 L
181.5 202.5 L
181.944 202.5 L
182.388 202.5 L
182.994 202.5 L
183.712 202.5 L
184.632 202.5 L
185.847 202.5 L
187.55 202.5 L
189.694 202.5 L
190.93 202.5 L
192.166 202.5 L
193.817 202.5 L
195.785 202.5 L
197.048 202.5 L
198.312 202.5 L
199.944 202.5 L
201.871 202.5 L
203.159 202.5 L
204.447 202.5 L
206.068 202.5 L
207.943 202.5 L
S
GR
GS
[0.75 0 0 0.75 0 0] CT
0.851 0.325 0.098 RC
1 LJ
0.667 LW
N
206.068 202.5 M
207.943 202.5 L
209.253 202.5 L
210.564 202.5 L
212.175 202.5 L
214.013 202.5 L
215.341 202.5 L
216.67 202.5 L
218.274 202.5 L
220.082 202.5 L
221.731 202.5 L
223.073 202.5 L
224.325 202.5 L
225.78 202.5 L
227.534 202.5 L
229.316 202.5 L
230.795 202.5 L
232.042 202.5 L
233.361 202.5 L
234.982 202.5 L
236.817 202.5 L
238.467 202.5 L
239.79 202.5 L
241.024 202.5 L
242.482 202.5 L
244.258 202.5 L
246.054 202.5 L
247.523 202.5 L
248.753 202.5 L
250.065 202.5 L
251.696 202.5 L
253.55 202.5 L
254.859 202.5 L
256.169 202.5 L
257.776 202.5 L
259.611 202.5 L
261.275 202.5 L
262.607 202.5 L
263.838 202.5 L
265.283 202.5 L
267.049 202.5 L
268.854 202.5 L
270.338 202.5 L
271.571 202.5 L
272.873 202.5 L
274.49 202.5 L
276.343 202.5 L
277.663 202.5 L
278.983 202.5 L
280.59 202.5 L
282.412 202.5 L
284.067 202.5 L
S
GR
GS
[0.75 0 0 0.75 0 0] CT
0.851 0.325 0.098 RC
1 LJ
0.667 LW
N
282.412 202.5 M
284.067 202.5 L
285.403 202.5 L
286.644 202.5 L
288.095 202.5 L
289.858 202.5 L
290 202.5 L
290 202.5 L
290 202.5 L
291.084 202.5 L
292.162 202.5 L
293.493 202.5 L
295.036 202.5 L
296.844 202.5 L
299.014 202.5 L
300.185 202.5 L
301.356 202.5 L
302.996 202.5 L
305.026 202.5 L
306.281 202.5 L
307.535 202.5 L
309.173 202.5 L
311.105 202.5 L
312.388 202.5 L
313.671 202.5 L
315.292 202.5 L
317.174 202.5 L
318.482 202.5 L
319.79 202.5 L
321.403 202.5 L
323.245 202.5 L
324.571 202.5 L
325.898 202.5 L
327.503 202.5 L
329.314 202.5 L
330.964 202.5 L
332.305 202.5 L
333.554 202.5 L
335.008 202.5 L
336.765 202.5 L
338.549 202.5 L
340.028 202.5 L
341.273 202.5 L
342.59 202.5 L
344.211 202.5 L
346.048 202.5 L
347.7 202.5 L
349.022 202.5 L
350.255 202.5 L
351.711 202.5 L
353.488 202.5 L
355.287 202.5 L
S
GR
GS
[0.75 0 0 0.75 0 0] CT
0.851 0.325 0.098 RC
1 LJ
0.667 LW
N
353.488 202.5 M
355.287 202.5 L
356.756 202.5 L
357.985 202.5 L
359.295 202.5 L
360.926 202.5 L
362.781 202.5 L
364.091 202.5 L
365.4 202.5 L
367.008 202.5 L
368.843 202.5 L
370.507 202.5 L
371.839 202.5 L
373.07 202.5 L
374.514 202.5 L
376.281 202.5 L
378.086 202.5 L
379.569 202.5 L
380.802 202.5 L
382.104 202.5 L
383.722 202.5 L
385.575 202.5 L
386.895 202.5 L
388.214 202.5 L
389.822 202.5 L
391.644 202.5 L
393.299 202.5 L
394.635 202.5 L
395.876 202.5 L
397.327 202.5 L
399.089 202.5 L
400.883 202.5 L
402.362 202.5 L
403.601 202.5 L
404.912 202.5 L
406.532 202.5 L
408.378 202.5 L
409.697 202.5 L
411.017 202.5 L
412.623 202.5 L
414.444 202.5 L
416.099 202.5 L
417.437 202.5 L
418.679 202.5 L
420.129 202.5 L
421.889 202.5 L
423.682 202.5 L
425.162 202.5 L
426.403 202.5 L
427.714 202.5 L
429.333 202.5 L
431.177 202.5 L
S
GR
GS
[0.75 0 0 0.75 0 0] CT
0.851 0.325 0.098 RC
1 LJ
0.667 LW
N
429.333 202.5 M
431.177 202.5 L
432.498 202.5 L
433.819 202.5 L
435.425 202.5 L
437.244 202.5 L
438.898 202.5 L
440.237 202.5 L
441.48 202.5 L
442.931 202.5 L
444.69 202.5 L
446.481 202.5 L
447.961 202.5 L
449.203 202.5 L
450.516 202.5 L
452.135 202.5 L
453.977 202.5 L
455.299 202.5 L
456.62 202.5 L
458.225 202.5 L
460.043 202.5 L
461.697 202.5 L
463.037 202.5 L
464.281 202.5 L
465.731 202.5 L
467.49 202.5 L
469.281 202.5 L
470.761 202.5 L
472.003 202.5 L
473.316 202.5 L
474.935 202.5 L
476.777 202.5 L
478.099 202.5 L
479.421 202.5 L
481.026 202.5 L
482.843 202.5 L
484.497 202.5 L
485.836 202.5 L
487.081 202.5 L
488.532 202.5 L
490.29 202.5 L
492.081 202.5 L
493.561 202.5 L
494.803 202.5 L
496.116 202.5 L
497.735 202.5 L
499.577 202.5 L
500.899 202.5 L
502.221 202.5 L
503.826 202.5 L
505.643 202.5 L
507 202.5 L
S
GR
GS
[0.75 0 0 0.75 0 0] CT
0.851 0.325 0.098 RC
1 LJ
0.667 LW
N
505.643 202.5 M
507 202.5 L
S
GR
GS
[0.75 0 0 0.75 0 0] CT
0.929 0.694 0.125 RC
1 LJ
0.667 LW
N
73 316.833 M
73.362 316.833 L
73.362 316.833 L
73.362 316.833 L
73.795 316.754 L
74.228 316.522 L
74.79 316.011 L
75.481 315.086 L
76.467 313.26 L
77.707 310.254 L
79.509 304.788 L
81.847 296.404 L
83.324 290.666 L
84.802 284.779 L
86.494 278.014 L
88.253 271.101 L
89.817 265.156 L
91.169 260.227 L
92.517 255.53 L
94.075 250.407 L
95.832 245.035 L
97.508 240.325 L
98.919 236.671 L
100.204 233.587 L
101.623 230.441 L
103.305 227.05 L
105.07 223.861 L
106.606 221.373 L
107.907 219.46 L
109.22 217.695 L
110.78 215.801 L
112.564 213.878 L
114.245 212.283 L
115.629 211.111 L
116.886 210.146 L
118.305 209.162 L
120.018 208.107 L
121.808 207.143 L
123.333 206.423 L
124.605 205.885 L
125.905 205.388 L
127.48 204.853 L
129.296 204.315 L
130.982 203.884 L
132.345 203.58 L
133.58 203.334 L
135 203.084 L
136.736 202.82 L
138.547 202.589 L
140.062 202.428 L
S
GR
GS
[0.75 0 0 0.75 0 0] CT
0.929 0.694 0.125 RC
1 LJ
0.667 LW
N
138.547 202.589 M
140.062 202.428 L
141.313 202.315 L
142.602 202.214 L
144.188 202.112 L
146.028 202.02 L
147.374 201.969 L
148.721 201.93 L
150.325 201.898 L
152.111 201.879 L
153.742 201.875 L
155.092 201.88 L
156.363 201.89 L
157.83 201.909 L
159.575 201.939 L
161.333 201.976 L
162.805 202.013 L
164.066 202.046 L
165.403 202.084 L
167.028 202.133 L
168.845 202.189 L
170.477 202.241 L
171.802 202.284 L
173.053 202.324 L
174.525 202.372 L
176.298 202.428 L
178.073 202.483 L
179.531 202.527 L
180.768 202.564 L
181.5 202.585 L
181.5 202.585 L
181.5 202.585 L
181.944 202.584 L
182.388 202.529 L
182.994 202.343 L
183.712 201.958 L
184.632 201.235 L
185.847 199.968 L
187.55 197.787 L
189.694 194.725 L
190.93 192.943 L
192.166 191.22 L
193.817 189.09 L
195.785 186.899 L
197.048 185.725 L
198.312 184.749 L
199.944 183.787 L
201.871 183.078 L
203.159 182.848 L
204.447 182.801 L
206.068 182.98 L
207.943 183.479 L
S
GR
GS
[0.75 0 0 0.75 0 0] CT
0.929 0.694 0.125 RC
1 LJ
0.667 LW
N
206.068 182.98 M
207.943 183.479 L
209.253 183.986 L
210.564 184.604 L
212.175 185.491 L
214.013 186.634 L
215.341 187.523 L
216.67 188.448 L
218.274 189.595 L
220.082 190.9 L
221.731 192.08 L
223.073 193.022 L
224.325 193.876 L
225.78 194.836 L
227.534 195.936 L
229.316 196.98 L
230.795 197.786 L
232.042 198.421 L
233.361 199.05 L
234.982 199.759 L
236.817 200.48 L
238.467 201.057 L
239.79 201.471 L
241.024 201.82 L
242.482 202.19 L
244.258 202.582 L
246.054 202.917 L
247.523 203.149 L
248.753 203.315 L
250.065 203.469 L
251.696 203.628 L
253.55 203.77 L
254.859 203.847 L
256.169 203.908 L
257.776 203.963 L
259.611 204.003 L
261.275 204.022 L
262.607 204.025 L
263.838 204.02 L
265.283 204.008 L
267.049 203.983 L
268.854 203.95 L
270.338 203.917 L
271.571 203.887 L
272.873 203.853 L
274.49 203.809 L
276.343 203.757 L
277.663 203.718 L
278.983 203.68 L
280.59 203.633 L
282.412 203.581 L
284.067 203.536 L
S
GR
GS
[0.75 0 0 0.75 0 0] CT
0.929 0.694 0.125 RC
1 LJ
0.667 LW
N
282.412 203.581 M
284.067 203.536 L
285.403 203.499 L
286.644 203.465 L
288.095 203.428 L
289.858 203.385 L
290 203.382 L
290 203.382 L
290 203.382 L
291.084 186.611 L
292.162 170.798 L
293.493 152.595 L
295.036 133.494 L
296.844 114.05 L
299.014 94.992 L
300.185 86.626 L
301.356 79.551 L
302.996 71.705 L
305.026 65.063 L
306.281 62.496 L
307.535 60.98 L
309.173 60.411 L
311.105 61.509 L
312.388 63.132 L
313.671 65.353 L
315.292 68.874 L
317.174 73.749 L
318.482 77.52 L
319.79 81.522 L
321.403 86.681 L
323.245 92.752 L
324.571 97.177 L
325.898 101.6 L
327.503 106.901 L
329.314 112.76 L
330.964 117.938 L
332.305 122.016 L
333.554 125.696 L
335.008 129.824 L
336.765 134.582 L
338.549 139.152 L
340.028 142.737 L
341.273 145.616 L
342.59 148.523 L
344.211 151.91 L
346.048 155.507 L
347.7 158.529 L
349.022 160.812 L
350.255 162.835 L
351.711 165.102 L
353.488 167.694 L
355.287 170.136 L
S
GR
GS
[0.75 0 0 0.75 0 0] CT
0.929 0.694 0.125 RC
1 LJ
0.667 LW
N
353.488 167.694 M
355.287 170.136 L
356.756 172.005 L
357.985 173.485 L
359.295 174.986 L
360.926 176.745 L
362.781 178.612 L
364.091 179.848 L
365.4 181.021 L
367.008 182.379 L
368.843 183.824 L
370.507 185.045 L
371.839 185.965 L
373.07 186.772 L
374.514 187.668 L
376.281 188.694 L
378.086 189.667 L
379.569 190.413 L
380.802 191 L
382.104 191.586 L
383.722 192.27 L
385.575 192.997 L
386.895 193.48 L
388.214 193.936 L
389.822 194.456 L
391.644 195.002 L
393.299 195.459 L
394.635 195.805 L
395.876 196.108 L
397.327 196.44 L
399.089 196.813 L
400.883 197.162 L
402.362 197.429 L
403.601 197.639 L
404.912 197.848 L
406.532 198.087 L
408.378 198.338 L
409.697 198.504 L
411.017 198.66 L
412.623 198.836 L
414.444 199.02 L
416.099 199.172 L
417.437 199.288 L
418.679 199.389 L
420.129 199.498 L
421.889 199.621 L
423.682 199.735 L
425.162 199.822 L
426.403 199.892 L
427.714 199.96 L
429.333 200.039 L
431.177 200.12 L
S
GR
GS
[0.75 0 0 0.75 0 0] CT
0.929 0.694 0.125 RC
1 LJ
0.667 LW
N
429.333 200.039 M
431.177 200.12 L
432.498 200.176 L
433.819 200.227 L
435.425 200.286 L
437.244 200.347 L
438.898 200.398 L
440.237 200.437 L
441.48 200.472 L
442.931 200.51 L
444.69 200.552 L
446.481 200.592 L
447.961 200.623 L
449.203 200.648 L
450.516 200.673 L
452.135 200.702 L
453.977 200.732 L
455.299 200.753 L
456.62 200.772 L
458.225 200.795 L
460.043 200.818 L
461.697 200.838 L
463.037 200.854 L
464.281 200.868 L
465.731 200.884 L
467.49 200.901 L
469.281 200.917 L
470.761 200.93 L
472.003 200.941 L
473.316 200.952 L
474.935 200.964 L
476.777 200.977 L
478.099 200.986 L
479.421 200.995 L
481.026 201.005 L
482.843 201.015 L
484.497 201.024 L
485.836 201.031 L
487.081 201.038 L
488.532 201.045 L
490.29 201.053 L
492.081 201.06 L
493.561 201.066 L
494.803 201.071 L
496.116 201.076 L
497.735 201.082 L
499.577 201.087 L
500.899 201.092 L
502.221 201.096 L
503.826 201.1 L
505.643 201.104 L
507 201.108 L
S
GR
GS
[0.75 0 0 0.75 0 0] CT
0.929 0.694 0.125 RC
1 LJ
0.667 LW
N
505.643 201.104 M
507 201.108 L
S
GR
GS
[0.75 0 0 0.75 0 0] CT
0.494 0.184 0.557 RC
1 LJ
0.667 LW
N
73 316.833 M
73.362 316.833 L
73.362 316.833 L
73.362 316.833 L
73.795 316.833 L
74.228 316.818 L
74.79 316.751 L
75.481 316.57 L
76.467 316.09 L
77.707 315.126 L
79.509 313.133 L
81.847 309.913 L
83.324 307.74 L
84.802 305.602 L
86.494 303.311 L
88.253 301.204 L
89.817 299.623 L
91.169 298.503 L
92.517 297.62 L
94.075 296.892 L
95.832 296.432 L
97.508 296.328 L
98.919 296.469 L
100.204 296.762 L
101.623 297.245 L
103.305 298.005 L
105.07 298.978 L
106.606 299.939 L
107.907 300.815 L
109.22 301.741 L
110.78 302.875 L
112.564 304.193 L
114.245 305.429 L
115.629 306.43 L
116.886 307.317 L
118.305 308.286 L
120.018 309.4 L
121.808 310.492 L
123.333 311.358 L
124.605 312.033 L
125.905 312.677 L
127.48 313.396 L
129.296 314.142 L
130.982 314.757 L
132.345 315.201 L
133.58 315.565 L
135 315.94 L
136.736 316.338 L
138.547 316.689 L
140.062 316.937 L
S
GR
GS
[0.75 0 0 0.75 0 0] CT
0.494 0.184 0.557 RC
1 LJ
0.667 LW
N
138.547 316.689 M
140.062 316.937 L
141.313 317.112 L
142.602 317.266 L
144.188 317.425 L
146.028 317.568 L
147.374 317.649 L
148.721 317.711 L
150.325 317.765 L
152.111 317.801 L
153.742 317.816 L
155.092 317.816 L
156.363 317.809 L
157.83 317.793 L
159.575 317.764 L
161.333 317.726 L
162.805 317.689 L
164.066 317.655 L
165.403 317.616 L
167.028 317.567 L
168.845 317.511 L
170.477 317.459 L
171.802 317.417 L
173.053 317.378 L
174.525 317.332 L
176.298 317.279 L
178.073 317.227 L
179.531 317.186 L
180.768 317.152 L
181.5 317.133 L
181.5 317.133 L
181.5 317.133 L
181.944 317.023 L
182.388 316.725 L
182.994 316.033 L
183.712 314.824 L
184.632 312.732 L
185.847 309.177 L
187.55 303.031 L
189.694 294.03 L
190.93 288.483 L
192.166 282.826 L
193.817 275.267 L
195.785 266.488 L
197.048 261.083 L
198.312 255.914 L
199.944 249.639 L
201.871 242.858 L
203.159 238.722 L
204.447 234.903 L
206.068 230.54 L
207.943 226.088 L
S
GR
GS
[0.75 0 0 0.75 0 0] CT
0.494 0.184 0.557 RC
1 LJ
0.667 LW
N
206.068 230.54 M
207.943 226.088 L
209.253 223.333 L
210.564 220.853 L
212.175 218.152 L
214.013 215.501 L
215.341 213.841 L
216.67 212.374 L
218.274 210.833 L
220.082 209.362 L
221.731 208.234 L
223.073 207.444 L
224.325 206.8 L
225.78 206.148 L
227.534 205.482 L
229.316 204.918 L
230.795 204.523 L
232.042 204.232 L
233.361 203.962 L
234.982 203.675 L
236.817 203.401 L
238.467 203.192 L
239.79 203.046 L
241.024 202.926 L
242.482 202.8 L
244.258 202.668 L
246.054 202.554 L
247.523 202.475 L
248.753 202.417 L
250.065 202.363 L
251.696 202.305 L
253.55 202.252 L
254.859 202.221 L
256.169 202.196 L
257.776 202.172 L
259.611 202.154 L
261.275 202.145 L
262.607 202.142 L
263.838 202.143 L
265.283 202.147 L
267.049 202.158 L
268.854 202.174 L
270.338 202.19 L
271.571 202.206 L
272.873 202.224 L
274.49 202.249 L
276.343 202.279 L
277.663 202.302 L
278.983 202.326 L
280.59 202.356 L
282.412 202.39 L
284.067 202.422 L
S
GR
GS
[0.75 0 0 0.75 0 0] CT
0.494 0.184 0.557 RC
1 LJ
0.667 LW
N
282.412 202.39 M
284.067 202.422 L
285.403 202.447 L
286.644 202.471 L
288.095 202.498 L
289.858 202.53 L
290 202.532 L
290 202.532 L
290 202.532 L
291.084 199.46 L
292.162 192.637 L
293.493 182.233 L
295.036 169.857 L
296.844 156.699 L
299.014 143.936 L
300.185 138.569 L
301.356 134.262 L
302.996 129.934 L
305.026 127.105 L
306.281 126.603 L
307.535 126.933 L
309.173 128.449 L
311.105 131.536 L
312.388 134.201 L
313.671 137.244 L
315.292 141.498 L
317.174 146.805 L
318.482 150.62 L
319.79 154.465 L
321.403 159.168 L
323.245 164.386 L
324.571 167.992 L
325.898 171.437 L
327.503 175.364 L
329.314 179.446 L
330.964 182.822 L
332.305 185.324 L
333.554 187.459 L
335.008 189.712 L
336.765 192.111 L
338.549 194.207 L
340.028 195.702 L
341.273 196.802 L
342.59 197.82 L
344.211 198.884 L
346.048 199.863 L
347.7 200.564 L
349.022 201.017 L
350.255 201.363 L
351.711 201.688 L
353.488 201.98 L
355.287 202.177 L
S
GR
GS
[0.75 0 0 0.75 0 0] CT
0.494 0.184 0.557 RC
1 LJ
0.667 LW
N
353.488 201.98 M
355.287 202.177 L
356.756 202.278 L
357.985 202.329 L
359.295 202.354 L
360.926 202.352 L
362.781 202.316 L
364.091 202.275 L
365.4 202.224 L
367.008 202.152 L
368.843 202.064 L
370.507 201.982 L
371.839 201.917 L
373.07 201.859 L
374.514 201.795 L
376.281 201.722 L
378.086 201.656 L
379.569 201.608 L
380.802 201.573 L
382.104 201.541 L
383.722 201.508 L
385.575 201.479 L
386.895 201.464 L
388.214 201.453 L
389.822 201.446 L
391.644 201.443 L
393.299 201.447 L
394.635 201.453 L
395.876 201.461 L
397.327 201.474 L
399.089 201.492 L
400.883 201.514 L
402.362 201.534 L
403.601 201.552 L
404.912 201.572 L
406.532 201.597 L
408.378 201.628 L
409.697 201.65 L
411.017 201.673 L
412.623 201.7 L
414.444 201.731 L
416.099 201.76 L
417.437 201.782 L
418.679 201.803 L
420.129 201.827 L
421.889 201.855 L
423.682 201.882 L
425.162 201.905 L
426.403 201.923 L
427.714 201.941 L
429.333 201.963 L
431.177 201.987 L
S
GR
GS
[0.75 0 0 0.75 0 0] CT
0.494 0.184 0.557 RC
1 LJ
0.667 LW
N
429.333 201.963 M
431.177 201.987 L
432.498 202.004 L
433.819 202.02 L
435.425 202.038 L
437.244 202.058 L
438.898 202.075 L
440.237 202.088 L
441.48 202.1 L
442.931 202.113 L
444.69 202.127 L
446.481 202.141 L
447.961 202.152 L
449.203 202.161 L
450.516 202.169 L
452.135 202.179 L
453.977 202.189 L
455.299 202.196 L
456.62 202.203 L
458.225 202.21 L
460.043 202.218 L
461.697 202.224 L
463.037 202.229 L
464.281 202.233 L
465.731 202.238 L
467.49 202.243 L
469.281 202.247 L
470.761 202.251 L
472.003 202.253 L
473.316 202.256 L
474.935 202.259 L
476.777 202.262 L
478.099 202.264 L
479.421 202.265 L
481.026 202.267 L
482.843 202.269 L
484.497 202.271 L
485.836 202.272 L
487.081 202.273 L
488.532 202.274 L
490.29 202.275 L
492.081 202.276 L
493.561 202.276 L
494.803 202.277 L
496.116 202.277 L
497.735 202.278 L
499.577 202.278 L
500.899 202.279 L
502.221 202.279 L
503.826 202.279 L
505.643 202.279 L
507 202.279 L
S
GR
GS
[0.75 0 0 0.75 0 0] CT
0.494 0.184 0.557 RC
1 LJ
0.667 LW
N
505.643 202.279 M
507 202.279 L
S
GR
GS
[0.75 0 0 0.75 0 0] CT
0.467 0.675 0.188 RC
1 LJ
0.667 LW
N
73 316.833 M
73.362 316.833 L
73.362 316.833 L
73.362 316.833 L
73.795 316.754 L
74.228 316.522 L
74.79 316.011 L
75.481 315.085 L
76.467 313.259 L
77.707 310.251 L
79.509 304.781 L
81.847 296.386 L
83.324 290.64 L
84.802 284.741 L
86.494 277.961 L
88.253 271.03 L
89.817 265.068 L
91.169 260.122 L
92.517 255.407 L
94.075 250.263 L
95.832 244.866 L
97.508 240.132 L
98.919 236.458 L
100.204 233.355 L
101.623 230.188 L
103.305 226.772 L
105.07 223.559 L
106.606 221.05 L
107.907 219.12 L
109.22 217.337 L
110.78 215.424 L
112.564 213.481 L
114.245 211.867 L
115.629 210.68 L
116.886 209.702 L
118.305 208.704 L
120.018 207.634 L
121.808 206.654 L
123.333 205.922 L
124.605 205.374 L
125.905 204.868 L
127.48 204.322 L
129.296 203.773 L
130.982 203.332 L
132.345 203.02 L
133.58 202.768 L
135 202.51 L
136.736 202.239 L
138.547 202.001 L
140.062 201.834 L
S
GR
GS
[0.75 0 0 0.75 0 0] CT
0.467 0.675 0.188 RC
1 LJ
0.667 LW
N
138.547 202.001 M
140.062 201.834 L
141.313 201.716 L
142.602 201.611 L
144.188 201.504 L
146.028 201.407 L
147.374 201.353 L
148.721 201.311 L
150.325 201.275 L
152.111 201.253 L
153.742 201.246 L
155.092 201.249 L
156.363 201.258 L
157.83 201.275 L
159.575 201.303 L
161.333 201.339 L
162.805 201.374 L
164.066 201.407 L
165.403 201.444 L
167.028 201.492 L
168.845 201.547 L
170.477 201.599 L
171.802 201.641 L
173.053 201.682 L
174.525 201.729 L
176.298 201.786 L
178.073 201.841 L
179.531 201.886 L
180.768 201.923 L
181.5 201.944 L
181.5 201.944 L
181.5 201.944 L
181.944 201.943 L
182.388 201.889 L
182.994 201.703 L
183.712 201.317 L
184.632 200.595 L
185.847 199.327 L
187.55 197.145 L
189.694 194.081 L
190.93 192.295 L
192.166 190.571 L
193.817 188.436 L
195.785 186.239 L
197.048 185.062 L
198.312 184.082 L
199.944 183.116 L
201.871 182.402 L
203.159 182.169 L
204.447 182.121 L
206.068 182.298 L
207.943 182.797 L
S
GR
GS
[0.75 0 0 0.75 0 0] CT
0.467 0.675 0.188 RC
1 LJ
0.667 LW
N
206.068 182.298 M
207.943 182.797 L
209.253 183.305 L
210.564 183.924 L
212.175 184.814 L
214.013 185.961 L
215.341 186.854 L
216.67 187.784 L
218.274 188.938 L
220.082 190.252 L
221.731 191.441 L
223.073 192.389 L
224.325 193.251 L
225.78 194.219 L
227.534 195.33 L
229.316 196.385 L
230.795 197.201 L
232.042 197.844 L
233.361 198.48 L
234.982 199.2 L
236.817 199.932 L
238.467 200.518 L
239.79 200.939 L
241.024 201.295 L
242.482 201.672 L
244.258 202.072 L
246.054 202.416 L
247.523 202.653 L
248.753 202.824 L
250.065 202.983 L
251.696 203.147 L
253.55 203.295 L
254.859 203.375 L
256.169 203.44 L
257.776 203.499 L
259.611 203.543 L
261.275 203.564 L
262.607 203.569 L
263.838 203.566 L
265.283 203.555 L
267.049 203.533 L
268.854 203.501 L
270.338 203.47 L
271.571 203.44 L
272.873 203.406 L
274.49 203.363 L
276.343 203.311 L
277.663 203.273 L
278.983 203.234 L
280.59 203.188 L
282.412 203.136 L
284.067 203.09 L
S
GR
GS
[0.75 0 0 0.75 0 0] CT
0.467 0.675 0.188 RC
1 LJ
0.667 LW
N
282.412 203.136 M
284.067 203.09 L
285.403 203.053 L
286.644 203.02 L
288.095 202.982 L
289.858 202.939 L
290 202.935 L
290 202.935 L
290 202.935 L
291.084 186.165 L
292.162 170.351 L
293.493 152.148 L
295.036 133.047 L
296.844 113.604 L
299.014 94.55 L
300.185 86.188 L
301.356 79.118 L
302.996 71.282 L
305.026 64.657 L
306.281 62.103 L
307.535 60.603 L
309.173 60.058 L
311.105 61.189 L
312.388 62.838 L
313.671 65.086 L
315.292 68.644 L
317.174 73.566 L
318.482 77.372 L
319.79 81.41 L
321.403 86.616 L
323.245 92.742 L
324.571 97.208 L
325.898 101.672 L
327.503 107.023 L
329.314 112.94 L
330.964 118.169 L
332.305 122.289 L
333.554 126.006 L
335.008 130.178 L
336.765 134.988 L
338.549 139.608 L
340.028 143.234 L
341.273 146.147 L
342.59 149.089 L
344.211 152.516 L
346.048 156.158 L
347.7 159.218 L
349.022 161.53 L
350.255 163.58 L
351.711 165.876 L
353.488 168.503 L
355.287 170.978 L
S
GR
GS
[0.75 0 0 0.75 0 0] CT
0.467 0.675 0.188 RC
1 LJ
0.667 LW
N
353.488 168.503 M
355.287 170.978 L
356.756 172.873 L
357.985 174.374 L
359.295 175.895 L
360.926 177.68 L
362.781 179.573 L
364.091 180.828 L
365.4 182.018 L
367.008 183.396 L
368.843 184.864 L
370.507 186.103 L
371.839 187.038 L
373.07 187.857 L
374.514 188.767 L
376.281 189.81 L
378.086 190.798 L
379.569 191.557 L
380.802 192.153 L
382.104 192.749 L
383.722 193.444 L
385.575 194.184 L
386.895 194.675 L
388.214 195.139 L
389.822 195.668 L
391.644 196.223 L
393.299 196.689 L
394.635 197.041 L
395.876 197.349 L
397.327 197.687 L
399.089 198.068 L
400.883 198.423 L
402.362 198.695 L
403.601 198.909 L
404.912 199.122 L
406.532 199.366 L
408.378 199.621 L
409.697 199.791 L
411.017 199.949 L
412.623 200.129 L
414.444 200.316 L
416.099 200.471 L
417.437 200.589 L
418.679 200.691 L
420.129 200.803 L
421.889 200.928 L
423.682 201.044 L
425.162 201.133 L
426.403 201.204 L
427.714 201.273 L
429.333 201.353 L
431.177 201.436 L
S
GR
GS
[0.75 0 0 0.75 0 0] CT
0.467 0.675 0.188 RC
1 LJ
0.667 LW
N
429.333 201.353 M
431.177 201.436 L
432.498 201.493 L
433.819 201.545 L
435.425 201.604 L
437.244 201.666 L
438.898 201.718 L
440.237 201.758 L
441.48 201.793 L
442.931 201.832 L
444.69 201.875 L
446.481 201.915 L
447.961 201.946 L
449.203 201.972 L
450.516 201.997 L
452.135 202.026 L
453.977 202.056 L
455.299 202.078 L
456.62 202.098 L
458.225 202.12 L
460.043 202.144 L
461.697 202.164 L
463.037 202.18 L
464.281 202.194 L
465.731 202.21 L
467.49 202.227 L
469.281 202.244 L
470.761 202.257 L
472.003 202.268 L
473.316 202.279 L
474.935 202.291 L
476.777 202.304 L
478.099 202.314 L
479.421 202.323 L
481.026 202.333 L
482.843 202.343 L
484.497 202.352 L
485.836 202.359 L
487.081 202.366 L
488.532 202.373 L
490.29 202.381 L
492.081 202.388 L
493.561 202.394 L
494.803 202.399 L
496.116 202.404 L
497.735 202.41 L
499.577 202.415 L
500.899 202.42 L
502.221 202.424 L
503.826 202.428 L
505.643 202.433 L
507 202.437 L
S
GR
GS
[0.75 0 0 0.75 0 0] CT
0.467 0.675 0.188 RC
1 LJ
0.667 LW
N
505.643 202.433 M
507 202.437 L
S
GR
GS
[0.75 0 0 0.75 0 0] CT
0.302 0.745 0.933 RC
1 LJ
0.667 LW
N
73 316.833 M
73.362 316.833 L
73.362 316.833 L
73.362 316.833 L
73.795 316.833 L
74.228 316.818 L
74.79 316.751 L
75.481 316.57 L
76.467 316.09 L
77.707 315.125 L
79.509 313.131 L
81.847 309.908 L
83.324 307.732 L
84.802 305.59 L
86.494 303.294 L
88.253 301.182 L
89.817 299.596 L
91.169 298.472 L
92.517 297.584 L
94.075 296.852 L
95.832 296.388 L
97.508 296.28 L
98.919 296.42 L
100.204 296.712 L
101.623 297.195 L
103.305 297.955 L
105.07 298.931 L
106.606 299.895 L
107.907 300.775 L
109.22 301.706 L
110.78 302.846 L
112.564 304.171 L
114.245 305.416 L
115.629 306.424 L
116.886 307.318 L
118.305 308.296 L
120.018 309.42 L
121.808 310.524 L
123.333 311.399 L
124.605 312.082 L
125.905 312.734 L
127.48 313.463 L
129.296 314.219 L
130.982 314.844 L
132.345 315.296 L
133.58 315.666 L
135 316.048 L
136.736 316.455 L
138.547 316.815 L
140.062 317.068 L
S
GR
GS
[0.75 0 0 0.75 0 0] CT
0.302 0.745 0.933 RC
1 LJ
0.667 LW
N
138.547 316.815 M
140.062 317.068 L
141.313 317.248 L
142.602 317.408 L
144.188 317.571 L
146.028 317.72 L
147.374 317.805 L
148.721 317.871 L
150.325 317.928 L
152.111 317.968 L
153.742 317.986 L
155.092 317.989 L
156.363 317.983 L
157.83 317.969 L
159.575 317.941 L
161.333 317.905 L
162.805 317.869 L
164.066 317.836 L
165.403 317.798 L
167.028 317.749 L
168.845 317.693 L
170.477 317.642 L
171.802 317.6 L
173.053 317.561 L
174.525 317.515 L
176.298 317.461 L
178.073 317.409 L
179.531 317.368 L
180.768 317.334 L
181.5 317.314 L
181.5 317.314 L
181.5 317.314 L
181.944 317.205 L
182.388 316.906 L
182.994 316.214 L
183.712 315.005 L
184.632 312.911 L
185.847 309.354 L
187.55 303.203 L
189.694 294.191 L
190.93 288.635 L
192.166 282.968 L
193.817 275.392 L
195.785 266.59 L
197.048 261.17 L
198.312 255.984 L
199.944 249.685 L
201.871 242.876 L
203.159 238.72 L
204.447 234.882 L
206.068 230.494 L
207.943 226.014 L
S
GR
GS
[0.75 0 0 0.75 0 0] CT
0.302 0.745 0.933 RC
1 LJ
0.667 LW
N
206.068 230.494 M
207.943 226.014 L
209.253 223.24 L
210.564 220.741 L
212.175 218.017 L
214.013 215.342 L
215.341 213.666 L
216.67 212.183 L
218.274 210.624 L
220.082 209.135 L
221.731 207.992 L
223.073 207.19 L
224.325 206.536 L
225.78 205.873 L
227.534 205.195 L
229.316 204.62 L
230.795 204.216 L
232.042 203.919 L
233.361 203.643 L
234.982 203.349 L
236.817 203.067 L
238.467 202.852 L
239.79 202.702 L
241.024 202.577 L
242.482 202.447 L
244.258 202.31 L
246.054 202.192 L
247.523 202.109 L
248.753 202.049 L
250.065 201.992 L
251.696 201.931 L
253.55 201.875 L
254.859 201.842 L
256.169 201.815 L
257.776 201.789 L
259.611 201.769 L
261.275 201.758 L
262.607 201.753 L
263.838 201.753 L
265.283 201.756 L
267.049 201.766 L
268.854 201.78 L
270.338 201.796 L
271.571 201.811 L
272.873 201.829 L
274.49 201.853 L
276.343 201.883 L
277.663 201.906 L
278.983 201.93 L
280.59 201.959 L
282.412 201.994 L
284.067 202.025 L
S
GR
GS
[0.75 0 0 0.75 0 0] CT
0.302 0.745 0.933 RC
1 LJ
0.667 LW
N
282.412 201.994 M
284.067 202.025 L
285.403 202.051 L
286.644 202.074 L
288.095 202.101 L
289.858 202.133 L
290 202.136 L
290 202.136 L
290 202.136 L
291.084 199.064 L
292.162 192.242 L
293.493 181.837 L
295.036 169.462 L
296.844 156.306 L
299.014 143.546 L
300.185 138.182 L
301.356 133.879 L
302.996 129.56 L
305.026 126.745 L
306.281 126.254 L
307.535 126.596 L
309.173 128.132 L
311.105 131.246 L
312.388 133.931 L
313.671 136.996 L
315.292 141.279 L
317.174 146.623 L
318.482 150.464 L
319.79 154.337 L
321.403 159.074 L
323.245 164.331 L
324.571 167.965 L
325.898 171.439 L
327.503 175.399 L
329.314 179.516 L
330.964 182.924 L
332.305 185.45 L
333.554 187.606 L
335.008 189.881 L
336.765 192.306 L
338.549 194.426 L
340.028 195.938 L
341.273 197.051 L
342.59 198.081 L
344.211 199.158 L
346.048 200.151 L
347.7 200.86 L
349.022 201.319 L
350.255 201.67 L
351.711 202 L
353.488 202.295 L
355.287 202.494 L
S
GR
GS
[0.75 0 0 0.75 0 0] CT
0.302 0.745 0.933 RC
1 LJ
0.667 LW
N
353.488 202.295 M
355.287 202.494 L
356.756 202.596 L
357.985 202.646 L
359.295 202.671 L
360.926 202.668 L
362.781 202.629 L
364.091 202.585 L
365.4 202.531 L
367.008 202.456 L
368.843 202.363 L
370.507 202.277 L
371.839 202.209 L
373.07 202.148 L
374.514 202.079 L
376.281 202.002 L
378.086 201.931 L
379.569 201.879 L
380.802 201.841 L
382.104 201.806 L
383.722 201.769 L
385.575 201.736 L
386.895 201.718 L
388.214 201.705 L
389.822 201.694 L
391.644 201.688 L
393.299 201.689 L
394.635 201.693 L
395.876 201.7 L
397.327 201.71 L
399.089 201.726 L
400.883 201.746 L
402.362 201.764 L
403.601 201.781 L
404.912 201.8 L
406.532 201.825 L
408.378 201.854 L
409.697 201.875 L
411.017 201.897 L
412.623 201.924 L
414.444 201.954 L
416.099 201.982 L
417.437 202.004 L
418.679 202.024 L
420.129 202.048 L
421.889 202.075 L
423.682 202.103 L
425.162 202.125 L
426.403 202.143 L
427.714 202.161 L
429.333 202.183 L
431.177 202.207 L
S
GR
GS
[0.75 0 0 0.75 0 0] CT
0.302 0.745 0.933 RC
1 LJ
0.667 LW
N
429.333 202.183 M
431.177 202.207 L
432.498 202.223 L
433.819 202.239 L
435.425 202.258 L
437.244 202.278 L
438.898 202.295 L
440.237 202.308 L
441.48 202.319 L
442.931 202.332 L
444.69 202.347 L
446.481 202.361 L
447.961 202.372 L
449.203 202.381 L
450.516 202.389 L
452.135 202.399 L
453.977 202.41 L
455.299 202.417 L
456.62 202.423 L
458.225 202.431 L
460.043 202.439 L
461.697 202.445 L
463.037 202.45 L
464.281 202.454 L
465.731 202.459 L
467.49 202.464 L
469.281 202.468 L
470.761 202.472 L
472.003 202.475 L
473.316 202.477 L
474.935 202.48 L
476.777 202.483 L
478.099 202.485 L
479.421 202.487 L
481.026 202.489 L
482.843 202.491 L
484.497 202.493 L
485.836 202.494 L
487.081 202.495 L
488.532 202.496 L
490.29 202.497 L
492.081 202.498 L
493.561 202.498 L
494.803 202.499 L
496.116 202.499 L
497.735 202.5 L
499.577 202.5 L
500.899 202.5 L
502.221 202.501 L
503.826 202.501 L
505.643 202.501 L
507 202.501 L
S
GR
GS
[0.75 0 0 0.75 0 0] CT
0.302 0.745 0.933 RC
1 LJ
0.667 LW
N
505.643 202.501 M
507 202.501 L
S
GR
GS
[0.75 0 0 0.75 0 0] CT
1 GC
N
419 163 M
419 44 L
494 44 L
494 163 L
cp
f
GR
GS
[0.75 0 0 0.75 353.25 40.64642] CT
/Helvetica 12 F
GS
[1 0 0 1 0 0] CT
0 4.5 moveto 
1 -1 scale
(w1) t 
GR
GR
GS
[0.75 0 0 0.75 0 0] CT
0 0.447 0.741 RC
1 LJ
0.667 LW
N
427 54.195 M
467 54.195 L
S
GR
GS
[0.75 0 0 0.75 353.25 52.42942] CT
/Helvetica 12 F
GS
[1 0 0 1 0 0] CT
0 4.5 moveto 
1 -1 scale
(w2) t 
GR
GR
GS
[0.75 0 0 0.75 0 0] CT
0.851 0.325 0.098 RC
1 LJ
0.667 LW
N
427 69.906 M
467 69.906 L
S
GR
GS
[0.75 0 0 0.75 353.25 67.5] CT
/Helvetica 12 F
GS
[1 0 0 1 0 0] CT
0 0 moveto 
1 -1 scale
(y1) t 
GR
GR
GS
[0.75 0 0 0.75 363 72] CT
/Helvetica 9 F
GS
[1 0 0 1 0 0] CT
0 0 moveto 
1 -1 scale
(1) t 
GR
GR
GS
[0.75 0 0 0.75 0 0] CT
0.929 0.694 0.125 RC
1 LJ
0.667 LW
N
427 88.124 M
467 88.124 L
S
GR
GS
[0.75 0 0 0.75 353.25 83.25] CT
/Helvetica 12 F
GS
[1 0 0 1 0 0] CT
0 0 moveto 
1 -1 scale
(y2) t 
GR
GR
GS
[0.75 0 0 0.75 363 87.75] CT
/Helvetica 9 F
GS
[1 0 0 1 0 0] CT
0 0 moveto 
1 -1 scale
(1) t 
GR
GR
GS
[0.75 0 0 0.75 0 0] CT
0.494 0.184 0.557 RC
1 LJ
0.667 LW
N
427 108.848 M
467 108.848 L
S
GR
GS
[0.75 0 0 0.75 353.25 99] CT
/Helvetica 12 F
GS
[1 0 0 1 0 0] CT
0 0 moveto 
1 -1 scale
(y1) t 
GR
GR
GS
[0.75 0 0 0.75 363 103.5] CT
/Helvetica 9 F
GS
[1 0 0 1 0 0] CT
0 0 moveto 
1 -1 scale
(2) t 
GR
GR
GS
[0.75 0 0 0.75 0 0] CT
0.467 0.675 0.188 RC
1 LJ
0.667 LW
N
427 129.573 M
467 129.573 L
S
GR
GS
[0.75 0 0 0.75 353.25 114] CT
/Helvetica 12 F
GS
[1 0 0 1 0 0] CT
0 0 moveto 
1 -1 scale
(y2) t 
GR
GR
GS
[0.75 0 0 0.75 363 118.5] CT
/Helvetica 9 F
GS
[1 0 0 1 0 0] CT
0 0 moveto 
1 -1 scale
(2) t 
GR
GR
GS
[0.75 0 0 0.75 0 0] CT
0.302 0.745 0.933 RC
1 LJ
0.667 LW
N
427 150.298 M
467 150.298 L
S
GR
GS
[0.75 0 0 0.75 0 0] CT
0.149 GC
10.0 ML
0.667 LW
N
419 163 M
419 44 L
494 44 L
494 163 L
cp
S
GR
%%Trailer
%%Pages: 1
%%EOF
