%!PS-Adobe-3.0 EPSF-3.0
%%Creator: (MATLAB, The Mathworks, Inc. Version 8.6.0.267246 \(R2015b\). Operating System: Windows 8)
%%Title: E:/Projects/skola/rls/pics/SP5/k2d_e.eps
%%CreationDate: 2017-03-17T10:02:29
%%Pages: (atend)
%%BoundingBox: 0 0 420 315
%%LanguageLevel: 2
%%EndComments
%%BeginProlog
%%BeginResource: procset (Apache XML Graphics Std ProcSet) 1.2 0
%%Version: 1.2 0
%%Copyright: (Copyright 2001-2003,2010 The Apache Software Foundation. License terms: http://www.apache.org/licenses/LICENSE-2.0)
/bd{bind def}bind def
/ld{load def}bd
/GR/grestore ld
/M/moveto ld
/LJ/setlinejoin ld
/C/curveto ld
/f/fill ld
/LW/setlinewidth ld
/GC/setgray ld
/t/show ld
/N/newpath ld
/CT/concat ld
/cp/closepath ld
/S/stroke ld
/L/lineto ld
/CC/setcmykcolor ld
/A/ashow ld
/GS/gsave ld
/RC/setrgbcolor ld
/RM/rmoveto ld
/ML/setmiterlimit ld
/re {4 2 roll M
1 index 0 rlineto
0 exch rlineto
neg 0 rlineto
cp } bd
/_ctm matrix def
/_tm matrix def
/BT { _ctm currentmatrix pop matrix _tm copy pop 0 0 moveto } bd
/ET { _ctm setmatrix } bd
/iTm { _ctm setmatrix _tm concat } bd
/Tm { _tm astore pop iTm 0 0 moveto } bd
/ux 0.0 def
/uy 0.0 def
/F {
  /Tp exch def
  /Tf exch def
  Tf findfont Tp scalefont setfont
  /cf Tf def  /cs Tp def
} bd
/ULS {currentpoint /uy exch def /ux exch def} bd
/ULE {
  /Tcx currentpoint pop def
  gsave
  newpath
  cf findfont cs scalefont dup
  /FontMatrix get 0 get /Ts exch def /FontInfo get dup
  /UnderlinePosition get Ts mul /To exch def
  /UnderlineThickness get Ts mul /Tt exch def
  ux uy To add moveto  Tcx uy To add lineto
  Tt setlinewidth stroke
  grestore
} bd
/OLE {
  /Tcx currentpoint pop def
  gsave
  newpath
  cf findfont cs scalefont dup
  /FontMatrix get 0 get /Ts exch def /FontInfo get dup
  /UnderlinePosition get Ts mul /To exch def
  /UnderlineThickness get Ts mul /Tt exch def
  ux uy To add cs add moveto Tcx uy To add cs add lineto
  Tt setlinewidth stroke
  grestore
} bd
/SOE {
  /Tcx currentpoint pop def
  gsave
  newpath
  cf findfont cs scalefont dup
  /FontMatrix get 0 get /Ts exch def /FontInfo get dup
  /UnderlinePosition get Ts mul /To exch def
  /UnderlineThickness get Ts mul /Tt exch def
  ux uy To add cs 10 mul 26 idiv add moveto Tcx uy To add cs 10 mul 26 idiv add lineto
  Tt setlinewidth stroke
  grestore
} bd
/QT {
/Y22 exch store
/X22 exch store
/Y21 exch store
/X21 exch store
currentpoint
/Y21 load 2 mul add 3 div exch
/X21 load 2 mul add 3 div exch
/X21 load 2 mul /X22 load add 3 div
/Y21 load 2 mul /Y22 load add 3 div
/X22 load /Y22 load curveto
} bd
/SSPD {
dup length /d exch dict def
{
/v exch def
/k exch def
currentpagedevice k known {
/cpdv currentpagedevice k get def
v cpdv ne {
/upd false def
/nullv v type /nulltype eq def
/nullcpdv cpdv type /nulltype eq def
nullv nullcpdv or
{
/upd true def
} {
/sametype v type cpdv type eq def
sametype {
v type /arraytype eq {
/vlen v length def
/cpdvlen cpdv length def
vlen cpdvlen eq {
0 1 vlen 1 sub {
/i exch def
/obj v i get def
/cpdobj cpdv i get def
obj cpdobj ne {
/upd true def
exit
} if
} for
} {
/upd true def
} ifelse
} {
v type /dicttype eq {
v {
/dv exch def
/dk exch def
/cpddv cpdv dk get def
dv cpddv ne {
/upd true def
exit
} if
} forall
} {
/upd true def
} ifelse
} ifelse
} if
} ifelse
upd true eq {
d k v put
} if
} if
} if
} forall
d length 0 gt {
d setpagedevice
} if
} bd
%%EndResource
%%BeginResource: procset (Apache XML Graphics EPS ProcSet) 1.0 0
%%Version: 1.0 0
%%Copyright: (Copyright 2002-2003 The Apache Software Foundation. License terms: http://www.apache.org/licenses/LICENSE-2.0)
/BeginEPSF { %def
/b4_Inc_state save def         % Save state for cleanup
/dict_count countdictstack def % Count objects on dict stack
/op_count count 1 sub def      % Count objects on operand stack
userdict begin                 % Push userdict on dict stack
/showpage { } def              % Redefine showpage, { } = null proc
0 setgray 0 setlinecap         % Prepare graphics state
1 setlinewidth 0 setlinejoin
10 setmiterlimit [ ] 0 setdash newpath
/languagelevel where           % If level not equal to 1 then
{pop languagelevel             % set strokeadjust and
1 ne                           % overprint to their defaults.
{false setstrokeadjust false setoverprint
} if
} if
} bd
/EndEPSF { %def
count op_count sub {pop} repeat            % Clean up stacks
countdictstack dict_count sub {end} repeat
b4_Inc_state restore
} bd
%%EndResource
%FOPBeginFontDict
%%IncludeResource: font Courier-Bold
%%IncludeResource: font Helvetica
%%IncludeResource: font Courier-BoldOblique
%%IncludeResource: font Courier-Oblique
%%IncludeResource: font Times-Roman
%%IncludeResource: font Helvetica-BoldOblique
%%IncludeResource: font Helvetica-Bold
%%IncludeResource: font Helvetica-Oblique
%%IncludeResource: font Times-BoldItalic
%%IncludeResource: font Courier
%%IncludeResource: font Times-Italic
%%IncludeResource: font Times-Bold
%%IncludeResource: font Symbol
%%IncludeResource: font ZapfDingbats
%FOPEndFontDict
%%BeginResource: encoding WinAnsiEncoding
/WinAnsiEncoding [
/.notdef /.notdef /.notdef /.notdef /.notdef
/.notdef /.notdef /.notdef /.notdef /.notdef
/.notdef /.notdef /.notdef /.notdef /.notdef
/.notdef /.notdef /.notdef /.notdef /.notdef
/.notdef /.notdef /.notdef /.notdef /.notdef
/.notdef /.notdef /.notdef /.notdef /.notdef
/.notdef /.notdef /space /exclam /quotedbl
/numbersign /dollar /percent /ampersand /quotesingle
/parenleft /parenright /asterisk /plus /comma
/hyphen /period /slash /zero /one
/two /three /four /five /six
/seven /eight /nine /colon /semicolon
/less /equal /greater /question /at
/A /B /C /D /E
/F /G /H /I /J
/K /L /M /N /O
/P /Q /R /S /T
/U /V /W /X /Y
/Z /bracketleft /backslash /bracketright /asciicircum
/underscore /quoteleft /a /b /c
/d /e /f /g /h
/i /j /k /l /m
/n /o /p /q /r
/s /t /u /v /w
/x /y /z /braceleft /bar
/braceright /asciitilde /bullet /Euro /bullet
/quotesinglbase /florin /quotedblbase /ellipsis /dagger
/daggerdbl /circumflex /perthousand /Scaron /guilsinglleft
/OE /bullet /Zcaron /bullet /bullet
/quoteleft /quoteright /quotedblleft /quotedblright /bullet
/endash /emdash /asciitilde /trademark /scaron
/guilsinglright /oe /bullet /zcaron /Ydieresis
/space /exclamdown /cent /sterling /currency
/yen /brokenbar /section /dieresis /copyright
/ordfeminine /guillemotleft /logicalnot /sfthyphen /registered
/macron /degree /plusminus /twosuperior /threesuperior
/acute /mu /paragraph /middot /cedilla
/onesuperior /ordmasculine /guillemotright /onequarter /onehalf
/threequarters /questiondown /Agrave /Aacute /Acircumflex
/Atilde /Adieresis /Aring /AE /Ccedilla
/Egrave /Eacute /Ecircumflex /Edieresis /Igrave
/Iacute /Icircumflex /Idieresis /Eth /Ntilde
/Ograve /Oacute /Ocircumflex /Otilde /Odieresis
/multiply /Oslash /Ugrave /Uacute /Ucircumflex
/Udieresis /Yacute /Thorn /germandbls /agrave
/aacute /acircumflex /atilde /adieresis /aring
/ae /ccedilla /egrave /eacute /ecircumflex
/edieresis /igrave /iacute /icircumflex /idieresis
/eth /ntilde /ograve /oacute /ocircumflex
/otilde /odieresis /divide /oslash /ugrave
/uacute /ucircumflex /udieresis /yacute /thorn
/ydieresis
] def
%%EndResource
%FOPBeginFontReencode
/Courier-Bold findfont
dup length dict begin
  {1 index /FID ne {def} {pop pop} ifelse} forall
  /Encoding WinAnsiEncoding def
  currentdict
end
/Courier-Bold exch definefont pop
/Helvetica findfont
dup length dict begin
  {1 index /FID ne {def} {pop pop} ifelse} forall
  /Encoding WinAnsiEncoding def
  currentdict
end
/Helvetica exch definefont pop
/Courier-BoldOblique findfont
dup length dict begin
  {1 index /FID ne {def} {pop pop} ifelse} forall
  /Encoding WinAnsiEncoding def
  currentdict
end
/Courier-BoldOblique exch definefont pop
/Courier-Oblique findfont
dup length dict begin
  {1 index /FID ne {def} {pop pop} ifelse} forall
  /Encoding WinAnsiEncoding def
  currentdict
end
/Courier-Oblique exch definefont pop
/Times-Roman findfont
dup length dict begin
  {1 index /FID ne {def} {pop pop} ifelse} forall
  /Encoding WinAnsiEncoding def
  currentdict
end
/Times-Roman exch definefont pop
/Helvetica-BoldOblique findfont
dup length dict begin
  {1 index /FID ne {def} {pop pop} ifelse} forall
  /Encoding WinAnsiEncoding def
  currentdict
end
/Helvetica-BoldOblique exch definefont pop
/Helvetica-Bold findfont
dup length dict begin
  {1 index /FID ne {def} {pop pop} ifelse} forall
  /Encoding WinAnsiEncoding def
  currentdict
end
/Helvetica-Bold exch definefont pop
/Helvetica-Oblique findfont
dup length dict begin
  {1 index /FID ne {def} {pop pop} ifelse} forall
  /Encoding WinAnsiEncoding def
  currentdict
end
/Helvetica-Oblique exch definefont pop
/Times-BoldItalic findfont
dup length dict begin
  {1 index /FID ne {def} {pop pop} ifelse} forall
  /Encoding WinAnsiEncoding def
  currentdict
end
/Times-BoldItalic exch definefont pop
/Courier findfont
dup length dict begin
  {1 index /FID ne {def} {pop pop} ifelse} forall
  /Encoding WinAnsiEncoding def
  currentdict
end
/Courier exch definefont pop
/Times-Italic findfont
dup length dict begin
  {1 index /FID ne {def} {pop pop} ifelse} forall
  /Encoding WinAnsiEncoding def
  currentdict
end
/Times-Italic exch definefont pop
/Times-Bold findfont
dup length dict begin
  {1 index /FID ne {def} {pop pop} ifelse} forall
  /Encoding WinAnsiEncoding def
  currentdict
end
/Times-Bold exch definefont pop
%FOPEndFontReencode
%%EndProlog
%%Page: 1 1
%%PageBoundingBox: 0 0 420 315
%%BeginPageSetup
[1 0 0 -1 0 315] CT
%%EndPageSetup
GS
[0.75 0 0 0.75 0 0] CT
1 GC
N
0 0 560 420 re
f
GR
GS
[0.75 0 0 0.75 0 0] CT
1 GC
N
0 0 560 420 re
f
GR
GS
[0.75 0 0 0.75 0 0] CT
1 GC
N
73 374 M
507 374 L
507 31 L
73 31 L
cp
f
GR
GS
[0.75 0 0 0.75 0 0] CT
0.149 GC
2 setlinecap
1 LJ
0.667 LW
N
73 374 M
507 374 L
S
GR
GS
[0.75 0 0 0.75 0 0] CT
0.149 GC
2 setlinecap
1 LJ
0.667 LW
N
73 31 M
507 31 L
S
GR
GS
[0.75 0 0 0.75 0 0] CT
0.149 GC
2 setlinecap
1 LJ
0.667 LW
N
73 374 M
73 369.66 L
S
GR
GS
[0.75 0 0 0.75 0 0] CT
0.149 GC
2 setlinecap
1 LJ
0.667 LW
N
145.333 374 M
145.333 369.66 L
S
GR
GS
[0.75 0 0 0.75 0 0] CT
0.149 GC
2 setlinecap
1 LJ
0.667 LW
N
217.667 374 M
217.667 369.66 L
S
GR
GS
[0.75 0 0 0.75 0 0] CT
0.149 GC
2 setlinecap
1 LJ
0.667 LW
N
290 374 M
290 369.66 L
S
GR
GS
[0.75 0 0 0.75 0 0] CT
0.149 GC
2 setlinecap
1 LJ
0.667 LW
N
362.333 374 M
362.333 369.66 L
S
GR
GS
[0.75 0 0 0.75 0 0] CT
0.149 GC
2 setlinecap
1 LJ
0.667 LW
N
434.667 374 M
434.667 369.66 L
S
GR
GS
[0.75 0 0 0.75 0 0] CT
0.149 GC
2 setlinecap
1 LJ
0.667 LW
N
507 374 M
507 369.66 L
S
GR
GS
[0.75 0 0 0.75 0 0] CT
0.149 GC
2 setlinecap
1 LJ
0.667 LW
N
73 31 M
73 35.34 L
S
GR
GS
[0.75 0 0 0.75 0 0] CT
0.149 GC
2 setlinecap
1 LJ
0.667 LW
N
145.333 31 M
145.333 35.34 L
S
GR
GS
[0.75 0 0 0.75 0 0] CT
0.149 GC
2 setlinecap
1 LJ
0.667 LW
N
217.667 31 M
217.667 35.34 L
S
GR
GS
[0.75 0 0 0.75 0 0] CT
0.149 GC
2 setlinecap
1 LJ
0.667 LW
N
290 31 M
290 35.34 L
S
GR
GS
[0.75 0 0 0.75 0 0] CT
0.149 GC
2 setlinecap
1 LJ
0.667 LW
N
362.333 31 M
362.333 35.34 L
S
GR
GS
[0.75 0 0 0.75 0 0] CT
0.149 GC
2 setlinecap
1 LJ
0.667 LW
N
434.667 31 M
434.667 35.34 L
S
GR
GS
[0.75 0 0 0.75 0 0] CT
0.149 GC
2 setlinecap
1 LJ
0.667 LW
N
507 31 M
507 35.34 L
S
GR
GS
[0.75 0 0 0.75 54.75 284.50001] CT
0.149 GC
/Helvetica 13 F
GS
[1 0 0 1 0 0] CT
-4 13 moveto 
1 -1 scale
(0) t 
GR
GR
GS
[0.75 0 0 0.75 109 284.50001] CT
0.149 GC
/Helvetica 13 F
GS
[1 0 0 1 0 0] CT
-11 13 moveto 
1 -1 scale
(200) t 
GR
GR
GS
[0.75 0 0 0.75 163.25 284.50001] CT
0.149 GC
/Helvetica 13 F
GS
[1 0 0 1 0 0] CT
-11 13 moveto 
1 -1 scale
(400) t 
GR
GR
GS
[0.75 0 0 0.75 217.5 284.50001] CT
0.149 GC
/Helvetica 13 F
GS
[1 0 0 1 0 0] CT
-11 13 moveto 
1 -1 scale
(600) t 
GR
GR
GS
[0.75 0 0 0.75 271.75001 284.50001] CT
0.149 GC
/Helvetica 13 F
GS
[1 0 0 1 0 0] CT
-11 13 moveto 
1 -1 scale
(800) t 
GR
GR
GS
[0.75 0 0 0.75 325.99999 284.50001] CT
0.149 GC
/Helvetica 13 F
GS
[1 0 0 1 0 0] CT
-14.5 13 moveto 
1 -1 scale
(1000) t 
GR
GR
GS
[0.75 0 0 0.75 380.25 284.50001] CT
0.149 GC
/Helvetica 13 F
GS
[1 0 0 1 0 0] CT
-14.5 13 moveto 
1 -1 scale
(1200) t 
GR
GR
GS
[0.75 0 0 0.75 217.50016 297.49999] CT
0.149 GC
/Helvetica 15 F
GS
[1 0 0 1 0 0] CT
-11 14 moveto 
1 -1 scale
(t\(s\)) t 
GR
GR
GS
[0.75 0 0 0.75 0 0] CT
0.149 GC
2 setlinecap
1 LJ
0.667 LW
N
73 374 M
73 31 L
S
GR
GS
[0.75 0 0 0.75 0 0] CT
0.149 GC
2 setlinecap
1 LJ
0.667 LW
N
507 374 M
507 31 L
S
GR
GS
[0.75 0 0 0.75 0 0] CT
0.149 GC
2 setlinecap
1 LJ
0.667 LW
N
73 374 M
77.34 374 L
S
GR
GS
[0.75 0 0 0.75 0 0] CT
0.149 GC
2 setlinecap
1 LJ
0.667 LW
N
73 335.889 M
77.34 335.889 L
S
GR
GS
[0.75 0 0 0.75 0 0] CT
0.149 GC
2 setlinecap
1 LJ
0.667 LW
N
73 297.778 M
77.34 297.778 L
S
GR
GS
[0.75 0 0 0.75 0 0] CT
0.149 GC
2 setlinecap
1 LJ
0.667 LW
N
73 259.667 M
77.34 259.667 L
S
GR
GS
[0.75 0 0 0.75 0 0] CT
0.149 GC
2 setlinecap
1 LJ
0.667 LW
N
73 221.556 M
77.34 221.556 L
S
GR
GS
[0.75 0 0 0.75 0 0] CT
0.149 GC
2 setlinecap
1 LJ
0.667 LW
N
73 183.444 M
77.34 183.444 L
S
GR
GS
[0.75 0 0 0.75 0 0] CT
0.149 GC
2 setlinecap
1 LJ
0.667 LW
N
73 145.333 M
77.34 145.333 L
S
GR
GS
[0.75 0 0 0.75 0 0] CT
0.149 GC
2 setlinecap
1 LJ
0.667 LW
N
73 107.222 M
77.34 107.222 L
S
GR
GS
[0.75 0 0 0.75 0 0] CT
0.149 GC
2 setlinecap
1 LJ
0.667 LW
N
73 69.111 M
77.34 69.111 L
S
GR
GS
[0.75 0 0 0.75 0 0] CT
0.149 GC
2 setlinecap
1 LJ
0.667 LW
N
73 31 M
77.34 31 L
S
GR
GS
[0.75 0 0 0.75 0 0] CT
0.149 GC
2 setlinecap
1 LJ
0.667 LW
N
507 374 M
502.66 374 L
S
GR
GS
[0.75 0 0 0.75 0 0] CT
0.149 GC
2 setlinecap
1 LJ
0.667 LW
N
507 335.889 M
502.66 335.889 L
S
GR
GS
[0.75 0 0 0.75 0 0] CT
0.149 GC
2 setlinecap
1 LJ
0.667 LW
N
507 297.778 M
502.66 297.778 L
S
GR
GS
[0.75 0 0 0.75 0 0] CT
0.149 GC
2 setlinecap
1 LJ
0.667 LW
N
507 259.667 M
502.66 259.667 L
S
GR
GS
[0.75 0 0 0.75 0 0] CT
0.149 GC
2 setlinecap
1 LJ
0.667 LW
N
507 221.556 M
502.66 221.556 L
S
GR
GS
[0.75 0 0 0.75 0 0] CT
0.149 GC
2 setlinecap
1 LJ
0.667 LW
N
507 183.444 M
502.66 183.444 L
S
GR
GS
[0.75 0 0 0.75 0 0] CT
0.149 GC
2 setlinecap
1 LJ
0.667 LW
N
507 145.333 M
502.66 145.333 L
S
GR
GS
[0.75 0 0 0.75 0 0] CT
0.149 GC
2 setlinecap
1 LJ
0.667 LW
N
507 107.222 M
502.66 107.222 L
S
GR
GS
[0.75 0 0 0.75 0 0] CT
0.149 GC
2 setlinecap
1 LJ
0.667 LW
N
507 69.111 M
502.66 69.111 L
S
GR
GS
[0.75 0 0 0.75 0 0] CT
0.149 GC
2 setlinecap
1 LJ
0.667 LW
N
507 31 M
502.66 31 L
S
GR
GS
[0.75 0 0 0.75 50.75 280.5] CT
0.149 GC
/Helvetica 13 F
GS
[1 0 0 1 0 0] CT
-30 5 moveto 
1 -1 scale
(-0.06) t 
GR
GR
GS
[0.75 0 0 0.75 50.75 251.91666] CT
0.149 GC
/Helvetica 13 F
GS
[1 0 0 1 0 0] CT
-30 5 moveto 
1 -1 scale
(-0.04) t 
GR
GR
GS
[0.75 0 0 0.75 50.75 223.33333] CT
0.149 GC
/Helvetica 13 F
GS
[1 0 0 1 0 0] CT
-30 5 moveto 
1 -1 scale
(-0.02) t 
GR
GR
GS
[0.75 0 0 0.75 50.75 194.74999] CT
0.149 GC
/Helvetica 13 F
GS
[1 0 0 1 0 0] CT
-8 5 moveto 
1 -1 scale
(0) t 
GR
GR
GS
[0.75 0 0 0.75 50.75 166.16667] CT
0.149 GC
/Helvetica 13 F
GS
[1 0 0 1 0 0] CT
-26 5 moveto 
1 -1 scale
(0.02) t 
GR
GR
GS
[0.75 0 0 0.75 50.75 137.58333] CT
0.149 GC
/Helvetica 13 F
GS
[1 0 0 1 0 0] CT
-26 5 moveto 
1 -1 scale
(0.04) t 
GR
GR
GS
[0.75 0 0 0.75 50.75 109.00001] CT
0.149 GC
/Helvetica 13 F
GS
[1 0 0 1 0 0] CT
-26 5 moveto 
1 -1 scale
(0.06) t 
GR
GR
GS
[0.75 0 0 0.75 50.75 80.41667] CT
0.149 GC
/Helvetica 13 F
GS
[1 0 0 1 0 0] CT
-26 5 moveto 
1 -1 scale
(0.08) t 
GR
GR
GS
[0.75 0 0 0.75 50.75 51.83333] CT
0.149 GC
/Helvetica 13 F
GS
[1 0 0 1 0 0] CT
-19 5 moveto 
1 -1 scale
(0.1) t 
GR
GR
GS
[0.75 0 0 0.75 50.75 23.25] CT
0.149 GC
/Helvetica 13 F
GS
[1 0 0 1 0 0] CT
-26 5 moveto 
1 -1 scale
(0.12) t 
GR
GR
GS
[0.75 0 0 0.75 45 13.5] CT
/any-Bold 15 F
GS
[1 0 0 1 0 0] CT
0 0 moveto 
1 -1 scale
(Response of system without \(e) t 
GR
GR
GS
[0.75 0 0 0.75 210.75 18.75] CT
/any-Bold 11 F
GS
[1 0 0 1 0 0] CT
0 0 moveto 
1 -1 scale
(1) t 
GR
GR
GS
[0.75 0 0 0.75 216 13.5] CT
/any-Bold 15 F
GS
[1 0 0 1 0 0] CT
0 0 moveto 
1 -1 scale
(\) and with integration \(e) t 
GR
GR
GS
[0.75 0 0 0.75 343.5 18.75] CT
/any-Bold 11 F
GS
[1 0 0 1 0 0] CT
0 0 moveto 
1 -1 scale
(2) t 
GR
GR
GS
[0.75 0 0 0.75 348.75 13.5] CT
/any-Bold 15 F
GS
[1 0 0 1 0 0] CT
0 0 moveto 
1 -1 scale
(\) - error) t 
GR
GR
GS
[0.75 0 0 0.75 0 0] CT
0 0.447 0.741 RC
1 LJ
0.667 LW
N
73 259.667 M
73.362 259.667 L
73.362 69.111 L
73.362 69.111 L
73.554 69.619 L
73.714 70.788 L
73.96 73.782 L
74.259 79.181 L
74.665 88.959 L
75.175 104.172 L
75.776 124.461 L
76.481 149.253 L
77.306 177.018 L
78.431 209.348 L
79.83 238.223 L
81.468 257.146 L
83.386 265.075 L
85.245 265.209 L
86.728 263.432 L
88.211 261.518 L
89.79 259.984 L
91.389 259.101 L
92.904 258.767 L
94.334 258.739 L
95.778 258.853 L
97.321 259.025 L
98.936 259.191 L
100.503 259.311 L
101.957 259.383 L
103.37 259.423 L
104.86 259.441 L
106.463 259.443 L
108.078 259.436 L
109.581 259.425 L
110.987 259.413 L
112.421 259.401 L
113.982 259.387 L
115.624 259.373 L
117.192 259.36 L
118.622 259.35 L
120.013 259.341 L
121.51 259.331 L
123.144 259.321 L
124.776 259.313 L
126.262 259.306 L
127.638 259.302 L
129.065 259.298 L
130.651 259.294 L
132.323 259.29 L
133.889 259.287 L
S
GR
GS
[0.75 0 0 0.75 0 0] CT
0 0.447 0.741 RC
1 LJ
0.667 LW
N
132.323 259.29 M
133.889 259.287 L
135.289 259.286 L
136.658 259.285 L
138.166 259.285 L
139.836 259.283 L
141.484 259.283 L
142.948 259.283 L
144.293 259.284 L
145.713 259.284 L
147.329 259.284 L
149.034 259.284 L
150.594 259.284 L
151.961 259.285 L
153.308 259.286 L
154.831 259.286 L
156.54 259.286 L
158.203 259.286 L
159.641 259.286 L
160.953 259.287 L
162.37 259.288 L
164.019 259.288 L
165.757 259.287 L
167.307 259.287 L
168.639 259.288 L
169.966 259.288 L
171.506 259.288 L
173.255 259.288 L
174.931 259.287 L
176.342 259.287 L
177.623 259.288 L
179.038 259.289 L
180.72 259.288 L
181.5 259.291 L
181.5 259.291 L
181.5 259.291 L
181.926 259.229 L
182.352 259.16 L
182.961 259.177 L
183.674 259.383 L
184.589 259.829 L
185.795 260.499 L
187.444 261.217 L
189.451 261.568 L
190.723 261.532 L
191.994 261.36 L
193.632 261.034 L
195.543 260.616 L
196.83 260.356 L
198.117 260.125 L
199.735 259.882 L
201.608 259.661 L
S
GR
GS
[0.75 0 0 0.75 0 0] CT
0 0.447 0.741 RC
1 LJ
0.667 LW
N
199.735 259.882 M
201.608 259.661 L
202.921 259.542 L
204.234 259.446 L
205.845 259.353 L
207.679 259.275 L
209.338 259.225 L
210.667 259.199 L
211.899 259.183 L
213.348 259.17 L
215.118 259.163 L
216.92 259.162 L
218.397 259.169 L
219.629 259.177 L
220.935 259.187 L
222.556 259.199 L
224.41 259.212 L
225.726 259.224 L
227.042 259.234 L
228.649 259.246 L
230.475 259.256 L
232.133 259.264 L
233.468 259.273 L
234.705 259.28 L
236.154 259.285 L
237.917 259.29 L
239.714 259.293 L
241.195 259.296 L
242.432 259.3 L
243.739 259.302 L
245.359 259.304 L
247.206 259.303 L
248.526 259.305 L
249.846 259.306 L
251.452 259.305 L
253.273 259.304 L
254.928 259.302 L
256.265 259.304 L
257.506 259.305 L
258.956 259.304 L
260.717 259.303 L
262.51 259.301 L
263.99 259.301 L
265.23 259.302 L
266.541 259.303 L
268.16 259.302 L
270.004 259.3 L
271.325 259.301 L
272.645 259.302 L
274.251 259.301 L
276.07 259.3 L
277.724 259.298 L
S
GR
GS
[0.75 0 0 0.75 0 0] CT
0 0.447 0.741 RC
1 LJ
0.667 LW
N
276.07 259.3 M
277.724 259.298 L
279.062 259.3 L
280.305 259.301 L
281.756 259.301 L
283.515 259.3 L
285.306 259.298 L
286.786 259.299 L
288.028 259.301 L
289.339 259.301 L
290 259.302 L
290 259.302 L
290 259.302 L
290.656 276.185 L
291.312 291.703 L
292.29 311.078 L
293.529 328.192 L
295.236 339.382 L
297.33 339.7 L
298.488 336.505 L
299.647 332.334 L
301.28 326.129 L
303.321 319.137 L
304.568 315.517 L
305.816 312.357 L
307.453 308.765 L
309.391 305.082 L
310.674 302.87 L
311.958 300.784 L
313.58 298.287 L
315.462 295.561 L
316.769 293.771 L
318.076 292.064 L
319.689 290.069 L
321.532 287.939 L
322.857 286.504 L
324.183 285.145 L
325.788 283.595 L
327.6 281.963 L
329.25 280.579 L
330.591 279.525 L
331.839 278.594 L
333.293 277.566 L
335.049 276.403 L
336.834 275.301 L
338.313 274.449 L
339.558 273.772 L
340.874 273.09 L
342.495 272.299 L
344.333 271.461 L
345.985 270.759 L
347.306 270.233 L
S
GR
GS
[0.75 0 0 0.75 0 0] CT
0 0.447 0.741 RC
1 LJ
0.667 LW
N
345.985 270.759 M
347.306 270.233 L
348.538 269.767 L
349.994 269.244 L
351.771 268.644 L
353.57 268.079 L
355.039 267.648 L
356.267 267.308 L
357.577 266.963 L
359.207 266.557 L
361.063 266.124 L
362.372 265.84 L
363.682 265.57 L
365.289 265.257 L
367.124 264.921 L
368.788 264.638 L
370.12 264.427 L
371.35 264.241 L
372.794 264.034 L
374.562 263.795 L
376.367 263.567 L
377.849 263.393 L
379.082 263.258 L
380.384 263.121 L
382.001 262.96 L
383.854 262.787 L
385.174 262.673 L
386.493 262.564 L
388.1 262.439 L
389.923 262.305 L
391.577 262.192 L
392.913 262.108 L
394.154 262.034 L
395.604 261.951 L
397.367 261.856 L
399.16 261.764 L
400.639 261.695 L
401.878 261.642 L
403.189 261.587 L
404.809 261.523 L
406.654 261.453 L
407.974 261.408 L
409.293 261.365 L
410.899 261.315 L
412.719 261.261 L
414.374 261.215 L
415.712 261.182 L
416.954 261.153 L
418.404 261.12 L
420.164 261.082 L
421.956 261.044 L
423.437 261.017 L
S
GR
GS
[0.75 0 0 0.75 0 0] CT
0 0.447 0.741 RC
1 LJ
0.667 LW
N
421.956 261.044 M
423.437 261.017 L
424.677 260.997 L
425.988 260.975 L
427.607 260.949 L
429.451 260.921 L
430.772 260.903 L
432.093 260.886 L
433.698 260.866 L
435.516 260.844 L
437.17 260.825 L
438.509 260.813 L
439.752 260.802 L
441.203 260.789 L
442.962 260.773 L
444.753 260.757 L
446.233 260.746 L
447.475 260.739 L
448.787 260.731 L
450.406 260.72 L
452.248 260.708 L
453.569 260.702 L
454.891 260.695 L
456.496 260.687 L
458.313 260.678 L
459.967 260.669 L
461.306 260.665 L
462.55 260.662 L
464.001 260.656 L
465.76 260.65 L
467.55 260.642 L
469.03 260.638 L
470.272 260.636 L
471.584 260.633 L
473.203 260.629 L
475.045 260.623 L
476.367 260.621 L
477.688 260.619 L
479.293 260.616 L
481.11 260.611 L
482.764 260.607 L
484.103 260.607 L
485.347 260.606 L
486.798 260.604 L
488.557 260.601 L
490.347 260.596 L
491.827 260.595 L
493.069 260.595 L
494.382 260.594 L
496.001 260.593 L
497.842 260.59 L
499.164 260.589 L
S
GR
GS
[0.75 0 0 0.75 0 0] CT
0 0.447 0.741 RC
1 LJ
0.667 LW
N
497.842 260.59 M
499.164 260.589 L
500.485 260.589 L
502.09 260.587 L
503.907 260.585 L
505.561 260.582 L
507 260.582 L
S
GR
GS
[0.75 0 0 0.75 0 0] CT
0.851 0.325 0.098 RC
1 LJ
0.667 LW
N
73 259.667 M
73.362 259.667 L
73.362 259.667 L
73.362 259.667 L
73.554 259.84 L
73.714 260.258 L
73.96 261.396 L
74.259 263.598 L
74.665 267.915 L
75.175 275.221 L
75.776 285.772 L
76.481 299.571 L
77.306 315.807 L
78.431 334.986 L
79.83 350.625 L
81.468 356.182 L
83.386 348.961 L
85.245 334.156 L
86.728 320.592 L
88.211 307.47 L
89.79 295.06 L
91.389 284.564 L
92.904 276.53 L
94.334 270.469 L
95.778 265.632 L
97.321 261.646 L
98.936 258.543 L
100.503 256.383 L
101.957 254.987 L
103.37 254.093 L
104.86 253.55 L
106.463 253.333 L
108.078 253.411 L
109.581 253.679 L
110.987 254.051 L
112.421 254.512 L
113.982 255.067 L
115.624 255.676 L
117.192 256.253 L
118.622 256.757 L
120.013 257.219 L
121.51 257.676 L
123.144 258.123 L
124.776 258.511 L
126.262 258.816 L
127.638 259.058 L
129.065 259.269 L
130.651 259.462 L
132.323 259.623 L
133.889 259.737 L
S
GR
GS
[0.75 0 0 0.75 0 0] CT
0.851 0.325 0.098 RC
1 LJ
0.667 LW
N
132.323 259.623 M
133.889 259.737 L
135.289 259.815 L
136.658 259.872 L
138.166 259.915 L
139.836 259.944 L
141.484 259.957 L
142.948 259.959 L
144.293 259.954 L
145.713 259.945 L
147.329 259.93 L
149.034 259.911 L
150.594 259.892 L
151.961 259.876 L
153.308 259.86 L
154.831 259.843 L
156.54 259.825 L
158.203 259.81 L
159.641 259.798 L
160.953 259.788 L
162.37 259.779 L
164.019 259.77 L
165.757 259.763 L
167.307 259.757 L
168.639 259.754 L
169.966 259.751 L
171.506 259.748 L
173.255 259.746 L
174.931 259.745 L
176.342 259.744 L
177.623 259.744 L
179.038 259.744 L
180.72 259.745 L
181.5 259.745 L
181.5 69.189 L
181.5 69.189 L
181.926 69.615 L
182.352 70.818 L
182.961 73.68 L
183.674 78.435 L
184.589 86.209 L
185.795 98.415 L
187.444 117.016 L
189.451 140.414 L
190.723 154.839 L
191.994 168.604 L
193.632 185.079 L
195.543 202.254 L
196.83 212.492 L
198.117 221.648 L
199.735 231.654 L
201.608 241.236 L
S
GR
GS
[0.75 0 0 0.75 0 0] CT
0.851 0.325 0.098 RC
1 LJ
0.667 LW
N
199.735 231.654 M
201.608 241.236 L
202.921 246.763 L
204.234 251.392 L
205.845 255.964 L
207.679 259.865 L
209.338 262.38 L
210.667 263.813 L
211.899 264.752 L
213.348 265.456 L
215.118 265.846 L
216.92 265.84 L
218.397 265.616 L
219.629 265.322 L
220.935 264.936 L
222.556 264.388 L
224.41 263.719 L
225.726 263.242 L
227.042 262.776 L
228.649 262.238 L
230.475 261.679 L
232.133 261.229 L
233.468 260.908 L
234.705 260.645 L
236.154 260.376 L
237.917 260.103 L
239.714 259.882 L
241.195 259.739 L
242.432 259.643 L
243.739 259.562 L
245.359 259.487 L
247.206 259.43 L
248.526 259.405 L
249.846 259.391 L
251.452 259.384 L
253.273 259.388 L
254.928 259.398 L
256.265 259.41 L
257.506 259.423 L
258.956 259.44 L
260.717 259.46 L
262.51 259.481 L
263.99 259.498 L
265.23 259.51 L
266.541 259.523 L
268.16 259.537 L
270.004 259.55 L
271.325 259.559 L
272.645 259.566 L
274.251 259.574 L
276.07 259.58 L
277.724 259.585 L
S
GR
GS
[0.75 0 0 0.75 0 0] CT
0.851 0.325 0.098 RC
1 LJ
0.667 LW
N
276.07 259.58 M
277.724 259.585 L
279.062 259.588 L
280.305 259.59 L
281.756 259.592 L
283.515 259.593 L
285.306 259.594 L
286.786 259.594 L
288.028 259.594 L
289.339 259.594 L
290 259.594 L
290 259.594 L
290 259.594 L
290.656 261.593 L
291.312 266.281 L
292.29 275.081 L
293.529 285.228 L
295.236 293.178 L
297.33 293.472 L
298.488 290.808 L
299.647 287.274 L
301.28 282.093 L
303.321 276.713 L
304.568 274.321 L
305.816 272.588 L
307.453 271.136 L
309.391 270.263 L
310.674 269.995 L
311.958 269.864 L
313.58 269.794 L
315.462 269.746 L
316.769 269.695 L
318.076 269.616 L
319.689 269.469 L
321.532 269.232 L
322.857 269.016 L
324.183 268.765 L
325.788 268.419 L
327.6 267.98 L
329.25 267.547 L
330.591 267.178 L
331.839 266.824 L
333.293 266.404 L
335.049 265.895 L
336.834 265.384 L
338.313 264.969 L
339.558 264.63 L
340.874 264.283 L
342.495 263.874 L
344.333 263.439 L
345.985 263.074 L
347.306 262.8 L
S
GR
GS
[0.75 0 0 0.75 0 0] CT
0.851 0.325 0.098 RC
1 LJ
0.667 LW
N
345.985 263.074 M
347.306 262.8 L
348.538 262.561 L
349.994 262.296 L
351.771 262 L
353.57 261.729 L
355.039 261.528 L
356.267 261.373 L
357.577 261.22 L
359.207 261.047 L
361.063 260.872 L
362.372 260.76 L
363.682 260.658 L
365.289 260.544 L
367.124 260.429 L
368.788 260.337 L
370.12 260.27 L
371.35 260.213 L
372.794 260.153 L
374.562 260.087 L
376.367 260.027 L
377.849 259.983 L
379.082 259.95 L
380.384 259.917 L
382.001 259.881 L
383.854 259.844 L
385.174 259.821 L
386.493 259.799 L
388.1 259.775 L
389.923 259.751 L
391.577 259.732 L
392.913 259.717 L
394.154 259.705 L
395.604 259.693 L
397.367 259.679 L
399.16 259.666 L
400.639 259.657 L
401.878 259.651 L
403.189 259.644 L
404.809 259.637 L
406.654 259.63 L
407.974 259.626 L
409.293 259.622 L
410.899 259.618 L
412.719 259.614 L
414.374 259.611 L
415.712 259.609 L
416.954 259.608 L
418.404 259.606 L
420.164 259.605 L
421.956 259.604 L
423.437 259.603 L
S
GR
GS
[0.75 0 0 0.75 0 0] CT
0.851 0.325 0.098 RC
1 LJ
0.667 LW
N
421.956 259.604 M
423.437 259.603 L
424.677 259.603 L
425.988 259.603 L
427.607 259.603 L
429.451 259.603 L
430.772 259.603 L
432.093 259.604 L
433.698 259.604 L
435.516 259.605 L
437.17 259.606 L
438.509 259.607 L
439.752 259.607 L
441.203 259.608 L
442.962 259.609 L
444.753 259.611 L
446.233 259.612 L
447.475 259.612 L
448.787 259.613 L
450.406 259.614 L
452.248 259.616 L
453.569 259.617 L
454.891 259.618 L
456.496 259.619 L
458.313 259.62 L
459.967 259.621 L
461.306 259.622 L
462.55 259.623 L
464.001 259.624 L
465.76 259.625 L
467.55 259.626 L
469.03 259.626 L
470.272 259.627 L
471.584 259.628 L
473.203 259.629 L
475.045 259.63 L
476.367 259.63 L
477.688 259.631 L
479.293 259.632 L
481.11 259.633 L
482.764 259.633 L
484.103 259.634 L
485.347 259.634 L
486.798 259.635 L
488.557 259.636 L
490.347 259.636 L
491.827 259.637 L
493.069 259.637 L
494.382 259.638 L
496.001 259.638 L
497.842 259.639 L
499.164 259.639 L
S
GR
GS
[0.75 0 0 0.75 0 0] CT
0.851 0.325 0.098 RC
1 LJ
0.667 LW
N
497.842 259.639 M
499.164 259.639 L
500.485 259.639 L
502.09 259.64 L
503.907 259.64 L
505.561 259.641 L
507 259.641 L
S
GR
GS
[0.75 0 0 0.75 0 0] CT
0.929 0.694 0.125 RC
1 LJ
0.667 LW
N
73 259.667 M
73.362 259.667 L
73.362 69.111 L
73.362 69.111 L
73.554 69.619 L
73.714 70.788 L
73.96 73.782 L
74.259 79.181 L
74.665 88.96 L
75.175 104.174 L
75.776 124.465 L
76.481 149.26 L
77.306 177.031 L
78.431 209.37 L
79.83 238.257 L
81.468 257.191 L
83.386 265.13 L
85.245 265.268 L
86.728 263.492 L
88.211 261.577 L
89.79 260.042 L
91.389 259.158 L
92.904 258.824 L
94.334 258.795 L
95.778 258.909 L
97.321 259.081 L
98.936 259.248 L
100.503 259.368 L
101.957 259.44 L
103.37 259.48 L
104.86 259.498 L
106.463 259.501 L
108.078 259.493 L
109.581 259.482 L
110.987 259.471 L
112.421 259.459 L
113.982 259.445 L
115.624 259.431 L
117.192 259.418 L
118.622 259.408 L
120.013 259.399 L
121.51 259.389 L
123.144 259.379 L
124.776 259.371 L
126.262 259.364 L
127.638 259.36 L
129.065 259.356 L
130.651 259.352 L
132.323 259.348 L
133.889 259.345 L
S
GR
GS
[0.75 0 0 0.75 0 0] CT
0.929 0.694 0.125 RC
1 LJ
0.667 LW
N
132.323 259.348 M
133.889 259.345 L
135.289 259.344 L
136.658 259.343 L
138.166 259.343 L
139.836 259.342 L
141.484 259.341 L
142.948 259.341 L
144.293 259.342 L
145.713 259.343 L
147.329 259.343 L
149.034 259.342 L
150.594 259.342 L
151.961 259.344 L
153.308 259.345 L
154.831 259.345 L
156.54 259.345 L
158.203 259.344 L
159.641 259.345 L
160.953 259.346 L
162.37 259.347 L
164.019 259.347 L
165.757 259.346 L
167.307 259.346 L
168.639 259.347 L
169.966 259.347 L
171.506 259.347 L
173.255 259.347 L
174.931 259.346 L
176.342 259.347 L
177.623 259.348 L
179.038 259.348 L
180.72 259.348 L
181.5 259.351 L
181.5 259.351 L
181.5 259.351 L
181.926 259.289 L
182.352 259.219 L
182.961 259.237 L
183.674 259.442 L
184.589 259.889 L
185.795 260.558 L
187.444 261.277 L
189.451 261.628 L
190.723 261.592 L
191.994 261.42 L
193.632 261.094 L
195.543 260.676 L
196.83 260.416 L
198.117 260.185 L
199.735 259.941 L
201.608 259.72 L
S
GR
GS
[0.75 0 0 0.75 0 0] CT
0.929 0.694 0.125 RC
1 LJ
0.667 LW
N
199.735 259.941 M
201.608 259.72 L
202.921 259.601 L
204.234 259.505 L
205.845 259.412 L
207.679 259.333 L
209.338 259.283 L
210.667 259.257 L
211.899 259.241 L
213.348 259.228 L
215.118 259.221 L
216.92 259.221 L
218.397 259.227 L
219.629 259.236 L
220.935 259.245 L
222.556 259.257 L
224.41 259.27 L
225.726 259.282 L
227.042 259.293 L
228.649 259.304 L
230.475 259.315 L
232.133 259.323 L
233.468 259.332 L
234.705 259.338 L
236.154 259.344 L
237.917 259.349 L
239.714 259.352 L
241.195 259.355 L
242.432 259.359 L
243.739 259.361 L
245.359 259.363 L
247.206 259.362 L
248.526 259.364 L
249.846 259.365 L
251.452 259.365 L
253.273 259.363 L
254.928 259.362 L
256.265 259.363 L
257.506 259.364 L
258.956 259.364 L
260.717 259.363 L
262.51 259.36 L
263.99 259.36 L
265.23 259.362 L
266.541 259.362 L
268.16 259.362 L
270.004 259.36 L
271.325 259.361 L
272.645 259.361 L
274.251 259.361 L
276.07 259.36 L
277.724 259.358 L
S
GR
GS
[0.75 0 0 0.75 0 0] CT
0.929 0.694 0.125 RC
1 LJ
0.667 LW
N
276.07 259.36 M
277.724 259.358 L
279.062 259.36 L
280.305 259.361 L
281.756 259.361 L
283.515 259.36 L
285.306 259.359 L
286.786 259.359 L
288.028 259.361 L
289.339 259.361 L
290 259.362 L
290 259.362 L
290 259.362 L
290.656 276.245 L
291.312 291.763 L
292.29 311.138 L
293.529 328.251 L
295.236 339.438 L
297.33 339.746 L
298.488 336.545 L
299.647 332.367 L
301.28 326.151 L
303.321 319.147 L
304.568 315.52 L
305.816 312.352 L
307.453 308.752 L
309.391 305.059 L
310.674 302.842 L
311.958 300.751 L
313.58 298.248 L
315.462 295.515 L
316.769 293.721 L
318.076 292.01 L
319.689 290.01 L
321.532 287.875 L
322.857 286.437 L
324.183 285.074 L
325.788 283.52 L
327.6 281.884 L
329.25 280.498 L
330.591 279.441 L
331.839 278.507 L
333.293 277.477 L
335.049 276.31 L
336.834 275.206 L
338.313 274.352 L
339.558 273.673 L
340.874 272.99 L
342.495 272.197 L
344.333 271.357 L
345.985 270.653 L
347.306 270.125 L
S
GR
GS
[0.75 0 0 0.75 0 0] CT
0.929 0.694 0.125 RC
1 LJ
0.667 LW
N
345.985 270.653 M
347.306 270.125 L
348.538 269.658 L
349.994 269.134 L
351.771 268.533 L
353.57 267.965 L
355.039 267.534 L
356.267 267.193 L
357.577 266.847 L
359.207 266.44 L
361.063 266.006 L
362.372 265.721 L
363.682 265.45 L
365.289 265.136 L
367.124 264.8 L
368.788 264.515 L
370.12 264.304 L
371.35 264.118 L
372.794 263.91 L
374.562 263.671 L
376.367 263.442 L
377.849 263.268 L
379.082 263.132 L
380.384 262.995 L
382.001 262.833 L
383.854 262.659 L
385.174 262.545 L
386.493 262.436 L
388.1 262.31 L
389.923 262.176 L
391.577 262.062 L
392.913 261.978 L
394.154 261.904 L
395.604 261.821 L
397.367 261.725 L
399.16 261.633 L
400.639 261.564 L
401.878 261.51 L
403.189 261.455 L
404.809 261.391 L
406.654 261.321 L
407.974 261.276 L
409.293 261.232 L
410.899 261.182 L
412.719 261.128 L
414.374 261.081 L
415.712 261.049 L
416.954 261.02 L
418.404 260.987 L
420.164 260.948 L
421.956 260.91 L
423.437 260.883 L
S
GR
GS
[0.75 0 0 0.75 0 0] CT
0.929 0.694 0.125 RC
1 LJ
0.667 LW
N
421.956 260.91 M
423.437 260.883 L
424.677 260.862 L
425.988 260.84 L
427.607 260.814 L
429.451 260.786 L
430.772 260.768 L
432.093 260.751 L
433.698 260.731 L
435.516 260.708 L
437.17 260.689 L
438.509 260.677 L
439.752 260.666 L
441.203 260.653 L
442.962 260.637 L
444.753 260.621 L
446.233 260.61 L
447.475 260.603 L
448.787 260.594 L
450.406 260.584 L
452.248 260.571 L
453.569 260.565 L
454.891 260.558 L
456.496 260.55 L
458.313 260.54 L
459.967 260.532 L
461.306 260.528 L
462.55 260.524 L
464.001 260.519 L
465.76 260.512 L
467.55 260.504 L
469.03 260.5 L
470.272 260.498 L
471.584 260.495 L
473.203 260.491 L
475.045 260.485 L
476.367 260.483 L
477.688 260.48 L
479.293 260.477 L
481.11 260.472 L
482.764 260.468 L
484.103 260.467 L
485.347 260.466 L
486.798 260.464 L
488.557 260.461 L
490.347 260.457 L
491.827 260.455 L
493.069 260.456 L
494.382 260.455 L
496.001 260.453 L
497.842 260.449 L
499.164 260.449 L
S
GR
GS
[0.75 0 0 0.75 0 0] CT
0.929 0.694 0.125 RC
1 LJ
0.667 LW
N
497.842 260.449 M
499.164 260.449 L
500.485 260.448 L
502.09 260.447 L
503.907 260.444 L
505.561 260.442 L
507 260.441 L
S
GR
GS
[0.75 0 0 0.75 0 0] CT
0.494 0.184 0.557 RC
1 LJ
0.667 LW
N
73 259.667 M
73.362 259.667 L
73.362 259.667 L
73.362 259.667 L
73.554 259.84 L
73.714 260.258 L
73.96 261.396 L
74.259 263.599 L
74.665 267.916 L
75.175 275.222 L
75.776 285.773 L
76.481 299.575 L
77.306 315.813 L
78.431 334.997 L
79.83 350.642 L
81.468 356.203 L
83.386 348.983 L
85.245 334.172 L
86.728 320.601 L
88.211 307.469 L
89.79 295.047 L
91.389 284.54 L
92.904 276.496 L
94.334 270.425 L
95.778 265.58 L
97.321 261.586 L
98.936 258.475 L
100.503 256.309 L
101.957 254.909 L
103.37 254.01 L
104.86 253.464 L
106.463 253.245 L
108.078 253.319 L
109.581 253.586 L
110.987 253.957 L
112.421 254.418 L
113.982 254.973 L
115.624 255.582 L
117.192 256.159 L
118.622 256.664 L
120.013 257.127 L
121.51 257.585 L
123.144 258.032 L
124.776 258.421 L
126.262 258.727 L
127.638 258.969 L
129.065 259.182 L
130.651 259.375 L
132.323 259.536 L
133.889 259.652 L
S
GR
GS
[0.75 0 0 0.75 0 0] CT
0.494 0.184 0.557 RC
1 LJ
0.667 LW
N
132.323 259.536 M
133.889 259.652 L
135.289 259.73 L
136.658 259.787 L
138.166 259.83 L
139.836 259.86 L
141.484 259.873 L
142.948 259.875 L
144.293 259.871 L
145.713 259.861 L
147.329 259.846 L
149.034 259.827 L
150.594 259.809 L
151.961 259.792 L
153.308 259.776 L
154.831 259.759 L
156.54 259.741 L
158.203 259.726 L
159.641 259.714 L
160.953 259.704 L
162.37 259.695 L
164.019 259.686 L
165.757 259.679 L
167.307 259.673 L
168.639 259.67 L
169.966 259.667 L
171.506 259.664 L
173.255 259.662 L
174.931 259.661 L
176.342 259.66 L
177.623 259.66 L
179.038 259.66 L
180.72 259.66 L
181.5 259.661 L
181.5 69.105 L
181.5 69.105 L
181.926 69.531 L
182.352 70.734 L
182.961 73.596 L
183.674 78.352 L
184.589 86.127 L
185.795 98.334 L
187.444 116.94 L
189.451 140.347 L
190.723 154.779 L
191.994 168.553 L
193.632 185.039 L
195.543 202.229 L
196.83 212.476 L
198.117 221.643 L
199.735 231.661 L
201.608 241.257 L
S
GR
GS
[0.75 0 0 0.75 0 0] CT
0.494 0.184 0.557 RC
1 LJ
0.667 LW
N
199.735 231.661 M
201.608 241.257 L
202.921 246.793 L
204.234 251.431 L
205.845 256.013 L
207.679 259.924 L
209.338 262.446 L
210.667 263.884 L
211.899 264.827 L
213.348 265.535 L
215.118 265.929 L
216.92 265.926 L
218.397 265.704 L
219.629 265.411 L
220.935 265.025 L
222.556 264.478 L
224.41 263.809 L
225.726 263.331 L
227.042 262.865 L
228.649 262.326 L
230.475 261.766 L
232.133 261.315 L
233.468 260.994 L
234.705 260.729 L
236.154 260.46 L
237.917 260.186 L
239.714 259.964 L
241.195 259.82 L
242.432 259.724 L
243.739 259.642 L
245.359 259.567 L
247.206 259.51 L
248.526 259.485 L
249.846 259.47 L
251.452 259.463 L
253.273 259.466 L
254.928 259.477 L
256.265 259.489 L
257.506 259.502 L
258.956 259.518 L
260.717 259.539 L
262.51 259.56 L
263.99 259.576 L
265.23 259.589 L
266.541 259.602 L
268.16 259.616 L
270.004 259.629 L
271.325 259.638 L
272.645 259.645 L
274.251 259.652 L
276.07 259.659 L
277.724 259.664 L
S
GR
GS
[0.75 0 0 0.75 0 0] CT
0.494 0.184 0.557 RC
1 LJ
0.667 LW
N
276.07 259.659 M
277.724 259.664 L
279.062 259.667 L
280.305 259.669 L
281.756 259.671 L
283.515 259.672 L
285.306 259.673 L
286.786 259.673 L
288.028 259.673 L
289.339 259.673 L
290 259.673 L
290 259.673 L
290 259.673 L
290.656 261.672 L
291.312 266.36 L
292.29 275.16 L
293.529 285.306 L
295.236 293.254 L
297.33 293.543 L
298.488 290.875 L
299.647 287.336 L
301.28 282.148 L
303.321 276.76 L
304.568 274.364 L
305.816 272.628 L
307.453 271.171 L
309.391 270.295 L
310.674 270.025 L
311.958 269.892 L
313.58 269.822 L
315.462 269.772 L
316.769 269.721 L
318.076 269.642 L
319.689 269.495 L
321.532 269.257 L
322.857 269.041 L
324.183 268.79 L
325.788 268.444 L
327.6 268.005 L
329.25 267.572 L
330.591 267.202 L
331.839 266.848 L
333.293 266.429 L
335.049 265.919 L
336.834 265.407 L
338.313 264.992 L
339.558 264.653 L
340.874 264.305 L
342.495 263.896 L
344.333 263.46 L
345.985 263.095 L
347.306 262.821 L
S
GR
GS
[0.75 0 0 0.75 0 0] CT
0.494 0.184 0.557 RC
1 LJ
0.667 LW
N
345.985 263.095 M
347.306 262.821 L
348.538 262.581 L
349.994 262.316 L
351.771 262.02 L
353.57 261.748 L
355.039 261.547 L
356.267 261.392 L
357.577 261.239 L
359.207 261.066 L
361.063 260.89 L
362.372 260.778 L
363.682 260.676 L
365.289 260.562 L
367.124 260.447 L
368.788 260.354 L
370.12 260.287 L
371.35 260.231 L
372.794 260.17 L
374.562 260.104 L
376.367 260.044 L
377.849 260 L
379.082 259.967 L
380.384 259.935 L
382.001 259.899 L
383.854 259.862 L
385.174 259.838 L
386.493 259.816 L
388.1 259.793 L
389.923 259.769 L
391.577 259.749 L
392.913 259.735 L
394.154 259.723 L
395.604 259.71 L
397.367 259.697 L
399.16 259.684 L
400.639 259.675 L
401.878 259.668 L
403.189 259.662 L
404.809 259.655 L
406.654 259.648 L
407.974 259.644 L
409.293 259.64 L
410.899 259.636 L
412.719 259.632 L
414.374 259.629 L
415.712 259.627 L
416.954 259.626 L
418.404 259.624 L
420.164 259.623 L
421.956 259.622 L
423.437 259.621 L
S
GR
GS
[0.75 0 0 0.75 0 0] CT
0.494 0.184 0.557 RC
1 LJ
0.667 LW
N
421.956 259.622 M
423.437 259.621 L
424.677 259.621 L
425.988 259.621 L
427.607 259.621 L
429.451 259.621 L
430.772 259.621 L
432.093 259.622 L
433.698 259.623 L
435.516 259.623 L
437.17 259.624 L
438.509 259.625 L
439.752 259.626 L
441.203 259.627 L
442.962 259.628 L
444.753 259.629 L
446.233 259.63 L
447.475 259.631 L
448.787 259.632 L
450.406 259.633 L
452.248 259.634 L
453.569 259.635 L
454.891 259.636 L
456.496 259.637 L
458.313 259.638 L
459.967 259.639 L
461.306 259.64 L
462.55 259.641 L
464.001 259.642 L
465.76 259.643 L
467.55 259.644 L
469.03 259.645 L
470.272 259.646 L
471.584 259.646 L
473.203 259.647 L
475.045 259.648 L
476.367 259.649 L
477.688 259.65 L
479.293 259.65 L
481.11 259.651 L
482.764 259.652 L
484.103 259.652 L
485.347 259.653 L
486.798 259.653 L
488.557 259.654 L
490.347 259.655 L
491.827 259.655 L
493.069 259.656 L
494.382 259.656 L
496.001 259.657 L
497.842 259.657 L
499.164 259.658 L
S
GR
GS
[0.75 0 0 0.75 0 0] CT
0.494 0.184 0.557 RC
1 LJ
0.667 LW
N
497.842 259.657 M
499.164 259.658 L
500.485 259.658 L
502.09 259.658 L
503.907 259.659 L
505.561 259.659 L
507 259.659 L
S
GR
GS
[0.75 0 0 0.75 0 0] CT
1 GC
N
418 132 M
418 44 L
494 44 L
494 132 L
cp
f
GR
GS
[0.75 0 0 0.75 352.5 44.25] CT
/Helvetica 12 F
GS
[1 0 0 1 0 0] CT
0 0 moveto 
1 -1 scale
(e1) t 
GR
GR
GS
[0.75 0 0 0.75 363 48.75] CT
/Helvetica 9 F
GS
[1 0 0 1 0 0] CT
0 0 moveto 
1 -1 scale
(1) t 
GR
GR
GS
[0.75 0 0 0.75 0 0] CT
0 0.447 0.741 RC
1 LJ
0.667 LW
N
426 56.763 M
466 56.763 L
S
GR
GS
[0.75 0 0 0.75 352.5 60] CT
/Helvetica 12 F
GS
[1 0 0 1 0 0] CT
0 0 moveto 
1 -1 scale
(e2) t 
GR
GR
GS
[0.75 0 0 0.75 363 64.5] CT
/Helvetica 9 F
GS
[1 0 0 1 0 0] CT
0 0 moveto 
1 -1 scale
(1) t 
GR
GR
GS
[0.75 0 0 0.75 0 0] CT
0.851 0.325 0.098 RC
1 LJ
0.667 LW
N
426 77.588 M
466 77.588 L
S
GR
GS
[0.75 0 0 0.75 352.5 75] CT
/Helvetica 12 F
GS
[1 0 0 1 0 0] CT
0 0 moveto 
1 -1 scale
(e1) t 
GR
GR
GS
[0.75 0 0 0.75 363 79.5] CT
/Helvetica 9 F
GS
[1 0 0 1 0 0] CT
0 0 moveto 
1 -1 scale
(2) t 
GR
GR
GS
[0.75 0 0 0.75 0 0] CT
0.929 0.694 0.125 RC
1 LJ
0.667 LW
N
426 98.412 M
466 98.412 L
S
GR
GS
[0.75 0 0 0.75 352.5 90.75] CT
/Helvetica 12 F
GS
[1 0 0 1 0 0] CT
0 0 moveto 
1 -1 scale
(e2) t 
GR
GR
GS
[0.75 0 0 0.75 363 95.25] CT
/Helvetica 9 F
GS
[1 0 0 1 0 0] CT
0 0 moveto 
1 -1 scale
(2) t 
GR
GR
GS
[0.75 0 0 0.75 0 0] CT
0.494 0.184 0.557 RC
1 LJ
0.667 LW
N
426 119.237 M
466 119.237 L
S
GR
GS
[0.75 0 0 0.75 0 0] CT
0.149 GC
10.0 ML
0.667 LW
N
418 132 M
418 44 L
494 44 L
494 132 L
cp
S
GR
%%Trailer
%%Pages: 1
%%EOF
