%!PS-Adobe-3.0 EPSF-3.0
%%Creator: (MATLAB, The Mathworks, Inc. Version 8.6.0.267246 \(R2015b\). Operating System: Windows 8)
%%Title: E:/Projects/skola/rls/pics/SP5/k2d_sigma.eps
%%CreationDate: 2017-03-17T10:02:58
%%Pages: (atend)
%%BoundingBox: 0 0 420 315
%%LanguageLevel: 2
%%EndComments
%%BeginProlog
%%BeginResource: procset (Apache XML Graphics Std ProcSet) 1.2 0
%%Version: 1.2 0
%%Copyright: (Copyright 2001-2003,2010 The Apache Software Foundation. License terms: http://www.apache.org/licenses/LICENSE-2.0)
/bd{bind def}bind def
/ld{load def}bd
/GR/grestore ld
/M/moveto ld
/LJ/setlinejoin ld
/C/curveto ld
/f/fill ld
/LW/setlinewidth ld
/GC/setgray ld
/t/show ld
/N/newpath ld
/CT/concat ld
/cp/closepath ld
/S/stroke ld
/L/lineto ld
/CC/setcmykcolor ld
/A/ashow ld
/GS/gsave ld
/RC/setrgbcolor ld
/RM/rmoveto ld
/ML/setmiterlimit ld
/re {4 2 roll M
1 index 0 rlineto
0 exch rlineto
neg 0 rlineto
cp } bd
/_ctm matrix def
/_tm matrix def
/BT { _ctm currentmatrix pop matrix _tm copy pop 0 0 moveto } bd
/ET { _ctm setmatrix } bd
/iTm { _ctm setmatrix _tm concat } bd
/Tm { _tm astore pop iTm 0 0 moveto } bd
/ux 0.0 def
/uy 0.0 def
/F {
  /Tp exch def
  /Tf exch def
  Tf findfont Tp scalefont setfont
  /cf Tf def  /cs Tp def
} bd
/ULS {currentpoint /uy exch def /ux exch def} bd
/ULE {
  /Tcx currentpoint pop def
  gsave
  newpath
  cf findfont cs scalefont dup
  /FontMatrix get 0 get /Ts exch def /FontInfo get dup
  /UnderlinePosition get Ts mul /To exch def
  /UnderlineThickness get Ts mul /Tt exch def
  ux uy To add moveto  Tcx uy To add lineto
  Tt setlinewidth stroke
  grestore
} bd
/OLE {
  /Tcx currentpoint pop def
  gsave
  newpath
  cf findfont cs scalefont dup
  /FontMatrix get 0 get /Ts exch def /FontInfo get dup
  /UnderlinePosition get Ts mul /To exch def
  /UnderlineThickness get Ts mul /Tt exch def
  ux uy To add cs add moveto Tcx uy To add cs add lineto
  Tt setlinewidth stroke
  grestore
} bd
/SOE {
  /Tcx currentpoint pop def
  gsave
  newpath
  cf findfont cs scalefont dup
  /FontMatrix get 0 get /Ts exch def /FontInfo get dup
  /UnderlinePosition get Ts mul /To exch def
  /UnderlineThickness get Ts mul /Tt exch def
  ux uy To add cs 10 mul 26 idiv add moveto Tcx uy To add cs 10 mul 26 idiv add lineto
  Tt setlinewidth stroke
  grestore
} bd
/QT {
/Y22 exch store
/X22 exch store
/Y21 exch store
/X21 exch store
currentpoint
/Y21 load 2 mul add 3 div exch
/X21 load 2 mul add 3 div exch
/X21 load 2 mul /X22 load add 3 div
/Y21 load 2 mul /Y22 load add 3 div
/X22 load /Y22 load curveto
} bd
/SSPD {
dup length /d exch dict def
{
/v exch def
/k exch def
currentpagedevice k known {
/cpdv currentpagedevice k get def
v cpdv ne {
/upd false def
/nullv v type /nulltype eq def
/nullcpdv cpdv type /nulltype eq def
nullv nullcpdv or
{
/upd true def
} {
/sametype v type cpdv type eq def
sametype {
v type /arraytype eq {
/vlen v length def
/cpdvlen cpdv length def
vlen cpdvlen eq {
0 1 vlen 1 sub {
/i exch def
/obj v i get def
/cpdobj cpdv i get def
obj cpdobj ne {
/upd true def
exit
} if
} for
} {
/upd true def
} ifelse
} {
v type /dicttype eq {
v {
/dv exch def
/dk exch def
/cpddv cpdv dk get def
dv cpddv ne {
/upd true def
exit
} if
} forall
} {
/upd true def
} ifelse
} ifelse
} if
} ifelse
upd true eq {
d k v put
} if
} if
} if
} forall
d length 0 gt {
d setpagedevice
} if
} bd
%%EndResource
%%BeginResource: procset (Apache XML Graphics EPS ProcSet) 1.0 0
%%Version: 1.0 0
%%Copyright: (Copyright 2002-2003 The Apache Software Foundation. License terms: http://www.apache.org/licenses/LICENSE-2.0)
/BeginEPSF { %def
/b4_Inc_state save def         % Save state for cleanup
/dict_count countdictstack def % Count objects on dict stack
/op_count count 1 sub def      % Count objects on operand stack
userdict begin                 % Push userdict on dict stack
/showpage { } def              % Redefine showpage, { } = null proc
0 setgray 0 setlinecap         % Prepare graphics state
1 setlinewidth 0 setlinejoin
10 setmiterlimit [ ] 0 setdash newpath
/languagelevel where           % If level not equal to 1 then
{pop languagelevel             % set strokeadjust and
1 ne                           % overprint to their defaults.
{false setstrokeadjust false setoverprint
} if
} if
} bd
/EndEPSF { %def
count op_count sub {pop} repeat            % Clean up stacks
countdictstack dict_count sub {end} repeat
b4_Inc_state restore
} bd
%%EndResource
%FOPBeginFontDict
%%IncludeResource: font Courier-Bold
%%IncludeResource: font Helvetica
%%IncludeResource: font Courier-BoldOblique
%%IncludeResource: font Courier-Oblique
%%IncludeResource: font Times-Roman
%%IncludeResource: font Helvetica-BoldOblique
%%IncludeResource: font Helvetica-Bold
%%IncludeResource: font Helvetica-Oblique
%%IncludeResource: font Times-BoldItalic
%%IncludeResource: font Courier
%%IncludeResource: font Times-Italic
%%IncludeResource: font Times-Bold
%%IncludeResource: font Symbol
%%IncludeResource: font ZapfDingbats
%FOPEndFontDict
%%BeginResource: encoding WinAnsiEncoding
/WinAnsiEncoding [
/.notdef /.notdef /.notdef /.notdef /.notdef
/.notdef /.notdef /.notdef /.notdef /.notdef
/.notdef /.notdef /.notdef /.notdef /.notdef
/.notdef /.notdef /.notdef /.notdef /.notdef
/.notdef /.notdef /.notdef /.notdef /.notdef
/.notdef /.notdef /.notdef /.notdef /.notdef
/.notdef /.notdef /space /exclam /quotedbl
/numbersign /dollar /percent /ampersand /quotesingle
/parenleft /parenright /asterisk /plus /comma
/hyphen /period /slash /zero /one
/two /three /four /five /six
/seven /eight /nine /colon /semicolon
/less /equal /greater /question /at
/A /B /C /D /E
/F /G /H /I /J
/K /L /M /N /O
/P /Q /R /S /T
/U /V /W /X /Y
/Z /bracketleft /backslash /bracketright /asciicircum
/underscore /quoteleft /a /b /c
/d /e /f /g /h
/i /j /k /l /m
/n /o /p /q /r
/s /t /u /v /w
/x /y /z /braceleft /bar
/braceright /asciitilde /bullet /Euro /bullet
/quotesinglbase /florin /quotedblbase /ellipsis /dagger
/daggerdbl /circumflex /perthousand /Scaron /guilsinglleft
/OE /bullet /Zcaron /bullet /bullet
/quoteleft /quoteright /quotedblleft /quotedblright /bullet
/endash /emdash /asciitilde /trademark /scaron
/guilsinglright /oe /bullet /zcaron /Ydieresis
/space /exclamdown /cent /sterling /currency
/yen /brokenbar /section /dieresis /copyright
/ordfeminine /guillemotleft /logicalnot /sfthyphen /registered
/macron /degree /plusminus /twosuperior /threesuperior
/acute /mu /paragraph /middot /cedilla
/onesuperior /ordmasculine /guillemotright /onequarter /onehalf
/threequarters /questiondown /Agrave /Aacute /Acircumflex
/Atilde /Adieresis /Aring /AE /Ccedilla
/Egrave /Eacute /Ecircumflex /Edieresis /Igrave
/Iacute /Icircumflex /Idieresis /Eth /Ntilde
/Ograve /Oacute /Ocircumflex /Otilde /Odieresis
/multiply /Oslash /Ugrave /Uacute /Ucircumflex
/Udieresis /Yacute /Thorn /germandbls /agrave
/aacute /acircumflex /atilde /adieresis /aring
/ae /ccedilla /egrave /eacute /ecircumflex
/edieresis /igrave /iacute /icircumflex /idieresis
/eth /ntilde /ograve /oacute /ocircumflex
/otilde /odieresis /divide /oslash /ugrave
/uacute /ucircumflex /udieresis /yacute /thorn
/ydieresis
] def
%%EndResource
%FOPBeginFontReencode
/Courier-Bold findfont
dup length dict begin
  {1 index /FID ne {def} {pop pop} ifelse} forall
  /Encoding WinAnsiEncoding def
  currentdict
end
/Courier-Bold exch definefont pop
/Helvetica findfont
dup length dict begin
  {1 index /FID ne {def} {pop pop} ifelse} forall
  /Encoding WinAnsiEncoding def
  currentdict
end
/Helvetica exch definefont pop
/Courier-BoldOblique findfont
dup length dict begin
  {1 index /FID ne {def} {pop pop} ifelse} forall
  /Encoding WinAnsiEncoding def
  currentdict
end
/Courier-BoldOblique exch definefont pop
/Courier-Oblique findfont
dup length dict begin
  {1 index /FID ne {def} {pop pop} ifelse} forall
  /Encoding WinAnsiEncoding def
  currentdict
end
/Courier-Oblique exch definefont pop
/Times-Roman findfont
dup length dict begin
  {1 index /FID ne {def} {pop pop} ifelse} forall
  /Encoding WinAnsiEncoding def
  currentdict
end
/Times-Roman exch definefont pop
/Helvetica-BoldOblique findfont
dup length dict begin
  {1 index /FID ne {def} {pop pop} ifelse} forall
  /Encoding WinAnsiEncoding def
  currentdict
end
/Helvetica-BoldOblique exch definefont pop
/Helvetica-Bold findfont
dup length dict begin
  {1 index /FID ne {def} {pop pop} ifelse} forall
  /Encoding WinAnsiEncoding def
  currentdict
end
/Helvetica-Bold exch definefont pop
/Helvetica-Oblique findfont
dup length dict begin
  {1 index /FID ne {def} {pop pop} ifelse} forall
  /Encoding WinAnsiEncoding def
  currentdict
end
/Helvetica-Oblique exch definefont pop
/Times-BoldItalic findfont
dup length dict begin
  {1 index /FID ne {def} {pop pop} ifelse} forall
  /Encoding WinAnsiEncoding def
  currentdict
end
/Times-BoldItalic exch definefont pop
/Courier findfont
dup length dict begin
  {1 index /FID ne {def} {pop pop} ifelse} forall
  /Encoding WinAnsiEncoding def
  currentdict
end
/Courier exch definefont pop
/Times-Italic findfont
dup length dict begin
  {1 index /FID ne {def} {pop pop} ifelse} forall
  /Encoding WinAnsiEncoding def
  currentdict
end
/Times-Italic exch definefont pop
/Times-Bold findfont
dup length dict begin
  {1 index /FID ne {def} {pop pop} ifelse} forall
  /Encoding WinAnsiEncoding def
  currentdict
end
/Times-Bold exch definefont pop
%FOPEndFontReencode
%%EndProlog
%%Page: 1 1
%%PageBoundingBox: 0 0 420 315
%%BeginPageSetup
[1 0 0 -1 0 315] CT
%%EndPageSetup
GS
[0.75 0 0 0.75 0 0] CT
1 GC
N
0 0 560 420 re
f
GR
GS
[0.75 0 0 0.75 0 0] CT
1 GC
N
0 0 560 420 re
f
GR
GS
[0.75 0 0 0.75 0 0] CT
1 GC
N
85 374 M
507 374 L
507 51 L
85 51 L
cp
f
GR
GS
[0.75 0 0 0.75 0 0] CT
0.4 GC
2 setlinecap
1 LJ
0.667 LW
N
85 374 M
507 374 L
S
GR
GS
[0.75 0 0 0.75 0 0] CT
0.4 GC
2 setlinecap
1 LJ
0.667 LW
N
85 51 M
507 51 L
S
GR
GS
[0.75 0 0 0.75 0 0] CT
0.4 GC
2 setlinecap
1 LJ
0.667 LW
N
85 374 M
85 369.78 L
S
GR
GS
[0.75 0 0 0.75 0 0] CT
0.4 GC
2 setlinecap
1 LJ
0.667 LW
N
190.5 374 M
190.5 369.78 L
S
GR
GS
[0.75 0 0 0.75 0 0] CT
0.4 GC
2 setlinecap
1 LJ
0.667 LW
N
296 374 M
296 369.78 L
S
GR
GS
[0.75 0 0 0.75 0 0] CT
0.4 GC
2 setlinecap
1 LJ
0.667 LW
N
401.5 374 M
401.5 369.78 L
S
GR
GS
[0.75 0 0 0.75 0 0] CT
0.4 GC
2 setlinecap
1 LJ
0.667 LW
N
507 374 M
507 369.78 L
S
GR
GS
[0.75 0 0 0.75 0 0] CT
0.4 GC
2 setlinecap
1 LJ
0.667 LW
N
85 51 M
85 55.22 L
S
GR
GS
[0.75 0 0 0.75 0 0] CT
0.4 GC
2 setlinecap
1 LJ
0.667 LW
N
190.5 51 M
190.5 55.22 L
S
GR
GS
[0.75 0 0 0.75 0 0] CT
0.4 GC
2 setlinecap
1 LJ
0.667 LW
N
296 51 M
296 55.22 L
S
GR
GS
[0.75 0 0 0.75 0 0] CT
0.4 GC
2 setlinecap
1 LJ
0.667 LW
N
401.5 51 M
401.5 55.22 L
S
GR
GS
[0.75 0 0 0.75 0 0] CT
0.4 GC
2 setlinecap
1 LJ
0.667 LW
N
507 51 M
507 55.22 L
S
GR
GS
[0.75 0 0 0.75 54 297] CT
0.4 GC
/Helvetica 13 F
GS
[1 0 0 1 0 0] CT
0 0 moveto 
1 -1 scale
(10) t 
GR
GR
GS
[0.75 0 0 0.75 65.25 292.5] CT
0.4 GC
/Helvetica 11 F
GS
[1 0 0 1 0 0] CT
0 0 moveto 
1 -1 scale
(-6) t 
GR
GR
GS
[0.75 0 0 0.75 133.5 297] CT
0.4 GC
/Helvetica 13 F
GS
[1 0 0 1 0 0] CT
0 0 moveto 
1 -1 scale
(10) t 
GR
GR
GS
[0.75 0 0 0.75 144.75 292.5] CT
0.4 GC
/Helvetica 11 F
GS
[1 0 0 1 0 0] CT
0 0 moveto 
1 -1 scale
(-4) t 
GR
GR
GS
[0.75 0 0 0.75 212.25 297] CT
0.4 GC
/Helvetica 13 F
GS
[1 0 0 1 0 0] CT
0 0 moveto 
1 -1 scale
(10) t 
GR
GR
GS
[0.75 0 0 0.75 223.5 292.5] CT
0.4 GC
/Helvetica 11 F
GS
[1 0 0 1 0 0] CT
0 0 moveto 
1 -1 scale
(-2) t 
GR
GR
GS
[0.75 0 0 0.75 293.25 297] CT
0.4 GC
/Helvetica 13 F
GS
[1 0 0 1 0 0] CT
0 0 moveto 
1 -1 scale
(10) t 
GR
GR
GS
[0.75 0 0 0.75 304.5 292.5] CT
0.4 GC
/Helvetica 11 F
GS
[1 0 0 1 0 0] CT
0 0 moveto 
1 -1 scale
(0) t 
GR
GR
GS
[0.75 0 0 0.75 372 297] CT
0.4 GC
/Helvetica 13 F
GS
[1 0 0 1 0 0] CT
0 0 moveto 
1 -1 scale
(10) t 
GR
GR
GS
[0.75 0 0 0.75 383.25 292.5] CT
0.4 GC
/Helvetica 11 F
GS
[1 0 0 1 0 0] CT
0 0 moveto 
1 -1 scale
(2) t 
GR
GR
GS
[0.75 0 0 0.75 0 0] CT
0.4 GC
2 setlinecap
1 LJ
0.667 LW
N
85 374 M
85 51 L
S
GR
GS
[0.75 0 0 0.75 0 0] CT
0.4 GC
2 setlinecap
1 LJ
0.667 LW
N
507 374 M
507 51 L
S
GR
GS
[0.75 0 0 0.75 0 0] CT
0.4 GC
2 setlinecap
1 LJ
0.667 LW
N
85 374 M
89.22 374 L
S
GR
GS
[0.75 0 0 0.75 0 0] CT
0.4 GC
2 setlinecap
1 LJ
0.667 LW
N
85 309.4 M
89.22 309.4 L
S
GR
GS
[0.75 0 0 0.75 0 0] CT
0.4 GC
2 setlinecap
1 LJ
0.667 LW
N
85 244.8 M
89.22 244.8 L
S
GR
GS
[0.75 0 0 0.75 0 0] CT
0.4 GC
2 setlinecap
1 LJ
0.667 LW
N
85 180.2 M
89.22 180.2 L
S
GR
GS
[0.75 0 0 0.75 0 0] CT
0.4 GC
2 setlinecap
1 LJ
0.667 LW
N
85 115.6 M
89.22 115.6 L
S
GR
GS
[0.75 0 0 0.75 0 0] CT
0.4 GC
2 setlinecap
1 LJ
0.667 LW
N
85 51 M
89.22 51 L
S
GR
GS
[0.75 0 0 0.75 0 0] CT
0.4 GC
2 setlinecap
1 LJ
0.667 LW
N
507 374 M
502.78 374 L
S
GR
GS
[0.75 0 0 0.75 0 0] CT
0.4 GC
2 setlinecap
1 LJ
0.667 LW
N
507 309.4 M
502.78 309.4 L
S
GR
GS
[0.75 0 0 0.75 0 0] CT
0.4 GC
2 setlinecap
1 LJ
0.667 LW
N
507 244.8 M
502.78 244.8 L
S
GR
GS
[0.75 0 0 0.75 0 0] CT
0.4 GC
2 setlinecap
1 LJ
0.667 LW
N
507 180.2 M
502.78 180.2 L
S
GR
GS
[0.75 0 0 0.75 0 0] CT
0.4 GC
2 setlinecap
1 LJ
0.667 LW
N
507 115.6 M
502.78 115.6 L
S
GR
GS
[0.75 0 0 0.75 0 0] CT
0.4 GC
2 setlinecap
1 LJ
0.667 LW
N
507 51 M
502.78 51 L
S
GR
GS
[0.75 0 0 0.75 59.75 280.5] CT
0.4 GC
/Helvetica 13 F
GS
[1 0 0 1 0 0] CT
-27 5 moveto 
1 -1 scale
(-150) t 
GR
GR
GS
[0.75 0 0 0.75 59.75 232.05] CT
0.4 GC
/Helvetica 13 F
GS
[1 0 0 1 0 0] CT
-27 5 moveto 
1 -1 scale
(-100) t 
GR
GR
GS
[0.75 0 0 0.75 59.75 183.6] CT
0.4 GC
/Helvetica 13 F
GS
[1 0 0 1 0 0] CT
-19 5 moveto 
1 -1 scale
(-50) t 
GR
GR
GS
[0.75 0 0 0.75 59.75 135.15] CT
0.4 GC
/Helvetica 13 F
GS
[1 0 0 1 0 0] CT
-8 5 moveto 
1 -1 scale
(0) t 
GR
GR
GS
[0.75 0 0 0.75 59.75 86.7] CT
0.4 GC
/Helvetica 13 F
GS
[1 0 0 1 0 0] CT
-15 5 moveto 
1 -1 scale
(50) t 
GR
GR
GS
[0.75 0 0 0.75 59.75 38.25] CT
0.4 GC
/Helvetica 13 F
GS
[1 0 0 1 0 0] CT
-22 5 moveto 
1 -1 scale
(100) t 
GR
GR
GS
[0.75 0 0 0.75 0 0] CT
0 0.447 0.741 RC
1 LJ
0.667 LW
N
84.958 249.665 M
87.397 249.665 L
90.922 249.665 L
94.447 249.665 L
97.972 249.664 L
101.497 249.664 L
105.022 249.663 L
108.547 249.661 L
112.072 249.66 L
115.597 249.657 L
119.122 249.654 L
122.647 249.65 L
126.171 249.644 L
129.696 249.636 L
133.221 249.625 L
136.746 249.611 L
140.271 249.59 L
143.796 249.563 L
147.321 249.525 L
150.846 249.473 L
154.371 249.4 L
157.896 249.3 L
161.421 249.16 L
164.946 248.963 L
168.471 248.685 L
171.996 248.295 L
175.521 247.753 L
179.045 247.026 L
182.57 246.098 L
186.095 244.981 L
189.62 243.705 L
193.145 242.307 L
196.67 240.819 L
200.195 239.265 L
203.72 237.664 L
207.245 236.029 L
210.77 234.37 L
214.295 232.692 L
217.82 231.001 L
221.345 229.3 L
224.87 227.593 L
228.395 225.88 L
231.919 224.164 L
235.444 222.444 L
238.969 220.723 L
242.494 219 L
246.019 217.276 L
249.544 215.551 L
253.069 213.825 L
256.594 212.098 L
S
GR
GS
[0.75 0 0 0.75 0 0] CT
0 0.447 0.741 RC
1 LJ
0.667 LW
N
253.069 213.825 M
256.594 212.098 L
260.119 210.371 L
263.644 208.643 L
267.169 206.914 L
270.694 205.183 L
274.219 203.452 L
277.744 201.718 L
281.268 199.983 L
284.793 198.243 L
288.318 196.5 L
291.843 194.752 L
295.368 192.998 L
298.893 191.236 L
302.418 189.466 L
305.943 187.69 L
309.468 185.913 L
312.993 184.145 L
316.518 182.411 L
320.043 180.753 L
323.568 179.234 L
327.093 177.941 L
330.618 176.952 L
334.142 176.306 L
337.667 175.972 L
341.192 175.864 L
344.717 175.877 L
348.242 175.925 L
351.767 175.969 L
355.292 176.026 L
358.817 176.164 L
362.342 176.442 L
365.867 176.861 L
369.392 177.364 L
372.917 177.881 L
376.442 178.36 L
379.967 178.774 L
383.492 179.115 L
387.016 179.385 L
390.541 179.594 L
394.066 179.753 L
397.591 179.872 L
401.116 179.96 L
404.641 180.025 L
408.166 180.072 L
411.691 180.107 L
415.216 180.132 L
418.741 180.15 L
422.266 180.163 L
425.791 180.173 L
429.316 180.18 L
432.841 180.186 L
S
GR
GS
[0.75 0 0 0.75 0 0] CT
0 0.447 0.741 RC
1 LJ
0.667 LW
N
429.316 180.18 M
432.841 180.186 L
436.366 180.189 L
439.89 180.192 L
443.415 180.194 L
446.94 180.196 L
450.465 180.197 L
453.99 180.198 L
457.515 180.198 L
461.04 180.199 L
464.565 180.199 L
468.09 180.199 L
471.615 180.2 L
475.14 180.2 L
478.665 180.2 L
482.19 180.2 L
485.715 180.2 L
507.042 180.2 L
S
GR
GS
[0.75 0 0 0.75 0 0] CT
0 0.447 0.741 RC
1 LJ
0.667 LW
N
84.958 260.02 M
87.397 260.019 L
90.922 260.017 L
94.447 260.013 L
97.972 260.008 L
101.497 260.002 L
105.022 259.993 L
108.547 259.981 L
112.072 259.965 L
115.597 259.943 L
119.122 259.914 L
122.647 259.874 L
126.171 259.821 L
129.696 259.749 L
133.221 259.653 L
136.746 259.525 L
140.271 259.357 L
143.796 259.137 L
147.321 258.855 L
150.846 258.498 L
154.371 258.055 L
157.896 257.518 L
161.421 256.888 L
164.946 256.173 L
168.471 255.393 L
171.996 254.583 L
175.521 253.787 L
179.045 253.045 L
182.57 252.378 L
186.095 251.78 L
189.62 251.218 L
193.145 250.655 L
196.67 250.052 L
200.195 249.377 L
203.72 248.608 L
207.245 247.728 L
210.77 246.73 L
214.295 245.614 L
217.82 244.387 L
221.345 243.062 L
224.87 241.651 L
228.395 240.169 L
231.919 238.63 L
235.444 237.045 L
238.969 235.426 L
242.494 233.779 L
246.019 232.112 L
249.544 230.43 L
253.069 228.736 L
256.594 227.033 L
S
GR
GS
[0.75 0 0 0.75 0 0] CT
0 0.447 0.741 RC
1 LJ
0.667 LW
N
253.069 228.736 M
256.594 227.033 L
260.119 225.325 L
263.644 223.612 L
267.169 221.895 L
270.694 220.176 L
274.219 218.455 L
277.744 216.734 L
281.268 215.011 L
284.793 213.289 L
288.318 211.566 L
291.843 209.844 L
295.368 208.123 L
298.893 206.403 L
302.418 204.686 L
305.943 202.971 L
309.468 201.259 L
312.993 199.551 L
316.518 197.848 L
320.043 196.15 L
323.568 194.458 L
327.093 192.775 L
330.618 191.1 L
334.142 189.44 L
337.667 187.805 L
341.192 186.218 L
344.717 184.717 L
348.242 183.361 L
351.767 182.224 L
355.292 181.362 L
358.817 180.779 L
362.342 180.423 L
365.867 180.225 L
369.392 180.127 L
372.917 180.086 L
376.442 180.077 L
379.967 180.085 L
383.492 180.1 L
387.016 180.117 L
390.541 180.134 L
394.066 180.148 L
397.591 180.16 L
401.116 180.17 L
404.641 180.177 L
408.166 180.183 L
411.691 180.187 L
415.216 180.19 L
418.741 180.193 L
422.266 180.195 L
425.791 180.196 L
429.316 180.197 L
432.841 180.198 L
S
GR
GS
[0.75 0 0 0.75 0 0] CT
0 0.447 0.741 RC
1 LJ
0.667 LW
N
429.316 180.197 M
432.841 180.198 L
436.366 180.198 L
439.89 180.199 L
443.415 180.199 L
446.94 180.199 L
450.465 180.2 L
453.99 180.2 L
457.515 180.2 L
461.04 180.2 L
464.565 180.2 L
468.09 180.2 L
471.615 180.2 L
475.14 180.2 L
478.665 180.2 L
482.19 180.2 L
485.715 180.2 L
507.042 180.2 L
S
GR
GS
[0.75 0 0 0.75 0 0] CT
0.851 0.325 0.098 RC
1 LJ
0.667 LW
N
84.958 180.209 M
162.284 180.209 L
215.034 180.191 L
218.578 180.188 L
222.122 180.183 L
225.666 180.178 L
229.21 180.172 L
232.755 180.164 L
236.299 180.156 L
239.843 180.146 L
243.387 180.134 L
246.931 180.121 L
250.475 180.105 L
254.019 180.086 L
257.563 180.065 L
261.107 180.04 L
264.651 180.01 L
268.195 179.976 L
271.739 179.936 L
275.283 179.889 L
278.827 179.835 L
282.371 179.771 L
285.915 179.696 L
289.459 179.609 L
293.003 179.507 L
296.547 179.388 L
300.091 179.249 L
303.635 179.087 L
307.179 178.899 L
310.723 178.684 L
314.267 178.444 L
317.811 178.187 L
321.355 177.927 L
324.899 177.694 L
328.443 177.523 L
331.987 177.444 L
335.531 177.474 L
339.075 177.617 L
342.619 177.881 L
346.163 178.302 L
349.707 178.954 L
353.251 179.948 L
356.795 181.404 L
360.339 183.398 L
363.883 185.917 L
367.427 188.865 L
370.971 192.118 L
374.515 195.563 L
378.059 199.118 L
381.603 202.732 L
S
GR
GS
[0.75 0 0 0.75 0 0] CT
0.851 0.325 0.098 RC
1 LJ
0.667 LW
N
378.059 199.118 M
381.603 202.732 L
385.147 206.374 L
388.691 210.027 L
392.235 213.682 L
395.779 217.332 L
399.323 220.973 L
402.867 224.6 L
406.411 228.211 L
409.955 231.803 L
413.499 235.375 L
417.043 238.93 L
420.587 242.467 L
424.131 245.991 L
427.675 249.503 L
431.219 253.005 L
434.763 256.5 L
438.307 259.989 L
441.851 263.474 L
445.395 266.956 L
448.939 270.435 L
452.483 273.912 L
456.027 277.388 L
459.571 280.863 L
463.115 284.337 L
466.659 287.811 L
470.203 291.284 L
473.747 294.757 L
477.291 298.23 L
480.835 301.703 L
484.379 305.175 L
487.923 308.647 L
507.042 327.379 L
S
GR
GS
[0.75 0 0 0.75 0 0] CT
0.851 0.325 0.098 RC
1 LJ
0.667 LW
N
84.958 180.223 M
162.284 180.223 L
215.034 180.241 L
218.578 180.244 L
222.122 180.249 L
225.666 180.254 L
229.21 180.26 L
232.755 180.268 L
236.299 180.276 L
239.843 180.286 L
243.387 180.298 L
246.931 180.312 L
250.475 180.327 L
254.019 180.346 L
257.563 180.368 L
261.107 180.394 L
264.651 180.423 L
268.195 180.458 L
271.739 180.5 L
275.283 180.548 L
278.827 180.604 L
282.371 180.671 L
285.915 180.75 L
289.459 180.843 L
293.003 180.954 L
296.547 181.087 L
300.091 181.248 L
303.635 181.445 L
307.179 181.69 L
310.723 181.998 L
314.267 182.395 L
317.811 182.914 L
321.355 183.604 L
324.899 184.529 L
328.443 185.757 L
331.987 187.344 L
335.531 189.307 L
339.075 191.608 L
342.619 194.17 L
346.163 196.904 L
349.707 199.735 L
353.251 202.608 L
356.795 205.492 L
360.339 208.373 L
363.883 211.254 L
367.427 214.146 L
370.971 217.065 L
374.515 220.025 L
378.059 223.039 L
381.603 226.112 L
S
GR
GS
[0.75 0 0 0.75 0 0] CT
0.851 0.325 0.098 RC
1 LJ
0.667 LW
N
378.059 223.039 M
381.603 226.112 L
385.147 229.245 L
388.691 232.433 L
392.235 235.671 L
395.779 238.951 L
399.323 242.267 L
402.867 245.612 L
406.411 248.982 L
409.955 252.372 L
413.499 255.78 L
417.043 259.201 L
420.587 262.635 L
424.131 266.077 L
427.675 269.527 L
431.219 272.982 L
434.763 276.441 L
438.307 279.904 L
441.851 283.369 L
445.395 286.836 L
448.939 290.304 L
452.483 293.773 L
456.027 297.244 L
459.571 300.714 L
463.115 304.185 L
466.659 307.656 L
470.203 311.128 L
473.747 314.6 L
477.291 318.071 L
480.835 321.543 L
484.379 325.015 L
487.923 328.487 L
507.042 347.218 L
S
GR
GS
[0.75 0 0 0.75 0 0] CT
0.929 0.694 0.125 RC
1 LJ
0.667 LW
N
84.958 134.214 M
87.397 134.214 L
90.922 134.214 L
94.447 134.214 L
97.972 134.214 L
101.497 134.214 L
105.022 134.214 L
108.547 134.214 L
112.072 134.214 L
115.597 134.214 L
119.122 134.214 L
122.647 134.214 L
126.171 134.214 L
129.696 134.214 L
133.221 134.214 L
136.746 134.214 L
140.271 134.214 L
143.796 134.214 L
147.321 134.214 L
150.846 134.214 L
154.371 134.214 L
157.896 134.214 L
161.421 134.214 L
164.946 134.214 L
168.471 134.214 L
171.996 134.214 L
175.521 134.214 L
179.045 134.214 L
182.57 134.214 L
186.095 134.213 L
189.62 134.213 L
193.145 134.213 L
196.67 134.213 L
200.195 134.213 L
203.72 134.213 L
207.245 134.213 L
210.77 134.212 L
214.295 134.212 L
217.82 134.211 L
221.345 134.21 L
224.87 134.209 L
228.395 134.207 L
231.919 134.205 L
235.444 134.201 L
238.969 134.197 L
242.494 134.191 L
246.019 134.183 L
249.544 134.172 L
253.069 134.157 L
256.594 134.137 L
S
GR
GS
[0.75 0 0 0.75 0 0] CT
0.929 0.694 0.125 RC
1 LJ
0.667 LW
N
253.069 134.157 M
256.594 134.137 L
260.119 134.109 L
263.644 134.072 L
267.169 134.022 L
270.694 133.954 L
274.219 133.864 L
277.744 133.743 L
281.268 133.583 L
284.793 133.373 L
288.318 133.1 L
291.843 132.751 L
295.368 132.311 L
298.893 131.768 L
302.418 131.114 L
305.943 130.348 L
309.468 129.48 L
312.993 128.532 L
316.518 127.546 L
320.043 126.581 L
323.568 125.719 L
327.093 125.045 L
330.618 124.615 L
334.142 124.398 L
337.667 124.237 L
341.192 123.911 L
344.717 123.316 L
348.242 122.551 L
351.767 121.827 L
355.292 121.36 L
358.817 121.31 L
362.342 121.737 L
365.867 122.599 L
369.392 123.793 L
372.917 125.209 L
376.442 126.76 L
379.967 128.39 L
383.492 130.065 L
387.016 131.763 L
390.541 133.474 L
394.066 135.193 L
397.591 136.915 L
401.116 138.64 L
404.641 140.365 L
408.166 142.091 L
411.691 143.818 L
415.216 145.544 L
418.741 147.271 L
422.266 148.997 L
425.791 150.724 L
429.316 152.451 L
432.841 154.177 L
S
GR
GS
[0.75 0 0 0.75 0 0] CT
0.929 0.694 0.125 RC
1 LJ
0.667 LW
N
429.316 152.451 M
432.841 154.177 L
436.366 155.904 L
439.89 157.631 L
443.415 159.358 L
446.94 161.084 L
450.465 162.811 L
453.99 164.538 L
457.515 166.264 L
461.04 167.991 L
464.565 169.718 L
468.09 171.445 L
471.615 173.171 L
475.14 174.898 L
478.665 176.625 L
482.19 178.351 L
485.715 180.078 L
507.042 190.526 L
S
GR
GS
[0.75 0 0 0.75 0 0] CT
0.929 0.694 0.125 RC
1 LJ
0.667 LW
N
84.958 147.706 M
87.397 147.706 L
90.922 147.706 L
94.447 147.706 L
97.972 147.706 L
101.497 147.706 L
105.022 147.706 L
108.547 147.706 L
112.072 147.706 L
115.597 147.706 L
119.122 147.706 L
122.647 147.706 L
126.171 147.706 L
129.696 147.706 L
133.221 147.706 L
136.746 147.706 L
140.271 147.706 L
143.796 147.706 L
147.321 147.706 L
150.846 147.706 L
154.371 147.706 L
157.896 147.706 L
161.421 147.706 L
164.946 147.706 L
168.471 147.706 L
171.996 147.706 L
175.521 147.706 L
179.045 147.706 L
182.57 147.706 L
186.095 147.706 L
189.62 147.706 L
193.145 147.706 L
196.67 147.706 L
200.195 147.706 L
203.72 147.705 L
207.245 147.705 L
210.77 147.705 L
214.295 147.704 L
217.82 147.703 L
221.345 147.703 L
224.87 147.701 L
228.395 147.699 L
231.919 147.697 L
235.444 147.694 L
238.969 147.689 L
242.494 147.683 L
246.019 147.675 L
249.544 147.663 L
253.069 147.648 L
256.594 147.627 L
S
GR
GS
[0.75 0 0 0.75 0 0] CT
0.929 0.694 0.125 RC
1 LJ
0.667 LW
N
253.069 147.648 M
256.594 147.627 L
260.119 147.599 L
263.644 147.561 L
267.169 147.51 L
270.694 147.441 L
274.219 147.348 L
277.744 147.225 L
281.268 147.061 L
284.793 146.846 L
288.318 146.567 L
291.843 146.208 L
295.368 145.754 L
298.893 145.191 L
302.418 144.507 L
305.943 143.696 L
309.468 142.757 L
312.993 141.697 L
316.518 140.53 L
320.043 139.279 L
323.568 137.977 L
327.093 136.671 L
330.618 135.436 L
334.142 134.39 L
337.667 133.707 L
341.192 133.569 L
344.717 134.037 L
348.242 135.002 L
351.767 136.292 L
355.292 137.775 L
358.817 139.366 L
362.342 141.017 L
365.867 142.702 L
369.392 144.405 L
372.917 146.119 L
376.442 147.838 L
379.967 149.56 L
383.492 151.284 L
387.016 153.01 L
390.541 154.735 L
394.066 156.462 L
397.591 158.188 L
401.116 159.915 L
404.641 161.641 L
408.166 163.368 L
411.691 165.094 L
415.216 166.821 L
418.741 168.548 L
422.266 170.275 L
425.791 172.001 L
429.316 173.728 L
432.841 175.455 L
S
GR
GS
[0.75 0 0 0.75 0 0] CT
0.929 0.694 0.125 RC
1 LJ
0.667 LW
N
429.316 173.728 M
432.841 175.455 L
436.366 177.181 L
439.89 178.908 L
443.415 180.635 L
446.94 182.361 L
450.465 184.088 L
453.99 185.815 L
457.515 187.542 L
461.04 189.268 L
464.565 190.995 L
468.09 192.722 L
471.615 194.448 L
475.14 196.175 L
478.665 197.902 L
482.19 199.629 L
485.715 201.355 L
507.042 211.803 L
S
GR
GS
[0.75 0 0 0.75 0 0] CT
0.494 0.184 0.557 RC
1 LJ
0.667 LW
N
84.958 59.02 M
87.397 59.021 L
90.922 59.024 L
94.447 59.028 L
97.972 59.032 L
101.497 59.039 L
105.022 59.048 L
108.547 59.061 L
112.071 59.077 L
115.596 59.1 L
119.121 59.131 L
122.646 59.172 L
126.171 59.228 L
129.696 59.303 L
133.221 59.404 L
136.746 59.537 L
140.271 59.713 L
143.796 59.944 L
147.321 60.242 L
150.845 60.621 L
154.37 61.094 L
157.895 61.674 L
161.42 62.366 L
164.945 63.172 L
168.47 64.082 L
171.995 65.081 L
175.52 66.142 L
179.045 67.232 L
182.57 68.312 L
186.095 69.348 L
189.619 70.317 L
193.144 71.222 L
196.669 72.089 L
200.194 72.957 L
203.719 73.866 L
207.244 74.845 L
210.769 75.914 L
214.294 77.08 L
217.819 78.342 L
221.344 79.693 L
224.869 81.121 L
228.393 82.615 L
231.918 84.162 L
235.443 85.75 L
238.968 87.37 L
242.493 89.014 L
246.018 90.676 L
249.543 92.348 L
253.068 94.027 L
256.593 95.709 L
S
GR
GS
[0.75 0 0 0.75 0 0] CT
0.494 0.184 0.557 RC
1 LJ
0.667 LW
N
253.068 94.027 M
256.593 95.709 L
260.118 97.388 L
263.643 99.062 L
267.167 100.725 L
270.692 102.371 L
274.217 103.995 L
277.742 105.587 L
281.267 107.138 L
284.792 108.636 L
288.317 110.068 L
291.842 111.42 L
295.367 112.676 L
298.892 113.825 L
302.417 114.857 L
305.941 115.769 L
309.466 116.564 L
312.991 117.252 L
316.516 117.847 L
320.041 118.37 L
323.566 118.84 L
327.091 119.278 L
330.616 119.699 L
334.141 120.118 L
337.666 120.544 L
341.19 120.982 L
344.715 121.439 L
348.24 121.923 L
351.765 122.444 L
355.29 123.017 L
358.815 123.66 L
362.34 124.391 L
365.865 125.225 L
369.39 126.173 L
372.915 127.238 L
376.44 128.417 L
379.965 129.7 L
383.489 131.077 L
387.014 132.532 L
390.539 134.05 L
394.064 135.62 L
397.589 137.23 L
401.114 138.871 L
404.639 140.534 L
408.164 142.214 L
411.689 143.907 L
415.214 145.609 L
418.738 147.318 L
422.263 149.032 L
425.788 150.749 L
429.313 152.469 L
432.838 154.19 L
S
GR
GS
[0.75 0 0 0.75 0 0] CT
0.494 0.184 0.557 RC
1 LJ
0.667 LW
N
429.313 152.469 M
432.838 154.19 L
436.363 155.913 L
439.888 157.637 L
443.413 159.362 L
446.938 161.087 L
450.463 162.813 L
453.988 164.539 L
457.512 166.265 L
461.037 167.991 L
464.562 169.717 L
468.087 171.444 L
471.612 173.17 L
475.137 174.897 L
478.662 176.624 L
482.187 178.35 L
485.712 180.077 L
507.042 190.526 L
S
GR
GS
[0.75 0 0 0.75 0 0] CT
0.494 0.184 0.557 RC
1 LJ
0.667 LW
N
84.958 73.614 M
87.397 73.614 L
90.922 73.614 L
94.447 73.614 L
97.972 73.615 L
101.497 73.615 L
105.022 73.616 L
108.547 73.616 L
112.071 73.618 L
115.596 73.619 L
119.121 73.621 L
122.646 73.623 L
126.171 73.627 L
129.696 73.632 L
133.221 73.638 L
136.746 73.647 L
140.271 73.659 L
143.796 73.676 L
147.321 73.698 L
150.845 73.728 L
154.37 73.77 L
157.895 73.827 L
161.42 73.905 L
164.945 74.012 L
168.47 74.159 L
171.995 74.36 L
175.52 74.638 L
179.045 75.017 L
182.57 75.531 L
186.095 76.211 L
189.619 77.078 L
193.144 78.135 L
196.669 79.359 L
200.194 80.718 L
203.719 82.179 L
207.244 83.715 L
210.769 85.303 L
214.294 86.93 L
217.819 88.584 L
221.344 90.257 L
224.869 91.944 L
228.393 93.641 L
231.918 95.346 L
235.443 97.054 L
238.968 98.766 L
242.493 100.48 L
246.018 102.193 L
249.543 103.906 L
253.068 105.616 L
256.593 107.322 L
S
GR
GS
[0.75 0 0 0.75 0 0] CT
0.494 0.184 0.557 RC
1 LJ
0.667 LW
N
253.068 105.616 M
256.593 107.322 L
260.118 109.023 L
263.643 110.716 L
267.167 112.397 L
270.692 114.063 L
274.217 115.709 L
277.742 117.328 L
281.267 118.911 L
284.792 120.45 L
288.317 121.931 L
291.842 123.341 L
295.367 124.667 L
298.892 125.894 L
302.417 127.011 L
305.941 128.014 L
309.466 128.901 L
312.991 129.681 L
316.516 130.369 L
320.041 130.987 L
323.566 131.562 L
327.091 132.122 L
330.616 132.7 L
334.141 133.324 L
337.666 134.022 L
341.19 134.816 L
344.715 135.72 L
348.24 136.743 L
351.765 137.882 L
355.29 139.129 L
358.815 140.472 L
362.34 141.897 L
365.865 143.388 L
369.39 144.934 L
372.915 146.521 L
376.44 148.142 L
379.965 149.789 L
383.489 151.455 L
387.014 153.137 L
390.539 154.83 L
394.064 156.531 L
397.589 158.239 L
401.114 159.952 L
404.639 161.668 L
408.164 163.388 L
411.689 165.109 L
415.214 166.831 L
418.738 168.555 L
422.263 170.279 L
425.788 172.005 L
429.313 173.73 L
432.838 175.456 L
S
GR
GS
[0.75 0 0 0.75 0 0] CT
0.494 0.184 0.557 RC
1 LJ
0.667 LW
N
429.313 173.73 M
432.838 175.456 L
436.363 177.182 L
439.888 178.908 L
443.413 180.634 L
446.938 182.361 L
450.463 184.087 L
453.988 185.814 L
457.512 187.541 L
461.037 189.267 L
464.562 190.994 L
468.087 192.721 L
471.612 194.447 L
475.137 196.174 L
478.662 197.901 L
482.187 199.627 L
485.712 201.354 L
507.042 211.803 L
S
GR
GS
[0.75 0 0 0.75 0 0] CT
1 GC
N
421 132 M
421 64 L
494 64 L
494 132 L
cp
f
GR
GS
[0.75 0 0 0.75 354.75 55.70049] CT
/Helvetica 12 F
GS
[1 0 0 1 0 0] CT
0 4.5 moveto 
1 -1 scale
(S) t 
GR
GR
GS
[0.75 0 0 0.75 0 0] CT
0 0.447 0.741 RC
1 LJ
0.667 LW
N
429 74.267 M
469 74.267 L
S
GR
GS
[0.75 0 0 0.75 354.75 67.56683] CT
/Helvetica 12 F
GS
[1 0 0 1 0 0] CT
0 4.5 moveto 
1 -1 scale
(T) t 
GR
GR
GS
[0.75 0 0 0.75 0 0] CT
0.851 0.325 0.098 RC
1 LJ
0.667 LW
N
429 90.089 M
469 90.089 L
S
GR
GS
[0.75 0 0 0.75 354.75 79.43317] CT
/Helvetica 12 F
GS
[1 0 0 1 0 0] CT
0 4.5 moveto 
1 -1 scale
(CS) t 
GR
GR
GS
[0.75 0 0 0.75 0 0] CT
0.929 0.694 0.125 RC
1 LJ
0.667 LW
N
429 105.911 M
469 105.911 L
S
GR
GS
[0.75 0 0 0.75 354.75 91.29951] CT
/Helvetica 12 F
GS
[1 0 0 1 0 0] CT
0 4.5 moveto 
1 -1 scale
(K) t 
GR
GR
GS
[0.75 0 0 0.75 0 0] CT
0.494 0.184 0.557 RC
1 LJ
0.667 LW
N
429 121.733 M
469 121.733 L
S
GR
GS
[0.75 0 0 0.75 0 0] CT
0.149 GC
10.0 ML
0.667 LW
N
421 132 M
421 64 L
494 64 L
494 132 L
cp
S
GR
GS
[0.75 0 0 0.75 221.25 33.52501] CT
/any-Bold 15 F
GS
[1 0 0 1 0 0] CT
-56.5 -4 moveto 
1 -1 scale
(Singular Values) t 
GR
GR
GS
[0.75 0 0 0.75 221.25 298.99999] CT
/Helvetica 15 F
GS
[1 0 0 1 0 0] CT
-59.5 14 moveto 
1 -1 scale
(Frequency \(rad/s\)) t 
GR
GR
GS
[0 -0.75 0.75 0 36.5 160.3875] CT
/Helvetica 15 F
GS
[1 0 0 1 0 0] CT
-69 -4 moveto 
1 -1 scale
(Singular Values \(dB\)) t 
GR
GR
%%Trailer
%%Pages: 1
%%EOF
