%!PS-Adobe-3.0 EPSF-3.0
%%Creator: (MATLAB, The Mathworks, Inc. Version 8.6.0.267246 \(R2015b\). Operating System: Windows 8)
%%Title: E:/Projects/skola/rls/pics/SP5/k2d_u.eps
%%CreationDate: 2017-03-17T10:02:18
%%Pages: (atend)
%%BoundingBox: 0 0 420 315
%%LanguageLevel: 2
%%EndComments
%%BeginProlog
%%BeginResource: procset (Apache XML Graphics Std ProcSet) 1.2 0
%%Version: 1.2 0
%%Copyright: (Copyright 2001-2003,2010 The Apache Software Foundation. License terms: http://www.apache.org/licenses/LICENSE-2.0)
/bd{bind def}bind def
/ld{load def}bd
/GR/grestore ld
/M/moveto ld
/LJ/setlinejoin ld
/C/curveto ld
/f/fill ld
/LW/setlinewidth ld
/GC/setgray ld
/t/show ld
/N/newpath ld
/CT/concat ld
/cp/closepath ld
/S/stroke ld
/L/lineto ld
/CC/setcmykcolor ld
/A/ashow ld
/GS/gsave ld
/RC/setrgbcolor ld
/RM/rmoveto ld
/ML/setmiterlimit ld
/re {4 2 roll M
1 index 0 rlineto
0 exch rlineto
neg 0 rlineto
cp } bd
/_ctm matrix def
/_tm matrix def
/BT { _ctm currentmatrix pop matrix _tm copy pop 0 0 moveto } bd
/ET { _ctm setmatrix } bd
/iTm { _ctm setmatrix _tm concat } bd
/Tm { _tm astore pop iTm 0 0 moveto } bd
/ux 0.0 def
/uy 0.0 def
/F {
  /Tp exch def
  /Tf exch def
  Tf findfont Tp scalefont setfont
  /cf Tf def  /cs Tp def
} bd
/ULS {currentpoint /uy exch def /ux exch def} bd
/ULE {
  /Tcx currentpoint pop def
  gsave
  newpath
  cf findfont cs scalefont dup
  /FontMatrix get 0 get /Ts exch def /FontInfo get dup
  /UnderlinePosition get Ts mul /To exch def
  /UnderlineThickness get Ts mul /Tt exch def
  ux uy To add moveto  Tcx uy To add lineto
  Tt setlinewidth stroke
  grestore
} bd
/OLE {
  /Tcx currentpoint pop def
  gsave
  newpath
  cf findfont cs scalefont dup
  /FontMatrix get 0 get /Ts exch def /FontInfo get dup
  /UnderlinePosition get Ts mul /To exch def
  /UnderlineThickness get Ts mul /Tt exch def
  ux uy To add cs add moveto Tcx uy To add cs add lineto
  Tt setlinewidth stroke
  grestore
} bd
/SOE {
  /Tcx currentpoint pop def
  gsave
  newpath
  cf findfont cs scalefont dup
  /FontMatrix get 0 get /Ts exch def /FontInfo get dup
  /UnderlinePosition get Ts mul /To exch def
  /UnderlineThickness get Ts mul /Tt exch def
  ux uy To add cs 10 mul 26 idiv add moveto Tcx uy To add cs 10 mul 26 idiv add lineto
  Tt setlinewidth stroke
  grestore
} bd
/QT {
/Y22 exch store
/X22 exch store
/Y21 exch store
/X21 exch store
currentpoint
/Y21 load 2 mul add 3 div exch
/X21 load 2 mul add 3 div exch
/X21 load 2 mul /X22 load add 3 div
/Y21 load 2 mul /Y22 load add 3 div
/X22 load /Y22 load curveto
} bd
/SSPD {
dup length /d exch dict def
{
/v exch def
/k exch def
currentpagedevice k known {
/cpdv currentpagedevice k get def
v cpdv ne {
/upd false def
/nullv v type /nulltype eq def
/nullcpdv cpdv type /nulltype eq def
nullv nullcpdv or
{
/upd true def
} {
/sametype v type cpdv type eq def
sametype {
v type /arraytype eq {
/vlen v length def
/cpdvlen cpdv length def
vlen cpdvlen eq {
0 1 vlen 1 sub {
/i exch def
/obj v i get def
/cpdobj cpdv i get def
obj cpdobj ne {
/upd true def
exit
} if
} for
} {
/upd true def
} ifelse
} {
v type /dicttype eq {
v {
/dv exch def
/dk exch def
/cpddv cpdv dk get def
dv cpddv ne {
/upd true def
exit
} if
} forall
} {
/upd true def
} ifelse
} ifelse
} if
} ifelse
upd true eq {
d k v put
} if
} if
} if
} forall
d length 0 gt {
d setpagedevice
} if
} bd
%%EndResource
%%BeginResource: procset (Apache XML Graphics EPS ProcSet) 1.0 0
%%Version: 1.0 0
%%Copyright: (Copyright 2002-2003 The Apache Software Foundation. License terms: http://www.apache.org/licenses/LICENSE-2.0)
/BeginEPSF { %def
/b4_Inc_state save def         % Save state for cleanup
/dict_count countdictstack def % Count objects on dict stack
/op_count count 1 sub def      % Count objects on operand stack
userdict begin                 % Push userdict on dict stack
/showpage { } def              % Redefine showpage, { } = null proc
0 setgray 0 setlinecap         % Prepare graphics state
1 setlinewidth 0 setlinejoin
10 setmiterlimit [ ] 0 setdash newpath
/languagelevel where           % If level not equal to 1 then
{pop languagelevel             % set strokeadjust and
1 ne                           % overprint to their defaults.
{false setstrokeadjust false setoverprint
} if
} if
} bd
/EndEPSF { %def
count op_count sub {pop} repeat            % Clean up stacks
countdictstack dict_count sub {end} repeat
b4_Inc_state restore
} bd
%%EndResource
%FOPBeginFontDict
%%IncludeResource: font Courier-Bold
%%IncludeResource: font Helvetica
%%IncludeResource: font Courier-BoldOblique
%%IncludeResource: font Courier-Oblique
%%IncludeResource: font Times-Roman
%%IncludeResource: font Helvetica-BoldOblique
%%IncludeResource: font Helvetica-Bold
%%IncludeResource: font Helvetica-Oblique
%%IncludeResource: font Times-BoldItalic
%%IncludeResource: font Courier
%%IncludeResource: font Times-Italic
%%IncludeResource: font Times-Bold
%%IncludeResource: font Symbol
%%IncludeResource: font ZapfDingbats
%FOPEndFontDict
%%BeginResource: encoding WinAnsiEncoding
/WinAnsiEncoding [
/.notdef /.notdef /.notdef /.notdef /.notdef
/.notdef /.notdef /.notdef /.notdef /.notdef
/.notdef /.notdef /.notdef /.notdef /.notdef
/.notdef /.notdef /.notdef /.notdef /.notdef
/.notdef /.notdef /.notdef /.notdef /.notdef
/.notdef /.notdef /.notdef /.notdef /.notdef
/.notdef /.notdef /space /exclam /quotedbl
/numbersign /dollar /percent /ampersand /quotesingle
/parenleft /parenright /asterisk /plus /comma
/hyphen /period /slash /zero /one
/two /three /four /five /six
/seven /eight /nine /colon /semicolon
/less /equal /greater /question /at
/A /B /C /D /E
/F /G /H /I /J
/K /L /M /N /O
/P /Q /R /S /T
/U /V /W /X /Y
/Z /bracketleft /backslash /bracketright /asciicircum
/underscore /quoteleft /a /b /c
/d /e /f /g /h
/i /j /k /l /m
/n /o /p /q /r
/s /t /u /v /w
/x /y /z /braceleft /bar
/braceright /asciitilde /bullet /Euro /bullet
/quotesinglbase /florin /quotedblbase /ellipsis /dagger
/daggerdbl /circumflex /perthousand /Scaron /guilsinglleft
/OE /bullet /Zcaron /bullet /bullet
/quoteleft /quoteright /quotedblleft /quotedblright /bullet
/endash /emdash /asciitilde /trademark /scaron
/guilsinglright /oe /bullet /zcaron /Ydieresis
/space /exclamdown /cent /sterling /currency
/yen /brokenbar /section /dieresis /copyright
/ordfeminine /guillemotleft /logicalnot /sfthyphen /registered
/macron /degree /plusminus /twosuperior /threesuperior
/acute /mu /paragraph /middot /cedilla
/onesuperior /ordmasculine /guillemotright /onequarter /onehalf
/threequarters /questiondown /Agrave /Aacute /Acircumflex
/Atilde /Adieresis /Aring /AE /Ccedilla
/Egrave /Eacute /Ecircumflex /Edieresis /Igrave
/Iacute /Icircumflex /Idieresis /Eth /Ntilde
/Ograve /Oacute /Ocircumflex /Otilde /Odieresis
/multiply /Oslash /Ugrave /Uacute /Ucircumflex
/Udieresis /Yacute /Thorn /germandbls /agrave
/aacute /acircumflex /atilde /adieresis /aring
/ae /ccedilla /egrave /eacute /ecircumflex
/edieresis /igrave /iacute /icircumflex /idieresis
/eth /ntilde /ograve /oacute /ocircumflex
/otilde /odieresis /divide /oslash /ugrave
/uacute /ucircumflex /udieresis /yacute /thorn
/ydieresis
] def
%%EndResource
%FOPBeginFontReencode
/Courier-Bold findfont
dup length dict begin
  {1 index /FID ne {def} {pop pop} ifelse} forall
  /Encoding WinAnsiEncoding def
  currentdict
end
/Courier-Bold exch definefont pop
/Helvetica findfont
dup length dict begin
  {1 index /FID ne {def} {pop pop} ifelse} forall
  /Encoding WinAnsiEncoding def
  currentdict
end
/Helvetica exch definefont pop
/Courier-BoldOblique findfont
dup length dict begin
  {1 index /FID ne {def} {pop pop} ifelse} forall
  /Encoding WinAnsiEncoding def
  currentdict
end
/Courier-BoldOblique exch definefont pop
/Courier-Oblique findfont
dup length dict begin
  {1 index /FID ne {def} {pop pop} ifelse} forall
  /Encoding WinAnsiEncoding def
  currentdict
end
/Courier-Oblique exch definefont pop
/Times-Roman findfont
dup length dict begin
  {1 index /FID ne {def} {pop pop} ifelse} forall
  /Encoding WinAnsiEncoding def
  currentdict
end
/Times-Roman exch definefont pop
/Helvetica-BoldOblique findfont
dup length dict begin
  {1 index /FID ne {def} {pop pop} ifelse} forall
  /Encoding WinAnsiEncoding def
  currentdict
end
/Helvetica-BoldOblique exch definefont pop
/Helvetica-Bold findfont
dup length dict begin
  {1 index /FID ne {def} {pop pop} ifelse} forall
  /Encoding WinAnsiEncoding def
  currentdict
end
/Helvetica-Bold exch definefont pop
/Helvetica-Oblique findfont
dup length dict begin
  {1 index /FID ne {def} {pop pop} ifelse} forall
  /Encoding WinAnsiEncoding def
  currentdict
end
/Helvetica-Oblique exch definefont pop
/Times-BoldItalic findfont
dup length dict begin
  {1 index /FID ne {def} {pop pop} ifelse} forall
  /Encoding WinAnsiEncoding def
  currentdict
end
/Times-BoldItalic exch definefont pop
/Courier findfont
dup length dict begin
  {1 index /FID ne {def} {pop pop} ifelse} forall
  /Encoding WinAnsiEncoding def
  currentdict
end
/Courier exch definefont pop
/Times-Italic findfont
dup length dict begin
  {1 index /FID ne {def} {pop pop} ifelse} forall
  /Encoding WinAnsiEncoding def
  currentdict
end
/Times-Italic exch definefont pop
/Times-Bold findfont
dup length dict begin
  {1 index /FID ne {def} {pop pop} ifelse} forall
  /Encoding WinAnsiEncoding def
  currentdict
end
/Times-Bold exch definefont pop
%FOPEndFontReencode
%%EndProlog
%%Page: 1 1
%%PageBoundingBox: 0 0 420 315
%%BeginPageSetup
[1 0 0 -1 0 315] CT
%%EndPageSetup
GS
[0.75 0 0 0.75 0 0] CT
1 GC
N
0 0 560 420 re
f
GR
GS
[0.75 0 0 0.75 0 0] CT
1 GC
N
0 0 560 420 re
f
GR
GS
[0.75 0 0 0.75 0 0] CT
1 GC
N
73 374 M
507 374 L
507 31 L
73 31 L
cp
f
GR
GS
[0.75 0 0 0.75 0 0] CT
0.149 GC
2 setlinecap
1 LJ
0.667 LW
N
73 374 M
507 374 L
S
GR
GS
[0.75 0 0 0.75 0 0] CT
0.149 GC
2 setlinecap
1 LJ
0.667 LW
N
73 31 M
507 31 L
S
GR
GS
[0.75 0 0 0.75 0 0] CT
0.149 GC
2 setlinecap
1 LJ
0.667 LW
N
73 374 M
73 369.66 L
S
GR
GS
[0.75 0 0 0.75 0 0] CT
0.149 GC
2 setlinecap
1 LJ
0.667 LW
N
145.333 374 M
145.333 369.66 L
S
GR
GS
[0.75 0 0 0.75 0 0] CT
0.149 GC
2 setlinecap
1 LJ
0.667 LW
N
217.667 374 M
217.667 369.66 L
S
GR
GS
[0.75 0 0 0.75 0 0] CT
0.149 GC
2 setlinecap
1 LJ
0.667 LW
N
290 374 M
290 369.66 L
S
GR
GS
[0.75 0 0 0.75 0 0] CT
0.149 GC
2 setlinecap
1 LJ
0.667 LW
N
362.333 374 M
362.333 369.66 L
S
GR
GS
[0.75 0 0 0.75 0 0] CT
0.149 GC
2 setlinecap
1 LJ
0.667 LW
N
434.667 374 M
434.667 369.66 L
S
GR
GS
[0.75 0 0 0.75 0 0] CT
0.149 GC
2 setlinecap
1 LJ
0.667 LW
N
507 374 M
507 369.66 L
S
GR
GS
[0.75 0 0 0.75 0 0] CT
0.149 GC
2 setlinecap
1 LJ
0.667 LW
N
73 31 M
73 35.34 L
S
GR
GS
[0.75 0 0 0.75 0 0] CT
0.149 GC
2 setlinecap
1 LJ
0.667 LW
N
145.333 31 M
145.333 35.34 L
S
GR
GS
[0.75 0 0 0.75 0 0] CT
0.149 GC
2 setlinecap
1 LJ
0.667 LW
N
217.667 31 M
217.667 35.34 L
S
GR
GS
[0.75 0 0 0.75 0 0] CT
0.149 GC
2 setlinecap
1 LJ
0.667 LW
N
290 31 M
290 35.34 L
S
GR
GS
[0.75 0 0 0.75 0 0] CT
0.149 GC
2 setlinecap
1 LJ
0.667 LW
N
362.333 31 M
362.333 35.34 L
S
GR
GS
[0.75 0 0 0.75 0 0] CT
0.149 GC
2 setlinecap
1 LJ
0.667 LW
N
434.667 31 M
434.667 35.34 L
S
GR
GS
[0.75 0 0 0.75 0 0] CT
0.149 GC
2 setlinecap
1 LJ
0.667 LW
N
507 31 M
507 35.34 L
S
GR
GS
[0.75 0 0 0.75 54.75 284.50001] CT
0.149 GC
/Helvetica 13 F
GS
[1 0 0 1 0 0] CT
-4 13 moveto 
1 -1 scale
(0) t 
GR
GR
GS
[0.75 0 0 0.75 109 284.50001] CT
0.149 GC
/Helvetica 13 F
GS
[1 0 0 1 0 0] CT
-11 13 moveto 
1 -1 scale
(200) t 
GR
GR
GS
[0.75 0 0 0.75 163.25 284.50001] CT
0.149 GC
/Helvetica 13 F
GS
[1 0 0 1 0 0] CT
-11 13 moveto 
1 -1 scale
(400) t 
GR
GR
GS
[0.75 0 0 0.75 217.5 284.50001] CT
0.149 GC
/Helvetica 13 F
GS
[1 0 0 1 0 0] CT
-11 13 moveto 
1 -1 scale
(600) t 
GR
GR
GS
[0.75 0 0 0.75 271.75001 284.50001] CT
0.149 GC
/Helvetica 13 F
GS
[1 0 0 1 0 0] CT
-11 13 moveto 
1 -1 scale
(800) t 
GR
GR
GS
[0.75 0 0 0.75 325.99999 284.50001] CT
0.149 GC
/Helvetica 13 F
GS
[1 0 0 1 0 0] CT
-14.5 13 moveto 
1 -1 scale
(1000) t 
GR
GR
GS
[0.75 0 0 0.75 380.25 284.50001] CT
0.149 GC
/Helvetica 13 F
GS
[1 0 0 1 0 0] CT
-14.5 13 moveto 
1 -1 scale
(1200) t 
GR
GR
GS
[0.75 0 0 0.75 217.50016 297.49999] CT
0.149 GC
/Helvetica 15 F
GS
[1 0 0 1 0 0] CT
-11 14 moveto 
1 -1 scale
(t\(s\)) t 
GR
GR
GS
[0.75 0 0 0.75 0 0] CT
0.149 GC
2 setlinecap
1 LJ
0.667 LW
N
73 374 M
73 31 L
S
GR
GS
[0.75 0 0 0.75 0 0] CT
0.149 GC
2 setlinecap
1 LJ
0.667 LW
N
507 374 M
507 31 L
S
GR
GS
[0.75 0 0 0.75 0 0] CT
0.149 GC
2 setlinecap
1 LJ
0.667 LW
N
73 374 M
77.34 374 L
S
GR
GS
[0.75 0 0 0.75 0 0] CT
0.149 GC
2 setlinecap
1 LJ
0.667 LW
N
73 339.7 M
77.34 339.7 L
S
GR
GS
[0.75 0 0 0.75 0 0] CT
0.149 GC
2 setlinecap
1 LJ
0.667 LW
N
73 305.4 M
77.34 305.4 L
S
GR
GS
[0.75 0 0 0.75 0 0] CT
0.149 GC
2 setlinecap
1 LJ
0.667 LW
N
73 271.1 M
77.34 271.1 L
S
GR
GS
[0.75 0 0 0.75 0 0] CT
0.149 GC
2 setlinecap
1 LJ
0.667 LW
N
73 236.8 M
77.34 236.8 L
S
GR
GS
[0.75 0 0 0.75 0 0] CT
0.149 GC
2 setlinecap
1 LJ
0.667 LW
N
73 202.5 M
77.34 202.5 L
S
GR
GS
[0.75 0 0 0.75 0 0] CT
0.149 GC
2 setlinecap
1 LJ
0.667 LW
N
73 168.2 M
77.34 168.2 L
S
GR
GS
[0.75 0 0 0.75 0 0] CT
0.149 GC
2 setlinecap
1 LJ
0.667 LW
N
73 133.9 M
77.34 133.9 L
S
GR
GS
[0.75 0 0 0.75 0 0] CT
0.149 GC
2 setlinecap
1 LJ
0.667 LW
N
73 99.6 M
77.34 99.6 L
S
GR
GS
[0.75 0 0 0.75 0 0] CT
0.149 GC
2 setlinecap
1 LJ
0.667 LW
N
73 65.3 M
77.34 65.3 L
S
GR
GS
[0.75 0 0 0.75 0 0] CT
0.149 GC
2 setlinecap
1 LJ
0.667 LW
N
73 31 M
77.34 31 L
S
GR
GS
[0.75 0 0 0.75 0 0] CT
0.149 GC
2 setlinecap
1 LJ
0.667 LW
N
507 374 M
502.66 374 L
S
GR
GS
[0.75 0 0 0.75 0 0] CT
0.149 GC
2 setlinecap
1 LJ
0.667 LW
N
507 339.7 M
502.66 339.7 L
S
GR
GS
[0.75 0 0 0.75 0 0] CT
0.149 GC
2 setlinecap
1 LJ
0.667 LW
N
507 305.4 M
502.66 305.4 L
S
GR
GS
[0.75 0 0 0.75 0 0] CT
0.149 GC
2 setlinecap
1 LJ
0.667 LW
N
507 271.1 M
502.66 271.1 L
S
GR
GS
[0.75 0 0 0.75 0 0] CT
0.149 GC
2 setlinecap
1 LJ
0.667 LW
N
507 236.8 M
502.66 236.8 L
S
GR
GS
[0.75 0 0 0.75 0 0] CT
0.149 GC
2 setlinecap
1 LJ
0.667 LW
N
507 202.5 M
502.66 202.5 L
S
GR
GS
[0.75 0 0 0.75 0 0] CT
0.149 GC
2 setlinecap
1 LJ
0.667 LW
N
507 168.2 M
502.66 168.2 L
S
GR
GS
[0.75 0 0 0.75 0 0] CT
0.149 GC
2 setlinecap
1 LJ
0.667 LW
N
507 133.9 M
502.66 133.9 L
S
GR
GS
[0.75 0 0 0.75 0 0] CT
0.149 GC
2 setlinecap
1 LJ
0.667 LW
N
507 99.6 M
502.66 99.6 L
S
GR
GS
[0.75 0 0 0.75 0 0] CT
0.149 GC
2 setlinecap
1 LJ
0.667 LW
N
507 65.3 M
502.66 65.3 L
S
GR
GS
[0.75 0 0 0.75 0 0] CT
0.149 GC
2 setlinecap
1 LJ
0.667 LW
N
507 31 M
502.66 31 L
S
GR
GS
[0.75 0 0 0.75 50.75 280.5] CT
0.149 GC
/Helvetica 13 F
GS
[1 0 0 1 0 0] CT
-12 5 moveto 
1 -1 scale
(-6) t 
GR
GR
GS
[0.75 0 0 0.75 50.75 254.77501] CT
0.149 GC
/Helvetica 13 F
GS
[1 0 0 1 0 0] CT
-12 5 moveto 
1 -1 scale
(-4) t 
GR
GR
GS
[0.75 0 0 0.75 50.75 229.05] CT
0.149 GC
/Helvetica 13 F
GS
[1 0 0 1 0 0] CT
-12 5 moveto 
1 -1 scale
(-2) t 
GR
GR
GS
[0.75 0 0 0.75 50.75 203.325] CT
0.149 GC
/Helvetica 13 F
GS
[1 0 0 1 0 0] CT
-8 5 moveto 
1 -1 scale
(0) t 
GR
GR
GS
[0.75 0 0 0.75 50.75 177.6] CT
0.149 GC
/Helvetica 13 F
GS
[1 0 0 1 0 0] CT
-8 5 moveto 
1 -1 scale
(2) t 
GR
GR
GS
[0.75 0 0 0.75 50.75 151.875] CT
0.149 GC
/Helvetica 13 F
GS
[1 0 0 1 0 0] CT
-8 5 moveto 
1 -1 scale
(4) t 
GR
GR
GS
[0.75 0 0 0.75 50.75 126.15] CT
0.149 GC
/Helvetica 13 F
GS
[1 0 0 1 0 0] CT
-8 5 moveto 
1 -1 scale
(6) t 
GR
GR
GS
[0.75 0 0 0.75 50.75 100.425] CT
0.149 GC
/Helvetica 13 F
GS
[1 0 0 1 0 0] CT
-8 5 moveto 
1 -1 scale
(8) t 
GR
GR
GS
[0.75 0 0 0.75 50.75 74.7] CT
0.149 GC
/Helvetica 13 F
GS
[1 0 0 1 0 0] CT
-15 5 moveto 
1 -1 scale
(10) t 
GR
GR
GS
[0.75 0 0 0.75 50.75 48.975] CT
0.149 GC
/Helvetica 13 F
GS
[1 0 0 1 0 0] CT
-15 5 moveto 
1 -1 scale
(12) t 
GR
GR
GS
[0.75 0 0 0.75 50.75 23.25] CT
0.149 GC
/Helvetica 13 F
GS
[1 0 0 1 0 0] CT
-15 5 moveto 
1 -1 scale
(14) t 
GR
GR
GS
[0.75 0 0 0.75 39 13.5] CT
/any-Bold 15 F
GS
[1 0 0 1 0 0] CT
0 0 moveto 
1 -1 scale
(Response of system without \(u) t 
GR
GR
GS
[0.75 0 0 0.75 205.5 18.75] CT
/any-Bold 11 F
GS
[1 0 0 1 0 0] CT
0 0 moveto 
1 -1 scale
(1) t 
GR
GR
GS
[0.75 0 0 0.75 210.75 13.5] CT
/any-Bold 15 F
GS
[1 0 0 1 0 0] CT
0 0 moveto 
1 -1 scale
(\) and with integration \(u) t 
GR
GR
GS
[0.75 0 0 0.75 338.25 18.75] CT
/any-Bold 11 F
GS
[1 0 0 1 0 0] CT
0 0 moveto 
1 -1 scale
(2) t 
GR
GR
GS
[0.75 0 0 0.75 343.5 13.5] CT
/any-Bold 15 F
GS
[1 0 0 1 0 0] CT
0 0 moveto 
1 -1 scale
(\) - control) t 
GR
GR
GS
[0.75 0 0 0.75 0 0] CT
0 0.447 0.741 RC
1 LJ
0.667 LW
N
73 271.1 M
73.362 271.1 L
73.362 271.1 L
73.362 271.1 L
73.554 237.755 L
73.714 212.505 L
73.96 178.048 L
74.259 142.382 L
74.665 104.277 L
75.175 70.651 L
75.776 47.788 L
76.481 38.43 L
77.306 43.853 L
78.431 66.94 L
79.83 103.378 L
81.468 140.393 L
83.386 167.641 L
85.245 179.668 L
86.728 183.068 L
88.211 183.904 L
89.79 183.977 L
91.389 184.311 L
92.904 185.223 L
94.334 186.584 L
95.778 188.287 L
97.321 190.265 L
98.936 192.318 L
100.503 194.16 L
101.957 195.681 L
103.37 196.965 L
104.86 198.114 L
106.463 199.133 L
108.078 199.956 L
109.581 200.561 L
110.987 201.006 L
112.421 201.357 L
113.982 201.638 L
115.624 201.838 L
117.192 201.955 L
118.622 202.012 L
120.013 202.03 L
121.51 202.018 L
123.144 201.978 L
124.776 201.918 L
126.262 201.853 L
127.638 201.787 L
129.065 201.718 L
130.651 201.642 L
132.323 201.565 L
133.889 201.499 L
S
GR
GS
[0.75 0 0 0.75 0 0] CT
0 0.447 0.741 RC
1 LJ
0.667 LW
N
132.323 201.565 M
133.889 201.499 L
135.289 201.444 L
136.658 201.396 L
138.166 201.35 L
139.836 201.305 L
141.484 201.269 L
142.948 201.242 L
144.293 201.222 L
145.713 201.205 L
147.329 201.189 L
149.034 201.178 L
150.594 201.17 L
151.961 201.166 L
153.308 201.163 L
154.831 201.161 L
156.54 201.161 L
158.203 201.162 L
159.641 201.163 L
160.953 201.165 L
162.37 201.167 L
164.019 201.17 L
165.757 201.173 L
167.307 201.175 L
168.639 201.177 L
169.966 201.179 L
171.506 201.18 L
173.255 201.182 L
174.931 201.184 L
176.342 201.185 L
177.623 201.186 L
179.038 201.187 L
180.72 201.187 L
181.5 201.188 L
181.5 201.188 L
181.5 201.188 L
181.926 204.491 L
182.352 207.874 L
182.961 212.78 L
183.674 218.533 L
184.589 225.698 L
185.795 234.393 L
187.444 244.255 L
189.451 252.608 L
190.723 255.899 L
191.994 257.85 L
193.632 258.762 L
195.543 258.143 L
196.83 257.026 L
198.117 255.54 L
199.735 253.347 L
201.608 250.597 L
S
GR
GS
[0.75 0 0 0.75 0 0] CT
0 0.447 0.741 RC
1 LJ
0.667 LW
N
199.735 253.347 M
201.608 250.597 L
202.921 248.645 L
204.234 246.736 L
205.845 244.509 L
207.679 242.184 L
209.338 240.309 L
210.667 238.974 L
211.899 237.87 L
213.348 236.735 L
215.118 235.574 L
216.92 234.629 L
218.397 234.013 L
219.629 233.599 L
220.935 233.246 L
222.556 232.916 L
224.41 232.661 L
225.726 232.546 L
227.042 232.475 L
228.649 232.436 L
230.475 232.441 L
232.133 232.478 L
233.468 232.524 L
234.705 232.574 L
236.154 232.639 L
237.917 232.723 L
239.714 232.808 L
241.195 232.875 L
242.432 232.928 L
243.739 232.98 L
245.359 233.038 L
247.206 233.095 L
248.526 233.13 L
249.846 233.161 L
251.452 233.193 L
253.273 233.221 L
254.928 233.241 L
256.265 233.254 L
257.506 233.263 L
258.956 233.271 L
260.717 233.278 L
262.51 233.282 L
263.99 233.284 L
265.23 233.284 L
266.541 233.283 L
268.16 233.282 L
270.004 233.28 L
271.325 233.278 L
272.645 233.276 L
274.251 233.274 L
276.07 233.271 L
277.724 233.268 L
S
GR
GS
[0.75 0 0 0.75 0 0] CT
0 0.447 0.741 RC
1 LJ
0.667 LW
N
276.07 233.271 M
277.724 233.268 L
279.062 233.267 L
280.305 233.265 L
281.756 233.264 L
283.515 233.262 L
285.306 233.26 L
286.786 233.259 L
288.028 233.259 L
289.339 233.258 L
290 233.258 L
290 61.758 L
290 61.758 L
290.656 66.532 L
291.312 78.519 L
292.29 103.611 L
293.529 138.53 L
295.236 179.743 L
297.33 211.594 L
298.488 221.301 L
299.647 227 L
301.28 230.701 L
303.321 231.91 L
304.568 232.039 L
305.816 232.133 L
307.453 232.391 L
309.391 232.891 L
310.674 233.261 L
311.958 233.603 L
313.58 233.944 L
315.462 234.179 L
316.769 234.244 L
318.076 234.241 L
319.689 234.164 L
321.532 234.012 L
322.857 233.879 L
324.183 233.736 L
325.788 233.561 L
327.6 233.372 L
329.25 233.213 L
330.591 233.096 L
331.839 232.999 L
333.293 232.898 L
335.049 232.796 L
336.834 232.713 L
338.313 232.659 L
339.558 232.623 L
340.874 232.593 L
342.495 232.567 L
344.333 232.549 L
345.985 232.542 L
347.306 232.541 L
S
GR
GS
[0.75 0 0 0.75 0 0] CT
0 0.447 0.741 RC
1 LJ
0.667 LW
N
345.985 232.542 M
347.306 232.541 L
348.538 232.544 L
349.994 232.55 L
351.771 232.561 L
353.57 232.576 L
355.039 232.588 L
356.267 232.6 L
357.577 232.612 L
359.207 232.627 L
361.063 232.644 L
362.372 232.655 L
363.682 232.666 L
365.289 232.678 L
367.124 232.691 L
368.788 232.701 L
370.12 232.709 L
371.35 232.715 L
372.794 232.722 L
374.562 232.73 L
376.367 232.737 L
377.849 232.742 L
379.082 232.746 L
380.384 232.749 L
382.001 232.753 L
383.854 232.757 L
385.174 232.76 L
386.493 232.762 L
388.1 232.765 L
389.923 232.767 L
391.577 232.77 L
392.913 232.771 L
394.154 232.773 L
395.604 232.774 L
397.367 232.776 L
399.16 232.778 L
400.639 232.779 L
401.878 232.78 L
403.189 232.781 L
404.809 232.782 L
406.654 232.783 L
407.974 232.784 L
409.293 232.785 L
410.899 232.786 L
412.719 232.787 L
414.374 232.788 L
415.712 232.789 L
416.954 232.789 L
418.404 232.79 L
420.164 232.791 L
421.956 232.791 L
423.437 232.792 L
S
GR
GS
[0.75 0 0 0.75 0 0] CT
0 0.447 0.741 RC
1 LJ
0.667 LW
N
421.956 232.791 M
423.437 232.792 L
424.677 232.792 L
425.988 232.793 L
427.607 232.793 L
429.451 232.794 L
430.772 232.794 L
432.093 232.795 L
433.698 232.795 L
435.516 232.796 L
437.17 232.796 L
438.509 232.796 L
439.752 232.796 L
441.203 232.797 L
442.962 232.797 L
444.753 232.797 L
446.233 232.798 L
447.475 232.798 L
448.787 232.798 L
450.406 232.798 L
452.248 232.798 L
453.569 232.798 L
454.891 232.799 L
456.496 232.799 L
458.313 232.799 L
459.967 232.799 L
461.306 232.799 L
462.55 232.799 L
464.001 232.799 L
465.76 232.8 L
467.55 232.8 L
469.03 232.8 L
470.272 232.8 L
471.584 232.8 L
473.203 232.8 L
475.045 232.8 L
476.367 232.8 L
477.688 232.8 L
479.293 232.8 L
481.11 232.8 L
482.764 232.8 L
484.103 232.8 L
485.347 232.8 L
486.798 232.801 L
488.557 232.801 L
490.347 232.801 L
491.827 232.801 L
493.069 232.801 L
494.382 232.801 L
496.001 232.801 L
497.842 232.801 L
499.164 232.801 L
S
GR
GS
[0.75 0 0 0.75 0 0] CT
0 0.447 0.741 RC
1 LJ
0.667 LW
N
497.842 232.801 M
499.164 232.801 L
500.485 232.801 L
502.09 232.801 L
503.907 232.801 L
505.561 232.801 L
507 232.801 L
S
GR
GS
[0.75 0 0 0.75 0 0] CT
0.851 0.325 0.098 RC
1 LJ
0.667 LW
N
73 271.1 M
73.362 271.1 L
73.362 271.1 L
73.362 271.1 L
73.554 262.023 L
73.714 255.51 L
73.96 247.26 L
74.259 239.781 L
74.665 233.681 L
75.175 231.511 L
75.776 235.085 L
76.481 245.213 L
77.306 261.878 L
78.431 287.519 L
79.83 317.088 L
81.468 342.613 L
83.386 358.718 L
85.245 363.306 L
86.728 362.077 L
88.211 358.488 L
89.79 353.469 L
91.389 348.039 L
92.904 343.02 L
94.334 338.565 L
95.778 334.413 L
97.321 330.375 L
98.936 326.589 L
100.503 323.341 L
101.957 320.692 L
103.37 318.445 L
104.86 316.411 L
106.463 314.585 L
108.078 313.097 L
109.581 311.997 L
110.987 311.188 L
112.421 310.555 L
113.982 310.054 L
115.624 309.704 L
117.192 309.507 L
118.622 309.421 L
120.013 309.403 L
121.51 309.441 L
123.144 309.53 L
124.776 309.653 L
126.262 309.783 L
127.638 309.91 L
129.065 310.045 L
130.651 310.191 L
132.323 310.336 L
133.889 310.462 L
S
GR
GS
[0.75 0 0 0.75 0 0] CT
0.851 0.325 0.098 RC
1 LJ
0.667 LW
N
132.323 310.336 M
133.889 310.462 L
135.289 310.563 L
136.658 310.653 L
138.166 310.74 L
139.836 310.822 L
141.484 310.889 L
142.948 310.937 L
144.293 310.974 L
145.713 311.006 L
147.329 311.033 L
149.034 311.054 L
150.594 311.067 L
151.961 311.075 L
153.308 311.079 L
154.831 311.082 L
156.54 311.082 L
158.203 311.079 L
159.641 311.076 L
160.953 311.073 L
162.37 311.069 L
164.019 311.064 L
165.757 311.058 L
167.307 311.054 L
168.639 311.05 L
169.966 311.047 L
171.506 311.043 L
173.255 311.04 L
174.931 311.037 L
176.342 311.035 L
177.623 311.033 L
179.038 311.032 L
180.72 311.031 L
181.5 311.03 L
181.5 311.03 L
181.5 311.03 L
181.926 299.796 L
182.352 289.41 L
182.961 275.96 L
183.674 262.107 L
184.589 247.055 L
185.795 231.247 L
187.444 215.758 L
189.451 204.292 L
190.723 200.264 L
191.994 198.194 L
193.632 197.812 L
195.543 199.792 L
196.83 202.173 L
198.117 205.131 L
199.735 209.372 L
201.608 214.628 L
S
GR
GS
[0.75 0 0 0.75 0 0] CT
0.851 0.325 0.098 RC
1 LJ
0.667 LW
N
199.735 209.372 M
201.608 214.628 L
202.921 218.341 L
204.234 221.964 L
205.845 226.18 L
207.679 230.561 L
209.338 234.078 L
210.667 236.572 L
211.899 238.624 L
213.348 240.726 L
215.118 242.863 L
216.92 244.591 L
218.397 245.708 L
219.629 246.456 L
220.935 247.087 L
222.556 247.672 L
224.41 248.115 L
225.726 248.309 L
227.042 248.424 L
228.649 248.476 L
230.475 248.448 L
232.133 248.364 L
233.468 248.27 L
234.705 248.169 L
236.154 248.041 L
237.917 247.879 L
239.714 247.716 L
241.195 247.589 L
242.432 247.489 L
243.739 247.391 L
245.359 247.283 L
247.206 247.176 L
248.526 247.11 L
249.846 247.053 L
251.452 246.996 L
253.273 246.944 L
254.928 246.907 L
256.265 246.884 L
257.506 246.868 L
258.956 246.854 L
260.717 246.842 L
262.51 246.836 L
263.99 246.833 L
265.23 246.833 L
266.541 246.835 L
268.16 246.837 L
270.004 246.842 L
271.325 246.846 L
272.645 246.85 L
274.251 246.854 L
276.07 246.86 L
277.724 246.864 L
S
GR
GS
[0.75 0 0 0.75 0 0] CT
0.851 0.325 0.098 RC
1 LJ
0.667 LW
N
276.07 246.86 M
277.724 246.864 L
279.062 246.867 L
280.305 246.87 L
281.756 246.873 L
283.515 246.876 L
285.306 246.879 L
286.786 246.881 L
288.028 246.882 L
289.339 246.883 L
290 246.884 L
290 246.884 L
290 246.884 L
290.656 248.209 L
291.312 251.478 L
292.29 258.024 L
293.529 266.22 L
295.236 273.483 L
297.33 274.571 L
298.488 272.378 L
299.647 269.061 L
301.28 263.636 L
303.321 257.179 L
304.568 253.875 L
305.816 251.163 L
307.453 248.467 L
309.391 246.346 L
310.674 245.439 L
311.958 244.833 L
313.58 244.395 L
315.462 244.218 L
316.769 244.243 L
318.076 244.354 L
319.689 244.577 L
321.532 244.905 L
322.857 245.168 L
324.183 245.44 L
325.788 245.767 L
327.6 246.12 L
329.25 246.415 L
330.591 246.632 L
331.839 246.813 L
333.293 246.998 L
335.049 247.186 L
336.834 247.337 L
338.313 247.435 L
339.558 247.5 L
340.874 247.553 L
342.495 247.598 L
344.333 247.628 L
345.985 247.637 L
347.306 247.636 L
S
GR
GS
[0.75 0 0 0.75 0 0] CT
0.851 0.325 0.098 RC
1 LJ
0.667 LW
N
345.985 247.637 M
347.306 247.636 L
348.538 247.629 L
349.994 247.615 L
351.771 247.592 L
353.57 247.563 L
355.039 247.538 L
356.267 247.516 L
357.577 247.492 L
359.207 247.463 L
361.063 247.431 L
362.372 247.409 L
363.682 247.389 L
365.289 247.366 L
367.124 247.341 L
368.788 247.321 L
370.12 247.307 L
371.35 247.294 L
372.794 247.281 L
374.562 247.267 L
376.367 247.254 L
377.849 247.244 L
379.082 247.237 L
380.384 247.231 L
382.001 247.223 L
383.854 247.215 L
385.174 247.21 L
386.493 247.206 L
388.1 247.201 L
389.923 247.196 L
391.577 247.192 L
392.913 247.189 L
394.154 247.186 L
395.604 247.183 L
397.367 247.18 L
399.16 247.177 L
400.639 247.174 L
401.878 247.172 L
403.189 247.17 L
404.809 247.168 L
406.654 247.166 L
407.974 247.164 L
409.293 247.162 L
410.899 247.16 L
412.719 247.158 L
414.374 247.157 L
415.712 247.155 L
416.954 247.154 L
418.404 247.153 L
420.164 247.151 L
421.956 247.15 L
423.437 247.149 L
S
GR
GS
[0.75 0 0 0.75 0 0] CT
0.851 0.325 0.098 RC
1 LJ
0.667 LW
N
421.956 247.15 M
423.437 247.149 L
424.677 247.148 L
425.988 247.147 L
427.607 247.146 L
429.451 247.145 L
430.772 247.144 L
432.093 247.144 L
433.698 247.143 L
435.516 247.142 L
437.17 247.141 L
438.509 247.141 L
439.752 247.14 L
441.203 247.14 L
442.962 247.139 L
444.753 247.139 L
446.233 247.138 L
447.475 247.138 L
448.787 247.137 L
450.406 247.137 L
452.248 247.137 L
453.569 247.136 L
454.891 247.136 L
456.496 247.136 L
458.313 247.135 L
459.967 247.135 L
461.306 247.135 L
462.55 247.135 L
464.001 247.134 L
465.76 247.134 L
467.55 247.134 L
469.03 247.134 L
470.272 247.134 L
471.584 247.133 L
473.203 247.133 L
475.045 247.133 L
476.367 247.133 L
477.688 247.133 L
479.293 247.133 L
481.11 247.133 L
482.764 247.133 L
484.103 247.132 L
485.347 247.132 L
486.798 247.132 L
488.557 247.132 L
490.347 247.132 L
491.827 247.132 L
493.069 247.132 L
494.382 247.132 L
496.001 247.132 L
497.842 247.132 L
499.164 247.132 L
S
GR
GS
[0.75 0 0 0.75 0 0] CT
0.851 0.325 0.098 RC
1 LJ
0.667 LW
N
497.842 247.132 M
499.164 247.132 L
500.485 247.132 L
502.09 247.132 L
503.907 247.132 L
505.561 247.132 L
507 247.132 L
S
GR
GS
[0.75 0 0 0.75 0 0] CT
0.929 0.694 0.125 RC
1 LJ
0.667 LW
N
73 271.1 M
73.362 271.1 L
73.362 271.1 L
73.362 271.1 L
73.554 237.755 L
73.714 212.504 L
73.96 178.046 L
74.259 142.377 L
74.665 104.267 L
75.175 70.634 L
75.776 47.761 L
76.481 38.392 L
77.306 43.805 L
78.431 66.882 L
79.83 103.316 L
81.468 140.333 L
83.386 167.59 L
85.245 179.623 L
86.728 183.024 L
88.211 183.861 L
89.79 183.932 L
91.389 184.264 L
92.904 185.174 L
94.334 186.534 L
95.778 188.236 L
97.321 190.214 L
98.936 192.267 L
100.503 194.111 L
101.957 195.632 L
103.37 196.917 L
104.86 198.068 L
106.463 199.089 L
108.078 199.913 L
109.581 200.519 L
110.987 200.966 L
112.421 201.318 L
113.982 201.599 L
115.624 201.801 L
117.192 201.919 L
118.622 201.976 L
120.013 201.994 L
121.51 201.983 L
123.144 201.943 L
124.776 201.883 L
126.262 201.818 L
127.638 201.753 L
129.065 201.684 L
130.651 201.607 L
132.323 201.531 L
133.889 201.464 L
S
GR
GS
[0.75 0 0 0.75 0 0] CT
0.929 0.694 0.125 RC
1 LJ
0.667 LW
N
132.323 201.531 M
133.889 201.464 L
135.289 201.41 L
136.658 201.362 L
138.166 201.315 L
139.836 201.27 L
141.484 201.234 L
142.948 201.207 L
144.293 201.187 L
145.713 201.169 L
147.329 201.154 L
149.034 201.142 L
150.594 201.134 L
151.961 201.13 L
153.308 201.127 L
154.831 201.125 L
156.54 201.125 L
158.203 201.126 L
159.641 201.127 L
160.953 201.129 L
162.37 201.131 L
164.019 201.134 L
165.757 201.136 L
167.307 201.139 L
168.639 201.141 L
169.966 201.142 L
171.506 201.144 L
173.255 201.146 L
174.931 201.148 L
176.342 201.149 L
177.623 201.15 L
179.038 201.15 L
180.72 201.151 L
181.5 201.151 L
181.5 201.151 L
181.5 201.151 L
181.926 204.455 L
182.352 207.838 L
182.961 212.745 L
183.674 218.498 L
184.589 225.665 L
185.795 234.363 L
187.444 244.23 L
189.451 252.59 L
190.723 255.885 L
191.994 257.841 L
193.632 258.758 L
195.543 258.145 L
196.83 257.031 L
198.117 255.547 L
199.735 253.356 L
201.608 250.607 L
S
GR
GS
[0.75 0 0 0.75 0 0] CT
0.929 0.694 0.125 RC
1 LJ
0.667 LW
N
199.735 253.356 M
201.608 250.607 L
202.921 248.656 L
204.234 246.747 L
205.845 244.519 L
207.679 242.193 L
209.338 240.317 L
210.667 238.98 L
211.899 237.875 L
213.348 236.738 L
215.118 235.575 L
216.92 234.628 L
218.397 234.012 L
219.629 233.596 L
220.935 233.242 L
222.556 232.91 L
224.41 232.655 L
225.726 232.539 L
227.042 232.467 L
228.649 232.427 L
230.475 232.432 L
232.133 232.469 L
233.468 232.514 L
234.705 232.564 L
236.154 232.63 L
237.917 232.713 L
239.714 232.798 L
241.195 232.865 L
242.432 232.918 L
243.739 232.97 L
245.359 233.028 L
247.206 233.086 L
248.526 233.121 L
249.846 233.152 L
251.452 233.183 L
253.273 233.212 L
254.928 233.232 L
256.265 233.245 L
257.506 233.254 L
258.956 233.263 L
260.717 233.269 L
262.51 233.273 L
263.99 233.275 L
265.23 233.275 L
266.541 233.275 L
268.16 233.273 L
270.004 233.271 L
271.325 233.269 L
272.645 233.267 L
274.251 233.265 L
276.07 233.262 L
277.724 233.26 L
S
GR
GS
[0.75 0 0 0.75 0 0] CT
0.929 0.694 0.125 RC
1 LJ
0.667 LW
N
276.07 233.262 M
277.724 233.26 L
279.062 233.258 L
280.305 233.256 L
281.756 233.255 L
283.515 233.253 L
285.306 233.252 L
286.786 233.251 L
288.028 233.25 L
289.339 233.249 L
290 233.249 L
290 61.749 L
290 61.749 L
290.656 66.523 L
291.312 78.51 L
292.29 103.605 L
293.529 138.53 L
295.236 179.753 L
297.33 211.619 L
298.488 221.332 L
299.647 227.036 L
301.28 230.742 L
303.321 231.954 L
304.568 232.084 L
305.816 232.178 L
307.453 232.437 L
309.391 232.938 L
310.674 233.308 L
311.958 233.651 L
313.58 233.993 L
315.462 234.229 L
316.769 234.295 L
318.076 234.292 L
319.689 234.216 L
321.532 234.064 L
322.857 233.931 L
324.183 233.788 L
325.788 233.613 L
327.6 233.424 L
329.25 233.265 L
330.591 233.148 L
331.839 233.051 L
333.293 232.95 L
335.049 232.848 L
336.834 232.765 L
338.313 232.711 L
339.558 232.674 L
340.874 232.644 L
342.495 232.618 L
344.333 232.6 L
345.985 232.593 L
347.306 232.592 L
S
GR
GS
[0.75 0 0 0.75 0 0] CT
0.929 0.694 0.125 RC
1 LJ
0.667 LW
N
345.985 232.593 M
347.306 232.592 L
348.538 232.595 L
349.994 232.601 L
351.771 232.613 L
353.57 232.627 L
355.039 232.64 L
356.267 232.651 L
357.577 232.663 L
359.207 232.678 L
361.063 232.695 L
362.372 232.706 L
363.682 232.717 L
365.289 232.73 L
367.124 232.743 L
368.788 232.753 L
370.12 232.761 L
371.35 232.767 L
372.794 232.775 L
374.562 232.782 L
376.367 232.789 L
377.849 232.794 L
379.082 232.798 L
380.384 232.802 L
382.001 232.806 L
383.854 232.81 L
385.174 232.812 L
386.493 232.815 L
388.1 232.817 L
389.923 232.82 L
391.577 232.822 L
392.913 232.824 L
394.154 232.825 L
395.604 232.827 L
397.367 232.829 L
399.16 232.83 L
400.639 232.832 L
401.878 232.833 L
403.189 232.834 L
404.809 232.835 L
406.654 232.836 L
407.974 232.837 L
409.293 232.838 L
410.899 232.839 L
412.719 232.84 L
414.374 232.841 L
415.712 232.842 L
416.954 232.842 L
418.404 232.843 L
420.164 232.844 L
421.956 232.845 L
423.437 232.845 L
S
GR
GS
[0.75 0 0 0.75 0 0] CT
0.929 0.694 0.125 RC
1 LJ
0.667 LW
N
421.956 232.845 M
423.437 232.845 L
424.677 232.846 L
425.988 232.846 L
427.607 232.847 L
429.451 232.848 L
430.772 232.848 L
432.093 232.848 L
433.698 232.849 L
435.516 232.849 L
437.17 232.85 L
438.509 232.85 L
439.752 232.85 L
441.203 232.851 L
442.962 232.851 L
444.753 232.851 L
446.233 232.852 L
447.475 232.852 L
448.787 232.852 L
450.406 232.852 L
452.248 232.853 L
453.569 232.853 L
454.891 232.853 L
456.496 232.853 L
458.313 232.853 L
459.967 232.853 L
461.306 232.854 L
462.55 232.854 L
464.001 232.854 L
465.76 232.854 L
467.55 232.854 L
469.03 232.854 L
470.272 232.854 L
471.584 232.855 L
473.203 232.855 L
475.045 232.855 L
476.367 232.855 L
477.688 232.855 L
479.293 232.855 L
481.11 232.855 L
482.764 232.855 L
484.103 232.855 L
485.347 232.855 L
486.798 232.855 L
488.557 232.856 L
490.347 232.856 L
491.827 232.856 L
493.069 232.856 L
494.382 232.856 L
496.001 232.856 L
497.842 232.856 L
499.164 232.856 L
S
GR
GS
[0.75 0 0 0.75 0 0] CT
0.929 0.694 0.125 RC
1 LJ
0.667 LW
N
497.842 232.856 M
499.164 232.856 L
500.485 232.856 L
502.09 232.856 L
503.907 232.856 L
505.561 232.856 L
507 232.856 L
S
GR
GS
[0.75 0 0 0.75 0 0] CT
0.494 0.184 0.557 RC
1 LJ
0.667 LW
N
73 271.1 M
73.362 271.1 L
73.362 271.1 L
73.362 271.1 L
73.554 262.023 L
73.714 255.509 L
73.96 247.26 L
74.259 239.78 L
74.665 233.679 L
75.175 231.507 L
75.776 235.08 L
76.481 245.206 L
77.306 261.872 L
78.431 287.516 L
79.83 317.094 L
81.468 342.632 L
83.386 358.753 L
85.245 363.355 L
86.728 362.135 L
88.211 358.552 L
89.79 353.537 L
91.389 348.11 L
92.904 343.092 L
94.334 338.638 L
95.778 334.485 L
97.321 330.446 L
98.936 326.658 L
100.503 323.408 L
101.957 320.756 L
103.37 318.507 L
104.86 316.471 L
106.463 314.642 L
108.078 313.151 L
109.581 312.048 L
110.987 311.237 L
112.421 310.602 L
113.982 310.099 L
115.624 309.748 L
117.192 309.549 L
118.622 309.462 L
120.013 309.443 L
121.51 309.48 L
123.144 309.569 L
124.776 309.692 L
126.262 309.821 L
127.638 309.949 L
129.065 310.083 L
130.651 310.229 L
132.323 310.374 L
133.889 310.5 L
S
GR
GS
[0.75 0 0 0.75 0 0] CT
0.494 0.184 0.557 RC
1 LJ
0.667 LW
N
132.323 310.374 M
133.889 310.5 L
135.289 310.602 L
136.658 310.692 L
138.166 310.779 L
139.836 310.861 L
141.484 310.928 L
142.948 310.977 L
144.293 311.014 L
145.713 311.046 L
147.329 311.074 L
149.034 311.095 L
150.594 311.108 L
151.961 311.116 L
153.308 311.12 L
154.831 311.123 L
156.54 311.122 L
158.203 311.12 L
159.641 311.117 L
160.953 311.114 L
162.37 311.11 L
164.019 311.105 L
165.757 311.099 L
167.307 311.095 L
168.639 311.091 L
169.966 311.088 L
171.506 311.084 L
173.255 311.081 L
174.931 311.078 L
176.342 311.076 L
177.623 311.074 L
179.038 311.073 L
180.72 311.072 L
181.5 311.071 L
181.5 311.071 L
181.5 311.071 L
181.926 299.837 L
182.352 289.45 L
182.961 275.999 L
183.674 262.143 L
184.589 247.087 L
185.795 231.273 L
187.444 215.772 L
189.451 204.292 L
190.723 200.255 L
191.994 198.177 L
193.632 197.786 L
195.543 199.757 L
196.83 202.133 L
198.117 205.086 L
199.735 209.324 L
201.608 214.578 L
S
GR
GS
[0.75 0 0 0.75 0 0] CT
0.494 0.184 0.557 RC
1 LJ
0.667 LW
N
199.735 209.324 M
201.608 214.578 L
202.921 218.291 L
204.234 221.913 L
205.845 226.13 L
207.679 230.514 L
209.338 234.034 L
210.667 236.53 L
211.899 238.585 L
213.348 240.69 L
215.118 242.83 L
216.92 244.562 L
218.397 245.682 L
219.629 246.431 L
220.935 247.065 L
222.556 247.653 L
224.41 248.097 L
225.726 248.293 L
227.042 248.409 L
228.649 248.462 L
230.475 248.435 L
232.133 248.352 L
233.468 248.258 L
234.705 248.157 L
236.154 248.029 L
237.917 247.867 L
239.714 247.704 L
241.195 247.577 L
242.432 247.477 L
243.739 247.379 L
245.359 247.27 L
247.206 247.163 L
248.526 247.098 L
249.846 247.041 L
251.452 246.983 L
253.273 246.93 L
254.928 246.894 L
256.265 246.871 L
257.506 246.854 L
258.956 246.84 L
260.717 246.828 L
262.51 246.822 L
263.99 246.819 L
265.23 246.819 L
266.541 246.821 L
268.16 246.823 L
270.004 246.828 L
271.325 246.832 L
272.645 246.835 L
274.251 246.84 L
276.07 246.846 L
277.724 246.85 L
S
GR
GS
[0.75 0 0 0.75 0 0] CT
0.494 0.184 0.557 RC
1 LJ
0.667 LW
N
276.07 246.846 M
277.724 246.85 L
279.062 246.853 L
280.305 246.856 L
281.756 246.859 L
283.515 246.862 L
285.306 246.865 L
286.786 246.867 L
288.028 246.868 L
289.339 246.869 L
290 246.87 L
290 246.87 L
290 246.87 L
290.656 248.195 L
291.312 251.464 L
292.29 258.011 L
293.529 266.208 L
295.236 273.473 L
297.33 274.564 L
298.488 272.371 L
299.647 269.053 L
301.28 263.626 L
303.321 257.165 L
304.568 253.858 L
305.816 251.144 L
307.453 248.445 L
309.391 246.32 L
310.674 245.411 L
311.958 244.804 L
313.58 244.365 L
315.462 244.186 L
316.769 244.209 L
318.076 244.32 L
319.689 244.542 L
321.532 244.87 L
322.857 245.133 L
324.183 245.405 L
325.788 245.732 L
327.6 246.085 L
329.25 246.38 L
330.591 246.597 L
331.839 246.778 L
333.293 246.964 L
335.049 247.152 L
336.834 247.304 L
338.313 247.402 L
339.558 247.467 L
340.874 247.52 L
342.495 247.565 L
344.333 247.595 L
345.985 247.605 L
347.306 247.603 L
S
GR
GS
[0.75 0 0 0.75 0 0] CT
0.494 0.184 0.557 RC
1 LJ
0.667 LW
N
345.985 247.605 M
347.306 247.603 L
348.538 247.596 L
349.994 247.582 L
351.771 247.559 L
353.57 247.53 L
355.039 247.505 L
356.267 247.483 L
357.577 247.459 L
359.207 247.43 L
361.063 247.398 L
362.372 247.376 L
363.682 247.356 L
365.289 247.332 L
367.124 247.308 L
368.788 247.288 L
370.12 247.273 L
371.35 247.261 L
372.794 247.247 L
374.562 247.233 L
376.367 247.22 L
377.849 247.21 L
379.082 247.203 L
380.384 247.196 L
382.001 247.189 L
383.854 247.181 L
385.174 247.176 L
386.493 247.172 L
388.1 247.167 L
389.923 247.162 L
391.577 247.158 L
392.913 247.154 L
394.154 247.152 L
395.604 247.149 L
397.367 247.145 L
399.16 247.142 L
400.639 247.14 L
401.878 247.138 L
403.189 247.136 L
404.809 247.133 L
406.654 247.131 L
407.974 247.129 L
409.293 247.128 L
410.899 247.126 L
412.719 247.124 L
414.374 247.122 L
415.712 247.121 L
416.954 247.119 L
418.404 247.118 L
420.164 247.117 L
421.956 247.115 L
423.437 247.114 L
S
GR
GS
[0.75 0 0 0.75 0 0] CT
0.494 0.184 0.557 RC
1 LJ
0.667 LW
N
421.956 247.115 M
423.437 247.114 L
424.677 247.113 L
425.988 247.112 L
427.607 247.111 L
429.451 247.11 L
430.772 247.109 L
432.093 247.109 L
433.698 247.108 L
435.516 247.107 L
437.17 247.106 L
438.509 247.105 L
439.752 247.105 L
441.203 247.104 L
442.962 247.104 L
444.753 247.103 L
446.233 247.103 L
447.475 247.102 L
448.787 247.102 L
450.406 247.102 L
452.248 247.101 L
453.569 247.101 L
454.891 247.1 L
456.496 247.1 L
458.313 247.1 L
459.967 247.1 L
461.306 247.099 L
462.55 247.099 L
464.001 247.099 L
465.76 247.099 L
467.55 247.098 L
469.03 247.098 L
470.272 247.098 L
471.584 247.098 L
473.203 247.098 L
475.045 247.097 L
476.367 247.097 L
477.688 247.097 L
479.293 247.097 L
481.11 247.097 L
482.764 247.097 L
484.103 247.097 L
485.347 247.097 L
486.798 247.096 L
488.557 247.096 L
490.347 247.096 L
491.827 247.096 L
493.069 247.096 L
494.382 247.096 L
496.001 247.096 L
497.842 247.096 L
499.164 247.096 L
S
GR
GS
[0.75 0 0 0.75 0 0] CT
0.494 0.184 0.557 RC
1 LJ
0.667 LW
N
497.842 247.096 M
499.164 247.096 L
500.485 247.096 L
502.09 247.096 L
503.907 247.096 L
505.561 247.095 L
507 247.095 L
S
GR
GS
[0.75 0 0 0.75 0 0] CT
1 GC
N
418 132 M
418 44 L
494 44 L
494 132 L
cp
f
GR
GS
[0.75 0 0 0.75 352.5 44.25] CT
/Helvetica 12 F
GS
[1 0 0 1 0 0] CT
0 0 moveto 
1 -1 scale
(u1) t 
GR
GR
GS
[0.75 0 0 0.75 363 48.75] CT
/Helvetica 9 F
GS
[1 0 0 1 0 0] CT
0 0 moveto 
1 -1 scale
(1) t 
GR
GR
GS
[0.75 0 0 0.75 0 0] CT
0 0.447 0.741 RC
1 LJ
0.667 LW
N
426 56.763 M
466 56.763 L
S
GR
GS
[0.75 0 0 0.75 352.5 60] CT
/Helvetica 12 F
GS
[1 0 0 1 0 0] CT
0 0 moveto 
1 -1 scale
(u2) t 
GR
GR
GS
[0.75 0 0 0.75 363 64.5] CT
/Helvetica 9 F
GS
[1 0 0 1 0 0] CT
0 0 moveto 
1 -1 scale
(1) t 
GR
GR
GS
[0.75 0 0 0.75 0 0] CT
0.851 0.325 0.098 RC
1 LJ
0.667 LW
N
426 77.588 M
466 77.588 L
S
GR
GS
[0.75 0 0 0.75 352.5 75] CT
/Helvetica 12 F
GS
[1 0 0 1 0 0] CT
0 0 moveto 
1 -1 scale
(u1) t 
GR
GR
GS
[0.75 0 0 0.75 363 79.5] CT
/Helvetica 9 F
GS
[1 0 0 1 0 0] CT
0 0 moveto 
1 -1 scale
(2) t 
GR
GR
GS
[0.75 0 0 0.75 0 0] CT
0.929 0.694 0.125 RC
1 LJ
0.667 LW
N
426 98.412 M
466 98.412 L
S
GR
GS
[0.75 0 0 0.75 352.5 90.75] CT
/Helvetica 12 F
GS
[1 0 0 1 0 0] CT
0 0 moveto 
1 -1 scale
(u2) t 
GR
GR
GS
[0.75 0 0 0.75 363 95.25] CT
/Helvetica 9 F
GS
[1 0 0 1 0 0] CT
0 0 moveto 
1 -1 scale
(2) t 
GR
GR
GS
[0.75 0 0 0.75 0 0] CT
0.494 0.184 0.557 RC
1 LJ
0.667 LW
N
426 119.237 M
466 119.237 L
S
GR
GS
[0.75 0 0 0.75 0 0] CT
0.149 GC
10.0 ML
0.667 LW
N
418 132 M
418 44 L
494 44 L
494 132 L
cp
S
GR
%%Trailer
%%Pages: 1
%%EOF
