%!PS-Adobe-3.0 EPSF-3.0
%%Creator: (MATLAB, The Mathworks, Inc. Version 8.6.0.267246 \(R2015b\). Operating System: Windows 8)
%%Title: E:/Projects/skola/rls/pics/SP5/k2d_w1_sigma.eps
%%CreationDate: 2017-03-17T10:07:56
%%Pages: (atend)
%%BoundingBox: 0 0 420 315
%%LanguageLevel: 2
%%EndComments
%%BeginProlog
%%BeginResource: procset (Apache XML Graphics Std ProcSet) 1.2 0
%%Version: 1.2 0
%%Copyright: (Copyright 2001-2003,2010 The Apache Software Foundation. License terms: http://www.apache.org/licenses/LICENSE-2.0)
/bd{bind def}bind def
/ld{load def}bd
/GR/grestore ld
/M/moveto ld
/LJ/setlinejoin ld
/C/curveto ld
/f/fill ld
/LW/setlinewidth ld
/GC/setgray ld
/t/show ld
/N/newpath ld
/CT/concat ld
/cp/closepath ld
/S/stroke ld
/L/lineto ld
/CC/setcmykcolor ld
/A/ashow ld
/GS/gsave ld
/RC/setrgbcolor ld
/RM/rmoveto ld
/ML/setmiterlimit ld
/re {4 2 roll M
1 index 0 rlineto
0 exch rlineto
neg 0 rlineto
cp } bd
/_ctm matrix def
/_tm matrix def
/BT { _ctm currentmatrix pop matrix _tm copy pop 0 0 moveto } bd
/ET { _ctm setmatrix } bd
/iTm { _ctm setmatrix _tm concat } bd
/Tm { _tm astore pop iTm 0 0 moveto } bd
/ux 0.0 def
/uy 0.0 def
/F {
  /Tp exch def
  /Tf exch def
  Tf findfont Tp scalefont setfont
  /cf Tf def  /cs Tp def
} bd
/ULS {currentpoint /uy exch def /ux exch def} bd
/ULE {
  /Tcx currentpoint pop def
  gsave
  newpath
  cf findfont cs scalefont dup
  /FontMatrix get 0 get /Ts exch def /FontInfo get dup
  /UnderlinePosition get Ts mul /To exch def
  /UnderlineThickness get Ts mul /Tt exch def
  ux uy To add moveto  Tcx uy To add lineto
  Tt setlinewidth stroke
  grestore
} bd
/OLE {
  /Tcx currentpoint pop def
  gsave
  newpath
  cf findfont cs scalefont dup
  /FontMatrix get 0 get /Ts exch def /FontInfo get dup
  /UnderlinePosition get Ts mul /To exch def
  /UnderlineThickness get Ts mul /Tt exch def
  ux uy To add cs add moveto Tcx uy To add cs add lineto
  Tt setlinewidth stroke
  grestore
} bd
/SOE {
  /Tcx currentpoint pop def
  gsave
  newpath
  cf findfont cs scalefont dup
  /FontMatrix get 0 get /Ts exch def /FontInfo get dup
  /UnderlinePosition get Ts mul /To exch def
  /UnderlineThickness get Ts mul /Tt exch def
  ux uy To add cs 10 mul 26 idiv add moveto Tcx uy To add cs 10 mul 26 idiv add lineto
  Tt setlinewidth stroke
  grestore
} bd
/QT {
/Y22 exch store
/X22 exch store
/Y21 exch store
/X21 exch store
currentpoint
/Y21 load 2 mul add 3 div exch
/X21 load 2 mul add 3 div exch
/X21 load 2 mul /X22 load add 3 div
/Y21 load 2 mul /Y22 load add 3 div
/X22 load /Y22 load curveto
} bd
/SSPD {
dup length /d exch dict def
{
/v exch def
/k exch def
currentpagedevice k known {
/cpdv currentpagedevice k get def
v cpdv ne {
/upd false def
/nullv v type /nulltype eq def
/nullcpdv cpdv type /nulltype eq def
nullv nullcpdv or
{
/upd true def
} {
/sametype v type cpdv type eq def
sametype {
v type /arraytype eq {
/vlen v length def
/cpdvlen cpdv length def
vlen cpdvlen eq {
0 1 vlen 1 sub {
/i exch def
/obj v i get def
/cpdobj cpdv i get def
obj cpdobj ne {
/upd true def
exit
} if
} for
} {
/upd true def
} ifelse
} {
v type /dicttype eq {
v {
/dv exch def
/dk exch def
/cpddv cpdv dk get def
dv cpddv ne {
/upd true def
exit
} if
} forall
} {
/upd true def
} ifelse
} ifelse
} if
} ifelse
upd true eq {
d k v put
} if
} if
} if
} forall
d length 0 gt {
d setpagedevice
} if
} bd
%%EndResource
%%BeginResource: procset (Apache XML Graphics EPS ProcSet) 1.0 0
%%Version: 1.0 0
%%Copyright: (Copyright 2002-2003 The Apache Software Foundation. License terms: http://www.apache.org/licenses/LICENSE-2.0)
/BeginEPSF { %def
/b4_Inc_state save def         % Save state for cleanup
/dict_count countdictstack def % Count objects on dict stack
/op_count count 1 sub def      % Count objects on operand stack
userdict begin                 % Push userdict on dict stack
/showpage { } def              % Redefine showpage, { } = null proc
0 setgray 0 setlinecap         % Prepare graphics state
1 setlinewidth 0 setlinejoin
10 setmiterlimit [ ] 0 setdash newpath
/languagelevel where           % If level not equal to 1 then
{pop languagelevel             % set strokeadjust and
1 ne                           % overprint to their defaults.
{false setstrokeadjust false setoverprint
} if
} if
} bd
/EndEPSF { %def
count op_count sub {pop} repeat            % Clean up stacks
countdictstack dict_count sub {end} repeat
b4_Inc_state restore
} bd
%%EndResource
%FOPBeginFontDict
%%IncludeResource: font Courier-Bold
%%IncludeResource: font Helvetica
%%IncludeResource: font Courier-BoldOblique
%%IncludeResource: font Courier-Oblique
%%IncludeResource: font Times-Roman
%%IncludeResource: font Helvetica-BoldOblique
%%IncludeResource: font Helvetica-Bold
%%IncludeResource: font Helvetica-Oblique
%%IncludeResource: font Times-BoldItalic
%%IncludeResource: font Courier
%%IncludeResource: font Times-Italic
%%IncludeResource: font Times-Bold
%%IncludeResource: font Symbol
%%IncludeResource: font ZapfDingbats
%FOPEndFontDict
%%BeginResource: encoding WinAnsiEncoding
/WinAnsiEncoding [
/.notdef /.notdef /.notdef /.notdef /.notdef
/.notdef /.notdef /.notdef /.notdef /.notdef
/.notdef /.notdef /.notdef /.notdef /.notdef
/.notdef /.notdef /.notdef /.notdef /.notdef
/.notdef /.notdef /.notdef /.notdef /.notdef
/.notdef /.notdef /.notdef /.notdef /.notdef
/.notdef /.notdef /space /exclam /quotedbl
/numbersign /dollar /percent /ampersand /quotesingle
/parenleft /parenright /asterisk /plus /comma
/hyphen /period /slash /zero /one
/two /three /four /five /six
/seven /eight /nine /colon /semicolon
/less /equal /greater /question /at
/A /B /C /D /E
/F /G /H /I /J
/K /L /M /N /O
/P /Q /R /S /T
/U /V /W /X /Y
/Z /bracketleft /backslash /bracketright /asciicircum
/underscore /quoteleft /a /b /c
/d /e /f /g /h
/i /j /k /l /m
/n /o /p /q /r
/s /t /u /v /w
/x /y /z /braceleft /bar
/braceright /asciitilde /bullet /Euro /bullet
/quotesinglbase /florin /quotedblbase /ellipsis /dagger
/daggerdbl /circumflex /perthousand /Scaron /guilsinglleft
/OE /bullet /Zcaron /bullet /bullet
/quoteleft /quoteright /quotedblleft /quotedblright /bullet
/endash /emdash /asciitilde /trademark /scaron
/guilsinglright /oe /bullet /zcaron /Ydieresis
/space /exclamdown /cent /sterling /currency
/yen /brokenbar /section /dieresis /copyright
/ordfeminine /guillemotleft /logicalnot /sfthyphen /registered
/macron /degree /plusminus /twosuperior /threesuperior
/acute /mu /paragraph /middot /cedilla
/onesuperior /ordmasculine /guillemotright /onequarter /onehalf
/threequarters /questiondown /Agrave /Aacute /Acircumflex
/Atilde /Adieresis /Aring /AE /Ccedilla
/Egrave /Eacute /Ecircumflex /Edieresis /Igrave
/Iacute /Icircumflex /Idieresis /Eth /Ntilde
/Ograve /Oacute /Ocircumflex /Otilde /Odieresis
/multiply /Oslash /Ugrave /Uacute /Ucircumflex
/Udieresis /Yacute /Thorn /germandbls /agrave
/aacute /acircumflex /atilde /adieresis /aring
/ae /ccedilla /egrave /eacute /ecircumflex
/edieresis /igrave /iacute /icircumflex /idieresis
/eth /ntilde /ograve /oacute /ocircumflex
/otilde /odieresis /divide /oslash /ugrave
/uacute /ucircumflex /udieresis /yacute /thorn
/ydieresis
] def
%%EndResource
%FOPBeginFontReencode
/Courier-Bold findfont
dup length dict begin
  {1 index /FID ne {def} {pop pop} ifelse} forall
  /Encoding WinAnsiEncoding def
  currentdict
end
/Courier-Bold exch definefont pop
/Helvetica findfont
dup length dict begin
  {1 index /FID ne {def} {pop pop} ifelse} forall
  /Encoding WinAnsiEncoding def
  currentdict
end
/Helvetica exch definefont pop
/Courier-BoldOblique findfont
dup length dict begin
  {1 index /FID ne {def} {pop pop} ifelse} forall
  /Encoding WinAnsiEncoding def
  currentdict
end
/Courier-BoldOblique exch definefont pop
/Courier-Oblique findfont
dup length dict begin
  {1 index /FID ne {def} {pop pop} ifelse} forall
  /Encoding WinAnsiEncoding def
  currentdict
end
/Courier-Oblique exch definefont pop
/Times-Roman findfont
dup length dict begin
  {1 index /FID ne {def} {pop pop} ifelse} forall
  /Encoding WinAnsiEncoding def
  currentdict
end
/Times-Roman exch definefont pop
/Helvetica-BoldOblique findfont
dup length dict begin
  {1 index /FID ne {def} {pop pop} ifelse} forall
  /Encoding WinAnsiEncoding def
  currentdict
end
/Helvetica-BoldOblique exch definefont pop
/Helvetica-Bold findfont
dup length dict begin
  {1 index /FID ne {def} {pop pop} ifelse} forall
  /Encoding WinAnsiEncoding def
  currentdict
end
/Helvetica-Bold exch definefont pop
/Helvetica-Oblique findfont
dup length dict begin
  {1 index /FID ne {def} {pop pop} ifelse} forall
  /Encoding WinAnsiEncoding def
  currentdict
end
/Helvetica-Oblique exch definefont pop
/Times-BoldItalic findfont
dup length dict begin
  {1 index /FID ne {def} {pop pop} ifelse} forall
  /Encoding WinAnsiEncoding def
  currentdict
end
/Times-BoldItalic exch definefont pop
/Courier findfont
dup length dict begin
  {1 index /FID ne {def} {pop pop} ifelse} forall
  /Encoding WinAnsiEncoding def
  currentdict
end
/Courier exch definefont pop
/Times-Italic findfont
dup length dict begin
  {1 index /FID ne {def} {pop pop} ifelse} forall
  /Encoding WinAnsiEncoding def
  currentdict
end
/Times-Italic exch definefont pop
/Times-Bold findfont
dup length dict begin
  {1 index /FID ne {def} {pop pop} ifelse} forall
  /Encoding WinAnsiEncoding def
  currentdict
end
/Times-Bold exch definefont pop
%FOPEndFontReencode
%%EndProlog
%%Page: 1 1
%%PageBoundingBox: 0 0 420 315
%%BeginPageSetup
[1 0 0 -1 0 315] CT
%%EndPageSetup
GS
[0.75 0 0 0.75 0 0] CT
1 GC
N
0 0 560 420 re
f
GR
GS
[0.75 0 0 0.75 0 0] CT
1 GC
N
0 0 560 420 re
f
GR
GS
[0.75 0 0 0.75 0 0] CT
1 GC
N
85 374 M
507 374 L
507 51 L
85 51 L
cp
f
GR
GS
[0.75 0 0 0.75 0 0] CT
0.4 GC
2 setlinecap
1 LJ
0.667 LW
N
85 374 M
507 374 L
S
GR
GS
[0.75 0 0 0.75 0 0] CT
0.4 GC
2 setlinecap
1 LJ
0.667 LW
N
85 51 M
507 51 L
S
GR
GS
[0.75 0 0 0.75 0 0] CT
0.4 GC
2 setlinecap
1 LJ
0.667 LW
N
85 374 M
85 369.78 L
S
GR
GS
[0.75 0 0 0.75 0 0] CT
0.4 GC
2 setlinecap
1 LJ
0.667 LW
N
190.5 374 M
190.5 369.78 L
S
GR
GS
[0.75 0 0 0.75 0 0] CT
0.4 GC
2 setlinecap
1 LJ
0.667 LW
N
296 374 M
296 369.78 L
S
GR
GS
[0.75 0 0 0.75 0 0] CT
0.4 GC
2 setlinecap
1 LJ
0.667 LW
N
401.5 374 M
401.5 369.78 L
S
GR
GS
[0.75 0 0 0.75 0 0] CT
0.4 GC
2 setlinecap
1 LJ
0.667 LW
N
507 374 M
507 369.78 L
S
GR
GS
[0.75 0 0 0.75 0 0] CT
0.4 GC
2 setlinecap
1 LJ
0.667 LW
N
85 51 M
85 55.22 L
S
GR
GS
[0.75 0 0 0.75 0 0] CT
0.4 GC
2 setlinecap
1 LJ
0.667 LW
N
190.5 51 M
190.5 55.22 L
S
GR
GS
[0.75 0 0 0.75 0 0] CT
0.4 GC
2 setlinecap
1 LJ
0.667 LW
N
296 51 M
296 55.22 L
S
GR
GS
[0.75 0 0 0.75 0 0] CT
0.4 GC
2 setlinecap
1 LJ
0.667 LW
N
401.5 51 M
401.5 55.22 L
S
GR
GS
[0.75 0 0 0.75 0 0] CT
0.4 GC
2 setlinecap
1 LJ
0.667 LW
N
507 51 M
507 55.22 L
S
GR
GS
[0.75 0 0 0.75 54 297] CT
0.4 GC
/Helvetica 13 F
GS
[1 0 0 1 0 0] CT
0 0 moveto 
1 -1 scale
(10) t 
GR
GR
GS
[0.75 0 0 0.75 65.25 292.5] CT
0.4 GC
/Helvetica 11 F
GS
[1 0 0 1 0 0] CT
0 0 moveto 
1 -1 scale
(-6) t 
GR
GR
GS
[0.75 0 0 0.75 133.5 297] CT
0.4 GC
/Helvetica 13 F
GS
[1 0 0 1 0 0] CT
0 0 moveto 
1 -1 scale
(10) t 
GR
GR
GS
[0.75 0 0 0.75 144.75 292.5] CT
0.4 GC
/Helvetica 11 F
GS
[1 0 0 1 0 0] CT
0 0 moveto 
1 -1 scale
(-4) t 
GR
GR
GS
[0.75 0 0 0.75 212.25 297] CT
0.4 GC
/Helvetica 13 F
GS
[1 0 0 1 0 0] CT
0 0 moveto 
1 -1 scale
(10) t 
GR
GR
GS
[0.75 0 0 0.75 223.5 292.5] CT
0.4 GC
/Helvetica 11 F
GS
[1 0 0 1 0 0] CT
0 0 moveto 
1 -1 scale
(-2) t 
GR
GR
GS
[0.75 0 0 0.75 293.25 297] CT
0.4 GC
/Helvetica 13 F
GS
[1 0 0 1 0 0] CT
0 0 moveto 
1 -1 scale
(10) t 
GR
GR
GS
[0.75 0 0 0.75 304.5 292.5] CT
0.4 GC
/Helvetica 11 F
GS
[1 0 0 1 0 0] CT
0 0 moveto 
1 -1 scale
(0) t 
GR
GR
GS
[0.75 0 0 0.75 372 297] CT
0.4 GC
/Helvetica 13 F
GS
[1 0 0 1 0 0] CT
0 0 moveto 
1 -1 scale
(10) t 
GR
GR
GS
[0.75 0 0 0.75 383.25 292.5] CT
0.4 GC
/Helvetica 11 F
GS
[1 0 0 1 0 0] CT
0 0 moveto 
1 -1 scale
(2) t 
GR
GR
GS
[0.75 0 0 0.75 0 0] CT
0.4 GC
2 setlinecap
1 LJ
0.667 LW
N
85 374 M
85 51 L
S
GR
GS
[0.75 0 0 0.75 0 0] CT
0.4 GC
2 setlinecap
1 LJ
0.667 LW
N
507 374 M
507 51 L
S
GR
GS
[0.75 0 0 0.75 0 0] CT
0.4 GC
2 setlinecap
1 LJ
0.667 LW
N
85 374 M
89.22 374 L
S
GR
GS
[0.75 0 0 0.75 0 0] CT
0.4 GC
2 setlinecap
1 LJ
0.667 LW
N
85 338.111 M
89.22 338.111 L
S
GR
GS
[0.75 0 0 0.75 0 0] CT
0.4 GC
2 setlinecap
1 LJ
0.667 LW
N
85 302.222 M
89.22 302.222 L
S
GR
GS
[0.75 0 0 0.75 0 0] CT
0.4 GC
2 setlinecap
1 LJ
0.667 LW
N
85 266.333 M
89.22 266.333 L
S
GR
GS
[0.75 0 0 0.75 0 0] CT
0.4 GC
2 setlinecap
1 LJ
0.667 LW
N
85 230.444 M
89.22 230.444 L
S
GR
GS
[0.75 0 0 0.75 0 0] CT
0.4 GC
2 setlinecap
1 LJ
0.667 LW
N
85 194.556 M
89.22 194.556 L
S
GR
GS
[0.75 0 0 0.75 0 0] CT
0.4 GC
2 setlinecap
1 LJ
0.667 LW
N
85 158.667 M
89.22 158.667 L
S
GR
GS
[0.75 0 0 0.75 0 0] CT
0.4 GC
2 setlinecap
1 LJ
0.667 LW
N
85 122.778 M
89.22 122.778 L
S
GR
GS
[0.75 0 0 0.75 0 0] CT
0.4 GC
2 setlinecap
1 LJ
0.667 LW
N
85 86.889 M
89.22 86.889 L
S
GR
GS
[0.75 0 0 0.75 0 0] CT
0.4 GC
2 setlinecap
1 LJ
0.667 LW
N
85 51 M
89.22 51 L
S
GR
GS
[0.75 0 0 0.75 0 0] CT
0.4 GC
2 setlinecap
1 LJ
0.667 LW
N
507 374 M
502.78 374 L
S
GR
GS
[0.75 0 0 0.75 0 0] CT
0.4 GC
2 setlinecap
1 LJ
0.667 LW
N
507 338.111 M
502.78 338.111 L
S
GR
GS
[0.75 0 0 0.75 0 0] CT
0.4 GC
2 setlinecap
1 LJ
0.667 LW
N
507 302.222 M
502.78 302.222 L
S
GR
GS
[0.75 0 0 0.75 0 0] CT
0.4 GC
2 setlinecap
1 LJ
0.667 LW
N
507 266.333 M
502.78 266.333 L
S
GR
GS
[0.75 0 0 0.75 0 0] CT
0.4 GC
2 setlinecap
1 LJ
0.667 LW
N
507 230.444 M
502.78 230.444 L
S
GR
GS
[0.75 0 0 0.75 0 0] CT
0.4 GC
2 setlinecap
1 LJ
0.667 LW
N
507 194.556 M
502.78 194.556 L
S
GR
GS
[0.75 0 0 0.75 0 0] CT
0.4 GC
2 setlinecap
1 LJ
0.667 LW
N
507 158.667 M
502.78 158.667 L
S
GR
GS
[0.75 0 0 0.75 0 0] CT
0.4 GC
2 setlinecap
1 LJ
0.667 LW
N
507 122.778 M
502.78 122.778 L
S
GR
GS
[0.75 0 0 0.75 0 0] CT
0.4 GC
2 setlinecap
1 LJ
0.667 LW
N
507 86.889 M
502.78 86.889 L
S
GR
GS
[0.75 0 0 0.75 0 0] CT
0.4 GC
2 setlinecap
1 LJ
0.667 LW
N
507 51 M
502.78 51 L
S
GR
GS
[0.75 0 0 0.75 59.75 280.5] CT
0.4 GC
/Helvetica 13 F
GS
[1 0 0 1 0 0] CT
-19 5 moveto 
1 -1 scale
(-80) t 
GR
GR
GS
[0.75 0 0 0.75 59.75 253.58334] CT
0.4 GC
/Helvetica 13 F
GS
[1 0 0 1 0 0] CT
-19 5 moveto 
1 -1 scale
(-70) t 
GR
GR
GS
[0.75 0 0 0.75 59.75 226.66667] CT
0.4 GC
/Helvetica 13 F
GS
[1 0 0 1 0 0] CT
-19 5 moveto 
1 -1 scale
(-60) t 
GR
GR
GS
[0.75 0 0 0.75 59.75 199.75001] CT
0.4 GC
/Helvetica 13 F
GS
[1 0 0 1 0 0] CT
-19 5 moveto 
1 -1 scale
(-50) t 
GR
GR
GS
[0.75 0 0 0.75 59.75 172.83333] CT
0.4 GC
/Helvetica 13 F
GS
[1 0 0 1 0 0] CT
-19 5 moveto 
1 -1 scale
(-40) t 
GR
GR
GS
[0.75 0 0 0.75 59.75 145.91666] CT
0.4 GC
/Helvetica 13 F
GS
[1 0 0 1 0 0] CT
-19 5 moveto 
1 -1 scale
(-30) t 
GR
GR
GS
[0.75 0 0 0.75 59.75 118.99999] CT
0.4 GC
/Helvetica 13 F
GS
[1 0 0 1 0 0] CT
-19 5 moveto 
1 -1 scale
(-20) t 
GR
GR
GS
[0.75 0 0 0.75 59.75 92.08333] CT
0.4 GC
/Helvetica 13 F
GS
[1 0 0 1 0 0] CT
-19 5 moveto 
1 -1 scale
(-10) t 
GR
GR
GS
[0.75 0 0 0.75 59.75 65.16666] CT
0.4 GC
/Helvetica 13 F
GS
[1 0 0 1 0 0] CT
-8 5 moveto 
1 -1 scale
(0) t 
GR
GR
GS
[0.75 0 0 0.75 59.75 38.25] CT
0.4 GC
/Helvetica 13 F
GS
[1 0 0 1 0 0] CT
-15 5 moveto 
1 -1 scale
(10) t 
GR
GR
GS
[0.75 0 0 0.75 0 0] CT
0 0.447 0.741 RC
1 LJ
0.667 LW
N
84.958 373.997 M
116.759 373.994 L
120.29 373.992 L
123.822 373.988 L
127.353 373.984 L
130.885 373.979 L
134.416 373.971 L
137.948 373.96 L
141.479 373.946 L
145.011 373.927 L
148.542 373.9 L
152.074 373.865 L
155.605 373.816 L
159.136 373.75 L
162.668 373.661 L
166.199 373.54 L
169.731 373.377 L
173.262 373.158 L
176.794 372.865 L
180.325 372.474 L
183.857 371.958 L
187.388 371.282 L
190.92 370.406 L
194.451 369.288 L
197.983 367.885 L
201.514 366.158 L
205.046 364.077 L
208.577 361.629 L
212.109 358.816 L
215.64 355.655 L
219.172 352.18 L
222.703 348.429 L
226.235 344.447 L
229.766 340.275 L
233.298 335.952 L
236.829 331.511 L
240.361 326.979 L
243.892 322.377 L
247.424 317.723 L
250.955 313.03 L
254.487 308.308 L
258.018 303.564 L
261.55 298.803 L
265.081 294.031 L
268.612 289.25 L
272.144 284.463 L
275.675 279.671 L
279.207 274.875 L
285.504 266.318 L
311.879 230.443 L
S
GR
GS
[0.75 0 0 0.75 0 0] CT
0 0.447 0.741 RC
1 LJ
0.667 LW
N
285.504 266.318 M
311.879 230.443 L
338.254 194.559 L
346.305 183.608 L
349.837 178.806 L
353.368 174.005 L
356.9 169.204 L
360.431 164.406 L
363.963 159.611 L
367.494 154.819 L
371.026 150.031 L
374.557 145.25 L
378.089 140.478 L
381.62 135.718 L
385.151 130.974 L
388.683 126.252 L
392.214 121.558 L
395.746 116.904 L
399.277 112.303 L
402.809 107.771 L
406.34 103.33 L
409.872 99.007 L
413.403 94.835 L
416.935 90.853 L
420.466 87.102 L
423.998 83.626 L
427.529 80.466 L
431.061 77.652 L
434.592 75.204 L
438.124 73.124 L
441.655 71.397 L
445.187 69.994 L
448.718 68.876 L
452.25 68 L
455.781 67.324 L
459.313 66.807 L
462.844 66.417 L
466.376 66.124 L
469.907 65.905 L
473.439 65.742 L
476.97 65.621 L
480.502 65.532 L
484.033 65.466 L
487.564 65.417 L
491.096 65.381 L
494.627 65.355 L
498.159 65.335 L
501.69 65.321 L
505.222 65.311 L
507.042 65.307 L
S
GR
GS
[0.75 0 0 0.75 0 0] CT
0.851 0.325 0.098 RC
1 LJ
0.667 LW
N
84.958 373.983 M
87.423 373.979 L
90.955 373.971 L
94.486 373.96 L
98.018 373.946 L
101.549 373.927 L
105.081 373.9 L
108.612 373.865 L
112.144 373.816 L
115.675 373.75 L
119.207 373.661 L
122.738 373.54 L
126.27 373.377 L
129.801 373.158 L
133.333 372.865 L
136.864 372.474 L
140.396 371.958 L
143.927 371.282 L
147.459 370.406 L
150.99 369.288 L
154.522 367.885 L
158.053 366.158 L
161.585 364.077 L
165.116 361.629 L
168.648 358.816 L
172.179 355.655 L
175.711 352.18 L
179.242 348.429 L
182.773 344.447 L
186.305 340.275 L
189.836 335.952 L
193.368 331.511 L
196.899 326.979 L
200.431 322.377 L
203.962 317.723 L
207.494 313.03 L
211.025 308.308 L
214.557 303.564 L
218.088 298.803 L
221.62 294.031 L
225.151 289.25 L
228.683 284.463 L
232.214 279.671 L
235.746 274.875 L
242.043 266.318 L
268.418 230.443 L
294.793 194.559 L
302.844 183.608 L
306.375 178.806 L
309.907 174.005 L
S
GR
GS
[0.75 0 0 0.75 0 0] CT
0.851 0.325 0.098 RC
1 LJ
0.667 LW
N
306.375 178.806 M
309.907 174.005 L
313.438 169.204 L
316.97 164.406 L
320.501 159.611 L
324.033 154.819 L
327.564 150.031 L
331.096 145.25 L
334.627 140.478 L
338.159 135.718 L
341.69 130.974 L
345.222 126.252 L
348.753 121.558 L
352.285 116.904 L
355.816 112.303 L
359.348 107.771 L
362.879 103.33 L
366.411 99.007 L
369.942 94.835 L
373.474 90.853 L
377.005 87.102 L
380.537 83.626 L
384.068 80.466 L
387.6 77.652 L
391.131 75.204 L
394.663 73.124 L
398.194 71.397 L
401.725 69.994 L
405.257 68.876 L
408.788 68 L
412.32 67.324 L
415.851 66.807 L
419.383 66.417 L
422.914 66.124 L
426.446 65.905 L
429.977 65.742 L
433.509 65.621 L
437.04 65.532 L
440.572 65.466 L
444.103 65.417 L
447.635 65.381 L
451.166 65.355 L
454.698 65.335 L
458.229 65.321 L
461.761 65.311 L
465.292 65.303 L
468.824 65.297 L
472.355 65.293 L
475.887 65.29 L
479.418 65.288 L
507.042 65.285 L
S
GR
GS
[0.75 0 0 0.75 0 0] CT
1 GC
N
405 100 M
405 64 L
494 64 L
494 100 L
cp
f
GR
GS
[0.75 0 0 0.75 342.75 55.625] CT
/Helvetica 12 F
GS
[1 0 0 1 0 0] CT
0 4.5 moveto 
1 -1 scale
(1/w11) t 
GR
GR
GS
[0.75 0 0 0.75 0 0] CT
0 0.447 0.741 RC
1 LJ
0.667 LW
N
413 74.167 M
453 74.167 L
S
GR
GS
[0.75 0 0 0.75 342.75 67.375] CT
/Helvetica 12 F
GS
[1 0 0 1 0 0] CT
0 4.5 moveto 
1 -1 scale
(1/w12) t 
GR
GR
GS
[0.75 0 0 0.75 0 0] CT
0.851 0.325 0.098 RC
1 LJ
0.667 LW
N
413 89.833 M
453 89.833 L
S
GR
GS
[0.75 0 0 0.75 0 0] CT
0.149 GC
10.0 ML
0.667 LW
N
405 100 M
405 64 L
494 64 L
494 100 L
cp
S
GR
GS
[0.75 0 0 0.75 221.25 33.52501] CT
/any-Bold 15 F
GS
[1 0 0 1 0 0] CT
-56.5 -4 moveto 
1 -1 scale
(Singular Values) t 
GR
GR
GS
[0.75 0 0 0.75 221.25 298.99999] CT
/Helvetica 15 F
GS
[1 0 0 1 0 0] CT
-59.5 14 moveto 
1 -1 scale
(Frequency \(rad/s\)) t 
GR
GR
GS
[0 -0.75 0.75 0 42.5 160.3875] CT
/Helvetica 15 F
GS
[1 0 0 1 0 0] CT
-69 -4 moveto 
1 -1 scale
(Singular Values \(dB\)) t 
GR
GR
%%Trailer
%%Pages: 1
%%EOF
