%!PS-Adobe-3.0 EPSF-3.0
%%Creator: (MATLAB, The Mathworks, Inc. Version 8.6.0.267246 \(R2015b\). Operating System: Windows 8)
%%Title: E:/Projects/skola/rls/pics/SP5/k2d_y.eps
%%CreationDate: 2017-03-17T10:02:44
%%Pages: (atend)
%%BoundingBox: 0 0 420 315
%%LanguageLevel: 2
%%EndComments
%%BeginProlog
%%BeginResource: procset (Apache XML Graphics Std ProcSet) 1.2 0
%%Version: 1.2 0
%%Copyright: (Copyright 2001-2003,2010 The Apache Software Foundation. License terms: http://www.apache.org/licenses/LICENSE-2.0)
/bd{bind def}bind def
/ld{load def}bd
/GR/grestore ld
/M/moveto ld
/LJ/setlinejoin ld
/C/curveto ld
/f/fill ld
/LW/setlinewidth ld
/GC/setgray ld
/t/show ld
/N/newpath ld
/CT/concat ld
/cp/closepath ld
/S/stroke ld
/L/lineto ld
/CC/setcmykcolor ld
/A/ashow ld
/GS/gsave ld
/RC/setrgbcolor ld
/RM/rmoveto ld
/ML/setmiterlimit ld
/re {4 2 roll M
1 index 0 rlineto
0 exch rlineto
neg 0 rlineto
cp } bd
/_ctm matrix def
/_tm matrix def
/BT { _ctm currentmatrix pop matrix _tm copy pop 0 0 moveto } bd
/ET { _ctm setmatrix } bd
/iTm { _ctm setmatrix _tm concat } bd
/Tm { _tm astore pop iTm 0 0 moveto } bd
/ux 0.0 def
/uy 0.0 def
/F {
  /Tp exch def
  /Tf exch def
  Tf findfont Tp scalefont setfont
  /cf Tf def  /cs Tp def
} bd
/ULS {currentpoint /uy exch def /ux exch def} bd
/ULE {
  /Tcx currentpoint pop def
  gsave
  newpath
  cf findfont cs scalefont dup
  /FontMatrix get 0 get /Ts exch def /FontInfo get dup
  /UnderlinePosition get Ts mul /To exch def
  /UnderlineThickness get Ts mul /Tt exch def
  ux uy To add moveto  Tcx uy To add lineto
  Tt setlinewidth stroke
  grestore
} bd
/OLE {
  /Tcx currentpoint pop def
  gsave
  newpath
  cf findfont cs scalefont dup
  /FontMatrix get 0 get /Ts exch def /FontInfo get dup
  /UnderlinePosition get Ts mul /To exch def
  /UnderlineThickness get Ts mul /Tt exch def
  ux uy To add cs add moveto Tcx uy To add cs add lineto
  Tt setlinewidth stroke
  grestore
} bd
/SOE {
  /Tcx currentpoint pop def
  gsave
  newpath
  cf findfont cs scalefont dup
  /FontMatrix get 0 get /Ts exch def /FontInfo get dup
  /UnderlinePosition get Ts mul /To exch def
  /UnderlineThickness get Ts mul /Tt exch def
  ux uy To add cs 10 mul 26 idiv add moveto Tcx uy To add cs 10 mul 26 idiv add lineto
  Tt setlinewidth stroke
  grestore
} bd
/QT {
/Y22 exch store
/X22 exch store
/Y21 exch store
/X21 exch store
currentpoint
/Y21 load 2 mul add 3 div exch
/X21 load 2 mul add 3 div exch
/X21 load 2 mul /X22 load add 3 div
/Y21 load 2 mul /Y22 load add 3 div
/X22 load /Y22 load curveto
} bd
/SSPD {
dup length /d exch dict def
{
/v exch def
/k exch def
currentpagedevice k known {
/cpdv currentpagedevice k get def
v cpdv ne {
/upd false def
/nullv v type /nulltype eq def
/nullcpdv cpdv type /nulltype eq def
nullv nullcpdv or
{
/upd true def
} {
/sametype v type cpdv type eq def
sametype {
v type /arraytype eq {
/vlen v length def
/cpdvlen cpdv length def
vlen cpdvlen eq {
0 1 vlen 1 sub {
/i exch def
/obj v i get def
/cpdobj cpdv i get def
obj cpdobj ne {
/upd true def
exit
} if
} for
} {
/upd true def
} ifelse
} {
v type /dicttype eq {
v {
/dv exch def
/dk exch def
/cpddv cpdv dk get def
dv cpddv ne {
/upd true def
exit
} if
} forall
} {
/upd true def
} ifelse
} ifelse
} if
} ifelse
upd true eq {
d k v put
} if
} if
} if
} forall
d length 0 gt {
d setpagedevice
} if
} bd
%%EndResource
%%BeginResource: procset (Apache XML Graphics EPS ProcSet) 1.0 0
%%Version: 1.0 0
%%Copyright: (Copyright 2002-2003 The Apache Software Foundation. License terms: http://www.apache.org/licenses/LICENSE-2.0)
/BeginEPSF { %def
/b4_Inc_state save def         % Save state for cleanup
/dict_count countdictstack def % Count objects on dict stack
/op_count count 1 sub def      % Count objects on operand stack
userdict begin                 % Push userdict on dict stack
/showpage { } def              % Redefine showpage, { } = null proc
0 setgray 0 setlinecap         % Prepare graphics state
1 setlinewidth 0 setlinejoin
10 setmiterlimit [ ] 0 setdash newpath
/languagelevel where           % If level not equal to 1 then
{pop languagelevel             % set strokeadjust and
1 ne                           % overprint to their defaults.
{false setstrokeadjust false setoverprint
} if
} if
} bd
/EndEPSF { %def
count op_count sub {pop} repeat            % Clean up stacks
countdictstack dict_count sub {end} repeat
b4_Inc_state restore
} bd
%%EndResource
%FOPBeginFontDict
%%IncludeResource: font Courier-Bold
%%IncludeResource: font Helvetica
%%IncludeResource: font Courier-BoldOblique
%%IncludeResource: font Courier-Oblique
%%IncludeResource: font Times-Roman
%%IncludeResource: font Helvetica-BoldOblique
%%IncludeResource: font Helvetica-Bold
%%IncludeResource: font Helvetica-Oblique
%%IncludeResource: font Times-BoldItalic
%%IncludeResource: font Courier
%%IncludeResource: font Times-Italic
%%IncludeResource: font Times-Bold
%%IncludeResource: font Symbol
%%IncludeResource: font ZapfDingbats
%FOPEndFontDict
%%BeginResource: encoding WinAnsiEncoding
/WinAnsiEncoding [
/.notdef /.notdef /.notdef /.notdef /.notdef
/.notdef /.notdef /.notdef /.notdef /.notdef
/.notdef /.notdef /.notdef /.notdef /.notdef
/.notdef /.notdef /.notdef /.notdef /.notdef
/.notdef /.notdef /.notdef /.notdef /.notdef
/.notdef /.notdef /.notdef /.notdef /.notdef
/.notdef /.notdef /space /exclam /quotedbl
/numbersign /dollar /percent /ampersand /quotesingle
/parenleft /parenright /asterisk /plus /comma
/hyphen /period /slash /zero /one
/two /three /four /five /six
/seven /eight /nine /colon /semicolon
/less /equal /greater /question /at
/A /B /C /D /E
/F /G /H /I /J
/K /L /M /N /O
/P /Q /R /S /T
/U /V /W /X /Y
/Z /bracketleft /backslash /bracketright /asciicircum
/underscore /quoteleft /a /b /c
/d /e /f /g /h
/i /j /k /l /m
/n /o /p /q /r
/s /t /u /v /w
/x /y /z /braceleft /bar
/braceright /asciitilde /bullet /Euro /bullet
/quotesinglbase /florin /quotedblbase /ellipsis /dagger
/daggerdbl /circumflex /perthousand /Scaron /guilsinglleft
/OE /bullet /Zcaron /bullet /bullet
/quoteleft /quoteright /quotedblleft /quotedblright /bullet
/endash /emdash /asciitilde /trademark /scaron
/guilsinglright /oe /bullet /zcaron /Ydieresis
/space /exclamdown /cent /sterling /currency
/yen /brokenbar /section /dieresis /copyright
/ordfeminine /guillemotleft /logicalnot /sfthyphen /registered
/macron /degree /plusminus /twosuperior /threesuperior
/acute /mu /paragraph /middot /cedilla
/onesuperior /ordmasculine /guillemotright /onequarter /onehalf
/threequarters /questiondown /Agrave /Aacute /Acircumflex
/Atilde /Adieresis /Aring /AE /Ccedilla
/Egrave /Eacute /Ecircumflex /Edieresis /Igrave
/Iacute /Icircumflex /Idieresis /Eth /Ntilde
/Ograve /Oacute /Ocircumflex /Otilde /Odieresis
/multiply /Oslash /Ugrave /Uacute /Ucircumflex
/Udieresis /Yacute /Thorn /germandbls /agrave
/aacute /acircumflex /atilde /adieresis /aring
/ae /ccedilla /egrave /eacute /ecircumflex
/edieresis /igrave /iacute /icircumflex /idieresis
/eth /ntilde /ograve /oacute /ocircumflex
/otilde /odieresis /divide /oslash /ugrave
/uacute /ucircumflex /udieresis /yacute /thorn
/ydieresis
] def
%%EndResource
%FOPBeginFontReencode
/Courier-Bold findfont
dup length dict begin
  {1 index /FID ne {def} {pop pop} ifelse} forall
  /Encoding WinAnsiEncoding def
  currentdict
end
/Courier-Bold exch definefont pop
/Helvetica findfont
dup length dict begin
  {1 index /FID ne {def} {pop pop} ifelse} forall
  /Encoding WinAnsiEncoding def
  currentdict
end
/Helvetica exch definefont pop
/Courier-BoldOblique findfont
dup length dict begin
  {1 index /FID ne {def} {pop pop} ifelse} forall
  /Encoding WinAnsiEncoding def
  currentdict
end
/Courier-BoldOblique exch definefont pop
/Courier-Oblique findfont
dup length dict begin
  {1 index /FID ne {def} {pop pop} ifelse} forall
  /Encoding WinAnsiEncoding def
  currentdict
end
/Courier-Oblique exch definefont pop
/Times-Roman findfont
dup length dict begin
  {1 index /FID ne {def} {pop pop} ifelse} forall
  /Encoding WinAnsiEncoding def
  currentdict
end
/Times-Roman exch definefont pop
/Helvetica-BoldOblique findfont
dup length dict begin
  {1 index /FID ne {def} {pop pop} ifelse} forall
  /Encoding WinAnsiEncoding def
  currentdict
end
/Helvetica-BoldOblique exch definefont pop
/Helvetica-Bold findfont
dup length dict begin
  {1 index /FID ne {def} {pop pop} ifelse} forall
  /Encoding WinAnsiEncoding def
  currentdict
end
/Helvetica-Bold exch definefont pop
/Helvetica-Oblique findfont
dup length dict begin
  {1 index /FID ne {def} {pop pop} ifelse} forall
  /Encoding WinAnsiEncoding def
  currentdict
end
/Helvetica-Oblique exch definefont pop
/Times-BoldItalic findfont
dup length dict begin
  {1 index /FID ne {def} {pop pop} ifelse} forall
  /Encoding WinAnsiEncoding def
  currentdict
end
/Times-BoldItalic exch definefont pop
/Courier findfont
dup length dict begin
  {1 index /FID ne {def} {pop pop} ifelse} forall
  /Encoding WinAnsiEncoding def
  currentdict
end
/Courier exch definefont pop
/Times-Italic findfont
dup length dict begin
  {1 index /FID ne {def} {pop pop} ifelse} forall
  /Encoding WinAnsiEncoding def
  currentdict
end
/Times-Italic exch definefont pop
/Times-Bold findfont
dup length dict begin
  {1 index /FID ne {def} {pop pop} ifelse} forall
  /Encoding WinAnsiEncoding def
  currentdict
end
/Times-Bold exch definefont pop
%FOPEndFontReencode
%%EndProlog
%%Page: 1 1
%%PageBoundingBox: 0 0 420 315
%%BeginPageSetup
[1 0 0 -1 0 315] CT
%%EndPageSetup
GS
[0.75 0 0 0.75 0 0] CT
1 GC
N
0 0 560 420 re
f
GR
GS
[0.75 0 0 0.75 0 0] CT
1 GC
N
0 0 560 420 re
f
GR
GS
[0.75 0 0 0.75 0 0] CT
1 GC
N
73 374 M
507 374 L
507 31 L
73 31 L
cp
f
GR
GS
[0.75 0 0 0.75 0 0] CT
0.149 GC
2 setlinecap
1 LJ
0.667 LW
N
73 374 M
507 374 L
S
GR
GS
[0.75 0 0 0.75 0 0] CT
0.149 GC
2 setlinecap
1 LJ
0.667 LW
N
73 31 M
507 31 L
S
GR
GS
[0.75 0 0 0.75 0 0] CT
0.149 GC
2 setlinecap
1 LJ
0.667 LW
N
73 374 M
73 369.66 L
S
GR
GS
[0.75 0 0 0.75 0 0] CT
0.149 GC
2 setlinecap
1 LJ
0.667 LW
N
145.333 374 M
145.333 369.66 L
S
GR
GS
[0.75 0 0 0.75 0 0] CT
0.149 GC
2 setlinecap
1 LJ
0.667 LW
N
217.667 374 M
217.667 369.66 L
S
GR
GS
[0.75 0 0 0.75 0 0] CT
0.149 GC
2 setlinecap
1 LJ
0.667 LW
N
290 374 M
290 369.66 L
S
GR
GS
[0.75 0 0 0.75 0 0] CT
0.149 GC
2 setlinecap
1 LJ
0.667 LW
N
362.333 374 M
362.333 369.66 L
S
GR
GS
[0.75 0 0 0.75 0 0] CT
0.149 GC
2 setlinecap
1 LJ
0.667 LW
N
434.667 374 M
434.667 369.66 L
S
GR
GS
[0.75 0 0 0.75 0 0] CT
0.149 GC
2 setlinecap
1 LJ
0.667 LW
N
507 374 M
507 369.66 L
S
GR
GS
[0.75 0 0 0.75 0 0] CT
0.149 GC
2 setlinecap
1 LJ
0.667 LW
N
73 31 M
73 35.34 L
S
GR
GS
[0.75 0 0 0.75 0 0] CT
0.149 GC
2 setlinecap
1 LJ
0.667 LW
N
145.333 31 M
145.333 35.34 L
S
GR
GS
[0.75 0 0 0.75 0 0] CT
0.149 GC
2 setlinecap
1 LJ
0.667 LW
N
217.667 31 M
217.667 35.34 L
S
GR
GS
[0.75 0 0 0.75 0 0] CT
0.149 GC
2 setlinecap
1 LJ
0.667 LW
N
290 31 M
290 35.34 L
S
GR
GS
[0.75 0 0 0.75 0 0] CT
0.149 GC
2 setlinecap
1 LJ
0.667 LW
N
362.333 31 M
362.333 35.34 L
S
GR
GS
[0.75 0 0 0.75 0 0] CT
0.149 GC
2 setlinecap
1 LJ
0.667 LW
N
434.667 31 M
434.667 35.34 L
S
GR
GS
[0.75 0 0 0.75 0 0] CT
0.149 GC
2 setlinecap
1 LJ
0.667 LW
N
507 31 M
507 35.34 L
S
GR
GS
[0.75 0 0 0.75 54.75 284.50001] CT
0.149 GC
/Helvetica 13 F
GS
[1 0 0 1 0 0] CT
-4 13 moveto 
1 -1 scale
(0) t 
GR
GR
GS
[0.75 0 0 0.75 109 284.50001] CT
0.149 GC
/Helvetica 13 F
GS
[1 0 0 1 0 0] CT
-11 13 moveto 
1 -1 scale
(200) t 
GR
GR
GS
[0.75 0 0 0.75 163.25 284.50001] CT
0.149 GC
/Helvetica 13 F
GS
[1 0 0 1 0 0] CT
-11 13 moveto 
1 -1 scale
(400) t 
GR
GR
GS
[0.75 0 0 0.75 217.5 284.50001] CT
0.149 GC
/Helvetica 13 F
GS
[1 0 0 1 0 0] CT
-11 13 moveto 
1 -1 scale
(600) t 
GR
GR
GS
[0.75 0 0 0.75 271.75001 284.50001] CT
0.149 GC
/Helvetica 13 F
GS
[1 0 0 1 0 0] CT
-11 13 moveto 
1 -1 scale
(800) t 
GR
GR
GS
[0.75 0 0 0.75 325.99999 284.50001] CT
0.149 GC
/Helvetica 13 F
GS
[1 0 0 1 0 0] CT
-14.5 13 moveto 
1 -1 scale
(1000) t 
GR
GR
GS
[0.75 0 0 0.75 380.25 284.50001] CT
0.149 GC
/Helvetica 13 F
GS
[1 0 0 1 0 0] CT
-14.5 13 moveto 
1 -1 scale
(1200) t 
GR
GR
GS
[0.75 0 0 0.75 217.50016 297.49999] CT
0.149 GC
/Helvetica 15 F
GS
[1 0 0 1 0 0] CT
-11 14 moveto 
1 -1 scale
(t\(s\)) t 
GR
GR
GS
[0.75 0 0 0.75 0 0] CT
0.149 GC
2 setlinecap
1 LJ
0.667 LW
N
73 374 M
73 31 L
S
GR
GS
[0.75 0 0 0.75 0 0] CT
0.149 GC
2 setlinecap
1 LJ
0.667 LW
N
507 374 M
507 31 L
S
GR
GS
[0.75 0 0 0.75 0 0] CT
0.149 GC
2 setlinecap
1 LJ
0.667 LW
N
73 374 M
77.34 374 L
S
GR
GS
[0.75 0 0 0.75 0 0] CT
0.149 GC
2 setlinecap
1 LJ
0.667 LW
N
73 335.889 M
77.34 335.889 L
S
GR
GS
[0.75 0 0 0.75 0 0] CT
0.149 GC
2 setlinecap
1 LJ
0.667 LW
N
73 297.778 M
77.34 297.778 L
S
GR
GS
[0.75 0 0 0.75 0 0] CT
0.149 GC
2 setlinecap
1 LJ
0.667 LW
N
73 259.667 M
77.34 259.667 L
S
GR
GS
[0.75 0 0 0.75 0 0] CT
0.149 GC
2 setlinecap
1 LJ
0.667 LW
N
73 221.556 M
77.34 221.556 L
S
GR
GS
[0.75 0 0 0.75 0 0] CT
0.149 GC
2 setlinecap
1 LJ
0.667 LW
N
73 183.444 M
77.34 183.444 L
S
GR
GS
[0.75 0 0 0.75 0 0] CT
0.149 GC
2 setlinecap
1 LJ
0.667 LW
N
73 145.333 M
77.34 145.333 L
S
GR
GS
[0.75 0 0 0.75 0 0] CT
0.149 GC
2 setlinecap
1 LJ
0.667 LW
N
73 107.222 M
77.34 107.222 L
S
GR
GS
[0.75 0 0 0.75 0 0] CT
0.149 GC
2 setlinecap
1 LJ
0.667 LW
N
73 69.111 M
77.34 69.111 L
S
GR
GS
[0.75 0 0 0.75 0 0] CT
0.149 GC
2 setlinecap
1 LJ
0.667 LW
N
73 31 M
77.34 31 L
S
GR
GS
[0.75 0 0 0.75 0 0] CT
0.149 GC
2 setlinecap
1 LJ
0.667 LW
N
507 374 M
502.66 374 L
S
GR
GS
[0.75 0 0 0.75 0 0] CT
0.149 GC
2 setlinecap
1 LJ
0.667 LW
N
507 335.889 M
502.66 335.889 L
S
GR
GS
[0.75 0 0 0.75 0 0] CT
0.149 GC
2 setlinecap
1 LJ
0.667 LW
N
507 297.778 M
502.66 297.778 L
S
GR
GS
[0.75 0 0 0.75 0 0] CT
0.149 GC
2 setlinecap
1 LJ
0.667 LW
N
507 259.667 M
502.66 259.667 L
S
GR
GS
[0.75 0 0 0.75 0 0] CT
0.149 GC
2 setlinecap
1 LJ
0.667 LW
N
507 221.556 M
502.66 221.556 L
S
GR
GS
[0.75 0 0 0.75 0 0] CT
0.149 GC
2 setlinecap
1 LJ
0.667 LW
N
507 183.444 M
502.66 183.444 L
S
GR
GS
[0.75 0 0 0.75 0 0] CT
0.149 GC
2 setlinecap
1 LJ
0.667 LW
N
507 145.333 M
502.66 145.333 L
S
GR
GS
[0.75 0 0 0.75 0 0] CT
0.149 GC
2 setlinecap
1 LJ
0.667 LW
N
507 107.222 M
502.66 107.222 L
S
GR
GS
[0.75 0 0 0.75 0 0] CT
0.149 GC
2 setlinecap
1 LJ
0.667 LW
N
507 69.111 M
502.66 69.111 L
S
GR
GS
[0.75 0 0 0.75 0 0] CT
0.149 GC
2 setlinecap
1 LJ
0.667 LW
N
507 31 M
502.66 31 L
S
GR
GS
[0.75 0 0 0.75 50.75 280.5] CT
0.149 GC
/Helvetica 13 F
GS
[1 0 0 1 0 0] CT
-30 5 moveto 
1 -1 scale
(-0.02) t 
GR
GR
GS
[0.75 0 0 0.75 50.75 251.91666] CT
0.149 GC
/Helvetica 13 F
GS
[1 0 0 1 0 0] CT
-8 5 moveto 
1 -1 scale
(0) t 
GR
GR
GS
[0.75 0 0 0.75 50.75 223.33333] CT
0.149 GC
/Helvetica 13 F
GS
[1 0 0 1 0 0] CT
-26 5 moveto 
1 -1 scale
(0.02) t 
GR
GR
GS
[0.75 0 0 0.75 50.75 194.74999] CT
0.149 GC
/Helvetica 13 F
GS
[1 0 0 1 0 0] CT
-26 5 moveto 
1 -1 scale
(0.04) t 
GR
GR
GS
[0.75 0 0 0.75 50.75 166.16667] CT
0.149 GC
/Helvetica 13 F
GS
[1 0 0 1 0 0] CT
-26 5 moveto 
1 -1 scale
(0.06) t 
GR
GR
GS
[0.75 0 0 0.75 50.75 137.58333] CT
0.149 GC
/Helvetica 13 F
GS
[1 0 0 1 0 0] CT
-26 5 moveto 
1 -1 scale
(0.08) t 
GR
GR
GS
[0.75 0 0 0.75 50.75 109] CT
0.149 GC
/Helvetica 13 F
GS
[1 0 0 1 0 0] CT
-19 5 moveto 
1 -1 scale
(0.1) t 
GR
GR
GS
[0.75 0 0 0.75 50.75 80.41667] CT
0.149 GC
/Helvetica 13 F
GS
[1 0 0 1 0 0] CT
-26 5 moveto 
1 -1 scale
(0.12) t 
GR
GR
GS
[0.75 0 0 0.75 50.75 51.83333] CT
0.149 GC
/Helvetica 13 F
GS
[1 0 0 1 0 0] CT
-26 5 moveto 
1 -1 scale
(0.14) t 
GR
GR
GS
[0.75 0 0 0.75 50.75 23.25001] CT
0.149 GC
/Helvetica 13 F
GS
[1 0 0 1 0 0] CT
-26 5 moveto 
1 -1 scale
(0.16) t 
GR
GR
GS
[0.75 0 0 0.75 63.75 13.5] CT
/any-Bold 15 F
GS
[1 0 0 1 0 0] CT
0 0 moveto 
1 -1 scale
(Response of system without \(y) t 
GR
GR
GS
[0.75 0 0 0.75 229.5 18.75] CT
/any-Bold 11 F
GS
[1 0 0 1 0 0] CT
0 0 moveto 
1 -1 scale
(1) t 
GR
GR
GS
[0.75 0 0 0.75 234.75 13.5] CT
/any-Bold 15 F
GS
[1 0 0 1 0 0] CT
0 0 moveto 
1 -1 scale
(\) and with integration \(y) t 
GR
GR
GS
[0.75 0 0 0.75 362.25 18.75] CT
/any-Bold 11 F
GS
[1 0 0 1 0 0] CT
0 0 moveto 
1 -1 scale
(2) t 
GR
GR
GS
[0.75 0 0 0.75 367.5 13.5] CT
/any-Bold 15 F
GS
[1 0 0 1 0 0] CT
0 0 moveto 
1 -1 scale
(\)) t 
GR
GR
GS
[0.75 0 0 0.75 0 0] CT
0 0.447 0.741 RC
1 LJ
0.667 LW
N
73 335.889 M
73.362 335.889 L
73.362 145.333 L
73.362 145.333 L
73.554 145.333 L
73.714 145.333 L
73.96 145.333 L
74.259 145.333 L
74.665 145.333 L
75.175 145.333 L
75.776 145.333 L
76.481 145.333 L
77.306 145.333 L
78.431 145.333 L
79.83 145.333 L
81.468 145.333 L
83.386 145.333 L
85.245 145.333 L
86.728 145.333 L
88.211 145.333 L
89.79 145.333 L
91.389 145.333 L
92.904 145.333 L
94.334 145.333 L
95.778 145.333 L
97.321 145.333 L
98.936 145.333 L
100.503 145.333 L
101.957 145.333 L
103.37 145.333 L
104.86 145.333 L
106.463 145.333 L
108.078 145.333 L
109.581 145.333 L
110.987 145.333 L
112.421 145.333 L
113.982 145.333 L
115.624 145.333 L
117.192 145.333 L
118.622 145.333 L
120.013 145.333 L
121.51 145.333 L
123.144 145.333 L
124.776 145.333 L
126.262 145.333 L
127.638 145.333 L
129.065 145.333 L
130.651 145.333 L
132.323 145.333 L
133.889 145.333 L
S
GR
GS
[0.75 0 0 0.75 0 0] CT
0 0.447 0.741 RC
1 LJ
0.667 LW
N
132.323 145.333 M
133.889 145.333 L
135.289 145.333 L
136.658 145.333 L
138.166 145.333 L
139.836 145.333 L
141.484 145.333 L
142.948 145.333 L
144.293 145.333 L
145.713 145.333 L
147.329 145.333 L
149.034 145.333 L
150.594 145.333 L
151.961 145.333 L
153.308 145.333 L
154.831 145.333 L
156.54 145.333 L
158.203 145.333 L
159.641 145.333 L
160.953 145.333 L
162.37 145.333 L
164.019 145.333 L
165.757 145.333 L
167.307 145.333 L
168.639 145.333 L
169.966 145.333 L
171.506 145.333 L
173.255 145.333 L
174.931 145.333 L
176.342 145.333 L
177.623 145.333 L
179.038 145.333 L
180.72 145.333 L
181.5 145.333 L
181.5 145.333 L
181.5 145.333 L
181.926 145.333 L
182.352 145.333 L
182.961 145.333 L
183.674 145.333 L
184.589 145.333 L
185.795 145.333 L
187.444 145.333 L
189.451 145.333 L
190.723 145.333 L
191.994 145.333 L
193.632 145.333 L
195.543 145.333 L
196.83 145.333 L
198.117 145.333 L
199.735 145.333 L
201.608 145.333 L
S
GR
GS
[0.75 0 0 0.75 0 0] CT
0 0.447 0.741 RC
1 LJ
0.667 LW
N
199.735 145.333 M
201.608 145.333 L
202.921 145.333 L
204.234 145.333 L
205.845 145.333 L
207.679 145.333 L
209.338 145.333 L
210.667 145.333 L
211.899 145.333 L
213.348 145.333 L
215.118 145.333 L
216.92 145.333 L
218.397 145.333 L
219.629 145.333 L
220.935 145.333 L
222.556 145.333 L
224.41 145.333 L
225.726 145.333 L
227.042 145.333 L
228.649 145.333 L
230.475 145.333 L
232.133 145.333 L
233.468 145.333 L
234.705 145.333 L
236.154 145.333 L
237.917 145.333 L
239.714 145.333 L
241.195 145.333 L
242.432 145.333 L
243.739 145.333 L
245.359 145.333 L
247.206 145.333 L
248.526 145.333 L
249.846 145.333 L
251.452 145.333 L
253.273 145.333 L
254.928 145.333 L
256.265 145.333 L
257.506 145.333 L
258.956 145.333 L
260.717 145.333 L
262.51 145.333 L
263.99 145.333 L
265.23 145.333 L
266.541 145.333 L
268.16 145.333 L
270.004 145.333 L
271.325 145.333 L
272.645 145.333 L
274.251 145.333 L
276.07 145.333 L
277.724 145.333 L
S
GR
GS
[0.75 0 0 0.75 0 0] CT
0 0.447 0.741 RC
1 LJ
0.667 LW
N
276.07 145.333 M
277.724 145.333 L
279.062 145.333 L
280.305 145.333 L
281.756 145.333 L
283.515 145.333 L
285.306 145.333 L
286.786 145.333 L
288.028 145.333 L
289.339 145.333 L
290 145.333 L
290 145.333 L
290 145.333 L
290.656 145.333 L
291.312 145.333 L
292.29 145.333 L
293.529 145.333 L
295.236 145.333 L
297.33 145.333 L
298.488 145.333 L
299.647 145.333 L
301.28 145.333 L
303.321 145.333 L
304.568 145.333 L
305.816 145.333 L
307.453 145.333 L
309.391 145.333 L
310.674 145.333 L
311.958 145.333 L
313.58 145.333 L
315.462 145.333 L
316.769 145.333 L
318.076 145.333 L
319.689 145.333 L
321.532 145.333 L
322.857 145.333 L
324.183 145.333 L
325.788 145.333 L
327.6 145.333 L
329.25 145.333 L
330.591 145.333 L
331.839 145.333 L
333.293 145.333 L
335.049 145.333 L
336.834 145.333 L
338.313 145.333 L
339.558 145.333 L
340.874 145.333 L
342.495 145.333 L
344.333 145.333 L
345.985 145.333 L
347.306 145.333 L
S
GR
GS
[0.75 0 0 0.75 0 0] CT
0 0.447 0.741 RC
1 LJ
0.667 LW
N
345.985 145.333 M
347.306 145.333 L
348.538 145.333 L
349.994 145.333 L
351.771 145.333 L
353.57 145.333 L
355.039 145.333 L
356.267 145.333 L
357.577 145.333 L
359.207 145.333 L
361.063 145.333 L
362.372 145.333 L
363.682 145.333 L
365.289 145.333 L
367.124 145.333 L
368.788 145.333 L
370.12 145.333 L
371.35 145.333 L
372.794 145.333 L
374.562 145.333 L
376.367 145.333 L
377.849 145.333 L
379.082 145.333 L
380.384 145.333 L
382.001 145.333 L
383.854 145.333 L
385.174 145.333 L
386.493 145.333 L
388.1 145.333 L
389.923 145.333 L
391.577 145.333 L
392.913 145.333 L
394.154 145.333 L
395.604 145.333 L
397.367 145.333 L
399.16 145.333 L
400.639 145.333 L
401.878 145.333 L
403.189 145.333 L
404.809 145.333 L
406.654 145.333 L
407.974 145.333 L
409.293 145.333 L
410.899 145.333 L
412.719 145.333 L
414.374 145.333 L
415.712 145.333 L
416.954 145.333 L
418.404 145.333 L
420.164 145.333 L
421.956 145.333 L
423.437 145.333 L
S
GR
GS
[0.75 0 0 0.75 0 0] CT
0 0.447 0.741 RC
1 LJ
0.667 LW
N
421.956 145.333 M
423.437 145.333 L
424.677 145.333 L
425.988 145.333 L
427.607 145.333 L
429.451 145.333 L
430.772 145.333 L
432.093 145.333 L
433.698 145.333 L
435.516 145.333 L
437.17 145.333 L
438.509 145.333 L
439.752 145.333 L
441.203 145.333 L
442.962 145.333 L
444.753 145.333 L
446.233 145.333 L
447.475 145.333 L
448.787 145.333 L
450.406 145.333 L
452.248 145.333 L
453.569 145.333 L
454.891 145.333 L
456.496 145.333 L
458.313 145.333 L
459.967 145.333 L
461.306 145.333 L
462.55 145.333 L
464.001 145.333 L
465.76 145.333 L
467.55 145.333 L
469.03 145.333 L
470.272 145.333 L
471.584 145.333 L
473.203 145.333 L
475.045 145.333 L
476.367 145.333 L
477.688 145.333 L
479.293 145.333 L
481.11 145.333 L
482.764 145.333 L
484.103 145.333 L
485.347 145.333 L
486.798 145.333 L
488.557 145.333 L
490.347 145.333 L
491.827 145.333 L
493.069 145.333 L
494.382 145.333 L
496.001 145.333 L
497.842 145.333 L
499.164 145.333 L
S
GR
GS
[0.75 0 0 0.75 0 0] CT
0 0.447 0.741 RC
1 LJ
0.667 LW
N
497.842 145.333 M
499.164 145.333 L
500.485 145.333 L
502.09 145.333 L
503.907 145.333 L
505.561 145.333 L
507 145.333 L
S
GR
GS
[0.75 0 0 0.75 0 0] CT
0.851 0.325 0.098 RC
1 LJ
0.667 LW
N
73 335.889 M
73.362 335.889 L
73.362 335.889 L
73.362 335.889 L
73.554 335.889 L
73.714 335.889 L
73.96 335.889 L
74.259 335.889 L
74.665 335.889 L
75.175 335.889 L
75.776 335.889 L
76.481 335.889 L
77.306 335.889 L
78.431 335.889 L
79.83 335.889 L
81.468 335.889 L
83.386 335.889 L
85.245 335.889 L
86.728 335.889 L
88.211 335.889 L
89.79 335.889 L
91.389 335.889 L
92.904 335.889 L
94.334 335.889 L
95.778 335.889 L
97.321 335.889 L
98.936 335.889 L
100.503 335.889 L
101.957 335.889 L
103.37 335.889 L
104.86 335.889 L
106.463 335.889 L
108.078 335.889 L
109.581 335.889 L
110.987 335.889 L
112.421 335.889 L
113.982 335.889 L
115.624 335.889 L
117.192 335.889 L
118.622 335.889 L
120.013 335.889 L
121.51 335.889 L
123.144 335.889 L
124.776 335.889 L
126.262 335.889 L
127.638 335.889 L
129.065 335.889 L
130.651 335.889 L
132.323 335.889 L
133.889 335.889 L
S
GR
GS
[0.75 0 0 0.75 0 0] CT
0.851 0.325 0.098 RC
1 LJ
0.667 LW
N
132.323 335.889 M
133.889 335.889 L
135.289 335.889 L
136.658 335.889 L
138.166 335.889 L
139.836 335.889 L
141.484 335.889 L
142.948 335.889 L
144.293 335.889 L
145.713 335.889 L
147.329 335.889 L
149.034 335.889 L
150.594 335.889 L
151.961 335.889 L
153.308 335.889 L
154.831 335.889 L
156.54 335.889 L
158.203 335.889 L
159.641 335.889 L
160.953 335.889 L
162.37 335.889 L
164.019 335.889 L
165.757 335.889 L
167.307 335.889 L
168.639 335.889 L
169.966 335.889 L
171.506 335.889 L
173.255 335.889 L
174.931 335.889 L
176.342 335.889 L
177.623 335.889 L
179.038 335.889 L
180.72 335.889 L
181.5 335.889 L
181.5 145.333 L
181.5 145.333 L
181.926 145.333 L
182.352 145.333 L
182.961 145.333 L
183.674 145.333 L
184.589 145.333 L
185.795 145.333 L
187.444 145.333 L
189.451 145.333 L
190.723 145.333 L
191.994 145.333 L
193.632 145.333 L
195.543 145.333 L
196.83 145.333 L
198.117 145.333 L
199.735 145.333 L
201.608 145.333 L
S
GR
GS
[0.75 0 0 0.75 0 0] CT
0.851 0.325 0.098 RC
1 LJ
0.667 LW
N
199.735 145.333 M
201.608 145.333 L
202.921 145.333 L
204.234 145.333 L
205.845 145.333 L
207.679 145.333 L
209.338 145.333 L
210.667 145.333 L
211.899 145.333 L
213.348 145.333 L
215.118 145.333 L
216.92 145.333 L
218.397 145.333 L
219.629 145.333 L
220.935 145.333 L
222.556 145.333 L
224.41 145.333 L
225.726 145.333 L
227.042 145.333 L
228.649 145.333 L
230.475 145.333 L
232.133 145.333 L
233.468 145.333 L
234.705 145.333 L
236.154 145.333 L
237.917 145.333 L
239.714 145.333 L
241.195 145.333 L
242.432 145.333 L
243.739 145.333 L
245.359 145.333 L
247.206 145.333 L
248.526 145.333 L
249.846 145.333 L
251.452 145.333 L
253.273 145.333 L
254.928 145.333 L
256.265 145.333 L
257.506 145.333 L
258.956 145.333 L
260.717 145.333 L
262.51 145.333 L
263.99 145.333 L
265.23 145.333 L
266.541 145.333 L
268.16 145.333 L
270.004 145.333 L
271.325 145.333 L
272.645 145.333 L
274.251 145.333 L
276.07 145.333 L
277.724 145.333 L
S
GR
GS
[0.75 0 0 0.75 0 0] CT
0.851 0.325 0.098 RC
1 LJ
0.667 LW
N
276.07 145.333 M
277.724 145.333 L
279.062 145.333 L
280.305 145.333 L
281.756 145.333 L
283.515 145.333 L
285.306 145.333 L
286.786 145.333 L
288.028 145.333 L
289.339 145.333 L
290 145.333 L
290 145.333 L
290 145.333 L
290.656 145.333 L
291.312 145.333 L
292.29 145.333 L
293.529 145.333 L
295.236 145.333 L
297.33 145.333 L
298.488 145.333 L
299.647 145.333 L
301.28 145.333 L
303.321 145.333 L
304.568 145.333 L
305.816 145.333 L
307.453 145.333 L
309.391 145.333 L
310.674 145.333 L
311.958 145.333 L
313.58 145.333 L
315.462 145.333 L
316.769 145.333 L
318.076 145.333 L
319.689 145.333 L
321.532 145.333 L
322.857 145.333 L
324.183 145.333 L
325.788 145.333 L
327.6 145.333 L
329.25 145.333 L
330.591 145.333 L
331.839 145.333 L
333.293 145.333 L
335.049 145.333 L
336.834 145.333 L
338.313 145.333 L
339.558 145.333 L
340.874 145.333 L
342.495 145.333 L
344.333 145.333 L
345.985 145.333 L
347.306 145.333 L
S
GR
GS
[0.75 0 0 0.75 0 0] CT
0.851 0.325 0.098 RC
1 LJ
0.667 LW
N
345.985 145.333 M
347.306 145.333 L
348.538 145.333 L
349.994 145.333 L
351.771 145.333 L
353.57 145.333 L
355.039 145.333 L
356.267 145.333 L
357.577 145.333 L
359.207 145.333 L
361.063 145.333 L
362.372 145.333 L
363.682 145.333 L
365.289 145.333 L
367.124 145.333 L
368.788 145.333 L
370.12 145.333 L
371.35 145.333 L
372.794 145.333 L
374.562 145.333 L
376.367 145.333 L
377.849 145.333 L
379.082 145.333 L
380.384 145.333 L
382.001 145.333 L
383.854 145.333 L
385.174 145.333 L
386.493 145.333 L
388.1 145.333 L
389.923 145.333 L
391.577 145.333 L
392.913 145.333 L
394.154 145.333 L
395.604 145.333 L
397.367 145.333 L
399.16 145.333 L
400.639 145.333 L
401.878 145.333 L
403.189 145.333 L
404.809 145.333 L
406.654 145.333 L
407.974 145.333 L
409.293 145.333 L
410.899 145.333 L
412.719 145.333 L
414.374 145.333 L
415.712 145.333 L
416.954 145.333 L
418.404 145.333 L
420.164 145.333 L
421.956 145.333 L
423.437 145.333 L
S
GR
GS
[0.75 0 0 0.75 0 0] CT
0.851 0.325 0.098 RC
1 LJ
0.667 LW
N
421.956 145.333 M
423.437 145.333 L
424.677 145.333 L
425.988 145.333 L
427.607 145.333 L
429.451 145.333 L
430.772 145.333 L
432.093 145.333 L
433.698 145.333 L
435.516 145.333 L
437.17 145.333 L
438.509 145.333 L
439.752 145.333 L
441.203 145.333 L
442.962 145.333 L
444.753 145.333 L
446.233 145.333 L
447.475 145.333 L
448.787 145.333 L
450.406 145.333 L
452.248 145.333 L
453.569 145.333 L
454.891 145.333 L
456.496 145.333 L
458.313 145.333 L
459.967 145.333 L
461.306 145.333 L
462.55 145.333 L
464.001 145.333 L
465.76 145.333 L
467.55 145.333 L
469.03 145.333 L
470.272 145.333 L
471.584 145.333 L
473.203 145.333 L
475.045 145.333 L
476.367 145.333 L
477.688 145.333 L
479.293 145.333 L
481.11 145.333 L
482.764 145.333 L
484.103 145.333 L
485.347 145.333 L
486.798 145.333 L
488.557 145.333 L
490.347 145.333 L
491.827 145.333 L
493.069 145.333 L
494.382 145.333 L
496.001 145.333 L
497.842 145.333 L
499.164 145.333 L
S
GR
GS
[0.75 0 0 0.75 0 0] CT
0.851 0.325 0.098 RC
1 LJ
0.667 LW
N
497.842 145.333 M
499.164 145.333 L
500.485 145.333 L
502.09 145.333 L
503.907 145.333 L
505.561 145.333 L
507 145.333 L
S
GR
GS
[0.75 0 0 0.75 0 0] CT
0.929 0.694 0.125 RC
1 LJ
0.667 LW
N
73 335.889 M
73.362 335.889 L
73.362 335.889 L
73.362 335.889 L
73.554 335.381 L
73.714 334.212 L
73.96 331.218 L
74.259 325.819 L
74.665 316.041 L
75.175 300.828 L
75.776 280.539 L
76.481 255.747 L
77.306 227.982 L
78.431 195.652 L
79.83 166.777 L
81.468 147.854 L
83.386 139.925 L
85.245 139.791 L
86.728 141.568 L
88.211 143.482 L
89.79 145.016 L
91.389 145.899 L
92.904 146.233 L
94.334 146.261 L
95.778 146.148 L
97.321 145.975 L
98.936 145.809 L
100.503 145.689 L
101.957 145.617 L
103.37 145.577 L
104.86 145.559 L
106.463 145.557 L
108.078 145.564 L
109.581 145.575 L
110.987 145.587 L
112.421 145.599 L
113.982 145.613 L
115.624 145.627 L
117.192 145.64 L
118.622 145.65 L
120.013 145.659 L
121.51 145.669 L
123.144 145.679 L
124.776 145.687 L
126.262 145.694 L
127.638 145.698 L
129.065 145.702 L
130.651 145.706 L
132.323 145.71 L
133.889 145.713 L
S
GR
GS
[0.75 0 0 0.75 0 0] CT
0.929 0.694 0.125 RC
1 LJ
0.667 LW
N
132.323 145.71 M
133.889 145.713 L
135.289 145.714 L
136.658 145.715 L
138.166 145.715 L
139.836 145.717 L
141.484 145.717 L
142.948 145.717 L
144.293 145.716 L
145.713 145.716 L
147.329 145.716 L
149.034 145.716 L
150.594 145.716 L
151.961 145.715 L
153.308 145.714 L
154.831 145.714 L
156.54 145.714 L
158.203 145.714 L
159.641 145.714 L
160.953 145.713 L
162.37 145.712 L
164.019 145.712 L
165.757 145.713 L
167.307 145.713 L
168.639 145.712 L
169.966 145.712 L
171.506 145.712 L
173.255 145.712 L
174.931 145.713 L
176.342 145.713 L
177.623 145.712 L
179.038 145.711 L
180.72 145.712 L
181.5 145.709 L
181.5 145.709 L
181.5 145.709 L
181.926 145.771 L
182.352 145.84 L
182.961 145.823 L
183.674 145.617 L
184.589 145.171 L
185.795 144.501 L
187.444 143.783 L
189.451 143.432 L
190.723 143.468 L
191.994 143.64 L
193.632 143.966 L
195.543 144.384 L
196.83 144.644 L
198.117 144.875 L
199.735 145.118 L
201.608 145.339 L
S
GR
GS
[0.75 0 0 0.75 0 0] CT
0.929 0.694 0.125 RC
1 LJ
0.667 LW
N
199.735 145.118 M
201.608 145.339 L
202.921 145.458 L
204.234 145.554 L
205.845 145.647 L
207.679 145.725 L
209.338 145.775 L
210.667 145.801 L
211.899 145.817 L
213.348 145.83 L
215.118 145.837 L
216.92 145.838 L
218.397 145.831 L
219.629 145.823 L
220.935 145.813 L
222.556 145.801 L
224.41 145.788 L
225.726 145.776 L
227.042 145.766 L
228.649 145.754 L
230.475 145.744 L
232.133 145.736 L
233.468 145.727 L
234.705 145.72 L
236.154 145.715 L
237.917 145.71 L
239.714 145.707 L
241.195 145.704 L
242.432 145.7 L
243.739 145.698 L
245.359 145.696 L
247.206 145.697 L
248.526 145.695 L
249.846 145.694 L
251.452 145.695 L
253.273 145.696 L
254.928 145.698 L
256.265 145.696 L
257.506 145.695 L
258.956 145.696 L
260.717 145.697 L
262.51 145.699 L
263.99 145.699 L
265.23 145.698 L
266.541 145.697 L
268.16 145.698 L
270.004 145.7 L
271.325 145.699 L
272.645 145.698 L
274.251 145.699 L
276.07 145.7 L
277.724 145.702 L
S
GR
GS
[0.75 0 0 0.75 0 0] CT
0.929 0.694 0.125 RC
1 LJ
0.667 LW
N
276.07 145.7 M
277.724 145.702 L
279.062 145.7 L
280.305 145.699 L
281.756 145.699 L
283.515 145.7 L
285.306 145.702 L
286.786 145.701 L
288.028 145.699 L
289.339 145.699 L
290 145.698 L
290 145.698 L
290 145.698 L
290.656 128.815 L
291.312 113.297 L
292.29 93.922 L
293.529 76.808 L
295.236 65.618 L
297.33 65.3 L
298.488 68.495 L
299.647 72.666 L
301.28 78.871 L
303.321 85.863 L
304.568 89.483 L
305.816 92.643 L
307.453 96.235 L
309.391 99.918 L
310.674 102.13 L
311.958 104.216 L
313.58 106.713 L
315.462 109.439 L
316.769 111.229 L
318.076 112.936 L
319.689 114.931 L
321.532 117.061 L
322.857 118.496 L
324.183 119.855 L
325.788 121.405 L
327.6 123.037 L
329.25 124.42 L
330.591 125.475 L
331.839 126.406 L
333.293 127.434 L
335.049 128.597 L
336.834 129.699 L
338.313 130.551 L
339.558 131.228 L
340.874 131.91 L
342.495 132.701 L
344.333 133.539 L
345.985 134.241 L
347.306 134.767 L
S
GR
GS
[0.75 0 0 0.75 0 0] CT
0.929 0.694 0.125 RC
1 LJ
0.667 LW
N
345.985 134.241 M
347.306 134.767 L
348.538 135.233 L
349.994 135.756 L
351.771 136.356 L
353.57 136.921 L
355.039 137.352 L
356.267 137.692 L
357.577 138.037 L
359.207 138.443 L
361.063 138.876 L
362.372 139.16 L
363.682 139.43 L
365.289 139.743 L
367.124 140.079 L
368.788 140.362 L
370.12 140.573 L
371.35 140.759 L
372.794 140.966 L
374.562 141.205 L
376.367 141.433 L
377.849 141.607 L
379.082 141.742 L
380.384 141.879 L
382.001 142.04 L
383.854 142.213 L
385.174 142.327 L
386.493 142.436 L
388.1 142.561 L
389.923 142.695 L
391.577 142.808 L
392.913 142.892 L
394.154 142.966 L
395.604 143.049 L
397.367 143.144 L
399.16 143.236 L
400.639 143.305 L
401.878 143.358 L
403.189 143.413 L
404.809 143.477 L
406.654 143.547 L
407.974 143.592 L
409.293 143.635 L
410.899 143.685 L
412.719 143.739 L
414.374 143.785 L
415.712 143.818 L
416.954 143.847 L
418.404 143.88 L
420.164 143.918 L
421.956 143.956 L
423.437 143.983 L
S
GR
GS
[0.75 0 0 0.75 0 0] CT
0.929 0.694 0.125 RC
1 LJ
0.667 LW
N
421.956 143.956 M
423.437 143.983 L
424.677 144.003 L
425.988 144.025 L
427.607 144.051 L
429.451 144.079 L
430.772 144.097 L
432.093 144.114 L
433.698 144.134 L
435.516 144.156 L
437.17 144.175 L
438.509 144.187 L
439.752 144.198 L
441.203 144.211 L
442.962 144.227 L
444.753 144.243 L
446.233 144.254 L
447.475 144.261 L
448.787 144.269 L
450.406 144.28 L
452.248 144.292 L
453.569 144.298 L
454.891 144.305 L
456.496 144.313 L
458.313 144.322 L
459.967 144.331 L
461.306 144.335 L
462.55 144.338 L
464.001 144.344 L
465.76 144.35 L
467.55 144.358 L
469.03 144.362 L
470.272 144.364 L
471.584 144.367 L
473.203 144.371 L
475.045 144.377 L
476.367 144.379 L
477.688 144.381 L
479.293 144.384 L
481.11 144.389 L
482.764 144.393 L
484.103 144.393 L
485.347 144.394 L
486.798 144.396 L
488.557 144.399 L
490.347 144.404 L
491.827 144.405 L
493.069 144.405 L
494.382 144.406 L
496.001 144.407 L
497.842 144.411 L
499.164 144.411 L
S
GR
GS
[0.75 0 0 0.75 0 0] CT
0.929 0.694 0.125 RC
1 LJ
0.667 LW
N
497.842 144.411 M
499.164 144.411 L
500.485 144.411 L
502.09 144.413 L
503.907 144.415 L
505.561 144.418 L
507 144.418 L
S
GR
GS
[0.75 0 0 0.75 0 0] CT
0.494 0.184 0.557 RC
1 LJ
0.667 LW
N
73 335.889 M
73.362 335.889 L
73.362 335.889 L
73.362 335.889 L
73.554 335.716 L
73.714 335.298 L
73.96 334.16 L
74.259 331.957 L
74.665 327.64 L
75.175 320.334 L
75.776 309.784 L
76.481 295.984 L
77.306 279.749 L
78.431 260.569 L
79.83 244.931 L
81.468 239.374 L
83.386 246.594 L
85.245 261.399 L
86.728 274.963 L
88.211 288.085 L
89.79 300.496 L
91.389 310.992 L
92.904 319.025 L
94.334 325.087 L
95.778 329.924 L
97.321 333.91 L
98.936 337.013 L
100.503 339.173 L
101.957 340.568 L
103.37 341.463 L
104.86 342.005 L
106.463 342.222 L
108.078 342.145 L
109.581 341.877 L
110.987 341.505 L
112.421 341.044 L
113.982 340.488 L
115.624 339.879 L
117.192 339.303 L
118.622 338.798 L
120.013 338.336 L
121.51 337.879 L
123.144 337.433 L
124.776 337.044 L
126.262 336.74 L
127.638 336.498 L
129.065 336.286 L
130.651 336.093 L
132.323 335.933 L
133.889 335.818 L
S
GR
GS
[0.75 0 0 0.75 0 0] CT
0.494 0.184 0.557 RC
1 LJ
0.667 LW
N
132.323 335.933 M
133.889 335.818 L
135.289 335.74 L
136.658 335.684 L
138.166 335.641 L
139.836 335.612 L
141.484 335.598 L
142.948 335.597 L
144.293 335.601 L
145.713 335.611 L
147.329 335.626 L
149.034 335.645 L
150.594 335.663 L
151.961 335.68 L
153.308 335.696 L
154.831 335.713 L
156.54 335.73 L
158.203 335.746 L
159.641 335.758 L
160.953 335.767 L
162.37 335.776 L
164.019 335.785 L
165.757 335.793 L
167.307 335.798 L
168.639 335.802 L
169.966 335.805 L
171.506 335.807 L
173.255 335.809 L
174.931 335.811 L
176.342 335.811 L
177.623 335.811 L
179.038 335.811 L
180.72 335.811 L
181.5 335.811 L
181.5 335.811 L
181.5 335.811 L
181.926 335.385 L
182.352 334.182 L
182.961 331.32 L
183.674 326.565 L
184.589 318.791 L
185.795 306.585 L
187.444 287.984 L
189.451 264.586 L
190.723 250.161 L
191.994 236.396 L
193.632 219.921 L
195.543 202.746 L
196.83 192.508 L
198.117 183.352 L
199.735 173.346 L
201.608 163.764 L
S
GR
GS
[0.75 0 0 0.75 0 0] CT
0.494 0.184 0.557 RC
1 LJ
0.667 LW
N
199.735 173.346 M
201.608 163.764 L
202.921 158.237 L
204.234 153.608 L
205.845 149.036 L
207.679 145.135 L
209.338 142.62 L
210.667 141.187 L
211.899 140.248 L
213.348 139.544 L
215.118 139.154 L
216.92 139.16 L
218.397 139.384 L
219.629 139.678 L
220.935 140.064 L
222.556 140.612 L
224.41 141.281 L
225.726 141.758 L
227.042 142.224 L
228.649 142.762 L
230.475 143.321 L
232.133 143.771 L
233.468 144.092 L
234.705 144.355 L
236.154 144.624 L
237.917 144.897 L
239.714 145.118 L
241.195 145.261 L
242.432 145.357 L
243.739 145.438 L
245.359 145.513 L
247.206 145.57 L
248.526 145.595 L
249.846 145.609 L
251.452 145.616 L
253.273 145.612 L
254.928 145.602 L
256.265 145.59 L
257.506 145.577 L
258.956 145.56 L
260.717 145.54 L
262.51 145.519 L
263.99 145.502 L
265.23 145.49 L
266.541 145.477 L
268.16 145.463 L
270.004 145.45 L
271.325 145.441 L
272.645 145.434 L
274.251 145.426 L
276.07 145.42 L
277.724 145.415 L
S
GR
GS
[0.75 0 0 0.75 0 0] CT
0.494 0.184 0.557 RC
1 LJ
0.667 LW
N
276.07 145.42 M
277.724 145.415 L
279.062 145.412 L
280.305 145.41 L
281.756 145.408 L
283.515 145.407 L
285.306 145.406 L
286.786 145.406 L
288.028 145.406 L
289.339 145.406 L
290 145.406 L
290 145.406 L
290 145.406 L
290.656 143.407 L
291.312 138.719 L
292.29 129.919 L
293.529 119.772 L
295.236 111.822 L
297.33 111.528 L
298.488 114.192 L
299.647 117.726 L
301.28 122.907 L
303.321 128.287 L
304.568 130.679 L
305.816 132.412 L
307.453 133.864 L
309.391 134.737 L
310.674 135.005 L
311.958 135.136 L
313.58 135.206 L
315.462 135.254 L
316.769 135.305 L
318.076 135.384 L
319.689 135.531 L
321.532 135.768 L
322.857 135.984 L
324.183 136.235 L
325.788 136.581 L
327.6 137.02 L
329.25 137.453 L
330.591 137.822 L
331.839 138.176 L
333.293 138.596 L
335.049 139.105 L
336.834 139.616 L
338.313 140.031 L
339.558 140.37 L
340.874 140.717 L
342.495 141.126 L
344.333 141.561 L
345.985 141.926 L
347.306 142.2 L
S
GR
GS
[0.75 0 0 0.75 0 0] CT
0.494 0.184 0.557 RC
1 LJ
0.667 LW
N
345.985 141.926 M
347.306 142.2 L
348.538 142.439 L
349.994 142.704 L
351.771 143 L
353.57 143.271 L
355.039 143.472 L
356.267 143.627 L
357.577 143.78 L
359.207 143.953 L
361.063 144.128 L
362.372 144.24 L
363.682 144.342 L
365.289 144.456 L
367.124 144.571 L
368.788 144.663 L
370.12 144.73 L
371.35 144.787 L
372.794 144.847 L
374.562 144.913 L
376.367 144.973 L
377.849 145.017 L
379.082 145.05 L
380.384 145.083 L
382.001 145.119 L
383.854 145.156 L
385.174 145.179 L
386.493 145.201 L
388.1 145.225 L
389.923 145.249 L
391.577 145.268 L
392.913 145.283 L
394.154 145.295 L
395.604 145.307 L
397.367 145.321 L
399.16 145.334 L
400.639 145.343 L
401.878 145.349 L
403.189 145.356 L
404.809 145.363 L
406.654 145.37 L
407.974 145.374 L
409.293 145.378 L
410.899 145.382 L
412.719 145.386 L
414.374 145.389 L
415.712 145.391 L
416.954 145.392 L
418.404 145.394 L
420.164 145.395 L
421.956 145.396 L
423.437 145.397 L
S
GR
GS
[0.75 0 0 0.75 0 0] CT
0.494 0.184 0.557 RC
1 LJ
0.667 LW
N
421.956 145.396 M
423.437 145.397 L
424.677 145.397 L
425.988 145.397 L
427.607 145.397 L
429.451 145.397 L
430.772 145.397 L
432.093 145.396 L
433.698 145.396 L
435.516 145.395 L
437.17 145.394 L
438.509 145.393 L
439.752 145.393 L
441.203 145.392 L
442.962 145.391 L
444.753 145.389 L
446.233 145.388 L
447.475 145.388 L
448.787 145.387 L
450.406 145.386 L
452.248 145.384 L
453.569 145.383 L
454.891 145.382 L
456.496 145.381 L
458.313 145.38 L
459.967 145.379 L
461.306 145.378 L
462.55 145.377 L
464.001 145.376 L
465.76 145.375 L
467.55 145.374 L
469.03 145.373 L
470.272 145.373 L
471.584 145.372 L
473.203 145.371 L
475.045 145.37 L
476.367 145.37 L
477.688 145.369 L
479.293 145.368 L
481.11 145.367 L
482.764 145.367 L
484.103 145.366 L
485.347 145.366 L
486.798 145.365 L
488.557 145.364 L
490.347 145.364 L
491.827 145.363 L
493.069 145.363 L
494.382 145.362 L
496.001 145.362 L
497.842 145.361 L
499.164 145.361 L
S
GR
GS
[0.75 0 0 0.75 0 0] CT
0.494 0.184 0.557 RC
1 LJ
0.667 LW
N
497.842 145.361 M
499.164 145.361 L
500.485 145.361 L
502.09 145.36 L
503.907 145.36 L
505.561 145.359 L
507 145.359 L
S
GR
GS
[0.75 0 0 0.75 0 0] CT
0.467 0.675 0.188 RC
1 LJ
0.667 LW
N
73 335.889 M
73.362 335.889 L
73.362 335.889 L
73.362 335.889 L
73.554 335.381 L
73.714 334.212 L
73.96 331.218 L
74.259 325.819 L
74.665 316.04 L
75.175 300.826 L
75.776 280.535 L
76.481 255.74 L
77.306 227.969 L
78.431 195.63 L
79.83 166.743 L
81.468 147.809 L
83.386 139.87 L
85.245 139.732 L
86.728 141.508 L
88.211 143.423 L
89.79 144.958 L
91.389 145.842 L
92.904 146.176 L
94.334 146.205 L
95.778 146.091 L
97.321 145.919 L
98.936 145.752 L
100.503 145.632 L
101.957 145.56 L
103.37 145.52 L
104.86 145.502 L
106.463 145.499 L
108.078 145.507 L
109.581 145.518 L
110.987 145.529 L
112.421 145.541 L
113.982 145.555 L
115.624 145.569 L
117.192 145.582 L
118.622 145.592 L
120.013 145.601 L
121.51 145.611 L
123.144 145.621 L
124.776 145.629 L
126.262 145.636 L
127.638 145.64 L
129.065 145.644 L
130.651 145.648 L
132.323 145.652 L
133.889 145.655 L
S
GR
GS
[0.75 0 0 0.75 0 0] CT
0.467 0.675 0.188 RC
1 LJ
0.667 LW
N
132.323 145.652 M
133.889 145.655 L
135.289 145.656 L
136.658 145.657 L
138.166 145.657 L
139.836 145.658 L
141.484 145.659 L
142.948 145.659 L
144.293 145.658 L
145.713 145.657 L
147.329 145.657 L
149.034 145.658 L
150.594 145.658 L
151.961 145.656 L
153.308 145.655 L
154.831 145.655 L
156.54 145.655 L
158.203 145.656 L
159.641 145.655 L
160.953 145.654 L
162.37 145.653 L
164.019 145.653 L
165.757 145.654 L
167.307 145.654 L
168.639 145.653 L
169.966 145.653 L
171.506 145.653 L
173.255 145.653 L
174.931 145.654 L
176.342 145.653 L
177.623 145.652 L
179.038 145.652 L
180.72 145.652 L
181.5 145.649 L
181.5 145.649 L
181.5 145.649 L
181.926 145.711 L
182.352 145.781 L
182.961 145.763 L
183.674 145.558 L
184.589 145.111 L
185.795 144.442 L
187.444 143.723 L
189.451 143.372 L
190.723 143.408 L
191.994 143.58 L
193.632 143.906 L
195.543 144.324 L
196.83 144.584 L
198.117 144.815 L
199.735 145.059 L
201.608 145.28 L
S
GR
GS
[0.75 0 0 0.75 0 0] CT
0.467 0.675 0.188 RC
1 LJ
0.667 LW
N
199.735 145.059 M
201.608 145.28 L
202.921 145.399 L
204.234 145.495 L
205.845 145.588 L
207.679 145.667 L
209.338 145.717 L
210.667 145.743 L
211.899 145.759 L
213.348 145.772 L
215.118 145.779 L
216.92 145.779 L
218.397 145.773 L
219.629 145.764 L
220.935 145.755 L
222.556 145.743 L
224.41 145.73 L
225.726 145.718 L
227.042 145.707 L
228.649 145.696 L
230.475 145.685 L
232.133 145.677 L
233.468 145.668 L
234.705 145.662 L
236.154 145.656 L
237.917 145.651 L
239.714 145.648 L
241.195 145.645 L
242.432 145.641 L
243.739 145.639 L
245.359 145.637 L
247.206 145.638 L
248.526 145.636 L
249.846 145.635 L
251.452 145.635 L
253.273 145.637 L
254.928 145.638 L
256.265 145.637 L
257.506 145.636 L
258.956 145.636 L
260.717 145.637 L
262.51 145.64 L
263.99 145.64 L
265.23 145.638 L
266.541 145.638 L
268.16 145.638 L
270.004 145.64 L
271.325 145.639 L
272.645 145.639 L
274.251 145.639 L
276.07 145.64 L
277.724 145.642 L
S
GR
GS
[0.75 0 0 0.75 0 0] CT
0.467 0.675 0.188 RC
1 LJ
0.667 LW
N
276.07 145.64 M
277.724 145.642 L
279.062 145.64 L
280.305 145.639 L
281.756 145.639 L
283.515 145.64 L
285.306 145.641 L
286.786 145.641 L
288.028 145.639 L
289.339 145.639 L
290 145.638 L
290 145.638 L
290 145.638 L
290.656 128.755 L
291.312 113.237 L
292.29 93.862 L
293.529 76.749 L
295.236 65.562 L
297.33 65.254 L
298.488 68.455 L
299.647 72.633 L
301.28 78.849 L
303.321 85.853 L
304.568 89.48 L
305.816 92.648 L
307.453 96.248 L
309.391 99.941 L
310.674 102.158 L
311.958 104.249 L
313.58 106.752 L
315.462 109.485 L
316.769 111.279 L
318.076 112.99 L
319.689 114.99 L
321.532 117.125 L
322.857 118.563 L
324.183 119.926 L
325.788 121.48 L
327.6 123.116 L
329.25 124.502 L
330.591 125.559 L
331.839 126.493 L
333.293 127.523 L
335.049 128.69 L
336.834 129.794 L
338.313 130.648 L
339.558 131.327 L
340.874 132.01 L
342.495 132.803 L
344.333 133.643 L
345.985 134.347 L
347.306 134.875 L
S
GR
GS
[0.75 0 0 0.75 0 0] CT
0.467 0.675 0.188 RC
1 LJ
0.667 LW
N
345.985 134.347 M
347.306 134.875 L
348.538 135.342 L
349.994 135.867 L
351.771 136.467 L
353.57 137.035 L
355.039 137.466 L
356.267 137.807 L
357.577 138.153 L
359.207 138.56 L
361.063 138.994 L
362.372 139.279 L
363.682 139.55 L
365.289 139.864 L
367.124 140.2 L
368.788 140.485 L
370.12 140.696 L
371.35 140.882 L
372.794 141.09 L
374.562 141.329 L
376.367 141.558 L
377.849 141.732 L
379.082 141.868 L
380.384 142.005 L
382.001 142.167 L
383.854 142.341 L
385.174 142.455 L
386.493 142.564 L
388.1 142.69 L
389.923 142.824 L
391.577 142.938 L
392.913 143.022 L
394.154 143.096 L
395.604 143.179 L
397.367 143.275 L
399.16 143.367 L
400.639 143.436 L
401.878 143.49 L
403.189 143.545 L
404.809 143.609 L
406.654 143.679 L
407.974 143.724 L
409.293 143.768 L
410.899 143.818 L
412.719 143.872 L
414.374 143.919 L
415.712 143.951 L
416.954 143.98 L
418.404 144.013 L
420.164 144.052 L
421.956 144.09 L
423.437 144.117 L
S
GR
GS
[0.75 0 0 0.75 0 0] CT
0.467 0.675 0.188 RC
1 LJ
0.667 LW
N
421.956 144.09 M
423.437 144.117 L
424.677 144.138 L
425.988 144.16 L
427.607 144.186 L
429.451 144.214 L
430.772 144.232 L
432.093 144.249 L
433.698 144.269 L
435.516 144.291 L
437.17 144.311 L
438.509 144.323 L
439.752 144.334 L
441.203 144.347 L
442.962 144.363 L
444.753 144.379 L
446.233 144.39 L
447.475 144.397 L
448.787 144.406 L
450.406 144.416 L
452.248 144.429 L
453.569 144.435 L
454.891 144.442 L
456.496 144.45 L
458.313 144.46 L
459.967 144.468 L
461.306 144.472 L
462.55 144.476 L
464.001 144.481 L
465.76 144.488 L
467.55 144.496 L
469.03 144.5 L
470.272 144.502 L
471.584 144.505 L
473.203 144.509 L
475.045 144.515 L
476.367 144.517 L
477.688 144.52 L
479.293 144.523 L
481.11 144.528 L
482.764 144.532 L
484.103 144.533 L
485.347 144.534 L
486.798 144.536 L
488.557 144.539 L
490.347 144.543 L
491.827 144.545 L
493.069 144.544 L
494.382 144.545 L
496.001 144.547 L
497.842 144.551 L
499.164 144.551 L
S
GR
GS
[0.75 0 0 0.75 0 0] CT
0.467 0.675 0.188 RC
1 LJ
0.667 LW
N
497.842 144.551 M
499.164 144.551 L
500.485 144.551 L
502.09 144.553 L
503.907 144.556 L
505.561 144.558 L
507 144.559 L
S
GR
GS
[0.75 0 0 0.75 0 0] CT
0.302 0.745 0.933 RC
1 LJ
0.667 LW
N
73 335.889 M
73.362 335.889 L
73.362 335.889 L
73.362 335.889 L
73.554 335.716 L
73.714 335.297 L
73.96 334.16 L
74.259 331.957 L
74.665 327.64 L
75.175 320.334 L
75.776 309.782 L
76.481 295.981 L
77.306 279.743 L
78.431 260.559 L
79.83 244.914 L
81.468 239.353 L
83.386 246.573 L
85.245 261.383 L
86.728 274.955 L
88.211 288.087 L
89.79 300.508 L
91.389 311.016 L
92.904 319.06 L
94.334 325.13 L
95.778 329.975 L
97.321 333.97 L
98.936 337.08 L
100.503 339.246 L
101.957 340.646 L
103.37 341.545 L
104.86 342.091 L
106.463 342.311 L
108.078 342.236 L
109.581 341.97 L
110.987 341.598 L
112.421 341.138 L
113.982 340.582 L
115.624 339.974 L
117.192 339.397 L
118.622 338.891 L
120.013 338.429 L
121.51 337.971 L
123.144 337.524 L
124.776 337.134 L
126.262 336.829 L
127.638 336.586 L
129.065 336.374 L
130.651 336.18 L
132.323 336.019 L
133.889 335.904 L
S
GR
GS
[0.75 0 0 0.75 0 0] CT
0.302 0.745 0.933 RC
1 LJ
0.667 LW
N
132.323 336.019 M
133.889 335.904 L
135.289 335.826 L
136.658 335.769 L
138.166 335.725 L
139.836 335.696 L
141.484 335.683 L
142.948 335.681 L
144.293 335.685 L
145.713 335.694 L
147.329 335.709 L
149.034 335.728 L
150.594 335.747 L
151.961 335.763 L
153.308 335.779 L
154.831 335.796 L
156.54 335.814 L
158.203 335.83 L
159.641 335.842 L
160.953 335.851 L
162.37 335.86 L
164.019 335.869 L
165.757 335.877 L
167.307 335.882 L
168.639 335.886 L
169.966 335.889 L
171.506 335.891 L
173.255 335.893 L
174.931 335.895 L
176.342 335.895 L
177.623 335.895 L
179.038 335.895 L
180.72 335.895 L
181.5 335.895 L
181.5 335.895 L
181.5 335.895 L
181.926 335.469 L
182.352 334.266 L
182.961 331.404 L
183.674 326.648 L
184.589 318.873 L
185.795 306.666 L
187.444 288.06 L
189.451 264.653 L
190.723 250.221 L
191.994 236.447 L
193.632 219.961 L
195.543 202.771 L
196.83 192.524 L
198.117 183.357 L
199.735 173.339 L
201.608 163.743 L
S
GR
GS
[0.75 0 0 0.75 0 0] CT
0.302 0.745 0.933 RC
1 LJ
0.667 LW
N
199.735 173.339 M
201.608 163.743 L
202.921 158.207 L
204.234 153.569 L
205.845 148.987 L
207.679 145.076 L
209.338 142.554 L
210.667 141.116 L
211.899 140.173 L
213.348 139.465 L
215.118 139.071 L
216.92 139.074 L
218.397 139.296 L
219.629 139.589 L
220.935 139.975 L
222.556 140.522 L
224.41 141.191 L
225.726 141.669 L
227.042 142.135 L
228.649 142.674 L
230.475 143.234 L
232.133 143.685 L
233.468 144.006 L
234.705 144.271 L
236.154 144.54 L
237.917 144.814 L
239.714 145.036 L
241.195 145.18 L
242.432 145.276 L
243.739 145.358 L
245.359 145.433 L
247.206 145.49 L
248.526 145.515 L
249.846 145.53 L
251.452 145.537 L
253.273 145.534 L
254.928 145.523 L
256.265 145.511 L
257.506 145.498 L
258.956 145.482 L
260.717 145.461 L
262.51 145.44 L
263.99 145.424 L
265.23 145.411 L
266.541 145.398 L
268.16 145.384 L
270.004 145.371 L
271.325 145.362 L
272.645 145.355 L
274.251 145.348 L
276.07 145.341 L
277.724 145.336 L
S
GR
GS
[0.75 0 0 0.75 0 0] CT
0.302 0.745 0.933 RC
1 LJ
0.667 LW
N
276.07 145.341 M
277.724 145.336 L
279.062 145.333 L
280.305 145.331 L
281.756 145.329 L
283.515 145.328 L
285.306 145.327 L
286.786 145.327 L
288.028 145.327 L
289.339 145.327 L
290 145.327 L
290 145.327 L
290 145.327 L
290.656 143.328 L
291.312 138.64 L
292.29 129.84 L
293.529 119.694 L
295.236 111.746 L
297.33 111.457 L
298.488 114.125 L
299.647 117.664 L
301.28 122.852 L
303.321 128.24 L
304.568 130.636 L
305.816 132.372 L
307.453 133.829 L
309.391 134.705 L
310.674 134.975 L
311.958 135.108 L
313.58 135.178 L
315.462 135.228 L
316.769 135.279 L
318.076 135.358 L
319.689 135.505 L
321.532 135.743 L
322.857 135.959 L
324.183 136.21 L
325.788 136.556 L
327.6 136.995 L
329.25 137.428 L
330.591 137.798 L
331.839 138.152 L
333.293 138.571 L
335.049 139.081 L
336.834 139.593 L
338.313 140.008 L
339.558 140.347 L
340.874 140.695 L
342.495 141.104 L
344.333 141.54 L
345.985 141.905 L
347.306 142.179 L
S
GR
GS
[0.75 0 0 0.75 0 0] CT
0.302 0.745 0.933 RC
1 LJ
0.667 LW
N
345.985 141.905 M
347.306 142.179 L
348.538 142.419 L
349.994 142.684 L
351.771 142.98 L
353.57 143.252 L
355.039 143.453 L
356.267 143.608 L
357.577 143.761 L
359.207 143.934 L
361.063 144.11 L
362.372 144.222 L
363.682 144.324 L
365.289 144.438 L
367.124 144.553 L
368.788 144.646 L
370.12 144.713 L
371.35 144.769 L
372.794 144.83 L
374.562 144.896 L
376.367 144.956 L
377.849 145 L
379.082 145.033 L
380.384 145.065 L
382.001 145.101 L
383.854 145.138 L
385.174 145.162 L
386.493 145.184 L
388.1 145.207 L
389.923 145.231 L
391.577 145.251 L
392.913 145.265 L
394.154 145.277 L
395.604 145.29 L
397.367 145.303 L
399.16 145.316 L
400.639 145.325 L
401.878 145.332 L
403.189 145.338 L
404.809 145.345 L
406.654 145.352 L
407.974 145.356 L
409.293 145.36 L
410.899 145.364 L
412.719 145.368 L
414.374 145.371 L
415.712 145.373 L
416.954 145.374 L
418.404 145.376 L
420.164 145.377 L
421.956 145.378 L
423.437 145.379 L
S
GR
GS
[0.75 0 0 0.75 0 0] CT
0.302 0.745 0.933 RC
1 LJ
0.667 LW
N
421.956 145.378 M
423.437 145.379 L
424.677 145.379 L
425.988 145.379 L
427.607 145.379 L
429.451 145.379 L
430.772 145.378 L
432.093 145.378 L
433.698 145.377 L
435.516 145.377 L
437.17 145.376 L
438.509 145.375 L
439.752 145.374 L
441.203 145.373 L
442.962 145.372 L
444.753 145.371 L
446.233 145.37 L
447.475 145.369 L
448.787 145.368 L
450.406 145.367 L
452.248 145.366 L
453.569 145.365 L
454.891 145.364 L
456.496 145.363 L
458.313 145.362 L
459.967 145.361 L
461.306 145.36 L
462.55 145.359 L
464.001 145.358 L
465.76 145.357 L
467.55 145.356 L
469.03 145.355 L
470.272 145.354 L
471.584 145.354 L
473.203 145.353 L
475.045 145.352 L
476.367 145.351 L
477.688 145.35 L
479.293 145.35 L
481.11 145.349 L
482.764 145.348 L
484.103 145.348 L
485.347 145.347 L
486.798 145.347 L
488.557 145.346 L
490.347 145.345 L
491.827 145.345 L
493.069 145.344 L
494.382 145.344 L
496.001 145.343 L
497.842 145.343 L
499.164 145.342 L
S
GR
GS
[0.75 0 0 0.75 0 0] CT
0.302 0.745 0.933 RC
1 LJ
0.667 LW
N
497.842 145.343 M
499.164 145.342 L
500.485 145.342 L
502.09 145.342 L
503.907 145.341 L
505.561 145.341 L
507 145.341 L
S
GR
GS
[0.75 0 0 0.75 0 0] CT
1 GC
N
419 163 M
419 44 L
494 44 L
494 163 L
cp
f
GR
GS
[0.75 0 0 0.75 353.25 40.64642] CT
/Helvetica 12 F
GS
[1 0 0 1 0 0] CT
0 4.5 moveto 
1 -1 scale
(w1) t 
GR
GR
GS
[0.75 0 0 0.75 0 0] CT
0 0.447 0.741 RC
1 LJ
0.667 LW
N
427 54.195 M
467 54.195 L
S
GR
GS
[0.75 0 0 0.75 353.25 52.42942] CT
/Helvetica 12 F
GS
[1 0 0 1 0 0] CT
0 4.5 moveto 
1 -1 scale
(w2) t 
GR
GR
GS
[0.75 0 0 0.75 0 0] CT
0.851 0.325 0.098 RC
1 LJ
0.667 LW
N
427 69.906 M
467 69.906 L
S
GR
GS
[0.75 0 0 0.75 353.25 67.5] CT
/Helvetica 12 F
GS
[1 0 0 1 0 0] CT
0 0 moveto 
1 -1 scale
(y1) t 
GR
GR
GS
[0.75 0 0 0.75 363 72] CT
/Helvetica 9 F
GS
[1 0 0 1 0 0] CT
0 0 moveto 
1 -1 scale
(1) t 
GR
GR
GS
[0.75 0 0 0.75 0 0] CT
0.929 0.694 0.125 RC
1 LJ
0.667 LW
N
427 88.124 M
467 88.124 L
S
GR
GS
[0.75 0 0 0.75 353.25 83.25] CT
/Helvetica 12 F
GS
[1 0 0 1 0 0] CT
0 0 moveto 
1 -1 scale
(y2) t 
GR
GR
GS
[0.75 0 0 0.75 363 87.75] CT
/Helvetica 9 F
GS
[1 0 0 1 0 0] CT
0 0 moveto 
1 -1 scale
(1) t 
GR
GR
GS
[0.75 0 0 0.75 0 0] CT
0.494 0.184 0.557 RC
1 LJ
0.667 LW
N
427 108.848 M
467 108.848 L
S
GR
GS
[0.75 0 0 0.75 353.25 99] CT
/Helvetica 12 F
GS
[1 0 0 1 0 0] CT
0 0 moveto 
1 -1 scale
(y1) t 
GR
GR
GS
[0.75 0 0 0.75 363 103.5] CT
/Helvetica 9 F
GS
[1 0 0 1 0 0] CT
0 0 moveto 
1 -1 scale
(2) t 
GR
GR
GS
[0.75 0 0 0.75 0 0] CT
0.467 0.675 0.188 RC
1 LJ
0.667 LW
N
427 129.573 M
467 129.573 L
S
GR
GS
[0.75 0 0 0.75 353.25 114] CT
/Helvetica 12 F
GS
[1 0 0 1 0 0] CT
0 0 moveto 
1 -1 scale
(y2) t 
GR
GR
GS
[0.75 0 0 0.75 363 118.5] CT
/Helvetica 9 F
GS
[1 0 0 1 0 0] CT
0 0 moveto 
1 -1 scale
(2) t 
GR
GR
GS
[0.75 0 0 0.75 0 0] CT
0.302 0.745 0.933 RC
1 LJ
0.667 LW
N
427 150.298 M
467 150.298 L
S
GR
GS
[0.75 0 0 0.75 0 0] CT
0.149 GC
10.0 ML
0.667 LW
N
419 163 M
419 44 L
494 44 L
494 163 L
cp
S
GR
%%Trailer
%%Pages: 1
%%EOF
