%!PS-Adobe-3.0 EPSF-3.0
%%Creator: (MATLAB, The Mathworks, Inc. Version 8.6.0.267246 \(R2015b\). Operating System: Windows 8)
%%Title: E:/Projects/skola/rls/pics/SP5/k2d_i_sigma.eps
%%CreationDate: 2017-03-17T10:02:06
%%Pages: (atend)
%%BoundingBox: 0 0 420 315
%%LanguageLevel: 2
%%EndComments
%%BeginProlog
%%BeginResource: procset (Apache XML Graphics Std ProcSet) 1.2 0
%%Version: 1.2 0
%%Copyright: (Copyright 2001-2003,2010 The Apache Software Foundation. License terms: http://www.apache.org/licenses/LICENSE-2.0)
/bd{bind def}bind def
/ld{load def}bd
/GR/grestore ld
/M/moveto ld
/LJ/setlinejoin ld
/C/curveto ld
/f/fill ld
/LW/setlinewidth ld
/GC/setgray ld
/t/show ld
/N/newpath ld
/CT/concat ld
/cp/closepath ld
/S/stroke ld
/L/lineto ld
/CC/setcmykcolor ld
/A/ashow ld
/GS/gsave ld
/RC/setrgbcolor ld
/RM/rmoveto ld
/ML/setmiterlimit ld
/re {4 2 roll M
1 index 0 rlineto
0 exch rlineto
neg 0 rlineto
cp } bd
/_ctm matrix def
/_tm matrix def
/BT { _ctm currentmatrix pop matrix _tm copy pop 0 0 moveto } bd
/ET { _ctm setmatrix } bd
/iTm { _ctm setmatrix _tm concat } bd
/Tm { _tm astore pop iTm 0 0 moveto } bd
/ux 0.0 def
/uy 0.0 def
/F {
  /Tp exch def
  /Tf exch def
  Tf findfont Tp scalefont setfont
  /cf Tf def  /cs Tp def
} bd
/ULS {currentpoint /uy exch def /ux exch def} bd
/ULE {
  /Tcx currentpoint pop def
  gsave
  newpath
  cf findfont cs scalefont dup
  /FontMatrix get 0 get /Ts exch def /FontInfo get dup
  /UnderlinePosition get Ts mul /To exch def
  /UnderlineThickness get Ts mul /Tt exch def
  ux uy To add moveto  Tcx uy To add lineto
  Tt setlinewidth stroke
  grestore
} bd
/OLE {
  /Tcx currentpoint pop def
  gsave
  newpath
  cf findfont cs scalefont dup
  /FontMatrix get 0 get /Ts exch def /FontInfo get dup
  /UnderlinePosition get Ts mul /To exch def
  /UnderlineThickness get Ts mul /Tt exch def
  ux uy To add cs add moveto Tcx uy To add cs add lineto
  Tt setlinewidth stroke
  grestore
} bd
/SOE {
  /Tcx currentpoint pop def
  gsave
  newpath
  cf findfont cs scalefont dup
  /FontMatrix get 0 get /Ts exch def /FontInfo get dup
  /UnderlinePosition get Ts mul /To exch def
  /UnderlineThickness get Ts mul /Tt exch def
  ux uy To add cs 10 mul 26 idiv add moveto Tcx uy To add cs 10 mul 26 idiv add lineto
  Tt setlinewidth stroke
  grestore
} bd
/QT {
/Y22 exch store
/X22 exch store
/Y21 exch store
/X21 exch store
currentpoint
/Y21 load 2 mul add 3 div exch
/X21 load 2 mul add 3 div exch
/X21 load 2 mul /X22 load add 3 div
/Y21 load 2 mul /Y22 load add 3 div
/X22 load /Y22 load curveto
} bd
/SSPD {
dup length /d exch dict def
{
/v exch def
/k exch def
currentpagedevice k known {
/cpdv currentpagedevice k get def
v cpdv ne {
/upd false def
/nullv v type /nulltype eq def
/nullcpdv cpdv type /nulltype eq def
nullv nullcpdv or
{
/upd true def
} {
/sametype v type cpdv type eq def
sametype {
v type /arraytype eq {
/vlen v length def
/cpdvlen cpdv length def
vlen cpdvlen eq {
0 1 vlen 1 sub {
/i exch def
/obj v i get def
/cpdobj cpdv i get def
obj cpdobj ne {
/upd true def
exit
} if
} for
} {
/upd true def
} ifelse
} {
v type /dicttype eq {
v {
/dv exch def
/dk exch def
/cpddv cpdv dk get def
dv cpddv ne {
/upd true def
exit
} if
} forall
} {
/upd true def
} ifelse
} ifelse
} if
} ifelse
upd true eq {
d k v put
} if
} if
} if
} forall
d length 0 gt {
d setpagedevice
} if
} bd
%%EndResource
%%BeginResource: procset (Apache XML Graphics EPS ProcSet) 1.0 0
%%Version: 1.0 0
%%Copyright: (Copyright 2002-2003 The Apache Software Foundation. License terms: http://www.apache.org/licenses/LICENSE-2.0)
/BeginEPSF { %def
/b4_Inc_state save def         % Save state for cleanup
/dict_count countdictstack def % Count objects on dict stack
/op_count count 1 sub def      % Count objects on operand stack
userdict begin                 % Push userdict on dict stack
/showpage { } def              % Redefine showpage, { } = null proc
0 setgray 0 setlinecap         % Prepare graphics state
1 setlinewidth 0 setlinejoin
10 setmiterlimit [ ] 0 setdash newpath
/languagelevel where           % If level not equal to 1 then
{pop languagelevel             % set strokeadjust and
1 ne                           % overprint to their defaults.
{false setstrokeadjust false setoverprint
} if
} if
} bd
/EndEPSF { %def
count op_count sub {pop} repeat            % Clean up stacks
countdictstack dict_count sub {end} repeat
b4_Inc_state restore
} bd
%%EndResource
%FOPBeginFontDict
%%IncludeResource: font Courier-Bold
%%IncludeResource: font Helvetica
%%IncludeResource: font Courier-BoldOblique
%%IncludeResource: font Courier-Oblique
%%IncludeResource: font Times-Roman
%%IncludeResource: font Helvetica-BoldOblique
%%IncludeResource: font Helvetica-Bold
%%IncludeResource: font Helvetica-Oblique
%%IncludeResource: font Times-BoldItalic
%%IncludeResource: font Courier
%%IncludeResource: font Times-Italic
%%IncludeResource: font Times-Bold
%%IncludeResource: font Symbol
%%IncludeResource: font ZapfDingbats
%FOPEndFontDict
%%BeginResource: encoding WinAnsiEncoding
/WinAnsiEncoding [
/.notdef /.notdef /.notdef /.notdef /.notdef
/.notdef /.notdef /.notdef /.notdef /.notdef
/.notdef /.notdef /.notdef /.notdef /.notdef
/.notdef /.notdef /.notdef /.notdef /.notdef
/.notdef /.notdef /.notdef /.notdef /.notdef
/.notdef /.notdef /.notdef /.notdef /.notdef
/.notdef /.notdef /space /exclam /quotedbl
/numbersign /dollar /percent /ampersand /quotesingle
/parenleft /parenright /asterisk /plus /comma
/hyphen /period /slash /zero /one
/two /three /four /five /six
/seven /eight /nine /colon /semicolon
/less /equal /greater /question /at
/A /B /C /D /E
/F /G /H /I /J
/K /L /M /N /O
/P /Q /R /S /T
/U /V /W /X /Y
/Z /bracketleft /backslash /bracketright /asciicircum
/underscore /quoteleft /a /b /c
/d /e /f /g /h
/i /j /k /l /m
/n /o /p /q /r
/s /t /u /v /w
/x /y /z /braceleft /bar
/braceright /asciitilde /bullet /Euro /bullet
/quotesinglbase /florin /quotedblbase /ellipsis /dagger
/daggerdbl /circumflex /perthousand /Scaron /guilsinglleft
/OE /bullet /Zcaron /bullet /bullet
/quoteleft /quoteright /quotedblleft /quotedblright /bullet
/endash /emdash /asciitilde /trademark /scaron
/guilsinglright /oe /bullet /zcaron /Ydieresis
/space /exclamdown /cent /sterling /currency
/yen /brokenbar /section /dieresis /copyright
/ordfeminine /guillemotleft /logicalnot /sfthyphen /registered
/macron /degree /plusminus /twosuperior /threesuperior
/acute /mu /paragraph /middot /cedilla
/onesuperior /ordmasculine /guillemotright /onequarter /onehalf
/threequarters /questiondown /Agrave /Aacute /Acircumflex
/Atilde /Adieresis /Aring /AE /Ccedilla
/Egrave /Eacute /Ecircumflex /Edieresis /Igrave
/Iacute /Icircumflex /Idieresis /Eth /Ntilde
/Ograve /Oacute /Ocircumflex /Otilde /Odieresis
/multiply /Oslash /Ugrave /Uacute /Ucircumflex
/Udieresis /Yacute /Thorn /germandbls /agrave
/aacute /acircumflex /atilde /adieresis /aring
/ae /ccedilla /egrave /eacute /ecircumflex
/edieresis /igrave /iacute /icircumflex /idieresis
/eth /ntilde /ograve /oacute /ocircumflex
/otilde /odieresis /divide /oslash /ugrave
/uacute /ucircumflex /udieresis /yacute /thorn
/ydieresis
] def
%%EndResource
%FOPBeginFontReencode
/Courier-Bold findfont
dup length dict begin
  {1 index /FID ne {def} {pop pop} ifelse} forall
  /Encoding WinAnsiEncoding def
  currentdict
end
/Courier-Bold exch definefont pop
/Helvetica findfont
dup length dict begin
  {1 index /FID ne {def} {pop pop} ifelse} forall
  /Encoding WinAnsiEncoding def
  currentdict
end
/Helvetica exch definefont pop
/Courier-BoldOblique findfont
dup length dict begin
  {1 index /FID ne {def} {pop pop} ifelse} forall
  /Encoding WinAnsiEncoding def
  currentdict
end
/Courier-BoldOblique exch definefont pop
/Courier-Oblique findfont
dup length dict begin
  {1 index /FID ne {def} {pop pop} ifelse} forall
  /Encoding WinAnsiEncoding def
  currentdict
end
/Courier-Oblique exch definefont pop
/Times-Roman findfont
dup length dict begin
  {1 index /FID ne {def} {pop pop} ifelse} forall
  /Encoding WinAnsiEncoding def
  currentdict
end
/Times-Roman exch definefont pop
/Helvetica-BoldOblique findfont
dup length dict begin
  {1 index /FID ne {def} {pop pop} ifelse} forall
  /Encoding WinAnsiEncoding def
  currentdict
end
/Helvetica-BoldOblique exch definefont pop
/Helvetica-Bold findfont
dup length dict begin
  {1 index /FID ne {def} {pop pop} ifelse} forall
  /Encoding WinAnsiEncoding def
  currentdict
end
/Helvetica-Bold exch definefont pop
/Helvetica-Oblique findfont
dup length dict begin
  {1 index /FID ne {def} {pop pop} ifelse} forall
  /Encoding WinAnsiEncoding def
  currentdict
end
/Helvetica-Oblique exch definefont pop
/Times-BoldItalic findfont
dup length dict begin
  {1 index /FID ne {def} {pop pop} ifelse} forall
  /Encoding WinAnsiEncoding def
  currentdict
end
/Times-BoldItalic exch definefont pop
/Courier findfont
dup length dict begin
  {1 index /FID ne {def} {pop pop} ifelse} forall
  /Encoding WinAnsiEncoding def
  currentdict
end
/Courier exch definefont pop
/Times-Italic findfont
dup length dict begin
  {1 index /FID ne {def} {pop pop} ifelse} forall
  /Encoding WinAnsiEncoding def
  currentdict
end
/Times-Italic exch definefont pop
/Times-Bold findfont
dup length dict begin
  {1 index /FID ne {def} {pop pop} ifelse} forall
  /Encoding WinAnsiEncoding def
  currentdict
end
/Times-Bold exch definefont pop
%FOPEndFontReencode
%%EndProlog
%%Page: 1 1
%%PageBoundingBox: 0 0 420 315
%%BeginPageSetup
[1 0 0 -1 0 315] CT
%%EndPageSetup
GS
[0.75 0 0 0.75 0 0] CT
1 GC
N
0 0 560 420 re
f
GR
GS
[0.75 0 0 0.75 0 0] CT
1 GC
N
0 0 560 420 re
f
GR
GS
[0.75 0 0 0.75 0 0] CT
1 GC
N
85 374 M
507 374 L
507 51 L
85 51 L
cp
f
GR
GS
[0.75 0 0 0.75 0 0] CT
0.4 GC
2 setlinecap
1 LJ
0.667 LW
N
85 374 M
507 374 L
S
GR
GS
[0.75 0 0 0.75 0 0] CT
0.4 GC
2 setlinecap
1 LJ
0.667 LW
N
85 51 M
507 51 L
S
GR
GS
[0.75 0 0 0.75 0 0] CT
0.4 GC
2 setlinecap
1 LJ
0.667 LW
N
108.444 374 M
108.444 369.78 L
S
GR
GS
[0.75 0 0 0.75 0 0] CT
0.4 GC
2 setlinecap
1 LJ
0.667 LW
N
225.667 374 M
225.667 369.78 L
S
GR
GS
[0.75 0 0 0.75 0 0] CT
0.4 GC
2 setlinecap
1 LJ
0.667 LW
N
342.889 374 M
342.889 369.78 L
S
GR
GS
[0.75 0 0 0.75 0 0] CT
0.4 GC
2 setlinecap
1 LJ
0.667 LW
N
460.111 374 M
460.111 369.78 L
S
GR
GS
[0.75 0 0 0.75 0 0] CT
0.4 GC
2 setlinecap
1 LJ
0.667 LW
N
108.444 51 M
108.444 55.22 L
S
GR
GS
[0.75 0 0 0.75 0 0] CT
0.4 GC
2 setlinecap
1 LJ
0.667 LW
N
225.667 51 M
225.667 55.22 L
S
GR
GS
[0.75 0 0 0.75 0 0] CT
0.4 GC
2 setlinecap
1 LJ
0.667 LW
N
342.889 51 M
342.889 55.22 L
S
GR
GS
[0.75 0 0 0.75 0 0] CT
0.4 GC
2 setlinecap
1 LJ
0.667 LW
N
460.111 51 M
460.111 55.22 L
S
GR
GS
[0.75 0 0 0.75 69 297] CT
0.4 GC
/Helvetica 13 F
GS
[1 0 0 1 0 0] CT
0 0 moveto 
1 -1 scale
(10) t 
GR
GR
GS
[0.75 0 0 0.75 80.25 292.5] CT
0.4 GC
/Helvetica 11 F
GS
[1 0 0 1 0 0] CT
0 0 moveto 
1 -1 scale
(-15) t 
GR
GR
GS
[0.75 0 0 0.75 157.5 297] CT
0.4 GC
/Helvetica 13 F
GS
[1 0 0 1 0 0] CT
0 0 moveto 
1 -1 scale
(10) t 
GR
GR
GS
[0.75 0 0 0.75 168.75 292.5] CT
0.4 GC
/Helvetica 11 F
GS
[1 0 0 1 0 0] CT
0 0 moveto 
1 -1 scale
(-10) t 
GR
GR
GS
[0.75 0 0 0.75 247.5 297] CT
0.4 GC
/Helvetica 13 F
GS
[1 0 0 1 0 0] CT
0 0 moveto 
1 -1 scale
(10) t 
GR
GR
GS
[0.75 0 0 0.75 258.75 292.5] CT
0.4 GC
/Helvetica 11 F
GS
[1 0 0 1 0 0] CT
0 0 moveto 
1 -1 scale
(-5) t 
GR
GR
GS
[0.75 0 0 0.75 336.75 297] CT
0.4 GC
/Helvetica 13 F
GS
[1 0 0 1 0 0] CT
0 0 moveto 
1 -1 scale
(10) t 
GR
GR
GS
[0.75 0 0 0.75 348 292.5] CT
0.4 GC
/Helvetica 11 F
GS
[1 0 0 1 0 0] CT
0 0 moveto 
1 -1 scale
(0) t 
GR
GR
GS
[0.75 0 0 0.75 0 0] CT
0.4 GC
2 setlinecap
1 LJ
0.667 LW
N
85 374 M
85 51 L
S
GR
GS
[0.75 0 0 0.75 0 0] CT
0.4 GC
2 setlinecap
1 LJ
0.667 LW
N
507 374 M
507 51 L
S
GR
GS
[0.75 0 0 0.75 0 0] CT
0.4 GC
2 setlinecap
1 LJ
0.667 LW
N
85 374 M
89.22 374 L
S
GR
GS
[0.75 0 0 0.75 0 0] CT
0.4 GC
2 setlinecap
1 LJ
0.667 LW
N
85 320.167 M
89.22 320.167 L
S
GR
GS
[0.75 0 0 0.75 0 0] CT
0.4 GC
2 setlinecap
1 LJ
0.667 LW
N
85 266.333 M
89.22 266.333 L
S
GR
GS
[0.75 0 0 0.75 0 0] CT
0.4 GC
2 setlinecap
1 LJ
0.667 LW
N
85 212.5 M
89.22 212.5 L
S
GR
GS
[0.75 0 0 0.75 0 0] CT
0.4 GC
2 setlinecap
1 LJ
0.667 LW
N
85 158.667 M
89.22 158.667 L
S
GR
GS
[0.75 0 0 0.75 0 0] CT
0.4 GC
2 setlinecap
1 LJ
0.667 LW
N
85 104.833 M
89.22 104.833 L
S
GR
GS
[0.75 0 0 0.75 0 0] CT
0.4 GC
2 setlinecap
1 LJ
0.667 LW
N
85 51 M
89.22 51 L
S
GR
GS
[0.75 0 0 0.75 0 0] CT
0.4 GC
2 setlinecap
1 LJ
0.667 LW
N
507 374 M
502.78 374 L
S
GR
GS
[0.75 0 0 0.75 0 0] CT
0.4 GC
2 setlinecap
1 LJ
0.667 LW
N
507 320.167 M
502.78 320.167 L
S
GR
GS
[0.75 0 0 0.75 0 0] CT
0.4 GC
2 setlinecap
1 LJ
0.667 LW
N
507 266.333 M
502.78 266.333 L
S
GR
GS
[0.75 0 0 0.75 0 0] CT
0.4 GC
2 setlinecap
1 LJ
0.667 LW
N
507 212.5 M
502.78 212.5 L
S
GR
GS
[0.75 0 0 0.75 0 0] CT
0.4 GC
2 setlinecap
1 LJ
0.667 LW
N
507 158.667 M
502.78 158.667 L
S
GR
GS
[0.75 0 0 0.75 0 0] CT
0.4 GC
2 setlinecap
1 LJ
0.667 LW
N
507 104.833 M
502.78 104.833 L
S
GR
GS
[0.75 0 0 0.75 0 0] CT
0.4 GC
2 setlinecap
1 LJ
0.667 LW
N
507 51 M
502.78 51 L
S
GR
GS
[0.75 0 0 0.75 59.75 280.5] CT
0.4 GC
/Helvetica 13 F
GS
[1 0 0 1 0 0] CT
-27 5 moveto 
1 -1 scale
(-300) t 
GR
GR
GS
[0.75 0 0 0.75 59.75 240.12499] CT
0.4 GC
/Helvetica 13 F
GS
[1 0 0 1 0 0] CT
-27 5 moveto 
1 -1 scale
(-200) t 
GR
GR
GS
[0.75 0 0 0.75 59.75 199.75001] CT
0.4 GC
/Helvetica 13 F
GS
[1 0 0 1 0 0] CT
-27 5 moveto 
1 -1 scale
(-100) t 
GR
GR
GS
[0.75 0 0 0.75 59.75 159.375] CT
0.4 GC
/Helvetica 13 F
GS
[1 0 0 1 0 0] CT
-8 5 moveto 
1 -1 scale
(0) t 
GR
GR
GS
[0.75 0 0 0.75 59.75 118.99999] CT
0.4 GC
/Helvetica 13 F
GS
[1 0 0 1 0 0] CT
-22 5 moveto 
1 -1 scale
(100) t 
GR
GR
GS
[0.75 0 0 0.75 59.75 78.62501] CT
0.4 GC
/Helvetica 13 F
GS
[1 0 0 1 0 0] CT
-22 5 moveto 
1 -1 scale
(200) t 
GR
GR
GS
[0.75 0 0 0.75 59.75 38.25] CT
0.4 GC
/Helvetica 13 F
GS
[1 0 0 1 0 0] CT
-22 5 moveto 
1 -1 scale
(300) t 
GR
GR
GS
[0.75 0 0 0.75 0 0] CT
0 0.447 0.741 RC
1 LJ
0.667 LW
N
84.958 343.327 M
88.022 343.327 L
89.585 343.326 L
91.149 343.326 L
92.712 343.326 L
94.275 343.326 L
95.838 343.325 L
97.401 343.324 L
98.964 343.324 L
100.527 343.322 L
102.09 343.321 L
103.653 343.318 L
105.216 343.315 L
106.779 343.311 L
108.342 343.305 L
109.905 343.298 L
111.468 343.287 L
113.031 343.273 L
114.594 343.254 L
116.157 343.229 L
117.72 343.195 L
119.283 343.149 L
120.846 343.088 L
122.409 343.008 L
123.972 342.903 L
125.535 342.768 L
127.099 342.595 L
128.662 342.38 L
130.225 342.116 L
131.788 341.799 L
133.351 341.427 L
134.914 341.001 L
136.477 340.524 L
138.04 340.001 L
139.603 339.437 L
141.166 338.84 L
142.729 338.215 L
144.292 337.567 L
145.855 336.903 L
147.418 336.225 L
148.981 335.537 L
150.544 334.841 L
152.107 334.14 L
153.67 333.434 L
155.233 332.726 L
156.796 332.015 L
158.359 331.302 L
159.922 330.587 L
161.485 329.872 L
163.049 329.156 L
S
GR
GS
[0.75 0 0 0.75 0 0] CT
0 0.447 0.741 RC
1 LJ
0.667 LW
N
161.485 329.872 M
163.049 329.156 L
164.612 328.44 L
166.175 327.723 L
167.738 327.006 L
171.276 325.382 L
182.998 320 L
194.72 314.617 L
206.443 309.234 L
218.165 303.85 L
229.887 298.467 L
241.609 293.084 L
253.331 287.7 L
265.054 282.317 L
276.776 276.934 L
288.498 271.55 L
300.22 266.167 L
311.943 260.784 L
314.664 259.535 L
316.227 258.817 L
317.79 258.1 L
319.353 257.383 L
320.916 256.666 L
322.479 255.949 L
324.042 255.233 L
325.605 254.517 L
327.168 253.802 L
328.731 253.088 L
330.294 252.375 L
331.857 251.665 L
333.42 250.956 L
334.983 250.251 L
336.546 249.551 L
338.109 248.857 L
339.672 248.17 L
341.235 247.494 L
342.799 246.831 L
344.362 246.186 L
345.925 245.562 L
347.488 244.965 L
349.051 244.398 L
350.614 243.866 L
352.177 243.371 L
353.74 242.911 L
355.303 242.48 L
356.866 242.068 L
358.429 241.656 L
359.992 241.224 L
361.555 240.754 L
363.118 240.233 L
364.681 239.663 L
366.244 239.052 L
S
GR
GS
[0.75 0 0 0.75 0 0] CT
0 0.447 0.741 RC
1 LJ
0.667 LW
N
364.681 239.663 M
366.244 239.052 L
367.807 238.411 L
369.37 237.747 L
370.933 237.067 L
372.496 236.377 L
374.059 235.679 L
375.622 234.975 L
377.185 234.268 L
378.749 233.558 L
380.312 232.845 L
381.875 232.132 L
383.438 231.417 L
385.001 230.701 L
386.564 229.985 L
388.127 229.268 L
389.69 228.551 L
391.253 227.834 L
392.816 227.116 L
394.379 226.398 L
395.942 225.68 L
397.505 224.962 L
399.068 224.243 L
400.631 223.524 L
402.194 222.805 L
403.757 222.085 L
405.32 221.364 L
406.883 220.642 L
408.446 219.919 L
410.009 219.194 L
411.572 218.467 L
413.135 217.737 L
414.698 217.005 L
416.262 216.269 L
417.825 215.53 L
419.388 214.791 L
420.951 214.058 L
422.514 213.339 L
424.077 212.655 L
425.64 212.032 L
427.203 211.507 L
428.766 211.11 L
430.329 210.856 L
431.892 210.729 L
433.455 210.691 L
435.018 210.699 L
436.581 210.72 L
438.144 210.738 L
439.707 210.763 L
441.27 210.825 L
442.833 210.946 L
444.396 211.124 L
S
GR
GS
[0.75 0 0 0.75 0 0] CT
0 0.447 0.741 RC
1 LJ
0.667 LW
N
442.833 210.946 M
444.396 211.124 L
445.959 211.334 L
447.522 211.549 L
449.085 211.747 L
450.648 211.917 L
452.212 212.056 L
453.775 212.167 L
455.338 212.252 L
456.901 212.317 L
458.464 212.366 L
460.027 212.402 L
461.59 212.428 L
463.153 212.447 L
464.716 212.462 L
466.279 212.472 L
467.842 212.479 L
469.405 212.485 L
470.968 212.489 L
472.531 212.492 L
474.094 212.494 L
475.657 212.496 L
477.22 212.497 L
478.783 212.498 L
480.346 212.498 L
481.909 212.499 L
483.472 212.499 L
485.035 212.499 L
486.599 212.499 L
488.162 212.5 L
489.725 212.5 L
491.288 212.5 L
492.851 212.5 L
494.414 212.5 L
495.977 212.5 L
497.54 212.5 L
507.042 212.5 L
S
GR
GS
[0.75 0 0 0.75 0 0] CT
0 0.447 0.741 RC
1 LJ
0.667 LW
N
84.958 349.475 M
88.022 349.475 L
89.585 349.475 L
91.149 349.474 L
92.712 349.474 L
94.275 349.473 L
95.838 349.472 L
97.401 349.471 L
98.964 349.469 L
100.527 349.466 L
102.09 349.462 L
103.653 349.458 L
105.216 349.451 L
106.779 349.442 L
108.342 349.43 L
109.905 349.414 L
111.468 349.392 L
113.031 349.362 L
114.594 349.322 L
116.157 349.269 L
117.72 349.199 L
119.283 349.107 L
120.846 348.988 L
122.409 348.835 L
123.972 348.641 L
125.535 348.401 L
127.099 348.109 L
128.662 347.763 L
130.225 347.362 L
131.788 346.908 L
133.351 346.404 L
134.914 345.857 L
136.477 345.273 L
138.04 344.658 L
139.603 344.019 L
141.166 343.361 L
142.729 342.687 L
144.292 342.003 L
145.855 341.31 L
147.418 340.611 L
148.981 339.906 L
150.544 339.199 L
152.107 338.488 L
153.67 337.776 L
155.233 337.062 L
156.796 336.347 L
158.359 335.632 L
159.922 334.915 L
161.485 334.199 L
163.049 333.482 L
S
GR
GS
[0.75 0 0 0.75 0 0] CT
0 0.447 0.741 RC
1 LJ
0.667 LW
N
161.485 334.199 M
163.049 333.482 L
164.612 332.765 L
166.175 332.047 L
167.738 331.33 L
171.276 329.706 L
182.998 324.323 L
194.72 318.939 L
206.443 313.556 L
218.165 308.173 L
229.887 302.789 L
241.609 297.406 L
253.331 292.023 L
265.054 286.639 L
276.776 281.256 L
288.498 275.873 L
300.22 270.489 L
311.943 265.106 L
314.664 263.856 L
316.227 263.139 L
317.79 262.421 L
319.353 261.703 L
320.916 260.985 L
322.479 260.268 L
324.042 259.55 L
325.605 258.832 L
327.168 258.115 L
328.731 257.397 L
330.294 256.68 L
331.857 255.963 L
333.42 255.246 L
334.983 254.529 L
336.546 253.812 L
338.109 253.097 L
339.672 252.382 L
341.235 251.667 L
342.799 250.955 L
344.362 250.244 L
345.925 249.536 L
347.488 248.831 L
349.051 248.131 L
350.614 247.439 L
352.177 246.756 L
353.74 246.088 L
355.303 245.441 L
356.866 244.824 L
358.429 244.249 L
359.992 243.73 L
361.555 243.275 L
363.118 242.886 L
364.681 242.551 L
366.244 242.249 L
S
GR
GS
[0.75 0 0 0.75 0 0] CT
0 0.447 0.741 RC
1 LJ
0.667 LW
N
364.681 242.551 M
366.244 242.249 L
367.807 241.961 L
369.37 241.666 L
370.933 241.35 L
372.496 241 L
374.059 240.609 L
375.622 240.174 L
377.185 239.692 L
378.749 239.168 L
380.312 238.606 L
381.875 238.01 L
383.438 237.387 L
385.001 236.742 L
386.564 236.079 L
388.127 235.403 L
389.69 234.716 L
391.253 234.021 L
392.816 233.321 L
394.379 232.616 L
395.942 231.907 L
397.505 231.197 L
399.068 230.484 L
400.631 229.77 L
402.194 229.055 L
403.757 228.34 L
405.32 227.624 L
406.883 226.908 L
408.446 226.192 L
410.009 225.476 L
411.572 224.76 L
413.135 224.045 L
414.698 223.33 L
416.262 222.616 L
417.825 221.903 L
419.388 221.192 L
420.951 220.482 L
422.514 219.774 L
424.077 219.069 L
425.64 218.366 L
427.203 217.666 L
428.766 216.971 L
430.329 216.281 L
431.892 215.603 L
433.455 214.946 L
435.018 214.326 L
436.581 213.77 L
438.144 213.307 L
439.707 212.959 L
441.27 212.726 L
442.833 212.584 L
444.396 212.506 L
S
GR
GS
[0.75 0 0 0.75 0 0] CT
0 0.447 0.741 RC
1 LJ
0.667 LW
N
442.833 212.584 M
444.396 212.506 L
445.959 212.467 L
447.522 212.452 L
449.085 212.449 L
450.648 212.452 L
452.212 212.459 L
453.775 212.466 L
455.338 212.473 L
456.901 212.479 L
458.464 212.484 L
460.027 212.487 L
461.59 212.491 L
463.153 212.493 L
464.716 212.495 L
466.279 212.496 L
467.842 212.497 L
469.405 212.498 L
470.968 212.498 L
472.531 212.499 L
474.094 212.499 L
475.657 212.499 L
477.22 212.5 L
478.783 212.5 L
480.346 212.5 L
481.909 212.5 L
483.472 212.5 L
485.035 212.5 L
486.599 212.5 L
488.162 212.5 L
489.725 212.5 L
491.288 212.5 L
492.851 212.5 L
494.414 212.5 L
495.977 212.5 L
497.54 212.5 L
507.042 212.5 L
S
GR
GS
[0.75 0 0 0.75 0 0] CT
0.851 0.325 0.098 RC
1 LJ
0.667 LW
N
84.958 212.5 M
173.559 212.5 L
243.893 212.5 L
290.782 212.5 L
314.226 212.5 L
315.801 212.5 L
317.376 212.5 L
318.952 212.5 L
320.527 212.5 L
322.102 212.5 L
323.677 212.5 L
325.252 212.5 L
326.828 212.5 L
328.403 212.5 L
329.978 212.5 L
331.553 212.5 L
333.128 212.5 L
334.703 212.5 L
336.279 212.5 L
337.854 212.5 L
339.429 212.5 L
341.004 212.5 L
342.579 212.5 L
344.154 212.5 L
345.73 212.5 L
347.305 212.5 L
348.88 212.5 L
350.455 212.5 L
352.03 212.5 L
353.605 212.5 L
355.181 212.5 L
356.756 212.5 L
358.331 212.5 L
359.906 212.5 L
361.481 212.499 L
363.057 212.499 L
364.632 212.499 L
366.207 212.499 L
367.782 212.498 L
369.357 212.498 L
370.932 212.497 L
372.508 212.497 L
374.083 212.496 L
375.658 212.495 L
377.233 212.493 L
378.808 212.492 L
380.383 212.49 L
381.959 212.488 L
383.534 212.485 L
385.109 212.482 L
S
GR
GS
[0.75 0 0 0.75 0 0] CT
0.851 0.325 0.098 RC
1 LJ
0.667 LW
N
383.534 212.485 M
385.109 212.482 L
386.684 212.479 L
388.259 212.475 L
389.834 212.47 L
391.41 212.464 L
392.985 212.458 L
394.56 212.45 L
396.135 212.441 L
397.71 212.43 L
399.286 212.418 L
400.861 212.404 L
402.436 212.387 L
404.011 212.368 L
405.586 212.345 L
407.161 212.319 L
408.737 212.287 L
410.312 212.251 L
411.887 212.209 L
413.462 212.159 L
415.037 212.101 L
416.612 212.033 L
418.188 211.955 L
419.763 211.866 L
421.338 211.766 L
422.913 211.658 L
424.488 211.55 L
426.063 211.453 L
427.639 211.382 L
429.214 211.35 L
430.789 211.362 L
432.364 211.422 L
433.939 211.532 L
435.514 211.707 L
437.09 211.979 L
438.665 212.393 L
440.24 213 L
441.815 213.831 L
443.39 214.88 L
444.966 216.109 L
446.541 217.464 L
448.116 218.9 L
449.691 220.381 L
451.266 221.887 L
452.841 223.404 L
454.417 224.926 L
455.992 226.449 L
457.567 227.97 L
459.142 229.487 L
460.717 230.999 L
462.292 232.503 L
463.868 234 L
S
GR
GS
[0.75 0 0 0.75 0 0] CT
0.851 0.325 0.098 RC
1 LJ
0.667 LW
N
462.292 232.503 M
463.868 234 L
465.443 235.489 L
467.018 236.97 L
468.593 238.444 L
470.168 239.912 L
471.743 241.375 L
473.319 242.835 L
474.894 244.291 L
476.469 245.745 L
478.044 247.197 L
479.619 248.648 L
481.195 250.097 L
482.77 251.546 L
484.345 252.995 L
485.92 254.443 L
487.495 255.89 L
489.07 257.338 L
490.646 258.785 L
492.221 260.232 L
493.796 261.679 L
495.371 263.126 L
496.946 264.573 L
498.521 266.02 L
507.042 273.846 L
S
GR
GS
[0.75 0 0 0.75 0 0] CT
0.851 0.325 0.098 RC
1 LJ
0.667 LW
N
84.958 212.5 M
173.559 212.5 L
243.893 212.5 L
290.782 212.5 L
314.226 212.5 L
315.801 212.5 L
317.376 212.5 L
318.952 212.5 L
320.527 212.5 L
322.102 212.5 L
323.677 212.5 L
325.252 212.5 L
326.828 212.5 L
328.403 212.5 L
329.978 212.5 L
331.553 212.5 L
333.128 212.5 L
334.703 212.5 L
336.279 212.5 L
337.854 212.5 L
339.429 212.501 L
341.004 212.501 L
342.579 212.501 L
344.154 212.501 L
345.73 212.501 L
347.305 212.502 L
348.88 212.502 L
350.455 212.503 L
352.03 212.503 L
353.605 212.504 L
355.181 212.505 L
356.756 212.505 L
358.331 212.506 L
359.906 212.506 L
361.481 212.507 L
363.057 212.508 L
364.632 212.508 L
366.207 212.509 L
367.782 212.509 L
369.357 212.51 L
370.932 212.51 L
372.508 212.511 L
374.083 212.512 L
375.658 212.513 L
377.233 212.514 L
378.808 212.516 L
380.383 212.518 L
381.959 212.52 L
383.534 212.523 L
385.109 212.526 L
S
GR
GS
[0.75 0 0 0.75 0 0] CT
0.851 0.325 0.098 RC
1 LJ
0.667 LW
N
383.534 212.523 M
385.109 212.526 L
386.684 212.529 L
388.259 212.533 L
389.834 212.538 L
391.41 212.544 L
392.985 212.55 L
394.56 212.558 L
396.135 212.567 L
397.71 212.578 L
399.286 212.59 L
400.861 212.605 L
402.436 212.622 L
404.011 212.642 L
405.586 212.666 L
407.161 212.694 L
408.737 212.726 L
410.312 212.765 L
411.887 212.812 L
413.462 212.867 L
415.037 212.934 L
416.612 213.016 L
418.188 213.118 L
419.763 213.247 L
421.338 213.412 L
422.913 213.628 L
424.488 213.916 L
426.063 214.301 L
427.639 214.813 L
429.214 215.474 L
430.789 216.292 L
432.364 217.251 L
433.939 218.319 L
435.514 219.458 L
437.09 220.638 L
438.665 221.835 L
440.24 223.037 L
441.815 224.237 L
443.39 225.438 L
444.966 226.643 L
446.541 227.859 L
448.116 229.092 L
449.691 230.348 L
451.266 231.628 L
452.841 232.934 L
454.417 234.262 L
455.992 235.612 L
457.567 236.978 L
459.142 238.36 L
460.717 239.754 L
462.292 241.158 L
463.868 242.571 L
S
GR
GS
[0.75 0 0 0.75 0 0] CT
0.851 0.325 0.098 RC
1 LJ
0.667 LW
N
462.292 241.158 M
463.868 242.571 L
465.443 243.99 L
467.018 245.416 L
468.593 246.847 L
470.168 248.281 L
471.743 249.719 L
473.319 251.158 L
474.894 252.6 L
476.469 254.043 L
478.044 255.486 L
479.619 256.931 L
481.195 258.376 L
482.77 259.822 L
484.345 261.268 L
485.92 262.714 L
487.495 264.16 L
489.07 265.607 L
490.646 267.053 L
492.221 268.5 L
493.796 269.946 L
495.371 271.393 L
496.946 272.84 L
498.521 274.286 L
507.042 282.113 L
S
GR
GS
[0.75 0 0 0.75 0 0] CT
0.929 0.694 0.125 RC
1 LJ
0.667 LW
N
84.958 188.201 M
86.053 188.201 L
87.617 188.202 L
89.182 188.2 L
90.746 188.198 L
92.311 188.198 L
93.876 188.196 L
95.44 188.189 L
97.005 188.188 L
98.569 188.183 L
100.134 188.172 L
101.699 188.16 L
103.263 188.145 L
104.828 188.123 L
106.392 188.096 L
107.957 188.055 L
109.522 188.002 L
111.086 187.932 L
112.651 187.836 L
114.215 187.709 L
115.78 187.542 L
117.345 187.321 L
118.909 187.037 L
120.474 186.683 L
122.038 186.269 L
123.603 185.849 L
125.167 185.556 L
126.732 185.602 L
128.297 186.101 L
129.861 186.923 L
131.426 187.85 L
132.99 188.746 L
134.555 189.555 L
136.12 190.262 L
137.684 190.867 L
139.249 191.377 L
140.813 191.8 L
142.378 192.143 L
143.943 192.419 L
145.507 192.636 L
147.072 192.807 L
148.636 192.938 L
150.201 193.036 L
151.765 193.111 L
153.33 193.167 L
154.895 193.21 L
156.459 193.24 L
158.024 193.264 L
159.588 193.282 L
161.153 193.295 L
S
GR
GS
[0.75 0 0 0.75 0 0] CT
0.929 0.694 0.125 RC
1 LJ
0.667 LW
N
159.588 193.282 M
161.153 193.295 L
162.718 193.304 L
164.282 193.31 L
165.847 193.317 L
167.411 193.32 L
168.976 193.323 L
172.154 193.327 L
183.876 193.33 L
195.598 193.331 L
207.32 193.331 L
219.042 193.331 L
230.765 193.331 L
242.487 193.331 L
254.209 193.331 L
265.931 193.331 L
277.654 193.331 L
289.376 193.331 L
301.098 193.331 L
312.82 193.331 L
316.047 193.331 L
317.612 193.331 L
319.177 193.331 L
320.741 193.331 L
322.306 193.331 L
323.87 193.331 L
325.435 193.331 L
327 193.331 L
328.564 193.331 L
330.129 193.331 L
331.693 193.331 L
333.258 193.331 L
334.822 193.331 L
336.387 193.331 L
337.952 193.331 L
339.516 193.331 L
341.081 193.331 L
342.645 193.331 L
344.21 193.331 L
345.775 193.332 L
347.339 193.332 L
348.904 193.332 L
350.468 193.332 L
352.033 193.333 L
353.598 193.333 L
355.162 193.333 L
356.727 193.334 L
358.291 193.334 L
359.856 193.334 L
361.421 193.335 L
362.985 193.335 L
364.55 193.335 L
S
GR
GS
[0.75 0 0 0.75 0 0] CT
0.929 0.694 0.125 RC
1 LJ
0.667 LW
N
362.985 193.335 M
364.55 193.335 L
366.114 193.335 L
367.679 193.335 L
369.243 193.335 L
370.808 193.335 L
372.373 193.335 L
373.937 193.335 L
375.502 193.335 L
377.066 193.335 L
378.631 193.334 L
380.196 193.334 L
381.76 193.333 L
383.325 193.333 L
384.889 193.332 L
386.454 193.33 L
388.019 193.328 L
389.583 193.326 L
391.148 193.322 L
392.712 193.318 L
394.277 193.311 L
395.841 193.302 L
397.406 193.291 L
398.971 193.275 L
400.535 193.253 L
402.1 193.225 L
403.664 193.186 L
405.229 193.135 L
406.794 193.067 L
408.358 192.978 L
409.923 192.862 L
411.487 192.714 L
413.052 192.528 L
414.617 192.299 L
416.181 192.024 L
417.746 191.702 L
419.31 191.338 L
420.875 190.942 L
422.44 190.532 L
424.004 190.132 L
425.569 189.777 L
427.133 189.503 L
428.698 189.331 L
430.262 189.244 L
431.827 189.176 L
433.392 189.035 L
434.956 188.782 L
436.521 188.462 L
438.085 188.164 L
439.65 187.977 L
441.215 187.966 L
442.779 188.153 L
S
GR
GS
[0.75 0 0 0.75 0 0] CT
0.929 0.694 0.125 RC
1 LJ
0.667 LW
N
441.215 187.966 M
442.779 188.153 L
444.344 188.519 L
445.908 189.021 L
447.473 189.613 L
449.038 190.26 L
450.602 190.94 L
452.167 191.637 L
453.731 192.344 L
455.296 193.056 L
456.86 193.771 L
458.425 194.488 L
459.99 195.206 L
461.554 195.924 L
463.119 196.642 L
464.683 197.36 L
466.248 198.079 L
467.813 198.797 L
469.377 199.516 L
470.942 200.234 L
472.506 200.953 L
474.071 201.671 L
475.636 202.39 L
477.2 203.108 L
478.765 203.827 L
480.329 204.545 L
481.894 205.264 L
483.458 205.983 L
485.023 206.701 L
486.588 207.42 L
488.152 208.138 L
489.717 208.857 L
491.281 209.575 L
492.846 210.294 L
494.411 211.012 L
495.975 211.731 L
497.54 212.449 L
507.042 216.813 L
S
GR
GS
[0.75 0 0 0.75 0 0] CT
0.929 0.694 0.125 RC
1 LJ
0.667 LW
N
84.958 199.045 M
86.053 199.045 L
87.617 199.045 L
89.182 199.046 L
90.746 199.045 L
92.311 199.044 L
93.876 199.044 L
95.44 199.047 L
97.005 199.046 L
98.569 199.046 L
100.134 199.045 L
101.699 199.046 L
103.263 199.048 L
104.828 199.048 L
106.392 199.052 L
107.957 199.052 L
109.522 199.054 L
111.086 199.058 L
112.651 199.062 L
114.215 199.067 L
115.78 199.076 L
117.345 199.087 L
118.909 199.098 L
120.474 199.11 L
122.038 199.127 L
123.603 199.143 L
125.167 199.16 L
126.732 199.173 L
128.297 199.186 L
129.861 199.194 L
131.426 199.197 L
132.99 199.192 L
134.555 199.181 L
136.12 199.171 L
137.684 199.147 L
139.249 199.126 L
140.813 199.102 L
142.378 199.079 L
143.943 199.058 L
145.507 199.036 L
147.072 199.017 L
148.636 199 L
150.201 198.994 L
151.765 198.986 L
153.33 198.98 L
154.895 198.974 L
156.459 198.973 L
158.024 198.969 L
159.588 198.963 L
161.153 198.96 L
S
GR
GS
[0.75 0 0 0.75 0 0] CT
0.929 0.694 0.125 RC
1 LJ
0.667 LW
N
159.588 198.963 M
161.153 198.96 L
162.718 198.961 L
164.282 198.961 L
165.847 198.959 L
167.411 198.96 L
168.976 198.957 L
172.154 198.956 L
183.876 198.956 L
195.598 198.956 L
207.32 198.956 L
219.042 198.956 L
230.765 198.956 L
242.487 198.956 L
254.209 198.956 L
265.931 198.956 L
277.654 198.956 L
289.376 198.956 L
301.098 198.956 L
312.82 198.956 L
316.047 198.956 L
317.612 198.956 L
319.177 198.956 L
320.741 198.956 L
322.306 198.956 L
323.87 198.956 L
325.435 198.956 L
327 198.956 L
328.564 198.956 L
330.129 198.956 L
331.693 198.956 L
333.258 198.956 L
334.822 198.956 L
336.387 198.956 L
337.952 198.956 L
339.516 198.956 L
341.081 198.956 L
342.645 198.956 L
344.21 198.956 L
345.775 198.956 L
347.339 198.956 L
348.904 198.957 L
350.468 198.957 L
352.033 198.957 L
353.598 198.957 L
355.162 198.958 L
356.727 198.958 L
358.291 198.958 L
359.856 198.958 L
361.421 198.958 L
362.985 198.959 L
364.55 198.959 L
S
GR
GS
[0.75 0 0 0.75 0 0] CT
0.929 0.694 0.125 RC
1 LJ
0.667 LW
N
362.985 198.959 M
364.55 198.959 L
366.114 198.959 L
367.679 198.959 L
369.243 198.959 L
370.808 198.959 L
372.373 198.959 L
373.937 198.959 L
375.502 198.958 L
377.066 198.958 L
378.631 198.958 L
380.196 198.957 L
381.76 198.957 L
383.325 198.956 L
384.889 198.955 L
386.454 198.954 L
388.019 198.952 L
389.583 198.949 L
391.148 198.946 L
392.712 198.941 L
394.277 198.934 L
395.841 198.925 L
397.406 198.913 L
398.971 198.897 L
400.535 198.875 L
402.1 198.846 L
403.664 198.807 L
405.229 198.754 L
406.794 198.684 L
408.358 198.593 L
409.923 198.475 L
411.487 198.322 L
413.052 198.131 L
414.617 197.893 L
416.181 197.605 L
417.746 197.264 L
419.31 196.87 L
420.875 196.425 L
422.44 195.937 L
424.004 195.415 L
425.569 194.872 L
427.133 194.33 L
428.698 193.819 L
430.262 193.39 L
431.827 193.117 L
433.392 193.074 L
434.956 193.281 L
436.521 193.692 L
438.085 194.234 L
439.65 194.854 L
441.215 195.518 L
442.779 196.206 L
S
GR
GS
[0.75 0 0 0.75 0 0] CT
0.929 0.694 0.125 RC
1 LJ
0.667 LW
N
441.215 195.518 M
442.779 196.206 L
444.344 196.907 L
445.908 197.616 L
447.473 198.329 L
449.038 199.045 L
450.602 199.762 L
452.167 200.479 L
453.731 201.197 L
455.296 201.915 L
456.86 202.633 L
458.425 203.352 L
459.99 204.07 L
461.554 204.789 L
463.119 205.507 L
464.683 206.226 L
466.248 206.944 L
467.813 207.663 L
469.377 208.381 L
470.942 209.1 L
472.506 209.818 L
474.071 210.537 L
475.636 211.255 L
477.2 211.974 L
478.765 212.692 L
480.329 213.411 L
481.894 214.129 L
483.458 214.848 L
485.023 215.567 L
486.588 216.285 L
488.152 217.004 L
489.717 217.722 L
491.281 218.441 L
492.846 219.159 L
494.411 219.878 L
495.975 220.596 L
497.54 221.315 L
507.042 225.679 L
S
GR
GS
[0.75 0 0 0.75 0 0] CT
0.494 0.184 0.557 RC
1 LJ
0.667 LW
N
84.958 62.152 M
85.625 62.152 L
87.191 62.152 L
88.757 62.152 L
90.323 62.152 L
91.89 62.152 L
93.456 62.152 L
95.022 62.152 L
96.588 62.152 L
98.154 62.152 L
99.721 62.153 L
101.287 62.153 L
102.853 62.153 L
104.419 62.154 L
105.985 62.154 L
107.552 62.155 L
109.118 62.157 L
110.684 62.159 L
112.25 62.161 L
113.817 62.165 L
115.383 62.17 L
116.949 62.177 L
118.515 62.187 L
120.081 62.202 L
121.648 62.222 L
123.214 62.252 L
124.78 62.293 L
126.346 62.353 L
127.912 62.435 L
129.479 62.548 L
131.045 62.7 L
132.611 62.898 L
134.177 63.149 L
135.743 63.457 L
137.31 63.823 L
138.876 64.247 L
140.442 64.724 L
142.008 65.249 L
143.575 65.816 L
145.141 66.417 L
146.707 67.045 L
148.273 67.695 L
149.839 68.363 L
151.406 69.043 L
152.972 69.733 L
154.538 70.431 L
156.104 71.134 L
157.67 71.842 L
159.237 72.552 L
160.803 73.265 L
S
GR
GS
[0.75 0 0 0.75 0 0] CT
0.494 0.184 0.557 RC
1 LJ
0.667 LW
N
159.237 72.552 M
160.803 73.265 L
163.344 74.425 L
175.066 79.799 L
186.788 85.181 L
198.51 90.564 L
210.233 95.947 L
221.955 101.331 L
233.677 106.714 L
245.399 112.097 L
257.121 117.481 L
268.844 122.864 L
280.566 128.247 L
292.288 133.631 L
304.01 139.014 L
315.733 144.397 L
318.99 145.893 L
320.557 146.613 L
322.123 147.332 L
323.689 148.051 L
325.255 148.77 L
326.821 149.489 L
328.388 150.209 L
329.954 150.928 L
331.52 151.647 L
333.086 152.366 L
334.652 153.084 L
336.219 153.803 L
337.785 154.521 L
339.351 155.239 L
340.917 155.957 L
342.484 156.674 L
344.05 157.39 L
345.616 158.105 L
347.182 158.819 L
348.748 159.53 L
350.315 160.238 L
351.881 160.943 L
353.447 161.641 L
355.013 162.332 L
356.579 163.012 L
358.146 163.676 L
359.712 164.319 L
361.278 164.932 L
362.844 165.506 L
364.41 166.033 L
365.977 166.509 L
367.543 166.94 L
369.109 167.343 L
370.675 167.735 L
372.242 168.137 L
373.808 168.563 L
S
GR
GS
[0.75 0 0 0.75 0 0] CT
0.494 0.184 0.557 RC
1 LJ
0.667 LW
N
372.242 168.137 M
373.808 168.563 L
375.374 169.022 L
376.94 169.517 L
378.506 170.051 L
380.073 170.619 L
381.639 171.219 L
383.205 171.844 L
384.771 172.491 L
386.337 173.154 L
387.904 173.831 L
389.47 174.516 L
391.036 175.209 L
392.602 175.906 L
394.169 176.606 L
395.735 177.307 L
397.301 178.006 L
398.867 178.704 L
400.433 179.396 L
402 180.082 L
403.566 180.758 L
405.132 181.421 L
406.698 182.067 L
408.264 182.691 L
409.831 183.287 L
411.397 183.849 L
412.963 184.372 L
414.529 184.85 L
416.095 185.279 L
417.662 185.659 L
419.228 185.989 L
420.794 186.275 L
422.36 186.523 L
423.927 186.74 L
425.493 186.936 L
427.059 187.118 L
428.625 187.293 L
430.191 187.468 L
431.758 187.645 L
433.324 187.828 L
434.89 188.018 L
436.456 188.22 L
438.022 188.437 L
439.589 188.676 L
441.155 188.944 L
442.721 189.249 L
444.287 189.597 L
445.854 189.992 L
447.42 190.436 L
448.986 190.928 L
450.552 191.463 L
452.118 192.037 L
S
GR
GS
[0.75 0 0 0.75 0 0] CT
0.494 0.184 0.557 RC
1 LJ
0.667 LW
N
450.552 191.463 M
452.118 192.037 L
453.685 192.643 L
455.251 193.276 L
456.817 193.93 L
458.383 194.6 L
459.949 195.284 L
461.516 195.977 L
463.082 196.677 L
464.648 197.382 L
466.214 198.091 L
467.781 198.803 L
469.347 199.517 L
470.913 200.232 L
472.479 200.948 L
474.045 201.665 L
475.612 202.383 L
477.178 203.101 L
478.744 203.82 L
480.31 204.538 L
481.876 205.257 L
483.443 205.976 L
485.009 206.695 L
486.575 207.414 L
488.141 208.133 L
489.707 208.853 L
491.274 209.572 L
492.84 210.291 L
494.406 211.01 L
495.972 211.729 L
497.539 212.449 L
507.042 216.813 L
S
GR
GS
[0.75 0 0 0.75 0 0] CT
0.494 0.184 0.557 RC
1 LJ
0.667 LW
N
84.958 65.268 M
85.625 65.268 L
87.191 65.268 L
88.757 65.268 L
90.323 65.269 L
91.89 65.269 L
93.456 65.269 L
95.022 65.27 L
96.588 65.271 L
98.154 65.272 L
99.721 65.274 L
101.287 65.276 L
102.853 65.279 L
104.419 65.283 L
105.985 65.288 L
107.552 65.296 L
109.118 65.306 L
110.684 65.32 L
112.25 65.338 L
113.817 65.363 L
115.383 65.396 L
116.949 65.441 L
118.515 65.5 L
120.081 65.578 L
121.648 65.68 L
123.214 65.811 L
124.78 65.978 L
126.346 66.187 L
127.912 66.444 L
129.479 66.752 L
131.045 67.114 L
132.611 67.53 L
134.177 67.998 L
135.743 68.512 L
137.31 69.068 L
138.876 69.66 L
140.442 70.28 L
142.008 70.924 L
143.575 71.586 L
145.141 72.262 L
146.707 72.949 L
148.273 73.644 L
149.839 74.346 L
151.406 75.052 L
152.972 75.761 L
154.538 76.473 L
156.104 77.187 L
157.67 77.903 L
159.237 78.619 L
160.803 79.336 L
S
GR
GS
[0.75 0 0 0.75 0 0] CT
0.494 0.184 0.557 RC
1 LJ
0.667 LW
N
159.237 78.619 M
160.803 79.336 L
163.344 80.501 L
175.066 85.881 L
186.788 91.264 L
198.51 96.647 L
210.233 102.031 L
221.955 107.414 L
233.677 112.797 L
245.399 118.181 L
257.121 123.564 L
268.844 128.947 L
280.566 134.331 L
292.288 139.714 L
304.01 145.097 L
315.733 150.48 L
318.99 151.975 L
320.557 152.693 L
322.123 153.411 L
323.689 154.129 L
325.255 154.846 L
326.821 155.563 L
328.388 156.278 L
329.954 156.992 L
331.52 157.705 L
333.086 158.415 L
334.652 159.122 L
336.219 159.824 L
337.785 160.52 L
339.351 161.209 L
340.917 161.887 L
342.484 162.552 L
344.05 163.199 L
345.616 163.824 L
347.182 164.422 L
348.748 164.987 L
350.315 165.515 L
351.881 166 L
353.447 166.442 L
355.013 166.841 L
356.579 167.202 L
358.146 167.535 L
359.712 167.851 L
361.278 168.169 L
362.844 168.509 L
364.41 168.89 L
365.977 169.326 L
367.543 169.823 L
369.109 170.376 L
370.675 170.974 L
372.242 171.606 L
373.808 172.263 L
S
GR
GS
[0.75 0 0 0.75 0 0] CT
0.494 0.184 0.557 RC
1 LJ
0.667 LW
N
372.242 171.606 M
373.808 172.263 L
375.374 172.938 L
376.94 173.625 L
378.506 174.321 L
380.073 175.024 L
381.639 175.73 L
383.205 176.44 L
384.771 177.152 L
386.337 177.865 L
387.904 178.579 L
389.47 179.294 L
391.036 180.008 L
392.602 180.722 L
394.169 181.435 L
395.735 182.146 L
397.301 182.854 L
398.867 183.559 L
400.433 184.26 L
402 184.954 L
403.566 185.639 L
405.132 186.313 L
406.698 186.973 L
408.264 187.613 L
409.831 188.23 L
411.397 188.817 L
412.963 189.369 L
414.529 189.879 L
416.095 190.344 L
417.662 190.761 L
419.228 191.13 L
420.794 191.454 L
422.36 191.741 L
423.927 191.998 L
425.493 192.237 L
427.059 192.47 L
428.625 192.711 L
430.191 192.971 L
431.758 193.263 L
433.324 193.594 L
434.89 193.971 L
436.456 194.397 L
438.022 194.872 L
439.589 195.392 L
441.155 195.952 L
442.721 196.546 L
444.287 197.167 L
445.854 197.811 L
447.42 198.473 L
448.986 199.148 L
450.552 199.834 L
452.118 200.528 L
S
GR
GS
[0.75 0 0 0.75 0 0] CT
0.494 0.184 0.557 RC
1 LJ
0.667 LW
N
450.552 199.834 M
452.118 200.528 L
453.685 201.229 L
455.251 201.934 L
456.817 202.643 L
458.383 203.354 L
459.949 204.068 L
461.516 204.783 L
463.082 205.499 L
464.648 206.216 L
466.214 206.934 L
467.781 207.652 L
469.347 208.37 L
470.913 209.088 L
472.479 209.807 L
474.045 210.526 L
475.612 211.245 L
477.178 211.964 L
478.744 212.683 L
480.31 213.402 L
481.876 214.122 L
483.443 214.841 L
485.009 215.56 L
486.575 216.279 L
488.141 216.999 L
489.707 217.718 L
491.274 218.437 L
492.84 219.156 L
494.406 219.876 L
495.972 220.595 L
497.539 221.314 L
507.042 225.679 L
S
GR
GS
[0.75 0 0 0.75 0 0] CT
1 GC
N
414 132 M
414 64 L
494 64 L
494 132 L
cp
f
GR
GS
[0.75 0 0 0.75 349.5 55.70049] CT
/Helvetica 12 F
GS
[1 0 0 1 0 0] CT
0 4.5 moveto 
1 -1 scale
(S2) t 
GR
GR
GS
[0.75 0 0 0.75 0 0] CT
0 0.447 0.741 RC
1 LJ
0.667 LW
N
422 74.267 M
462 74.267 L
S
GR
GS
[0.75 0 0 0.75 349.5 67.56683] CT
/Helvetica 12 F
GS
[1 0 0 1 0 0] CT
0 4.5 moveto 
1 -1 scale
(T2) t 
GR
GR
GS
[0.75 0 0 0.75 0 0] CT
0.851 0.325 0.098 RC
1 LJ
0.667 LW
N
422 90.089 M
462 90.089 L
S
GR
GS
[0.75 0 0 0.75 349.5 79.43317] CT
/Helvetica 12 F
GS
[1 0 0 1 0 0] CT
0 4.5 moveto 
1 -1 scale
(CS2) t 
GR
GR
GS
[0.75 0 0 0.75 0 0] CT
0.929 0.694 0.125 RC
1 LJ
0.667 LW
N
422 105.911 M
462 105.911 L
S
GR
GS
[0.75 0 0 0.75 349.5 91.29951] CT
/Helvetica 12 F
GS
[1 0 0 1 0 0] CT
0 4.5 moveto 
1 -1 scale
(K2) t 
GR
GR
GS
[0.75 0 0 0.75 0 0] CT
0.494 0.184 0.557 RC
1 LJ
0.667 LW
N
422 121.733 M
462 121.733 L
S
GR
GS
[0.75 0 0 0.75 0 0] CT
0.149 GC
10.0 ML
0.667 LW
N
414 132 M
414 64 L
494 64 L
494 132 L
cp
S
GR
GS
[0.75 0 0 0.75 221.25 33.52501] CT
/any-Bold 15 F
GS
[1 0 0 1 0 0] CT
-56.5 -4 moveto 
1 -1 scale
(Singular Values) t 
GR
GR
GS
[0.75 0 0 0.75 221.25 298.99999] CT
/Helvetica 15 F
GS
[1 0 0 1 0 0] CT
-59.5 14 moveto 
1 -1 scale
(Frequency \(rad/s\)) t 
GR
GR
GS
[0 -0.75 0.75 0 36.5 160.3875] CT
/Helvetica 15 F
GS
[1 0 0 1 0 0] CT
-69 -4 moveto 
1 -1 scale
(Singular Values \(dB\)) t 
GR
GR
%%Trailer
%%Pages: 1
%%EOF
