%!PS-Adobe-3.0 EPSF-3.0
%%Creator: (MATLAB, The Mathworks, Inc. Version 8.6.0.267246 \(R2015b\). Operating System: Windows 8)
%%Title: E:/Projects/skola/rls/pics/SP3/par_2o_u.eps
%%CreationDate: 2017-03-17T12:34:11
%%Pages: (atend)
%%BoundingBox: 0 0 420 315
%%LanguageLevel: 2
%%EndComments
%%BeginProlog
%%BeginResource: procset (Apache XML Graphics Std ProcSet) 1.2 0
%%Version: 1.2 0
%%Copyright: (Copyright 2001-2003,2010 The Apache Software Foundation. License terms: http://www.apache.org/licenses/LICENSE-2.0)
/bd{bind def}bind def
/ld{load def}bd
/GR/grestore ld
/M/moveto ld
/LJ/setlinejoin ld
/C/curveto ld
/f/fill ld
/LW/setlinewidth ld
/GC/setgray ld
/t/show ld
/N/newpath ld
/CT/concat ld
/cp/closepath ld
/S/stroke ld
/L/lineto ld
/CC/setcmykcolor ld
/A/ashow ld
/GS/gsave ld
/RC/setrgbcolor ld
/RM/rmoveto ld
/ML/setmiterlimit ld
/re {4 2 roll M
1 index 0 rlineto
0 exch rlineto
neg 0 rlineto
cp } bd
/_ctm matrix def
/_tm matrix def
/BT { _ctm currentmatrix pop matrix _tm copy pop 0 0 moveto } bd
/ET { _ctm setmatrix } bd
/iTm { _ctm setmatrix _tm concat } bd
/Tm { _tm astore pop iTm 0 0 moveto } bd
/ux 0.0 def
/uy 0.0 def
/F {
  /Tp exch def
  /Tf exch def
  Tf findfont Tp scalefont setfont
  /cf Tf def  /cs Tp def
} bd
/ULS {currentpoint /uy exch def /ux exch def} bd
/ULE {
  /Tcx currentpoint pop def
  gsave
  newpath
  cf findfont cs scalefont dup
  /FontMatrix get 0 get /Ts exch def /FontInfo get dup
  /UnderlinePosition get Ts mul /To exch def
  /UnderlineThickness get Ts mul /Tt exch def
  ux uy To add moveto  Tcx uy To add lineto
  Tt setlinewidth stroke
  grestore
} bd
/OLE {
  /Tcx currentpoint pop def
  gsave
  newpath
  cf findfont cs scalefont dup
  /FontMatrix get 0 get /Ts exch def /FontInfo get dup
  /UnderlinePosition get Ts mul /To exch def
  /UnderlineThickness get Ts mul /Tt exch def
  ux uy To add cs add moveto Tcx uy To add cs add lineto
  Tt setlinewidth stroke
  grestore
} bd
/SOE {
  /Tcx currentpoint pop def
  gsave
  newpath
  cf findfont cs scalefont dup
  /FontMatrix get 0 get /Ts exch def /FontInfo get dup
  /UnderlinePosition get Ts mul /To exch def
  /UnderlineThickness get Ts mul /Tt exch def
  ux uy To add cs 10 mul 26 idiv add moveto Tcx uy To add cs 10 mul 26 idiv add lineto
  Tt setlinewidth stroke
  grestore
} bd
/QT {
/Y22 exch store
/X22 exch store
/Y21 exch store
/X21 exch store
currentpoint
/Y21 load 2 mul add 3 div exch
/X21 load 2 mul add 3 div exch
/X21 load 2 mul /X22 load add 3 div
/Y21 load 2 mul /Y22 load add 3 div
/X22 load /Y22 load curveto
} bd
/SSPD {
dup length /d exch dict def
{
/v exch def
/k exch def
currentpagedevice k known {
/cpdv currentpagedevice k get def
v cpdv ne {
/upd false def
/nullv v type /nulltype eq def
/nullcpdv cpdv type /nulltype eq def
nullv nullcpdv or
{
/upd true def
} {
/sametype v type cpdv type eq def
sametype {
v type /arraytype eq {
/vlen v length def
/cpdvlen cpdv length def
vlen cpdvlen eq {
0 1 vlen 1 sub {
/i exch def
/obj v i get def
/cpdobj cpdv i get def
obj cpdobj ne {
/upd true def
exit
} if
} for
} {
/upd true def
} ifelse
} {
v type /dicttype eq {
v {
/dv exch def
/dk exch def
/cpddv cpdv dk get def
dv cpddv ne {
/upd true def
exit
} if
} forall
} {
/upd true def
} ifelse
} ifelse
} if
} ifelse
upd true eq {
d k v put
} if
} if
} if
} forall
d length 0 gt {
d setpagedevice
} if
} bd
%%EndResource
%%BeginResource: procset (Apache XML Graphics EPS ProcSet) 1.0 0
%%Version: 1.0 0
%%Copyright: (Copyright 2002-2003 The Apache Software Foundation. License terms: http://www.apache.org/licenses/LICENSE-2.0)
/BeginEPSF { %def
/b4_Inc_state save def         % Save state for cleanup
/dict_count countdictstack def % Count objects on dict stack
/op_count count 1 sub def      % Count objects on operand stack
userdict begin                 % Push userdict on dict stack
/showpage { } def              % Redefine showpage, { } = null proc
0 setgray 0 setlinecap         % Prepare graphics state
1 setlinewidth 0 setlinejoin
10 setmiterlimit [ ] 0 setdash newpath
/languagelevel where           % If level not equal to 1 then
{pop languagelevel             % set strokeadjust and
1 ne                           % overprint to their defaults.
{false setstrokeadjust false setoverprint
} if
} if
} bd
/EndEPSF { %def
count op_count sub {pop} repeat            % Clean up stacks
countdictstack dict_count sub {end} repeat
b4_Inc_state restore
} bd
%%EndResource
%FOPBeginFontDict
%%IncludeResource: font Courier-Bold
%%IncludeResource: font Helvetica
%%IncludeResource: font Courier-BoldOblique
%%IncludeResource: font Courier-Oblique
%%IncludeResource: font Times-Roman
%%IncludeResource: font Helvetica-BoldOblique
%%IncludeResource: font Helvetica-Bold
%%IncludeResource: font Helvetica-Oblique
%%IncludeResource: font Times-BoldItalic
%%IncludeResource: font Courier
%%IncludeResource: font Times-Italic
%%IncludeResource: font Times-Bold
%%IncludeResource: font Symbol
%%IncludeResource: font ZapfDingbats
%FOPEndFontDict
%%BeginResource: encoding WinAnsiEncoding
/WinAnsiEncoding [
/.notdef /.notdef /.notdef /.notdef /.notdef
/.notdef /.notdef /.notdef /.notdef /.notdef
/.notdef /.notdef /.notdef /.notdef /.notdef
/.notdef /.notdef /.notdef /.notdef /.notdef
/.notdef /.notdef /.notdef /.notdef /.notdef
/.notdef /.notdef /.notdef /.notdef /.notdef
/.notdef /.notdef /space /exclam /quotedbl
/numbersign /dollar /percent /ampersand /quotesingle
/parenleft /parenright /asterisk /plus /comma
/hyphen /period /slash /zero /one
/two /three /four /five /six
/seven /eight /nine /colon /semicolon
/less /equal /greater /question /at
/A /B /C /D /E
/F /G /H /I /J
/K /L /M /N /O
/P /Q /R /S /T
/U /V /W /X /Y
/Z /bracketleft /backslash /bracketright /asciicircum
/underscore /quoteleft /a /b /c
/d /e /f /g /h
/i /j /k /l /m
/n /o /p /q /r
/s /t /u /v /w
/x /y /z /braceleft /bar
/braceright /asciitilde /bullet /Euro /bullet
/quotesinglbase /florin /quotedblbase /ellipsis /dagger
/daggerdbl /circumflex /perthousand /Scaron /guilsinglleft
/OE /bullet /Zcaron /bullet /bullet
/quoteleft /quoteright /quotedblleft /quotedblright /bullet
/endash /emdash /asciitilde /trademark /scaron
/guilsinglright /oe /bullet /zcaron /Ydieresis
/space /exclamdown /cent /sterling /currency
/yen /brokenbar /section /dieresis /copyright
/ordfeminine /guillemotleft /logicalnot /sfthyphen /registered
/macron /degree /plusminus /twosuperior /threesuperior
/acute /mu /paragraph /middot /cedilla
/onesuperior /ordmasculine /guillemotright /onequarter /onehalf
/threequarters /questiondown /Agrave /Aacute /Acircumflex
/Atilde /Adieresis /Aring /AE /Ccedilla
/Egrave /Eacute /Ecircumflex /Edieresis /Igrave
/Iacute /Icircumflex /Idieresis /Eth /Ntilde
/Ograve /Oacute /Ocircumflex /Otilde /Odieresis
/multiply /Oslash /Ugrave /Uacute /Ucircumflex
/Udieresis /Yacute /Thorn /germandbls /agrave
/aacute /acircumflex /atilde /adieresis /aring
/ae /ccedilla /egrave /eacute /ecircumflex
/edieresis /igrave /iacute /icircumflex /idieresis
/eth /ntilde /ograve /oacute /ocircumflex
/otilde /odieresis /divide /oslash /ugrave
/uacute /ucircumflex /udieresis /yacute /thorn
/ydieresis
] def
%%EndResource
%FOPBeginFontReencode
/Courier-Bold findfont
dup length dict begin
  {1 index /FID ne {def} {pop pop} ifelse} forall
  /Encoding WinAnsiEncoding def
  currentdict
end
/Courier-Bold exch definefont pop
/Helvetica findfont
dup length dict begin
  {1 index /FID ne {def} {pop pop} ifelse} forall
  /Encoding WinAnsiEncoding def
  currentdict
end
/Helvetica exch definefont pop
/Courier-BoldOblique findfont
dup length dict begin
  {1 index /FID ne {def} {pop pop} ifelse} forall
  /Encoding WinAnsiEncoding def
  currentdict
end
/Courier-BoldOblique exch definefont pop
/Courier-Oblique findfont
dup length dict begin
  {1 index /FID ne {def} {pop pop} ifelse} forall
  /Encoding WinAnsiEncoding def
  currentdict
end
/Courier-Oblique exch definefont pop
/Times-Roman findfont
dup length dict begin
  {1 index /FID ne {def} {pop pop} ifelse} forall
  /Encoding WinAnsiEncoding def
  currentdict
end
/Times-Roman exch definefont pop
/Helvetica-BoldOblique findfont
dup length dict begin
  {1 index /FID ne {def} {pop pop} ifelse} forall
  /Encoding WinAnsiEncoding def
  currentdict
end
/Helvetica-BoldOblique exch definefont pop
/Helvetica-Bold findfont
dup length dict begin
  {1 index /FID ne {def} {pop pop} ifelse} forall
  /Encoding WinAnsiEncoding def
  currentdict
end
/Helvetica-Bold exch definefont pop
/Helvetica-Oblique findfont
dup length dict begin
  {1 index /FID ne {def} {pop pop} ifelse} forall
  /Encoding WinAnsiEncoding def
  currentdict
end
/Helvetica-Oblique exch definefont pop
/Times-BoldItalic findfont
dup length dict begin
  {1 index /FID ne {def} {pop pop} ifelse} forall
  /Encoding WinAnsiEncoding def
  currentdict
end
/Times-BoldItalic exch definefont pop
/Courier findfont
dup length dict begin
  {1 index /FID ne {def} {pop pop} ifelse} forall
  /Encoding WinAnsiEncoding def
  currentdict
end
/Courier exch definefont pop
/Times-Italic findfont
dup length dict begin
  {1 index /FID ne {def} {pop pop} ifelse} forall
  /Encoding WinAnsiEncoding def
  currentdict
end
/Times-Italic exch definefont pop
/Times-Bold findfont
dup length dict begin
  {1 index /FID ne {def} {pop pop} ifelse} forall
  /Encoding WinAnsiEncoding def
  currentdict
end
/Times-Bold exch definefont pop
%FOPEndFontReencode
%%EndProlog
%%Page: 1 1
%%PageBoundingBox: 0 0 420 315
%%BeginPageSetup
[1 0 0 -1 0 315] CT
%%EndPageSetup
GS
[0.75 0 0 0.75 0 0] CT
1 GC
N
0 0 560 420 re
f
GR
GS
[0.75 0 0 0.75 0 0] CT
1 GC
N
0 0 560 420 re
f
GR
GS
[0.75 0 0 0.75 0 0] CT
1 GC
N
73 374 M
507 374 L
507 31 L
73 31 L
cp
f
GR
GS
[0.75 0 0 0.75 0 0] CT
0.149 GC
2 setlinecap
1 LJ
0.667 LW
N
73 374 M
507 374 L
S
GR
GS
[0.75 0 0 0.75 0 0] CT
0.149 GC
2 setlinecap
1 LJ
0.667 LW
N
73 31 M
507 31 L
S
GR
GS
[0.75 0 0 0.75 0 0] CT
0.149 GC
2 setlinecap
1 LJ
0.667 LW
N
73 374 M
73 369.66 L
S
GR
GS
[0.75 0 0 0.75 0 0] CT
0.149 GC
2 setlinecap
1 LJ
0.667 LW
N
145.333 374 M
145.333 369.66 L
S
GR
GS
[0.75 0 0 0.75 0 0] CT
0.149 GC
2 setlinecap
1 LJ
0.667 LW
N
217.667 374 M
217.667 369.66 L
S
GR
GS
[0.75 0 0 0.75 0 0] CT
0.149 GC
2 setlinecap
1 LJ
0.667 LW
N
290 374 M
290 369.66 L
S
GR
GS
[0.75 0 0 0.75 0 0] CT
0.149 GC
2 setlinecap
1 LJ
0.667 LW
N
362.333 374 M
362.333 369.66 L
S
GR
GS
[0.75 0 0 0.75 0 0] CT
0.149 GC
2 setlinecap
1 LJ
0.667 LW
N
434.667 374 M
434.667 369.66 L
S
GR
GS
[0.75 0 0 0.75 0 0] CT
0.149 GC
2 setlinecap
1 LJ
0.667 LW
N
507 374 M
507 369.66 L
S
GR
GS
[0.75 0 0 0.75 0 0] CT
0.149 GC
2 setlinecap
1 LJ
0.667 LW
N
73 31 M
73 35.34 L
S
GR
GS
[0.75 0 0 0.75 0 0] CT
0.149 GC
2 setlinecap
1 LJ
0.667 LW
N
145.333 31 M
145.333 35.34 L
S
GR
GS
[0.75 0 0 0.75 0 0] CT
0.149 GC
2 setlinecap
1 LJ
0.667 LW
N
217.667 31 M
217.667 35.34 L
S
GR
GS
[0.75 0 0 0.75 0 0] CT
0.149 GC
2 setlinecap
1 LJ
0.667 LW
N
290 31 M
290 35.34 L
S
GR
GS
[0.75 0 0 0.75 0 0] CT
0.149 GC
2 setlinecap
1 LJ
0.667 LW
N
362.333 31 M
362.333 35.34 L
S
GR
GS
[0.75 0 0 0.75 0 0] CT
0.149 GC
2 setlinecap
1 LJ
0.667 LW
N
434.667 31 M
434.667 35.34 L
S
GR
GS
[0.75 0 0 0.75 0 0] CT
0.149 GC
2 setlinecap
1 LJ
0.667 LW
N
507 31 M
507 35.34 L
S
GR
GS
[0.75 0 0 0.75 54.75 284.50001] CT
0.149 GC
/Helvetica 13 F
GS
[1 0 0 1 0 0] CT
-4 13 moveto 
1 -1 scale
(0) t 
GR
GR
GS
[0.75 0 0 0.75 109 284.50001] CT
0.149 GC
/Helvetica 13 F
GS
[1 0 0 1 0 0] CT
-11 13 moveto 
1 -1 scale
(200) t 
GR
GR
GS
[0.75 0 0 0.75 163.25 284.50001] CT
0.149 GC
/Helvetica 13 F
GS
[1 0 0 1 0 0] CT
-11 13 moveto 
1 -1 scale
(400) t 
GR
GR
GS
[0.75 0 0 0.75 217.5 284.50001] CT
0.149 GC
/Helvetica 13 F
GS
[1 0 0 1 0 0] CT
-11 13 moveto 
1 -1 scale
(600) t 
GR
GR
GS
[0.75 0 0 0.75 271.75001 284.50001] CT
0.149 GC
/Helvetica 13 F
GS
[1 0 0 1 0 0] CT
-11 13 moveto 
1 -1 scale
(800) t 
GR
GR
GS
[0.75 0 0 0.75 325.99999 284.50001] CT
0.149 GC
/Helvetica 13 F
GS
[1 0 0 1 0 0] CT
-14.5 13 moveto 
1 -1 scale
(1000) t 
GR
GR
GS
[0.75 0 0 0.75 380.25 284.50001] CT
0.149 GC
/Helvetica 13 F
GS
[1 0 0 1 0 0] CT
-14.5 13 moveto 
1 -1 scale
(1200) t 
GR
GR
GS
[0.75 0 0 0.75 217.50016 297.49999] CT
0.149 GC
/Helvetica 15 F
GS
[1 0 0 1 0 0] CT
-11 14 moveto 
1 -1 scale
(t\(s\)) t 
GR
GR
GS
[0.75 0 0 0.75 0 0] CT
0.149 GC
2 setlinecap
1 LJ
0.667 LW
N
73 374 M
73 31 L
S
GR
GS
[0.75 0 0 0.75 0 0] CT
0.149 GC
2 setlinecap
1 LJ
0.667 LW
N
507 374 M
507 31 L
S
GR
GS
[0.75 0 0 0.75 0 0] CT
0.149 GC
2 setlinecap
1 LJ
0.667 LW
N
73 374 M
77.34 374 L
S
GR
GS
[0.75 0 0 0.75 0 0] CT
0.149 GC
2 setlinecap
1 LJ
0.667 LW
N
73 331.125 M
77.34 331.125 L
S
GR
GS
[0.75 0 0 0.75 0 0] CT
0.149 GC
2 setlinecap
1 LJ
0.667 LW
N
73 288.25 M
77.34 288.25 L
S
GR
GS
[0.75 0 0 0.75 0 0] CT
0.149 GC
2 setlinecap
1 LJ
0.667 LW
N
73 245.375 M
77.34 245.375 L
S
GR
GS
[0.75 0 0 0.75 0 0] CT
0.149 GC
2 setlinecap
1 LJ
0.667 LW
N
73 202.5 M
77.34 202.5 L
S
GR
GS
[0.75 0 0 0.75 0 0] CT
0.149 GC
2 setlinecap
1 LJ
0.667 LW
N
73 159.625 M
77.34 159.625 L
S
GR
GS
[0.75 0 0 0.75 0 0] CT
0.149 GC
2 setlinecap
1 LJ
0.667 LW
N
73 116.75 M
77.34 116.75 L
S
GR
GS
[0.75 0 0 0.75 0 0] CT
0.149 GC
2 setlinecap
1 LJ
0.667 LW
N
73 73.875 M
77.34 73.875 L
S
GR
GS
[0.75 0 0 0.75 0 0] CT
0.149 GC
2 setlinecap
1 LJ
0.667 LW
N
73 31 M
77.34 31 L
S
GR
GS
[0.75 0 0 0.75 0 0] CT
0.149 GC
2 setlinecap
1 LJ
0.667 LW
N
507 374 M
502.66 374 L
S
GR
GS
[0.75 0 0 0.75 0 0] CT
0.149 GC
2 setlinecap
1 LJ
0.667 LW
N
507 331.125 M
502.66 331.125 L
S
GR
GS
[0.75 0 0 0.75 0 0] CT
0.149 GC
2 setlinecap
1 LJ
0.667 LW
N
507 288.25 M
502.66 288.25 L
S
GR
GS
[0.75 0 0 0.75 0 0] CT
0.149 GC
2 setlinecap
1 LJ
0.667 LW
N
507 245.375 M
502.66 245.375 L
S
GR
GS
[0.75 0 0 0.75 0 0] CT
0.149 GC
2 setlinecap
1 LJ
0.667 LW
N
507 202.5 M
502.66 202.5 L
S
GR
GS
[0.75 0 0 0.75 0 0] CT
0.149 GC
2 setlinecap
1 LJ
0.667 LW
N
507 159.625 M
502.66 159.625 L
S
GR
GS
[0.75 0 0 0.75 0 0] CT
0.149 GC
2 setlinecap
1 LJ
0.667 LW
N
507 116.75 M
502.66 116.75 L
S
GR
GS
[0.75 0 0 0.75 0 0] CT
0.149 GC
2 setlinecap
1 LJ
0.667 LW
N
507 73.875 M
502.66 73.875 L
S
GR
GS
[0.75 0 0 0.75 0 0] CT
0.149 GC
2 setlinecap
1 LJ
0.667 LW
N
507 31 M
502.66 31 L
S
GR
GS
[0.75 0 0 0.75 50.75 280.5] CT
0.149 GC
/Helvetica 13 F
GS
[1 0 0 1 0 0] CT
-12 5 moveto 
1 -1 scale
(-3) t 
GR
GR
GS
[0.75 0 0 0.75 50.75 248.34375] CT
0.149 GC
/Helvetica 13 F
GS
[1 0 0 1 0 0] CT
-12 5 moveto 
1 -1 scale
(-2) t 
GR
GR
GS
[0.75 0 0 0.75 50.75 216.1875] CT
0.149 GC
/Helvetica 13 F
GS
[1 0 0 1 0 0] CT
-12 5 moveto 
1 -1 scale
(-1) t 
GR
GR
GS
[0.75 0 0 0.75 50.75 184.03125] CT
0.149 GC
/Helvetica 13 F
GS
[1 0 0 1 0 0] CT
-8 5 moveto 
1 -1 scale
(0) t 
GR
GR
GS
[0.75 0 0 0.75 50.75 151.875] CT
0.149 GC
/Helvetica 13 F
GS
[1 0 0 1 0 0] CT
-8 5 moveto 
1 -1 scale
(1) t 
GR
GR
GS
[0.75 0 0 0.75 50.75 119.71875] CT
0.149 GC
/Helvetica 13 F
GS
[1 0 0 1 0 0] CT
-8 5 moveto 
1 -1 scale
(2) t 
GR
GR
GS
[0.75 0 0 0.75 50.75 87.5625] CT
0.149 GC
/Helvetica 13 F
GS
[1 0 0 1 0 0] CT
-8 5 moveto 
1 -1 scale
(3) t 
GR
GR
GS
[0.75 0 0 0.75 50.75 55.40625] CT
0.149 GC
/Helvetica 13 F
GS
[1 0 0 1 0 0] CT
-8 5 moveto 
1 -1 scale
(4) t 
GR
GR
GS
[0.75 0 0 0.75 50.75 23.25] CT
0.149 GC
/Helvetica 13 F
GS
[1 0 0 1 0 0] CT
-8 5 moveto 
1 -1 scale
(5) t 
GR
GR
GS
[0.75 0 0 0.75 217.50021 21.1875] CT
/any-Bold 15 F
GS
[1 0 0 1 0 0] CT
-167.5 -4 moveto 
1 -1 scale
(Response of system 2 order regulator - control) t 
GR
GR
GS
[0.75 0 0 0.75 0 0] CT
0 0.447 0.741 RC
1 LJ
0.667 LW
N
73 245.375 M
73 245.375 L
73.362 245.375 L
73.362 245.375 L
73.362 245.375 L
73.409 197.384 L
73.452 166.691 L
73.509 137.163 L
73.578 114.607 L
73.669 96.992 L
73.791 85.232 L
73.928 78.806 L
74.09 74.516 L
74.285 70.747 L
74.531 66.552 L
74.858 61.342 L
75.382 54.104 L
75.944 47.969 L
76.311 44.711 L
76.678 42.045 L
77.167 39.247 L
77.769 36.799 L
78.164 35.611 L
78.56 34.739 L
79.058 34.014 L
79.633 33.602 L
80.032 33.476 L
80.431 33.497 L
80.924 33.69 L
81.489 34.097 L
81.895 34.437 L
82.3 34.843 L
82.792 35.409 L
83.346 36.127 L
83.851 36.823 L
84.261 37.359 L
84.643 37.879 L
85.088 38.514 L
85.626 39.302 L
86.172 40.128 L
86.625 40.774 L
87.006 41.29 L
87.409 41.856 L
87.905 42.559 L
88.467 43.365 L
88.872 43.897 L
89.276 44.432 L
89.767 45.084 L
90.323 45.826 L
90.829 46.49 L
S
GR
GS
[0.75 0 0 0.75 0 0] CT
0 0.447 0.741 RC
1 LJ
0.667 LW
N
90.323 45.826 M
90.829 46.49 L
91.239 46.968 L
91.62 47.412 L
92.064 47.938 L
92.602 48.576 L
93.15 49.231 L
93.603 49.725 L
93.983 50.105 L
94.385 50.522 L
94.88 51.039 L
95.444 51.632 L
95.848 52.011 L
96.253 52.391 L
96.744 52.856 L
97.3 53.388 L
97.806 53.862 L
98.216 54.188 L
98.597 54.493 L
99.041 54.861 L
99.579 55.308 L
100.127 55.774 L
100.58 56.115 L
100.96 56.368 L
101.362 56.655 L
101.858 57.013 L
102.421 57.432 L
102.825 57.687 L
103.23 57.946 L
103.721 58.268 L
104.277 58.642 L
104.783 58.977 L
105.193 59.193 L
105.574 59.397 L
106.018 59.649 L
106.556 59.961 L
107.104 60.293 L
107.557 60.525 L
107.937 60.69 L
108.339 60.884 L
108.834 61.133 L
109.398 61.428 L
109.802 61.598 L
110.207 61.774 L
110.698 61.997 L
111.254 62.261 L
111.76 62.499 L
112.17 62.638 L
112.551 62.773 L
112.995 62.946 L
113.533 63.164 L
114.081 63.404 L
S
GR
GS
[0.75 0 0 0.75 0 0] CT
0 0.447 0.741 RC
1 LJ
0.667 LW
N
113.533 63.164 M
114.081 63.404 L
114.534 63.561 L
114.914 63.665 L
115.316 63.796 L
115.811 63.968 L
116.375 64.179 L
116.779 64.29 L
117.184 64.408 L
117.675 64.562 L
118.231 64.752 L
118.737 64.923 L
119.147 65.009 L
119.528 65.096 L
119.972 65.214 L
120.51 65.368 L
121.058 65.544 L
121.511 65.65 L
121.891 65.712 L
122.293 65.799 L
122.788 65.919 L
123.352 66.072 L
123.756 66.142 L
124.161 66.221 L
124.652 66.328 L
125.208 66.465 L
125.714 66.591 L
126.124 66.641 L
126.505 66.695 L
126.949 66.776 L
127.487 66.885 L
128.035 67.017 L
128.488 67.088 L
128.868 67.121 L
129.27 67.178 L
129.765 67.261 L
130.329 67.375 L
130.733 67.417 L
131.138 67.468 L
131.629 67.543 L
132.185 67.645 L
132.691 67.739 L
133.101 67.764 L
133.482 67.795 L
133.926 67.85 L
134.464 67.929 L
135.012 68.031 L
135.465 68.077 L
135.845 68.09 L
136.247 68.127 L
136.742 68.185 L
137.306 68.271 L
S
GR
GS
[0.75 0 0 0.75 0 0] CT
0 0.447 0.741 RC
1 LJ
0.667 LW
N
136.742 68.185 M
137.306 68.271 L
137.71 68.294 L
138.115 68.326 L
138.606 68.379 L
139.162 68.456 L
139.668 68.529 L
140.078 68.537 L
140.459 68.552 L
140.903 68.589 L
141.441 68.647 L
141.989 68.728 L
142.442 68.758 L
142.822 68.757 L
143.224 68.779 L
143.719 68.821 L
144.283 68.888 L
144.687 68.898 L
145.092 68.917 L
145.583 68.954 L
146.139 69.015 L
146.645 69.072 L
147.055 69.068 L
147.436 69.073 L
147.88 69.098 L
148.418 69.141 L
148.966 69.208 L
149.419 69.227 L
149.799 69.216 L
150.201 69.229 L
150.696 69.258 L
151.26 69.312 L
151.664 69.313 L
152.069 69.324 L
152.56 69.35 L
153.116 69.399 L
153.622 69.446 L
154.032 69.434 L
154.413 69.432 L
154.857 69.448 L
155.395 69.481 L
155.943 69.538 L
156.396 69.549 L
156.776 69.532 L
157.178 69.538 L
157.673 69.559 L
158.237 69.604 L
158.641 69.599 L
159.046 69.603 L
159.537 69.623 L
160.093 69.663 L
160.599 69.703 L
S
GR
GS
[0.75 0 0 0.75 0 0] CT
0 0.447 0.741 RC
1 LJ
0.667 LW
N
160.093 69.663 M
160.599 69.703 L
161.009 69.686 L
161.39 69.678 L
161.834 69.689 L
162.372 69.715 L
162.92 69.766 L
163.373 69.771 L
163.753 69.749 L
164.155 69.75 L
164.65 69.766 L
165.214 69.805 L
165.618 69.795 L
166.023 69.796 L
166.514 69.81 L
167.07 69.845 L
167.576 69.88 L
167.986 69.859 L
168.367 69.848 L
168.811 69.855 L
169.349 69.877 L
169.897 69.922 L
170.35 69.923 L
170.73 69.899 L
171.132 69.897 L
171.627 69.909 L
172.191 69.944 L
172.595 69.931 L
173 69.928 L
173.491 69.939 L
174.047 69.97 L
174.553 70.002 L
174.963 69.978 L
175.344 69.965 L
175.788 69.969 L
176.326 69.987 L
176.874 70.03 L
177.327 70.028 L
177.707 70.002 L
178.109 69.998 L
178.604 70.007 L
179.168 70.039 L
179.572 70.024 L
179.977 70.019 L
180.468 70.028 L
181.024 70.057 L
181.5 70.091 L
181.5 70.091 L
181.5 70.091 L
181.524 70.176 L
181.549 70.444 L
181.584 71.126 L
S
GR
GS
[0.75 0 0 0.75 0 0] CT
0 0.447 0.741 RC
1 LJ
0.667 LW
N
181.549 70.444 M
181.584 71.126 L
181.624 72.28 L
181.677 74.284 L
181.75 77.837 L
181.843 83.347 L
181.947 90.204 L
182.066 98.578 L
182.204 108.491 L
182.372 120.069 L
182.587 133.707 L
182.852 148.111 L
183.131 160.445 L
183.462 171.818 L
183.864 181.833 L
184.368 190.21 L
184.906 195.731 L
185.511 199.253 L
185.963 200.662 L
186.414 201.347 L
186.904 201.49 L
187.398 201.167 L
187.855 200.556 L
188.279 199.788 L
188.711 198.851 L
189.186 197.69 L
189.689 196.349 L
190.168 195.002 L
190.6 193.747 L
191.019 192.512 L
191.472 191.165 L
191.972 189.681 L
192.472 188.208 L
192.923 186.896 L
193.338 185.712 L
193.767 184.509 L
194.25 183.188 L
194.763 181.824 L
195.242 180.591 L
195.665 179.533 L
196.076 178.534 L
196.532 177.46 L
197.043 176.299 L
197.549 175.194 L
197.994 174.258 L
198.398 173.436 L
198.825 172.595 L
199.317 171.664 L
199.841 170.713 L
200.318 169.883 L
200.73 169.191 L
201.135 168.536 L
S
GR
GS
[0.75 0 0 0.75 0 0] CT
0 0.447 0.741 RC
1 LJ
0.667 LW
N
200.73 169.191 M
201.135 168.536 L
201.595 167.818 L
202.118 167.035 L
202.629 166.304 L
203.066 165.704 L
203.461 165.182 L
203.886 164.638 L
204.388 164.023 L
204.922 163.396 L
205.397 162.864 L
205.799 162.43 L
206.197 162.015 L
206.662 161.549 L
207.197 161.035 L
207.712 160.563 L
208.141 160.186 L
208.526 159.859 L
208.951 159.512 L
209.462 159.111 L
210.005 158.704 L
210.477 158.366 L
210.87 158.095 L
211.263 157.834 L
211.732 157.533 L
212.278 157.199 L
212.796 156.896 L
213.218 156.659 L
213.596 156.455 L
214.02 156.233 L
214.538 155.974 L
215.089 155.711 L
215.559 155.497 L
215.944 155.327 L
216.333 155.162 L
216.805 154.969 L
217.359 154.753 L
217.88 154.559 L
218.297 154.41 L
218.669 154.282 L
219.093 154.141 L
219.617 153.974 L
220.173 153.804 L
220.641 153.668 L
221.021 153.562 L
221.406 153.458 L
221.881 153.334 L
222.44 153.195 L
222.854 153.096 L
223.269 153.001 L
223.756 152.894 L
224.292 152.781 L
S
GR
GS
[0.75 0 0 0.75 0 0] CT
0 0.447 0.741 RC
1 LJ
0.667 LW
N
223.756 152.894 M
224.292 152.781 L
224.783 152.682 L
225.195 152.602 L
225.586 152.529 L
226.035 152.448 L
226.562 152.357 L
227.09 152.271 L
227.535 152.201 L
227.922 152.142 L
228.333 152.082 L
228.828 152.012 L
229.374 151.939 L
229.865 151.876 L
230.268 151.826 L
230.653 151.78 L
231.104 151.729 L
231.641 151.67 L
232.174 151.614 L
232.614 151.57 L
232.993 151.533 L
233.401 151.495 L
233.902 151.45 L
234.457 151.403 L
234.948 151.363 L
235.344 151.331 L
235.723 151.303 L
236.176 151.27 L
236.721 151.231 L
237.258 151.196 L
237.694 151.168 L
238.067 151.145 L
238.474 151.121 L
238.979 151.092 L
239.54 151.061 L
239.932 151.041 L
240.323 151.021 L
240.811 150.998 L
241.375 150.971 L
241.778 150.954 L
242.181 150.936 L
242.67 150.916 L
243.221 150.895 L
243.721 150.876 L
244.128 150.861 L
244.507 150.848 L
244.949 150.833 L
245.484 150.816 L
246.026 150.8 L
246.474 150.787 L
246.851 150.776 L
247.252 150.765 L
S
GR
GS
[0.75 0 0 0.75 0 0] CT
0 0.447 0.741 RC
1 LJ
0.667 LW
N
246.851 150.776 M
247.252 150.765 L
247.745 150.752 L
248.304 150.738 L
248.704 150.729 L
249.105 150.719 L
249.592 150.709 L
250.145 150.697 L
250.648 150.687 L
251.055 150.679 L
251.432 150.672 L
251.872 150.664 L
252.407 150.654 L
252.951 150.645 L
253.401 150.638 L
253.778 150.633 L
254.176 150.627 L
254.668 150.62 L
255.228 150.612 L
255.629 150.607 L
256.031 150.602 L
256.518 150.596 L
257.07 150.59 L
257.572 150.585 L
257.979 150.58 L
258.357 150.576 L
258.798 150.572 L
259.332 150.567 L
259.876 150.562 L
260.325 150.558 L
260.703 150.555 L
261.102 150.552 L
261.594 150.548 L
262.153 150.544 L
262.554 150.542 L
262.956 150.539 L
263.443 150.536 L
263.995 150.532 L
264.498 150.529 L
264.904 150.527 L
265.282 150.525 L
265.723 150.523 L
266.257 150.52 L
266.801 150.517 L
267.251 150.515 L
267.628 150.514 L
268.027 150.512 L
268.518 150.51 L
269.078 150.508 L
269.479 150.506 L
269.881 150.505 L
270.368 150.503 L
S
GR
GS
[0.75 0 0 0.75 0 0] CT
0 0.447 0.741 RC
1 LJ
0.667 LW
N
269.881 150.505 M
270.368 150.503 L
270.92 150.501 L
271.423 150.5 L
271.829 150.499 L
272.207 150.497 L
272.648 150.496 L
273.182 150.495 L
273.726 150.493 L
274.176 150.492 L
274.553 150.491 L
274.952 150.49 L
275.443 150.489 L
276.003 150.488 L
276.404 150.487 L
276.806 150.487 L
277.293 150.486 L
277.845 150.485 L
278.348 150.484 L
278.754 150.483 L
279.132 150.483 L
279.573 150.482 L
280.107 150.481 L
280.651 150.48 L
281.101 150.48 L
281.478 150.479 L
281.877 150.479 L
282.368 150.478 L
282.928 150.478 L
283.329 150.477 L
283.731 150.477 L
284.218 150.476 L
284.77 150.476 L
285.273 150.475 L
285.679 150.475 L
286.057 150.475 L
286.498 150.474 L
287.032 150.474 L
287.576 150.473 L
288.025 150.473 L
288.403 150.473 L
288.802 150.473 L
289.293 150.472 L
289.853 150.472 L
290.254 150.472 L
290.656 150.471 L
291.143 150.471 L
291.695 150.471 L
292.198 150.471 L
292.604 150.47 L
292.982 150.47 L
293.423 150.47 L
S
GR
GS
[0.75 0 0 0.75 0 0] CT
0 0.447 0.741 RC
1 LJ
0.667 LW
N
292.982 150.47 M
293.423 150.47 L
293.957 150.47 L
294.501 150.47 L
294.95 150.469 L
295.328 150.469 L
295.727 150.469 L
296.218 150.469 L
296.778 150.469 L
297.179 150.469 L
297.581 150.469 L
298.068 150.468 L
298.62 150.468 L
299.122 150.468 L
299.529 150.468 L
299.907 150.468 L
300.348 150.468 L
300.882 150.468 L
301.426 150.468 L
301.875 150.468 L
302.253 150.468 L
302.652 150.467 L
303.143 150.467 L
303.703 150.467 L
304.104 150.467 L
304.506 150.467 L
304.993 150.467 L
305.545 150.467 L
306.047 150.467 L
306.454 150.467 L
306.832 150.467 L
307.273 150.467 L
307.807 150.467 L
308.351 150.467 L
308.8 150.467 L
309.178 150.467 L
309.577 150.467 L
310.068 150.466 L
310.628 150.466 L
311.029 150.466 L
311.431 150.466 L
311.918 150.466 L
312.47 150.466 L
312.972 150.466 L
313.379 150.466 L
313.757 150.466 L
314.198 150.466 L
314.732 150.466 L
315.276 150.466 L
315.725 150.466 L
316.103 150.466 L
316.502 150.466 L
S
GR
GS
[0.75 0 0 0.75 0 0] CT
0 0.447 0.741 RC
1 LJ
0.667 LW
N
316.103 150.466 M
316.502 150.466 L
316.993 150.466 L
317.553 150.466 L
317.954 150.466 L
318.356 150.466 L
318.843 150.466 L
319.395 150.466 L
319.897 150.466 L
320.304 150.466 L
320.682 150.466 L
321.123 150.466 L
321.657 150.466 L
322.201 150.466 L
322.65 150.466 L
323.028 150.466 L
323.427 150.466 L
323.918 150.466 L
324.478 150.466 L
324.879 150.466 L
325.281 150.466 L
325.768 150.466 L
326.32 150.466 L
326.822 150.466 L
327.229 150.466 L
327.607 150.466 L
328.048 150.466 L
328.582 150.466 L
329.126 150.466 L
329.575 150.466 L
329.953 150.466 L
330.352 150.466 L
330.843 150.466 L
331.403 150.466 L
331.804 150.466 L
332.206 150.466 L
332.693 150.466 L
333.245 150.466 L
333.747 150.466 L
334.154 150.466 L
334.532 150.466 L
334.973 150.466 L
335.507 150.466 L
336.051 150.466 L
336.5 150.466 L
336.878 150.466 L
337.277 150.466 L
337.768 150.466 L
338.328 150.466 L
338.729 150.466 L
339.131 150.466 L
339.618 150.466 L
S
GR
GS
[0.75 0 0 0.75 0 0] CT
0 0.447 0.741 RC
1 LJ
0.667 LW
N
339.131 150.466 M
339.618 150.466 L
340.17 150.466 L
340.672 150.466 L
341.079 150.466 L
341.457 150.466 L
341.898 150.466 L
342.432 150.466 L
342.976 150.465 L
343.425 150.465 L
343.803 150.465 L
344.202 150.465 L
344.693 150.465 L
345.253 150.465 L
345.654 150.465 L
346.056 150.465 L
346.543 150.465 L
347.095 150.465 L
347.597 150.465 L
348.004 150.465 L
348.382 150.465 L
348.823 150.465 L
349.357 150.465 L
349.901 150.465 L
350.35 150.465 L
350.728 150.465 L
351.127 150.465 L
351.618 150.465 L
352.178 150.465 L
352.579 150.465 L
352.981 150.465 L
353.468 150.465 L
354.02 150.465 L
354.522 150.465 L
354.929 150.465 L
355.307 150.465 L
355.748 150.465 L
356.282 150.465 L
356.826 150.465 L
357.275 150.465 L
357.653 150.465 L
358.052 150.465 L
358.543 150.465 L
359.103 150.465 L
359.504 150.465 L
359.906 150.465 L
360.393 150.465 L
360.945 150.465 L
361.447 150.465 L
361.854 150.465 L
362.232 150.465 L
362.673 150.465 L
S
GR
GS
[0.75 0 0 0.75 0 0] CT
0 0.447 0.741 RC
1 LJ
0.667 LW
N
362.232 150.465 M
362.673 150.465 L
363.207 150.465 L
363.751 150.465 L
364.2 150.465 L
364.578 150.465 L
364.977 150.465 L
365.468 150.465 L
366.028 150.465 L
366.429 150.465 L
366.831 150.465 L
367.318 150.465 L
367.87 150.465 L
368.372 150.465 L
368.779 150.465 L
369.157 150.465 L
369.598 150.465 L
370.132 150.465 L
370.676 150.465 L
371.125 150.465 L
371.503 150.465 L
371.902 150.465 L
372.393 150.465 L
372.953 150.465 L
373.354 150.465 L
373.756 150.465 L
374.243 150.465 L
374.795 150.465 L
375.297 150.465 L
375.704 150.465 L
376.082 150.465 L
376.523 150.465 L
377.057 150.465 L
377.601 150.465 L
378.05 150.465 L
378.428 150.465 L
378.827 150.465 L
379.318 150.465 L
379.878 150.465 L
380.279 150.465 L
380.681 150.465 L
381.168 150.465 L
381.72 150.465 L
382.222 150.465 L
382.629 150.465 L
383.007 150.465 L
383.448 150.465 L
383.982 150.465 L
384.526 150.465 L
384.975 150.465 L
385.353 150.465 L
385.752 150.465 L
S
GR
GS
[0.75 0 0 0.75 0 0] CT
0 0.447 0.741 RC
1 LJ
0.667 LW
N
385.353 150.465 M
385.752 150.465 L
386.243 150.465 L
386.803 150.465 L
387.204 150.465 L
387.606 150.465 L
388.093 150.465 L
388.645 150.465 L
389.147 150.465 L
389.554 150.465 L
389.932 150.465 L
390.373 150.465 L
390.907 150.465 L
391.451 150.465 L
391.9 150.465 L
392.278 150.465 L
392.677 150.465 L
393.168 150.465 L
393.728 150.465 L
394.129 150.465 L
394.531 150.465 L
395.018 150.465 L
395.57 150.465 L
396.072 150.465 L
396.479 150.465 L
396.857 150.465 L
397.298 150.465 L
397.832 150.465 L
398.376 150.465 L
398.825 150.465 L
399.203 150.465 L
399.602 150.465 L
400.093 150.465 L
400.653 150.465 L
401.054 150.465 L
401.456 150.465 L
401.943 150.465 L
402.495 150.465 L
402.997 150.465 L
403.404 150.465 L
403.782 150.465 L
404.223 150.465 L
404.757 150.465 L
405.301 150.465 L
405.75 150.465 L
406.128 150.465 L
406.526 150.465 L
407.018 150.465 L
407.578 150.465 L
407.979 150.465 L
408.381 150.465 L
408.868 150.465 L
S
GR
GS
[0.75 0 0 0.75 0 0] CT
0 0.447 0.741 RC
1 LJ
0.667 LW
N
408.381 150.465 M
408.868 150.465 L
409.42 150.465 L
409.922 150.465 L
410.329 150.465 L
410.707 150.465 L
411.148 150.465 L
411.682 150.465 L
412.226 150.465 L
412.675 150.465 L
413.053 150.465 L
413.451 150.465 L
413.943 150.465 L
414.503 150.465 L
414.904 150.465 L
415.306 150.465 L
415.793 150.465 L
416.345 150.465 L
416.847 150.465 L
417.254 150.465 L
417.632 150.465 L
418.073 150.465 L
418.607 150.465 L
419.151 150.465 L
419.6 150.465 L
419.978 150.465 L
420.376 150.465 L
420.868 150.465 L
421.428 150.465 L
421.829 150.465 L
422.231 150.465 L
422.718 150.465 L
423.27 150.465 L
423.772 150.465 L
424.179 150.465 L
424.557 150.465 L
424.998 150.465 L
425.532 150.465 L
426.076 150.465 L
426.525 150.465 L
426.903 150.465 L
427.301 150.465 L
427.793 150.465 L
428.353 150.465 L
428.754 150.465 L
429.156 150.465 L
429.643 150.465 L
430.195 150.465 L
430.697 150.465 L
431.104 150.465 L
431.482 150.465 L
431.923 150.465 L
S
GR
GS
[0.75 0 0 0.75 0 0] CT
0 0.447 0.741 RC
1 LJ
0.667 LW
N
431.482 150.465 M
431.923 150.465 L
432.457 150.465 L
433.001 150.465 L
433.45 150.465 L
433.828 150.465 L
434.226 150.465 L
434.718 150.465 L
435.278 150.465 L
435.679 150.465 L
436.081 150.465 L
436.568 150.465 L
437.12 150.465 L
437.622 150.465 L
438.029 150.465 L
438.407 150.465 L
438.848 150.465 L
439.382 150.465 L
439.926 150.465 L
440.375 150.465 L
440.753 150.465 L
441.151 150.465 L
441.643 150.465 L
442.203 150.465 L
442.604 150.465 L
443.006 150.465 L
443.493 150.465 L
444.045 150.465 L
444.547 150.465 L
444.954 150.465 L
445.332 150.465 L
445.773 150.465 L
446.307 150.465 L
446.851 150.465 L
447.3 150.465 L
447.678 150.465 L
448.076 150.465 L
448.568 150.465 L
449.128 150.465 L
449.529 150.465 L
449.931 150.465 L
450.418 150.465 L
450.97 150.465 L
451.472 150.465 L
451.879 150.465 L
452.257 150.465 L
452.698 150.465 L
453.232 150.465 L
453.776 150.465 L
454.225 150.465 L
454.603 150.465 L
455.001 150.465 L
S
GR
GS
[0.75 0 0 0.75 0 0] CT
0 0.447 0.741 RC
1 LJ
0.667 LW
N
454.603 150.465 M
455.001 150.465 L
455.493 150.465 L
456.053 150.465 L
456.454 150.465 L
456.856 150.465 L
457.343 150.465 L
457.895 150.465 L
458.397 150.465 L
458.804 150.465 L
459.182 150.465 L
459.623 150.465 L
460.157 150.465 L
460.701 150.465 L
461.15 150.465 L
461.528 150.465 L
461.926 150.465 L
462.418 150.465 L
462.978 150.465 L
463.379 150.465 L
463.781 150.465 L
464.268 150.465 L
464.82 150.465 L
465.322 150.465 L
465.729 150.465 L
466.107 150.465 L
466.548 150.465 L
467.082 150.465 L
467.626 150.465 L
468.075 150.465 L
468.453 150.465 L
468.851 150.465 L
469.343 150.465 L
469.902 150.465 L
470.304 150.465 L
470.705 150.465 L
471.193 150.465 L
471.745 150.465 L
472.247 150.465 L
472.654 150.465 L
473.032 150.465 L
473.473 150.465 L
474.007 150.465 L
474.551 150.465 L
475 150.465 L
475.378 150.465 L
475.776 150.465 L
476.268 150.465 L
476.827 150.465 L
477.229 150.465 L
477.63 150.465 L
478.118 150.465 L
S
GR
GS
[0.75 0 0 0.75 0 0] CT
0 0.447 0.741 RC
1 LJ
0.667 LW
N
477.63 150.465 M
478.118 150.465 L
478.67 150.465 L
479.172 150.465 L
479.579 150.465 L
479.957 150.465 L
480.398 150.465 L
480.932 150.465 L
481.476 150.465 L
481.925 150.465 L
482.303 150.465 L
482.701 150.465 L
483.193 150.465 L
483.753 150.465 L
484.154 150.465 L
484.555 150.465 L
485.043 150.465 L
485.595 150.465 L
486.097 150.465 L
486.504 150.465 L
486.882 150.465 L
487.323 150.465 L
487.857 150.465 L
488.401 150.465 L
488.85 150.465 L
489.228 150.465 L
489.626 150.465 L
490.118 150.465 L
490.677 150.465 L
491.079 150.465 L
491.48 150.465 L
491.968 150.465 L
492.52 150.465 L
493.022 150.465 L
493.429 150.465 L
493.807 150.465 L
494.248 150.465 L
494.782 150.465 L
495.326 150.465 L
495.775 150.465 L
496.153 150.465 L
496.551 150.465 L
497.043 150.465 L
497.603 150.465 L
498.004 150.465 L
498.405 150.465 L
498.893 150.465 L
499.445 150.465 L
499.947 150.465 L
500.354 150.465 L
500.732 150.465 L
501.173 150.465 L
S
GR
GS
[0.75 0 0 0.75 0 0] CT
0 0.447 0.741 RC
1 LJ
0.667 LW
N
500.732 150.465 M
501.173 150.465 L
501.707 150.465 L
502.251 150.465 L
502.7 150.465 L
503.078 150.465 L
503.476 150.465 L
503.968 150.465 L
504.527 150.465 L
504.929 150.465 L
505.33 150.465 L
505.818 150.465 L
506.37 150.465 L
506.872 150.465 L
507 150.465 L
S
GR
GS
[0.75 0 0 0.75 0 0] CT
0.851 0.325 0.098 RC
1 LJ
0.667 LW
N
73 245.375 M
73 245.375 L
73.362 245.375 L
73.362 245.375 L
73.362 245.375 L
73.409 245.807 L
73.452 246.756 L
73.509 248.631 L
73.578 251.391 L
73.669 255.57 L
73.791 261.355 L
73.928 267.76 L
74.09 274.947 L
74.285 282.959 L
74.531 292.038 L
74.858 302.68 L
75.382 316.757 L
75.944 328.647 L
76.311 334.944 L
76.678 340.287 L
77.167 346.169 L
77.769 351.778 L
78.164 354.68 L
78.56 357.07 L
79.058 359.471 L
79.633 361.548 L
80.032 362.636 L
80.431 363.487 L
80.924 364.265 L
81.489 364.857 L
81.895 365.119 L
82.3 365.272 L
82.792 365.337 L
83.346 365.285 L
83.851 365.145 L
84.261 364.977 L
84.643 364.789 L
85.088 364.537 L
85.626 364.197 L
86.172 363.823 L
86.625 363.494 L
87.006 363.207 L
87.409 362.899 L
87.905 362.514 L
88.467 362.076 L
88.872 361.758 L
89.276 361.442 L
89.767 361.061 L
90.323 360.635 L
90.829 360.253 L
S
GR
GS
[0.75 0 0 0.75 0 0] CT
0.851 0.325 0.098 RC
1 LJ
0.667 LW
N
90.323 360.635 M
90.829 360.253 L
91.239 359.946 L
91.62 359.664 L
92.064 359.342 L
92.602 358.96 L
93.15 358.582 L
93.603 358.273 L
93.983 358.018 L
94.385 357.754 L
94.88 357.437 L
95.444 357.086 L
95.848 356.838 L
96.253 356.596 L
96.744 356.309 L
97.3 355.994 L
97.806 355.715 L
98.216 355.492 L
98.597 355.289 L
99.041 355.059 L
99.579 354.788 L
100.127 354.521 L
100.58 354.304 L
100.96 354.124 L
101.362 353.94 L
101.858 353.718 L
102.421 353.474 L
102.825 353.302 L
103.23 353.134 L
103.721 352.935 L
104.277 352.717 L
104.783 352.525 L
105.193 352.37 L
105.574 352.229 L
106.018 352.07 L
106.556 351.883 L
107.104 351.7 L
107.557 351.55 L
107.937 351.426 L
108.339 351.299 L
108.834 351.146 L
109.398 350.979 L
109.802 350.859 L
110.207 350.743 L
110.698 350.607 L
111.254 350.457 L
111.76 350.325 L
112.17 350.218 L
112.551 350.121 L
112.995 350.012 L
113.533 349.883 L
114.081 349.757 L
S
GR
GS
[0.75 0 0 0.75 0 0] CT
0.851 0.325 0.098 RC
1 LJ
0.667 LW
N
113.533 349.883 M
114.081 349.757 L
114.534 349.654 L
114.914 349.568 L
115.316 349.48 L
115.811 349.375 L
116.375 349.261 L
116.779 349.178 L
117.184 349.098 L
117.675 349.004 L
118.231 348.902 L
118.737 348.811 L
119.147 348.737 L
119.528 348.67 L
119.972 348.595 L
120.51 348.506 L
121.058 348.421 L
121.511 348.349 L
121.891 348.29 L
122.293 348.229 L
122.788 348.157 L
123.352 348.078 L
123.756 348.021 L
124.161 347.966 L
124.652 347.901 L
125.208 347.831 L
125.714 347.77 L
126.124 347.718 L
126.505 347.671 L
126.949 347.62 L
127.487 347.559 L
128.035 347.501 L
128.488 347.452 L
128.868 347.41 L
129.27 347.368 L
129.765 347.318 L
130.329 347.265 L
130.733 347.225 L
131.138 347.187 L
131.629 347.143 L
132.185 347.095 L
132.691 347.053 L
133.101 347.017 L
133.482 346.984 L
133.926 346.949 L
134.464 346.907 L
135.012 346.868 L
135.465 346.834 L
135.845 346.804 L
136.247 346.775 L
136.742 346.741 L
137.306 346.705 L
S
GR
GS
[0.75 0 0 0.75 0 0] CT
0.851 0.325 0.098 RC
1 LJ
0.667 LW
N
136.742 346.741 M
137.306 346.705 L
137.71 346.677 L
138.115 346.651 L
138.606 346.62 L
139.162 346.588 L
139.668 346.559 L
140.078 346.534 L
140.459 346.512 L
140.903 346.487 L
141.441 346.459 L
141.989 346.432 L
142.442 346.408 L
142.822 346.388 L
143.224 346.368 L
143.719 346.344 L
144.283 346.32 L
144.687 346.3 L
145.092 346.282 L
145.583 346.261 L
146.139 346.239 L
146.645 346.22 L
147.055 346.202 L
147.436 346.186 L
147.88 346.169 L
148.418 346.15 L
148.966 346.132 L
149.419 346.116 L
149.799 346.101 L
150.201 346.087 L
150.696 346.071 L
151.26 346.055 L
151.664 346.041 L
152.069 346.028 L
152.56 346.014 L
153.116 345.999 L
153.622 345.986 L
154.032 345.974 L
154.413 345.962 L
154.857 345.951 L
155.395 345.937 L
155.943 345.926 L
156.396 345.915 L
156.776 345.904 L
157.178 345.894 L
157.673 345.883 L
158.237 345.872 L
158.641 345.863 L
159.046 345.854 L
159.537 345.844 L
160.093 345.834 L
160.599 345.826 L
S
GR
GS
[0.75 0 0 0.75 0 0] CT
0.851 0.325 0.098 RC
1 LJ
0.667 LW
N
160.093 345.834 M
160.599 345.826 L
161.009 345.816 L
161.39 345.808 L
161.834 345.8 L
162.372 345.791 L
162.92 345.784 L
163.373 345.776 L
163.753 345.768 L
164.155 345.761 L
164.65 345.754 L
165.214 345.747 L
165.618 345.74 L
166.023 345.733 L
166.514 345.727 L
167.07 345.72 L
167.576 345.715 L
167.986 345.708 L
168.367 345.702 L
168.811 345.697 L
169.349 345.691 L
169.897 345.686 L
170.35 345.681 L
170.73 345.675 L
171.132 345.67 L
171.627 345.665 L
172.191 345.66 L
172.595 345.655 L
173 345.651 L
173.491 345.646 L
174.047 345.642 L
174.553 345.639 L
174.963 345.634 L
175.344 345.629 L
175.788 345.625 L
176.326 345.621 L
176.874 345.619 L
177.327 345.615 L
177.707 345.61 L
178.109 345.607 L
178.604 345.603 L
179.168 345.601 L
179.572 345.597 L
179.977 345.594 L
180.468 345.591 L
181.024 345.588 L
181.5 345.587 L
181.5 345.587 L
181.5 345.587 L
181.524 338.298 L
181.549 331.241 L
181.584 321.375 L
S
GR
GS
[0.75 0 0 0.75 0 0] CT
0.851 0.325 0.098 RC
1 LJ
0.667 LW
N
181.549 331.241 M
181.584 321.375 L
181.624 310.66 L
181.677 297.555 L
181.75 280.7 L
181.843 261.194 L
181.947 242.135 L
182.066 222.983 L
182.204 203.738 L
182.372 184.196 L
182.587 163.801 L
182.852 144.291 L
183.131 128.686 L
183.462 114.889 L
183.864 103.036 L
184.368 93.291 L
184.906 87.057 L
185.511 83.429 L
185.963 82.327 L
186.414 82.214 L
186.904 82.936 L
187.398 84.335 L
187.855 86.077 L
188.279 87.982 L
188.711 90.143 L
189.186 92.7 L
189.689 95.555 L
190.168 98.361 L
190.6 100.933 L
191.019 103.438 L
191.472 106.144 L
191.972 109.103 L
192.472 112.021 L
192.923 114.607 L
193.338 116.931 L
193.767 119.288 L
194.25 121.866 L
194.763 124.522 L
195.242 126.918 L
195.665 128.97 L
196.076 130.906 L
196.532 132.985 L
197.043 135.228 L
197.549 137.362 L
197.994 139.169 L
198.398 140.755 L
198.825 142.375 L
199.317 144.17 L
199.841 146.002 L
200.318 147.601 L
200.73 148.933 L
201.135 150.193 L
S
GR
GS
[0.75 0 0 0.75 0 0] CT
0.851 0.325 0.098 RC
1 LJ
0.667 LW
N
200.73 148.933 M
201.135 150.193 L
201.595 151.575 L
202.118 153.081 L
202.629 154.487 L
203.066 155.642 L
203.461 156.646 L
203.886 157.692 L
204.388 158.875 L
204.922 160.08 L
205.397 161.103 L
205.799 161.938 L
206.197 162.735 L
206.662 163.632 L
207.197 164.62 L
207.712 165.527 L
208.141 166.253 L
208.526 166.881 L
208.951 167.549 L
209.462 168.32 L
210.005 169.102 L
210.477 169.752 L
210.87 170.273 L
211.263 170.775 L
211.732 171.354 L
212.278 171.996 L
212.796 172.579 L
213.218 173.034 L
213.596 173.427 L
214.02 173.853 L
214.538 174.352 L
215.089 174.858 L
215.559 175.27 L
215.944 175.596 L
216.333 175.913 L
216.805 176.284 L
217.359 176.7 L
217.88 177.073 L
218.297 177.36 L
218.669 177.607 L
219.093 177.878 L
219.617 178.2 L
220.173 178.525 L
220.641 178.787 L
221.021 178.992 L
221.406 179.193 L
221.881 179.43 L
222.44 179.698 L
222.854 179.888 L
223.269 180.071 L
223.756 180.278 L
224.292 180.496 L
S
GR
GS
[0.75 0 0 0.75 0 0] CT
0.851 0.325 0.098 RC
1 LJ
0.667 LW
N
223.756 180.278 M
224.292 180.496 L
224.783 180.686 L
225.195 180.84 L
225.586 180.98 L
226.035 181.136 L
226.562 181.311 L
227.09 181.478 L
227.535 181.613 L
227.922 181.726 L
228.333 181.842 L
228.828 181.976 L
229.374 182.117 L
229.865 182.238 L
230.268 182.334 L
230.653 182.422 L
231.104 182.522 L
231.641 182.635 L
232.174 182.743 L
232.614 182.828 L
232.993 182.899 L
233.401 182.972 L
233.902 183.059 L
234.457 183.15 L
234.948 183.227 L
235.344 183.287 L
235.723 183.343 L
236.176 183.407 L
236.721 183.48 L
237.258 183.549 L
237.694 183.603 L
238.067 183.647 L
238.474 183.694 L
238.979 183.749 L
239.54 183.808 L
239.932 183.848 L
240.323 183.886 L
240.811 183.931 L
241.375 183.982 L
241.778 184.016 L
242.181 184.049 L
242.67 184.088 L
243.221 184.13 L
243.721 184.166 L
244.128 184.194 L
244.507 184.22 L
244.949 184.248 L
245.484 184.282 L
246.026 184.314 L
246.474 184.339 L
246.851 184.359 L
247.252 184.38 L
S
GR
GS
[0.75 0 0 0.75 0 0] CT
0.851 0.325 0.098 RC
1 LJ
0.667 LW
N
246.851 184.359 M
247.252 184.38 L
247.745 184.405 L
248.304 184.432 L
248.704 184.451 L
249.105 184.469 L
249.592 184.49 L
250.145 184.512 L
250.648 184.532 L
251.055 184.547 L
251.432 184.561 L
251.872 184.576 L
252.407 184.594 L
252.951 184.612 L
253.401 184.625 L
253.778 184.637 L
254.176 184.648 L
254.668 184.661 L
255.228 184.676 L
255.629 184.686 L
256.031 184.696 L
256.518 184.707 L
257.07 184.719 L
257.572 184.73 L
257.979 184.738 L
258.357 184.745 L
258.798 184.754 L
259.332 184.764 L
259.876 184.773 L
260.325 184.78 L
260.703 184.786 L
261.102 184.792 L
261.594 184.8 L
262.153 184.808 L
262.554 184.813 L
262.956 184.818 L
263.443 184.824 L
263.995 184.831 L
264.498 184.837 L
264.904 184.841 L
265.282 184.845 L
265.723 184.85 L
266.257 184.855 L
266.801 184.86 L
267.251 184.864 L
267.628 184.867 L
268.027 184.871 L
268.518 184.875 L
269.078 184.879 L
269.479 184.882 L
269.881 184.885 L
270.368 184.888 L
S
GR
GS
[0.75 0 0 0.75 0 0] CT
0.851 0.325 0.098 RC
1 LJ
0.667 LW
N
269.881 184.885 M
270.368 184.888 L
270.92 184.891 L
271.423 184.895 L
271.829 184.897 L
272.207 184.899 L
272.648 184.902 L
273.182 184.904 L
273.726 184.907 L
274.176 184.909 L
274.553 184.911 L
274.952 184.913 L
275.443 184.915 L
276.003 184.917 L
276.404 184.919 L
276.806 184.92 L
277.293 184.922 L
277.845 184.924 L
278.348 184.926 L
278.754 184.927 L
279.132 184.928 L
279.573 184.93 L
280.107 184.931 L
280.651 184.933 L
281.101 184.934 L
281.478 184.935 L
281.877 184.936 L
282.368 184.937 L
282.928 184.938 L
283.329 184.939 L
283.731 184.94 L
284.218 184.941 L
284.77 184.942 L
285.273 184.943 L
285.679 184.943 L
286.057 184.944 L
286.498 184.945 L
287.032 184.945 L
287.576 184.946 L
288.025 184.947 L
288.403 184.947 L
288.802 184.948 L
289.293 184.949 L
289.853 184.949 L
290.254 184.95 L
290.656 184.95 L
291.143 184.951 L
291.695 184.951 L
292.198 184.952 L
292.604 184.952 L
292.982 184.952 L
293.423 184.953 L
S
GR
GS
[0.75 0 0 0.75 0 0] CT
0.851 0.325 0.098 RC
1 LJ
0.667 LW
N
292.982 184.952 M
293.423 184.953 L
293.957 184.953 L
294.501 184.954 L
294.95 184.954 L
295.328 184.954 L
295.727 184.955 L
296.218 184.955 L
296.778 184.955 L
297.179 184.956 L
297.581 184.956 L
298.068 184.956 L
298.62 184.956 L
299.122 184.957 L
299.529 184.957 L
299.907 184.957 L
300.348 184.957 L
300.882 184.957 L
301.426 184.958 L
301.875 184.958 L
302.253 184.958 L
302.652 184.958 L
303.143 184.958 L
303.703 184.959 L
304.104 184.959 L
304.506 184.959 L
304.993 184.959 L
305.545 184.959 L
306.047 184.959 L
306.454 184.959 L
306.832 184.959 L
307.273 184.96 L
307.807 184.96 L
308.351 184.96 L
308.8 184.96 L
309.178 184.96 L
309.577 184.96 L
310.068 184.96 L
310.628 184.96 L
311.029 184.96 L
311.431 184.96 L
311.918 184.961 L
312.47 184.961 L
312.972 184.961 L
313.379 184.961 L
313.757 184.961 L
314.198 184.961 L
314.732 184.961 L
315.276 184.961 L
315.725 184.961 L
316.103 184.961 L
316.502 184.961 L
S
GR
GS
[0.75 0 0 0.75 0 0] CT
0.851 0.325 0.098 RC
1 LJ
0.667 LW
N
316.103 184.961 M
316.502 184.961 L
316.993 184.961 L
317.553 184.961 L
317.954 184.961 L
318.356 184.961 L
318.843 184.961 L
319.395 184.961 L
319.897 184.961 L
320.304 184.961 L
320.682 184.962 L
321.123 184.962 L
321.657 184.962 L
322.201 184.962 L
322.65 184.962 L
323.028 184.962 L
323.427 184.962 L
323.918 184.962 L
324.478 184.962 L
324.879 184.962 L
325.281 184.962 L
325.768 184.962 L
326.32 184.962 L
326.822 184.962 L
327.229 184.962 L
327.607 184.962 L
328.048 184.962 L
328.582 184.962 L
329.126 184.962 L
329.575 184.962 L
329.953 184.962 L
330.352 184.962 L
330.843 184.962 L
331.403 184.962 L
331.804 184.962 L
332.206 184.962 L
332.693 184.962 L
333.245 184.962 L
333.747 184.962 L
334.154 184.962 L
334.532 184.962 L
334.973 184.962 L
335.507 184.962 L
336.051 184.962 L
336.5 184.962 L
336.878 184.962 L
337.277 184.962 L
337.768 184.962 L
338.328 184.962 L
338.729 184.962 L
339.131 184.962 L
339.618 184.962 L
S
GR
GS
[0.75 0 0 0.75 0 0] CT
0.851 0.325 0.098 RC
1 LJ
0.667 LW
N
339.131 184.962 M
339.618 184.962 L
340.17 184.962 L
340.672 184.962 L
341.079 184.962 L
341.457 184.962 L
341.898 184.962 L
342.432 184.962 L
342.976 184.962 L
343.425 184.962 L
343.803 184.962 L
344.202 184.962 L
344.693 184.962 L
345.253 184.962 L
345.654 184.962 L
346.056 184.962 L
346.543 184.962 L
347.095 184.962 L
347.597 184.962 L
348.004 184.962 L
348.382 184.962 L
348.823 184.962 L
349.357 184.962 L
349.901 184.962 L
350.35 184.962 L
350.728 184.962 L
351.127 184.962 L
351.618 184.962 L
352.178 184.962 L
352.579 184.962 L
352.981 184.962 L
353.468 184.962 L
354.02 184.962 L
354.522 184.962 L
354.929 184.962 L
355.307 184.962 L
355.748 184.962 L
356.282 184.962 L
356.826 184.962 L
357.275 184.962 L
357.653 184.962 L
358.052 184.962 L
358.543 184.962 L
359.103 184.962 L
359.504 184.962 L
359.906 184.962 L
360.393 184.962 L
360.945 184.962 L
361.447 184.962 L
361.854 184.962 L
362.232 184.962 L
362.673 184.962 L
S
GR
GS
[0.75 0 0 0.75 0 0] CT
0.851 0.325 0.098 RC
1 LJ
0.667 LW
N
362.232 184.962 M
362.673 184.962 L
363.207 184.962 L
363.751 184.962 L
364.2 184.962 L
364.578 184.962 L
364.977 184.962 L
365.468 184.962 L
366.028 184.962 L
366.429 184.962 L
366.831 184.962 L
367.318 184.962 L
367.87 184.962 L
368.372 184.962 L
368.779 184.962 L
369.157 184.962 L
369.598 184.962 L
370.132 184.962 L
370.676 184.962 L
371.125 184.962 L
371.503 184.962 L
371.902 184.962 L
372.393 184.962 L
372.953 184.962 L
373.354 184.962 L
373.756 184.962 L
374.243 184.962 L
374.795 184.962 L
375.297 184.962 L
375.704 184.962 L
376.082 184.962 L
376.523 184.962 L
377.057 184.962 L
377.601 184.962 L
378.05 184.962 L
378.428 184.962 L
378.827 184.962 L
379.318 184.962 L
379.878 184.962 L
380.279 184.962 L
380.681 184.962 L
381.168 184.962 L
381.72 184.962 L
382.222 184.962 L
382.629 184.962 L
383.007 184.962 L
383.448 184.962 L
383.982 184.962 L
384.526 184.962 L
384.975 184.962 L
385.353 184.962 L
385.752 184.962 L
S
GR
GS
[0.75 0 0 0.75 0 0] CT
0.851 0.325 0.098 RC
1 LJ
0.667 LW
N
385.353 184.962 M
385.752 184.962 L
386.243 184.962 L
386.803 184.962 L
387.204 184.962 L
387.606 184.962 L
388.093 184.962 L
388.645 184.962 L
389.147 184.962 L
389.554 184.962 L
389.932 184.962 L
390.373 184.962 L
390.907 184.962 L
391.451 184.962 L
391.9 184.962 L
392.278 184.962 L
392.677 184.962 L
393.168 184.962 L
393.728 184.962 L
394.129 184.962 L
394.531 184.962 L
395.018 184.962 L
395.57 184.962 L
396.072 184.962 L
396.479 184.962 L
396.857 184.962 L
397.298 184.962 L
397.832 184.962 L
398.376 184.962 L
398.825 184.962 L
399.203 184.962 L
399.602 184.962 L
400.093 184.962 L
400.653 184.962 L
401.054 184.962 L
401.456 184.962 L
401.943 184.962 L
402.495 184.962 L
402.997 184.962 L
403.404 184.962 L
403.782 184.962 L
404.223 184.962 L
404.757 184.962 L
405.301 184.962 L
405.75 184.962 L
406.128 184.962 L
406.526 184.962 L
407.018 184.962 L
407.578 184.962 L
407.979 184.962 L
408.381 184.962 L
408.868 184.962 L
S
GR
GS
[0.75 0 0 0.75 0 0] CT
0.851 0.325 0.098 RC
1 LJ
0.667 LW
N
408.381 184.962 M
408.868 184.962 L
409.42 184.962 L
409.922 184.962 L
410.329 184.962 L
410.707 184.962 L
411.148 184.962 L
411.682 184.962 L
412.226 184.962 L
412.675 184.962 L
413.053 184.962 L
413.451 184.962 L
413.943 184.962 L
414.503 184.962 L
414.904 184.962 L
415.306 184.962 L
415.793 184.962 L
416.345 184.962 L
416.847 184.962 L
417.254 184.962 L
417.632 184.962 L
418.073 184.962 L
418.607 184.962 L
419.151 184.962 L
419.6 184.962 L
419.978 184.962 L
420.376 184.962 L
420.868 184.962 L
421.428 184.962 L
421.829 184.962 L
422.231 184.962 L
422.718 184.962 L
423.27 184.962 L
423.772 184.962 L
424.179 184.962 L
424.557 184.962 L
424.998 184.962 L
425.532 184.962 L
426.076 184.962 L
426.525 184.962 L
426.903 184.962 L
427.301 184.962 L
427.793 184.962 L
428.353 184.962 L
428.754 184.962 L
429.156 184.962 L
429.643 184.962 L
430.195 184.962 L
430.697 184.962 L
431.104 184.962 L
431.482 184.962 L
431.923 184.962 L
S
GR
GS
[0.75 0 0 0.75 0 0] CT
0.851 0.325 0.098 RC
1 LJ
0.667 LW
N
431.482 184.962 M
431.923 184.962 L
432.457 184.962 L
433.001 184.962 L
433.45 184.962 L
433.828 184.962 L
434.226 184.962 L
434.718 184.962 L
435.278 184.962 L
435.679 184.962 L
436.081 184.962 L
436.568 184.962 L
437.12 184.962 L
437.622 184.962 L
438.029 184.962 L
438.407 184.962 L
438.848 184.962 L
439.382 184.962 L
439.926 184.962 L
440.375 184.962 L
440.753 184.962 L
441.151 184.962 L
441.643 184.962 L
442.203 184.962 L
442.604 184.962 L
443.006 184.962 L
443.493 184.962 L
444.045 184.962 L
444.547 184.962 L
444.954 184.962 L
445.332 184.962 L
445.773 184.962 L
446.307 184.962 L
446.851 184.962 L
447.3 184.962 L
447.678 184.962 L
448.076 184.962 L
448.568 184.962 L
449.128 184.962 L
449.529 184.962 L
449.931 184.962 L
450.418 184.962 L
450.97 184.962 L
451.472 184.962 L
451.879 184.962 L
452.257 184.962 L
452.698 184.962 L
453.232 184.962 L
453.776 184.962 L
454.225 184.962 L
454.603 184.962 L
455.001 184.962 L
S
GR
GS
[0.75 0 0 0.75 0 0] CT
0.851 0.325 0.098 RC
1 LJ
0.667 LW
N
454.603 184.962 M
455.001 184.962 L
455.493 184.962 L
456.053 184.962 L
456.454 184.962 L
456.856 184.962 L
457.343 184.962 L
457.895 184.962 L
458.397 184.962 L
458.804 184.962 L
459.182 184.962 L
459.623 184.962 L
460.157 184.962 L
460.701 184.962 L
461.15 184.962 L
461.528 184.962 L
461.926 184.962 L
462.418 184.962 L
462.978 184.962 L
463.379 184.962 L
463.781 184.962 L
464.268 184.962 L
464.82 184.962 L
465.322 184.962 L
465.729 184.962 L
466.107 184.962 L
466.548 184.962 L
467.082 184.962 L
467.626 184.962 L
468.075 184.962 L
468.453 184.962 L
468.851 184.962 L
469.343 184.962 L
469.902 184.962 L
470.304 184.962 L
470.705 184.962 L
471.193 184.962 L
471.745 184.962 L
472.247 184.962 L
472.654 184.962 L
473.032 184.962 L
473.473 184.962 L
474.007 184.962 L
474.551 184.962 L
475 184.962 L
475.378 184.962 L
475.776 184.962 L
476.268 184.962 L
476.827 184.962 L
477.229 184.962 L
477.63 184.962 L
478.118 184.962 L
S
GR
GS
[0.75 0 0 0.75 0 0] CT
0.851 0.325 0.098 RC
1 LJ
0.667 LW
N
477.63 184.962 M
478.118 184.962 L
478.67 184.962 L
479.172 184.962 L
479.579 184.962 L
479.957 184.962 L
480.398 184.962 L
480.932 184.962 L
481.476 184.962 L
481.925 184.962 L
482.303 184.962 L
482.701 184.962 L
483.193 184.962 L
483.753 184.962 L
484.154 184.962 L
484.555 184.962 L
485.043 184.962 L
485.595 184.962 L
486.097 184.962 L
486.504 184.962 L
486.882 184.962 L
487.323 184.962 L
487.857 184.962 L
488.401 184.962 L
488.85 184.962 L
489.228 184.962 L
489.626 184.962 L
490.118 184.962 L
490.677 184.962 L
491.079 184.962 L
491.48 184.962 L
491.968 184.962 L
492.52 184.962 L
493.022 184.962 L
493.429 184.962 L
493.807 184.962 L
494.248 184.962 L
494.782 184.962 L
495.326 184.962 L
495.775 184.962 L
496.153 184.962 L
496.551 184.962 L
497.043 184.962 L
497.603 184.962 L
498.004 184.962 L
498.405 184.962 L
498.893 184.962 L
499.445 184.962 L
499.947 184.962 L
500.354 184.962 L
500.732 184.962 L
501.173 184.962 L
S
GR
GS
[0.75 0 0 0.75 0 0] CT
0.851 0.325 0.098 RC
1 LJ
0.667 LW
N
500.732 184.962 M
501.173 184.962 L
501.707 184.962 L
502.251 184.962 L
502.7 184.962 L
503.078 184.962 L
503.476 184.962 L
503.968 184.962 L
504.527 184.962 L
504.929 184.962 L
505.33 184.962 L
505.818 184.962 L
506.37 184.962 L
506.872 184.962 L
507 184.962 L
S
GR
GS
[0.75 0 0 0.75 0 0] CT
1 GC
N
424 80 M
424 44 L
494 44 L
494 80 L
cp
f
GR
GS
[0.75 0 0 0.75 357 40.625] CT
/Helvetica 12 F
GS
[1 0 0 1 0 0] CT
0 4.5 moveto 
1 -1 scale
(u1) t 
GR
GR
GS
[0.75 0 0 0.75 0 0] CT
0 0.447 0.741 RC
1 LJ
0.667 LW
N
432 54.167 M
472 54.167 L
S
GR
GS
[0.75 0 0 0.75 357 52.375] CT
/Helvetica 12 F
GS
[1 0 0 1 0 0] CT
0 4.5 moveto 
1 -1 scale
(u2) t 
GR
GR
GS
[0.75 0 0 0.75 0 0] CT
0.851 0.325 0.098 RC
1 LJ
0.667 LW
N
432 69.833 M
472 69.833 L
S
GR
GS
[0.75 0 0 0.75 0 0] CT
0.149 GC
10.0 ML
0.667 LW
N
424 80 M
424 44 L
494 44 L
494 80 L
cp
S
GR
%%Trailer
%%Pages: 1
%%EOF
