%!PS-Adobe-3.0 EPSF-3.0
%%Creator: (MATLAB, The Mathworks, Inc. Version 8.6.0.267246 \(R2015b\). Operating System: Windows 8)
%%Title: E:/Projects/skola/rls/pics/SP3/par_1o_u.eps
%%CreationDate: 2017-03-17T12:27:52
%%Pages: (atend)
%%BoundingBox: 0 0 420 315
%%LanguageLevel: 2
%%EndComments
%%BeginProlog
%%BeginResource: procset (Apache XML Graphics Std ProcSet) 1.2 0
%%Version: 1.2 0
%%Copyright: (Copyright 2001-2003,2010 The Apache Software Foundation. License terms: http://www.apache.org/licenses/LICENSE-2.0)
/bd{bind def}bind def
/ld{load def}bd
/GR/grestore ld
/M/moveto ld
/LJ/setlinejoin ld
/C/curveto ld
/f/fill ld
/LW/setlinewidth ld
/GC/setgray ld
/t/show ld
/N/newpath ld
/CT/concat ld
/cp/closepath ld
/S/stroke ld
/L/lineto ld
/CC/setcmykcolor ld
/A/ashow ld
/GS/gsave ld
/RC/setrgbcolor ld
/RM/rmoveto ld
/ML/setmiterlimit ld
/re {4 2 roll M
1 index 0 rlineto
0 exch rlineto
neg 0 rlineto
cp } bd
/_ctm matrix def
/_tm matrix def
/BT { _ctm currentmatrix pop matrix _tm copy pop 0 0 moveto } bd
/ET { _ctm setmatrix } bd
/iTm { _ctm setmatrix _tm concat } bd
/Tm { _tm astore pop iTm 0 0 moveto } bd
/ux 0.0 def
/uy 0.0 def
/F {
  /Tp exch def
  /Tf exch def
  Tf findfont Tp scalefont setfont
  /cf Tf def  /cs Tp def
} bd
/ULS {currentpoint /uy exch def /ux exch def} bd
/ULE {
  /Tcx currentpoint pop def
  gsave
  newpath
  cf findfont cs scalefont dup
  /FontMatrix get 0 get /Ts exch def /FontInfo get dup
  /UnderlinePosition get Ts mul /To exch def
  /UnderlineThickness get Ts mul /Tt exch def
  ux uy To add moveto  Tcx uy To add lineto
  Tt setlinewidth stroke
  grestore
} bd
/OLE {
  /Tcx currentpoint pop def
  gsave
  newpath
  cf findfont cs scalefont dup
  /FontMatrix get 0 get /Ts exch def /FontInfo get dup
  /UnderlinePosition get Ts mul /To exch def
  /UnderlineThickness get Ts mul /Tt exch def
  ux uy To add cs add moveto Tcx uy To add cs add lineto
  Tt setlinewidth stroke
  grestore
} bd
/SOE {
  /Tcx currentpoint pop def
  gsave
  newpath
  cf findfont cs scalefont dup
  /FontMatrix get 0 get /Ts exch def /FontInfo get dup
  /UnderlinePosition get Ts mul /To exch def
  /UnderlineThickness get Ts mul /Tt exch def
  ux uy To add cs 10 mul 26 idiv add moveto Tcx uy To add cs 10 mul 26 idiv add lineto
  Tt setlinewidth stroke
  grestore
} bd
/QT {
/Y22 exch store
/X22 exch store
/Y21 exch store
/X21 exch store
currentpoint
/Y21 load 2 mul add 3 div exch
/X21 load 2 mul add 3 div exch
/X21 load 2 mul /X22 load add 3 div
/Y21 load 2 mul /Y22 load add 3 div
/X22 load /Y22 load curveto
} bd
/SSPD {
dup length /d exch dict def
{
/v exch def
/k exch def
currentpagedevice k known {
/cpdv currentpagedevice k get def
v cpdv ne {
/upd false def
/nullv v type /nulltype eq def
/nullcpdv cpdv type /nulltype eq def
nullv nullcpdv or
{
/upd true def
} {
/sametype v type cpdv type eq def
sametype {
v type /arraytype eq {
/vlen v length def
/cpdvlen cpdv length def
vlen cpdvlen eq {
0 1 vlen 1 sub {
/i exch def
/obj v i get def
/cpdobj cpdv i get def
obj cpdobj ne {
/upd true def
exit
} if
} for
} {
/upd true def
} ifelse
} {
v type /dicttype eq {
v {
/dv exch def
/dk exch def
/cpddv cpdv dk get def
dv cpddv ne {
/upd true def
exit
} if
} forall
} {
/upd true def
} ifelse
} ifelse
} if
} ifelse
upd true eq {
d k v put
} if
} if
} if
} forall
d length 0 gt {
d setpagedevice
} if
} bd
%%EndResource
%%BeginResource: procset (Apache XML Graphics EPS ProcSet) 1.0 0
%%Version: 1.0 0
%%Copyright: (Copyright 2002-2003 The Apache Software Foundation. License terms: http://www.apache.org/licenses/LICENSE-2.0)
/BeginEPSF { %def
/b4_Inc_state save def         % Save state for cleanup
/dict_count countdictstack def % Count objects on dict stack
/op_count count 1 sub def      % Count objects on operand stack
userdict begin                 % Push userdict on dict stack
/showpage { } def              % Redefine showpage, { } = null proc
0 setgray 0 setlinecap         % Prepare graphics state
1 setlinewidth 0 setlinejoin
10 setmiterlimit [ ] 0 setdash newpath
/languagelevel where           % If level not equal to 1 then
{pop languagelevel             % set strokeadjust and
1 ne                           % overprint to their defaults.
{false setstrokeadjust false setoverprint
} if
} if
} bd
/EndEPSF { %def
count op_count sub {pop} repeat            % Clean up stacks
countdictstack dict_count sub {end} repeat
b4_Inc_state restore
} bd
%%EndResource
%FOPBeginFontDict
%%IncludeResource: font Courier-Bold
%%IncludeResource: font Helvetica
%%IncludeResource: font Courier-BoldOblique
%%IncludeResource: font Courier-Oblique
%%IncludeResource: font Times-Roman
%%IncludeResource: font Helvetica-BoldOblique
%%IncludeResource: font Helvetica-Bold
%%IncludeResource: font Helvetica-Oblique
%%IncludeResource: font Times-BoldItalic
%%IncludeResource: font Courier
%%IncludeResource: font Times-Italic
%%IncludeResource: font Times-Bold
%%IncludeResource: font Symbol
%%IncludeResource: font ZapfDingbats
%FOPEndFontDict
%%BeginResource: encoding WinAnsiEncoding
/WinAnsiEncoding [
/.notdef /.notdef /.notdef /.notdef /.notdef
/.notdef /.notdef /.notdef /.notdef /.notdef
/.notdef /.notdef /.notdef /.notdef /.notdef
/.notdef /.notdef /.notdef /.notdef /.notdef
/.notdef /.notdef /.notdef /.notdef /.notdef
/.notdef /.notdef /.notdef /.notdef /.notdef
/.notdef /.notdef /space /exclam /quotedbl
/numbersign /dollar /percent /ampersand /quotesingle
/parenleft /parenright /asterisk /plus /comma
/hyphen /period /slash /zero /one
/two /three /four /five /six
/seven /eight /nine /colon /semicolon
/less /equal /greater /question /at
/A /B /C /D /E
/F /G /H /I /J
/K /L /M /N /O
/P /Q /R /S /T
/U /V /W /X /Y
/Z /bracketleft /backslash /bracketright /asciicircum
/underscore /quoteleft /a /b /c
/d /e /f /g /h
/i /j /k /l /m
/n /o /p /q /r
/s /t /u /v /w
/x /y /z /braceleft /bar
/braceright /asciitilde /bullet /Euro /bullet
/quotesinglbase /florin /quotedblbase /ellipsis /dagger
/daggerdbl /circumflex /perthousand /Scaron /guilsinglleft
/OE /bullet /Zcaron /bullet /bullet
/quoteleft /quoteright /quotedblleft /quotedblright /bullet
/endash /emdash /asciitilde /trademark /scaron
/guilsinglright /oe /bullet /zcaron /Ydieresis
/space /exclamdown /cent /sterling /currency
/yen /brokenbar /section /dieresis /copyright
/ordfeminine /guillemotleft /logicalnot /sfthyphen /registered
/macron /degree /plusminus /twosuperior /threesuperior
/acute /mu /paragraph /middot /cedilla
/onesuperior /ordmasculine /guillemotright /onequarter /onehalf
/threequarters /questiondown /Agrave /Aacute /Acircumflex
/Atilde /Adieresis /Aring /AE /Ccedilla
/Egrave /Eacute /Ecircumflex /Edieresis /Igrave
/Iacute /Icircumflex /Idieresis /Eth /Ntilde
/Ograve /Oacute /Ocircumflex /Otilde /Odieresis
/multiply /Oslash /Ugrave /Uacute /Ucircumflex
/Udieresis /Yacute /Thorn /germandbls /agrave
/aacute /acircumflex /atilde /adieresis /aring
/ae /ccedilla /egrave /eacute /ecircumflex
/edieresis /igrave /iacute /icircumflex /idieresis
/eth /ntilde /ograve /oacute /ocircumflex
/otilde /odieresis /divide /oslash /ugrave
/uacute /ucircumflex /udieresis /yacute /thorn
/ydieresis
] def
%%EndResource
%FOPBeginFontReencode
/Courier-Bold findfont
dup length dict begin
  {1 index /FID ne {def} {pop pop} ifelse} forall
  /Encoding WinAnsiEncoding def
  currentdict
end
/Courier-Bold exch definefont pop
/Helvetica findfont
dup length dict begin
  {1 index /FID ne {def} {pop pop} ifelse} forall
  /Encoding WinAnsiEncoding def
  currentdict
end
/Helvetica exch definefont pop
/Courier-BoldOblique findfont
dup length dict begin
  {1 index /FID ne {def} {pop pop} ifelse} forall
  /Encoding WinAnsiEncoding def
  currentdict
end
/Courier-BoldOblique exch definefont pop
/Courier-Oblique findfont
dup length dict begin
  {1 index /FID ne {def} {pop pop} ifelse} forall
  /Encoding WinAnsiEncoding def
  currentdict
end
/Courier-Oblique exch definefont pop
/Times-Roman findfont
dup length dict begin
  {1 index /FID ne {def} {pop pop} ifelse} forall
  /Encoding WinAnsiEncoding def
  currentdict
end
/Times-Roman exch definefont pop
/Helvetica-BoldOblique findfont
dup length dict begin
  {1 index /FID ne {def} {pop pop} ifelse} forall
  /Encoding WinAnsiEncoding def
  currentdict
end
/Helvetica-BoldOblique exch definefont pop
/Helvetica-Bold findfont
dup length dict begin
  {1 index /FID ne {def} {pop pop} ifelse} forall
  /Encoding WinAnsiEncoding def
  currentdict
end
/Helvetica-Bold exch definefont pop
/Helvetica-Oblique findfont
dup length dict begin
  {1 index /FID ne {def} {pop pop} ifelse} forall
  /Encoding WinAnsiEncoding def
  currentdict
end
/Helvetica-Oblique exch definefont pop
/Times-BoldItalic findfont
dup length dict begin
  {1 index /FID ne {def} {pop pop} ifelse} forall
  /Encoding WinAnsiEncoding def
  currentdict
end
/Times-BoldItalic exch definefont pop
/Courier findfont
dup length dict begin
  {1 index /FID ne {def} {pop pop} ifelse} forall
  /Encoding WinAnsiEncoding def
  currentdict
end
/Courier exch definefont pop
/Times-Italic findfont
dup length dict begin
  {1 index /FID ne {def} {pop pop} ifelse} forall
  /Encoding WinAnsiEncoding def
  currentdict
end
/Times-Italic exch definefont pop
/Times-Bold findfont
dup length dict begin
  {1 index /FID ne {def} {pop pop} ifelse} forall
  /Encoding WinAnsiEncoding def
  currentdict
end
/Times-Bold exch definefont pop
%FOPEndFontReencode
%%EndProlog
%%Page: 1 1
%%PageBoundingBox: 0 0 420 315
%%BeginPageSetup
[1 0 0 -1 0 315] CT
%%EndPageSetup
GS
[0.75 0 0 0.75 0 0] CT
1 GC
N
0 0 560 420 re
f
GR
GS
[0.75 0 0 0.75 0 0] CT
1 GC
N
0 0 560 420 re
f
GR
GS
[0.75 0 0 0.75 0 0] CT
1 GC
N
73 374 M
507 374 L
507 31 L
73 31 L
cp
f
GR
GS
[0.75 0 0 0.75 0 0] CT
0.149 GC
2 setlinecap
1 LJ
0.667 LW
N
73 374 M
507 374 L
S
GR
GS
[0.75 0 0 0.75 0 0] CT
0.149 GC
2 setlinecap
1 LJ
0.667 LW
N
73 31 M
507 31 L
S
GR
GS
[0.75 0 0 0.75 0 0] CT
0.149 GC
2 setlinecap
1 LJ
0.667 LW
N
73 374 M
73 369.66 L
S
GR
GS
[0.75 0 0 0.75 0 0] CT
0.149 GC
2 setlinecap
1 LJ
0.667 LW
N
145.333 374 M
145.333 369.66 L
S
GR
GS
[0.75 0 0 0.75 0 0] CT
0.149 GC
2 setlinecap
1 LJ
0.667 LW
N
217.667 374 M
217.667 369.66 L
S
GR
GS
[0.75 0 0 0.75 0 0] CT
0.149 GC
2 setlinecap
1 LJ
0.667 LW
N
290 374 M
290 369.66 L
S
GR
GS
[0.75 0 0 0.75 0 0] CT
0.149 GC
2 setlinecap
1 LJ
0.667 LW
N
362.333 374 M
362.333 369.66 L
S
GR
GS
[0.75 0 0 0.75 0 0] CT
0.149 GC
2 setlinecap
1 LJ
0.667 LW
N
434.667 374 M
434.667 369.66 L
S
GR
GS
[0.75 0 0 0.75 0 0] CT
0.149 GC
2 setlinecap
1 LJ
0.667 LW
N
507 374 M
507 369.66 L
S
GR
GS
[0.75 0 0 0.75 0 0] CT
0.149 GC
2 setlinecap
1 LJ
0.667 LW
N
73 31 M
73 35.34 L
S
GR
GS
[0.75 0 0 0.75 0 0] CT
0.149 GC
2 setlinecap
1 LJ
0.667 LW
N
145.333 31 M
145.333 35.34 L
S
GR
GS
[0.75 0 0 0.75 0 0] CT
0.149 GC
2 setlinecap
1 LJ
0.667 LW
N
217.667 31 M
217.667 35.34 L
S
GR
GS
[0.75 0 0 0.75 0 0] CT
0.149 GC
2 setlinecap
1 LJ
0.667 LW
N
290 31 M
290 35.34 L
S
GR
GS
[0.75 0 0 0.75 0 0] CT
0.149 GC
2 setlinecap
1 LJ
0.667 LW
N
362.333 31 M
362.333 35.34 L
S
GR
GS
[0.75 0 0 0.75 0 0] CT
0.149 GC
2 setlinecap
1 LJ
0.667 LW
N
434.667 31 M
434.667 35.34 L
S
GR
GS
[0.75 0 0 0.75 0 0] CT
0.149 GC
2 setlinecap
1 LJ
0.667 LW
N
507 31 M
507 35.34 L
S
GR
GS
[0.75 0 0 0.75 54.75 284.50001] CT
0.149 GC
/Helvetica 13 F
GS
[1 0 0 1 0 0] CT
-4 13 moveto 
1 -1 scale
(0) t 
GR
GR
GS
[0.75 0 0 0.75 109 284.50001] CT
0.149 GC
/Helvetica 13 F
GS
[1 0 0 1 0 0] CT
-11 13 moveto 
1 -1 scale
(200) t 
GR
GR
GS
[0.75 0 0 0.75 163.25 284.50001] CT
0.149 GC
/Helvetica 13 F
GS
[1 0 0 1 0 0] CT
-11 13 moveto 
1 -1 scale
(400) t 
GR
GR
GS
[0.75 0 0 0.75 217.5 284.50001] CT
0.149 GC
/Helvetica 13 F
GS
[1 0 0 1 0 0] CT
-11 13 moveto 
1 -1 scale
(600) t 
GR
GR
GS
[0.75 0 0 0.75 271.75001 284.50001] CT
0.149 GC
/Helvetica 13 F
GS
[1 0 0 1 0 0] CT
-11 13 moveto 
1 -1 scale
(800) t 
GR
GR
GS
[0.75 0 0 0.75 325.99999 284.50001] CT
0.149 GC
/Helvetica 13 F
GS
[1 0 0 1 0 0] CT
-14.5 13 moveto 
1 -1 scale
(1000) t 
GR
GR
GS
[0.75 0 0 0.75 380.25 284.50001] CT
0.149 GC
/Helvetica 13 F
GS
[1 0 0 1 0 0] CT
-14.5 13 moveto 
1 -1 scale
(1200) t 
GR
GR
GS
[0.75 0 0 0.75 217.50016 297.49999] CT
0.149 GC
/Helvetica 15 F
GS
[1 0 0 1 0 0] CT
-11 14 moveto 
1 -1 scale
(t\(s\)) t 
GR
GR
GS
[0.75 0 0 0.75 0 0] CT
0.149 GC
2 setlinecap
1 LJ
0.667 LW
N
73 374 M
73 31 L
S
GR
GS
[0.75 0 0 0.75 0 0] CT
0.149 GC
2 setlinecap
1 LJ
0.667 LW
N
507 374 M
507 31 L
S
GR
GS
[0.75 0 0 0.75 0 0] CT
0.149 GC
2 setlinecap
1 LJ
0.667 LW
N
73 374 M
77.34 374 L
S
GR
GS
[0.75 0 0 0.75 0 0] CT
0.149 GC
2 setlinecap
1 LJ
0.667 LW
N
73 331.125 M
77.34 331.125 L
S
GR
GS
[0.75 0 0 0.75 0 0] CT
0.149 GC
2 setlinecap
1 LJ
0.667 LW
N
73 288.25 M
77.34 288.25 L
S
GR
GS
[0.75 0 0 0.75 0 0] CT
0.149 GC
2 setlinecap
1 LJ
0.667 LW
N
73 245.375 M
77.34 245.375 L
S
GR
GS
[0.75 0 0 0.75 0 0] CT
0.149 GC
2 setlinecap
1 LJ
0.667 LW
N
73 202.5 M
77.34 202.5 L
S
GR
GS
[0.75 0 0 0.75 0 0] CT
0.149 GC
2 setlinecap
1 LJ
0.667 LW
N
73 159.625 M
77.34 159.625 L
S
GR
GS
[0.75 0 0 0.75 0 0] CT
0.149 GC
2 setlinecap
1 LJ
0.667 LW
N
73 116.75 M
77.34 116.75 L
S
GR
GS
[0.75 0 0 0.75 0 0] CT
0.149 GC
2 setlinecap
1 LJ
0.667 LW
N
73 73.875 M
77.34 73.875 L
S
GR
GS
[0.75 0 0 0.75 0 0] CT
0.149 GC
2 setlinecap
1 LJ
0.667 LW
N
73 31 M
77.34 31 L
S
GR
GS
[0.75 0 0 0.75 0 0] CT
0.149 GC
2 setlinecap
1 LJ
0.667 LW
N
507 374 M
502.66 374 L
S
GR
GS
[0.75 0 0 0.75 0 0] CT
0.149 GC
2 setlinecap
1 LJ
0.667 LW
N
507 331.125 M
502.66 331.125 L
S
GR
GS
[0.75 0 0 0.75 0 0] CT
0.149 GC
2 setlinecap
1 LJ
0.667 LW
N
507 288.25 M
502.66 288.25 L
S
GR
GS
[0.75 0 0 0.75 0 0] CT
0.149 GC
2 setlinecap
1 LJ
0.667 LW
N
507 245.375 M
502.66 245.375 L
S
GR
GS
[0.75 0 0 0.75 0 0] CT
0.149 GC
2 setlinecap
1 LJ
0.667 LW
N
507 202.5 M
502.66 202.5 L
S
GR
GS
[0.75 0 0 0.75 0 0] CT
0.149 GC
2 setlinecap
1 LJ
0.667 LW
N
507 159.625 M
502.66 159.625 L
S
GR
GS
[0.75 0 0 0.75 0 0] CT
0.149 GC
2 setlinecap
1 LJ
0.667 LW
N
507 116.75 M
502.66 116.75 L
S
GR
GS
[0.75 0 0 0.75 0 0] CT
0.149 GC
2 setlinecap
1 LJ
0.667 LW
N
507 73.875 M
502.66 73.875 L
S
GR
GS
[0.75 0 0 0.75 0 0] CT
0.149 GC
2 setlinecap
1 LJ
0.667 LW
N
507 31 M
502.66 31 L
S
GR
GS
[0.75 0 0 0.75 50.75 280.5] CT
0.149 GC
/Helvetica 13 F
GS
[1 0 0 1 0 0] CT
-12 5 moveto 
1 -1 scale
(-3) t 
GR
GR
GS
[0.75 0 0 0.75 50.75 248.34375] CT
0.149 GC
/Helvetica 13 F
GS
[1 0 0 1 0 0] CT
-12 5 moveto 
1 -1 scale
(-2) t 
GR
GR
GS
[0.75 0 0 0.75 50.75 216.1875] CT
0.149 GC
/Helvetica 13 F
GS
[1 0 0 1 0 0] CT
-12 5 moveto 
1 -1 scale
(-1) t 
GR
GR
GS
[0.75 0 0 0.75 50.75 184.03125] CT
0.149 GC
/Helvetica 13 F
GS
[1 0 0 1 0 0] CT
-8 5 moveto 
1 -1 scale
(0) t 
GR
GR
GS
[0.75 0 0 0.75 50.75 151.875] CT
0.149 GC
/Helvetica 13 F
GS
[1 0 0 1 0 0] CT
-8 5 moveto 
1 -1 scale
(1) t 
GR
GR
GS
[0.75 0 0 0.75 50.75 119.71875] CT
0.149 GC
/Helvetica 13 F
GS
[1 0 0 1 0 0] CT
-8 5 moveto 
1 -1 scale
(2) t 
GR
GR
GS
[0.75 0 0 0.75 50.75 87.5625] CT
0.149 GC
/Helvetica 13 F
GS
[1 0 0 1 0 0] CT
-8 5 moveto 
1 -1 scale
(3) t 
GR
GR
GS
[0.75 0 0 0.75 50.75 55.40625] CT
0.149 GC
/Helvetica 13 F
GS
[1 0 0 1 0 0] CT
-8 5 moveto 
1 -1 scale
(4) t 
GR
GR
GS
[0.75 0 0 0.75 50.75 23.25] CT
0.149 GC
/Helvetica 13 F
GS
[1 0 0 1 0 0] CT
-8 5 moveto 
1 -1 scale
(5) t 
GR
GR
GS
[0.75 0 0 0.75 217.50021 21.1875] CT
/any-Bold 15 F
GS
[1 0 0 1 0 0] CT
-184.5 -4 moveto 
1 -1 scale
(Response of system with 1 order regulator - control) t 
GR
GR
GS
[0.75 0 0 0.75 0 0] CT
0 0.447 0.741 RC
1 LJ
0.667 LW
N
73 245.375 M
73 245.375 L
73.362 245.375 L
73.362 78.162 L
73.362 78.162 L
73.473 78.049 L
73.583 77.343 L
73.743 75.614 L
73.97 72.328 L
74.282 67.213 L
74.671 60.912 L
75.117 54.512 L
75.649 48.267 L
76.3 42.529 L
77.125 37.633 L
78.221 34.046 L
79.744 32.479 L
81.622 33.393 L
82.691 34.607 L
83.76 36.051 L
85.239 38.218 L
87.07 40.938 L
88.215 42.596 L
89.36 44.189 L
90.846 46.147 L
92.593 48.278 L
93.759 49.608 L
94.926 50.859 L
96.397 52.33 L
98.102 53.894 L
99.292 54.909 L
100.482 55.86 L
101.946 56.948 L
103.615 58.086 L
104.82 58.852 L
106.026 59.568 L
107.483 60.371 L
109.126 61.202 L
110.623 61.897 L
111.841 62.43 L
112.977 62.894 L
114.298 63.397 L
115.891 63.957 L
117.51 64.475 L
118.852 64.876 L
119.985 65.196 L
121.182 65.51 L
122.653 65.868 L
124.32 66.238 L
125.819 66.543 L
S
GR
GS
[0.75 0 0 0.75 0 0] CT
0 0.447 0.741 RC
1 LJ
0.667 LW
N
124.32 66.238 M
125.819 66.543 L
127.02 66.777 L
128.14 66.981 L
129.463 67.204 L
131.076 67.452 L
132.708 67.68 L
134.041 67.856 L
135.158 67.998 L
136.348 68.137 L
137.829 68.295 L
139.513 68.458 L
140.702 68.569 L
141.891 68.673 L
143.351 68.789 L
145.017 68.908 L
146.527 69.006 L
147.737 69.086 L
148.855 69.154 L
150.166 69.227 L
151.771 69.307 L
153.41 69.378 L
154.756 69.437 L
155.876 69.486 L
157.058 69.532 L
158.526 69.584 L
160.209 69.635 L
161.407 69.673 L
162.606 69.708 L
164.065 69.746 L
165.72 69.782 L
167.222 69.812 L
168.436 69.841 L
169.562 69.865 L
170.88 69.889 L
172.48 69.914 L
174.108 69.934 L
175.451 69.954 L
176.576 69.973 L
177.767 69.989 L
179.238 70.006 L
180.913 70.02 L
181.5 70.032 L
181.5 70.032 L
181.5 70.032 L
181.556 81.883 L
181.612 92.359 L
181.696 105.795 L
181.807 120.253 L
181.935 133.3 L
182.116 146.834 L
182.346 158.471 L
S
GR
GS
[0.75 0 0 0.75 0 0] CT
0 0.447 0.741 RC
1 LJ
0.667 LW
N
182.116 146.834 M
182.346 158.471 L
182.601 166.917 L
182.895 173.318 L
183.24 178.304 L
183.664 182.374 L
184.235 185.896 L
184.916 188.379 L
185.681 189.731 L
186.618 190.01 L
187.856 188.935 L
189.582 186.029 L
190.632 183.922 L
191.682 181.745 L
193.086 178.872 L
194.77 175.618 L
195.905 173.585 L
197.041 171.691 L
198.469 169.506 L
200.127 167.235 L
201.302 165.785 L
202.477 164.457 L
203.913 162.988 L
205.544 161.503 L
207.027 160.305 L
208.225 159.433 L
209.337 158.693 L
210.639 157.903 L
212.223 157.043 L
213.836 156.27 L
215.167 155.701 L
216.282 155.267 L
217.462 154.847 L
218.921 154.379 L
220.584 153.905 L
221.774 153.602 L
222.964 153.325 L
224.411 153.021 L
226.053 152.716 L
227.547 152.469 L
228.755 152.29 L
229.876 152.138 L
231.185 151.977 L
232.774 151.801 L
234.393 151.643 L
235.73 151.527 L
236.851 151.439 L
238.036 151.353 L
239.499 151.258 L
241.165 151.162 L
242.36 151.1 L
243.554 151.044 L
S
GR
GS
[0.75 0 0 0.75 0 0] CT
0 0.447 0.741 RC
1 LJ
0.667 LW
N
242.36 151.1 M
243.554 151.044 L
245.006 150.982 L
246.649 150.92 L
248.145 150.87 L
249.356 150.834 L
250.481 150.803 L
251.793 150.77 L
253.385 150.735 L
255.004 150.703 L
256.344 150.679 L
257.467 150.662 L
258.655 150.644 L
260.12 150.625 L
261.787 150.606 L
262.984 150.593 L
264.18 150.582 L
265.633 150.569 L
267.278 150.557 L
268.775 150.547 L
269.987 150.539 L
271.114 150.533 L
272.428 150.527 L
274.02 150.52 L
275.641 150.513 L
276.981 150.508 L
278.106 150.505 L
279.295 150.501 L
280.762 150.497 L
282.429 150.493 L
283.627 150.491 L
284.824 150.489 L
286.277 150.486 L
287.923 150.484 L
289.421 150.482 L
290.635 150.48 L
291.762 150.479 L
293.077 150.478 L
294.67 150.476 L
296.291 150.475 L
297.632 150.474 L
298.758 150.473 L
299.948 150.473 L
301.415 150.472 L
303.083 150.471 L
304.281 150.471 L
305.479 150.47 L
306.933 150.47 L
308.58 150.469 L
310.078 150.469 L
311.292 150.468 L
312.42 150.468 L
S
GR
GS
[0.75 0 0 0.75 0 0] CT
0 0.447 0.741 RC
1 LJ
0.667 LW
N
311.292 150.468 M
312.42 150.468 L
313.735 150.468 L
315.329 150.468 L
316.951 150.467 L
318.293 150.467 L
319.419 150.467 L
320.609 150.467 L
322.076 150.467 L
323.745 150.467 L
324.943 150.466 L
326.142 150.466 L
327.596 150.466 L
329.243 150.466 L
330.742 150.466 L
331.957 150.466 L
333.085 150.466 L
334.4 150.466 L
335.994 150.466 L
337.617 150.466 L
338.959 150.466 L
340.085 150.466 L
341.276 150.466 L
342.743 150.466 L
344.413 150.466 L
345.611 150.466 L
346.81 150.466 L
348.265 150.466 L
349.912 150.466 L
351.412 150.466 L
352.626 150.466 L
353.755 150.466 L
355.07 150.466 L
356.665 150.466 L
358.287 150.466 L
359.63 150.466 L
360.756 150.466 L
361.947 150.466 L
363.415 150.466 L
365.085 150.465 L
366.283 150.465 L
367.482 150.465 L
368.937 150.465 L
370.585 150.465 L
372.085 150.465 L
373.299 150.465 L
374.428 150.465 L
375.744 150.465 L
377.339 150.465 L
378.962 150.465 L
380.304 150.465 L
381.431 150.465 L
S
GR
GS
[0.75 0 0 0.75 0 0] CT
0 0.447 0.741 RC
1 LJ
0.667 LW
N
380.304 150.465 M
381.431 150.465 L
382.622 150.465 L
384.09 150.465 L
385.76 150.465 L
386.959 150.465 L
388.158 150.465 L
389.613 150.465 L
391.261 150.465 L
392.761 150.465 L
393.976 150.465 L
395.105 150.465 L
396.42 150.465 L
398.015 150.465 L
399.639 150.465 L
400.981 150.465 L
402.108 150.465 L
403.299 150.465 L
404.768 150.465 L
406.438 150.465 L
407.637 150.465 L
408.836 150.465 L
410.291 150.465 L
411.94 150.465 L
413.44 150.465 L
414.655 150.465 L
415.783 150.465 L
417.099 150.465 L
418.695 150.465 L
420.318 150.465 L
421.661 150.465 L
422.788 150.465 L
423.979 150.465 L
425.448 150.465 L
427.118 150.465 L
428.317 150.465 L
429.516 150.465 L
430.972 150.465 L
432.62 150.465 L
434.12 150.465 L
435.335 150.465 L
436.464 150.465 L
437.78 150.465 L
439.376 150.465 L
440.999 150.465 L
442.342 150.465 L
443.469 150.465 L
444.66 150.465 L
446.129 150.465 L
447.8 150.465 L
448.999 150.465 L
450.198 150.465 L
S
GR
GS
[0.75 0 0 0.75 0 0] CT
0 0.447 0.741 RC
1 LJ
0.667 LW
N
448.999 150.465 M
450.198 150.465 L
451.654 150.465 L
453.302 150.465 L
454.803 150.465 L
456.018 150.465 L
457.147 150.465 L
458.463 150.465 L
460.059 150.465 L
461.682 150.465 L
463.025 150.465 L
464.152 150.465 L
465.344 150.465 L
466.812 150.465 L
468.483 150.465 L
469.682 150.465 L
470.882 150.465 L
472.338 150.465 L
473.986 150.465 L
475.487 150.465 L
476.702 150.465 L
477.831 150.465 L
479.147 150.465 L
480.743 150.465 L
482.366 150.465 L
483.71 150.465 L
484.837 150.465 L
486.028 150.465 L
487.497 150.465 L
489.168 150.465 L
490.367 150.465 L
491.566 150.465 L
493.022 150.465 L
494.671 150.465 L
496.172 150.465 L
497.387 150.465 L
498.516 150.465 L
499.832 150.465 L
501.428 150.465 L
503.052 150.465 L
504.395 150.465 L
505.522 150.465 L
506.714 150.465 L
507 150.465 L
S
GR
GS
[0.75 0 0 0.75 0 0] CT
0.851 0.325 0.098 RC
1 LJ
0.667 LW
N
73 245.375 M
73 245.375 L
73.362 245.375 L
73.362 245.375 L
73.362 245.375 L
73.473 251.82 L
73.583 257.846 L
73.743 265.899 L
73.97 276.204 L
74.282 288.589 L
74.671 301.731 L
75.117 314.221 L
75.649 326.238 L
76.3 337.539 L
77.125 347.821 L
78.221 356.559 L
79.744 362.868 L
81.622 365.6 L
82.691 365.862 L
83.76 365.617 L
85.239 364.806 L
87.07 363.448 L
88.215 362.53 L
89.36 361.608 L
90.846 360.44 L
92.593 359.139 L
93.759 358.323 L
94.926 357.549 L
96.397 356.636 L
98.102 355.659 L
99.292 355.028 L
100.482 354.435 L
101.946 353.755 L
103.615 353.042 L
104.82 352.566 L
106.026 352.119 L
107.483 351.617 L
109.126 351.095 L
110.623 350.658 L
111.841 350.329 L
112.977 350.04 L
114.298 349.726 L
115.891 349.375 L
117.51 349.048 L
118.852 348.798 L
119.985 348.601 L
121.182 348.406 L
122.653 348.181 L
124.32 347.948 L
125.819 347.754 L
S
GR
GS
[0.75 0 0 0.75 0 0] CT
0.851 0.325 0.098 RC
1 LJ
0.667 LW
N
124.32 347.948 M
125.819 347.754 L
127.02 347.612 L
128.14 347.486 L
129.463 347.348 L
131.076 347.191 L
132.708 347.044 L
134.041 346.935 L
135.158 346.85 L
136.348 346.764 L
137.829 346.665 L
139.513 346.56 L
140.702 346.493 L
141.891 346.429 L
143.351 346.357 L
145.017 346.28 L
146.527 346.215 L
147.737 346.169 L
148.855 346.128 L
150.166 346.083 L
151.771 346.032 L
153.41 345.983 L
154.756 345.947 L
155.876 345.92 L
157.058 345.892 L
158.526 345.86 L
160.209 345.825 L
161.407 345.803 L
162.606 345.782 L
164.065 345.758 L
165.72 345.733 L
167.222 345.712 L
168.436 345.697 L
169.562 345.684 L
170.88 345.669 L
172.48 345.652 L
174.108 345.636 L
175.451 345.624 L
176.576 345.616 L
177.767 345.607 L
179.238 345.596 L
180.913 345.584 L
181.5 345.582 L
181.5 139.782 L
181.5 139.782 L
181.556 140.056 L
181.612 140.111 L
181.696 139.858 L
181.807 139.042 L
181.935 137.612 L
182.116 135.047 L
182.346 131.38 L
S
GR
GS
[0.75 0 0 0.75 0 0] CT
0.851 0.325 0.098 RC
1 LJ
0.667 LW
N
182.116 135.047 M
182.346 131.38 L
182.601 127.267 L
182.895 122.833 L
183.24 118.281 L
183.664 113.778 L
184.235 109.478 L
184.916 106.518 L
185.681 105.317 L
186.618 105.972 L
187.856 109.06 L
189.582 115.448 L
190.632 119.786 L
191.682 124.165 L
193.086 129.857 L
194.77 136.233 L
195.905 140.196 L
197.041 143.877 L
198.469 148.116 L
200.127 152.515 L
201.302 155.322 L
202.477 157.891 L
203.913 160.732 L
205.544 163.604 L
207.027 165.92 L
208.225 167.606 L
209.337 169.038 L
210.639 170.566 L
212.223 172.227 L
213.836 173.723 L
215.167 174.824 L
216.282 175.663 L
217.462 176.475 L
218.921 177.382 L
220.584 178.298 L
221.774 178.885 L
222.964 179.42 L
224.411 180.008 L
226.053 180.6 L
227.547 181.077 L
228.755 181.424 L
229.876 181.718 L
231.185 182.031 L
232.774 182.371 L
234.393 182.676 L
235.73 182.901 L
236.851 183.073 L
238.036 183.239 L
239.499 183.423 L
241.165 183.61 L
242.36 183.729 L
243.554 183.838 L
S
GR
GS
[0.75 0 0 0.75 0 0] CT
0.851 0.325 0.098 RC
1 LJ
0.667 LW
N
242.36 183.729 M
243.554 183.838 L
245.006 183.958 L
246.649 184.078 L
248.145 184.175 L
249.356 184.245 L
250.481 184.305 L
251.793 184.369 L
253.385 184.438 L
255.004 184.5 L
256.344 184.545 L
257.467 184.58 L
258.655 184.614 L
260.12 184.651 L
261.787 184.689 L
262.984 184.713 L
264.18 184.735 L
265.633 184.759 L
267.278 184.784 L
268.775 184.803 L
269.987 184.818 L
271.114 184.83 L
272.428 184.842 L
274.02 184.856 L
275.641 184.869 L
276.981 184.878 L
278.106 184.885 L
279.295 184.892 L
280.762 184.9 L
282.429 184.907 L
283.627 184.912 L
284.824 184.917 L
286.277 184.921 L
287.923 184.926 L
289.421 184.93 L
290.635 184.933 L
291.762 184.936 L
293.077 184.938 L
294.67 184.941 L
296.291 184.944 L
297.632 184.945 L
298.758 184.947 L
299.948 184.948 L
301.415 184.95 L
303.083 184.951 L
304.281 184.952 L
305.479 184.953 L
306.933 184.954 L
308.58 184.955 L
310.078 184.956 L
311.292 184.956 L
312.42 184.957 L
S
GR
GS
[0.75 0 0 0.75 0 0] CT
0.851 0.325 0.098 RC
1 LJ
0.667 LW
N
311.292 184.956 M
312.42 184.957 L
313.735 184.957 L
315.329 184.958 L
316.951 184.959 L
318.293 184.959 L
319.419 184.959 L
320.609 184.959 L
322.076 184.96 L
323.745 184.96 L
324.943 184.96 L
326.142 184.96 L
327.596 184.961 L
329.243 184.961 L
330.742 184.961 L
331.957 184.961 L
333.085 184.961 L
334.4 184.961 L
335.994 184.961 L
337.617 184.962 L
338.959 184.962 L
340.085 184.962 L
341.276 184.962 L
342.743 184.962 L
344.413 184.962 L
345.611 184.962 L
346.81 184.962 L
348.265 184.962 L
349.912 184.962 L
351.412 184.962 L
352.626 184.962 L
353.755 184.962 L
355.07 184.962 L
356.665 184.962 L
358.287 184.962 L
359.63 184.962 L
360.756 184.962 L
361.947 184.962 L
363.415 184.962 L
365.085 184.962 L
366.283 184.962 L
367.482 184.962 L
368.937 184.962 L
370.585 184.962 L
372.085 184.962 L
373.299 184.962 L
374.428 184.962 L
375.744 184.962 L
377.339 184.962 L
378.962 184.962 L
380.304 184.962 L
381.431 184.962 L
S
GR
GS
[0.75 0 0 0.75 0 0] CT
0.851 0.325 0.098 RC
1 LJ
0.667 LW
N
380.304 184.962 M
381.431 184.962 L
382.622 184.962 L
384.09 184.962 L
385.76 184.962 L
386.959 184.962 L
388.158 184.962 L
389.613 184.962 L
391.261 184.962 L
392.761 184.962 L
393.976 184.962 L
395.105 184.962 L
396.42 184.962 L
398.015 184.962 L
399.639 184.962 L
400.981 184.962 L
402.108 184.962 L
403.299 184.962 L
404.768 184.962 L
406.438 184.962 L
407.637 184.962 L
408.836 184.962 L
410.291 184.962 L
411.94 184.962 L
413.44 184.962 L
414.655 184.962 L
415.783 184.962 L
417.099 184.962 L
418.695 184.962 L
420.318 184.962 L
421.661 184.962 L
422.788 184.962 L
423.979 184.962 L
425.448 184.962 L
427.118 184.962 L
428.317 184.962 L
429.516 184.962 L
430.972 184.962 L
432.62 184.962 L
434.12 184.962 L
435.335 184.962 L
436.464 184.962 L
437.78 184.962 L
439.376 184.962 L
440.999 184.962 L
442.342 184.962 L
443.469 184.962 L
444.66 184.962 L
446.129 184.962 L
447.8 184.962 L
448.999 184.962 L
450.198 184.962 L
S
GR
GS
[0.75 0 0 0.75 0 0] CT
0.851 0.325 0.098 RC
1 LJ
0.667 LW
N
448.999 184.962 M
450.198 184.962 L
451.654 184.962 L
453.302 184.962 L
454.803 184.962 L
456.018 184.962 L
457.147 184.962 L
458.463 184.962 L
460.059 184.962 L
461.682 184.962 L
463.025 184.962 L
464.152 184.962 L
465.344 184.962 L
466.812 184.962 L
468.483 184.962 L
469.682 184.962 L
470.882 184.962 L
472.338 184.962 L
473.986 184.962 L
475.487 184.962 L
476.702 184.962 L
477.831 184.962 L
479.147 184.962 L
480.743 184.962 L
482.366 184.962 L
483.71 184.962 L
484.837 184.962 L
486.028 184.962 L
487.497 184.962 L
489.168 184.962 L
490.367 184.962 L
491.566 184.962 L
493.022 184.962 L
494.671 184.962 L
496.172 184.962 L
497.387 184.962 L
498.516 184.962 L
499.832 184.962 L
501.428 184.962 L
503.052 184.962 L
504.395 184.962 L
505.522 184.962 L
506.714 184.962 L
507 184.962 L
S
GR
GS
[0.75 0 0 0.75 0 0] CT
1 GC
N
424 80 M
424 44 L
494 44 L
494 80 L
cp
f
GR
GS
[0.75 0 0 0.75 357 40.625] CT
/Helvetica 12 F
GS
[1 0 0 1 0 0] CT
0 4.5 moveto 
1 -1 scale
(u1) t 
GR
GR
GS
[0.75 0 0 0.75 0 0] CT
0 0.447 0.741 RC
1 LJ
0.667 LW
N
432 54.167 M
472 54.167 L
S
GR
GS
[0.75 0 0 0.75 357 52.375] CT
/Helvetica 12 F
GS
[1 0 0 1 0 0] CT
0 4.5 moveto 
1 -1 scale
(u2) t 
GR
GR
GS
[0.75 0 0 0.75 0 0] CT
0.851 0.325 0.098 RC
1 LJ
0.667 LW
N
432 69.833 M
472 69.833 L
S
GR
GS
[0.75 0 0 0.75 0 0] CT
0.149 GC
10.0 ML
0.667 LW
N
424 80 M
424 44 L
494 44 L
494 80 L
cp
S
GR
%%Trailer
%%Pages: 1
%%EOF
