%!PS-Adobe-3.0 EPSF-3.0
%%Creator: (MATLAB, The Mathworks, Inc. Version 8.6.0.267246 \(R2015b\). Operating System: Windows 8)
%%Title: E:/Projects/skola/rls/pics/SP3/par_1o_e_di.eps
%%CreationDate: 2017-03-17T12:42:36
%%Pages: (atend)
%%BoundingBox: 0 0 420 315
%%LanguageLevel: 2
%%EndComments
%%BeginProlog
%%BeginResource: procset (Apache XML Graphics Std ProcSet) 1.2 0
%%Version: 1.2 0
%%Copyright: (Copyright 2001-2003,2010 The Apache Software Foundation. License terms: http://www.apache.org/licenses/LICENSE-2.0)
/bd{bind def}bind def
/ld{load def}bd
/GR/grestore ld
/M/moveto ld
/LJ/setlinejoin ld
/C/curveto ld
/f/fill ld
/LW/setlinewidth ld
/GC/setgray ld
/t/show ld
/N/newpath ld
/CT/concat ld
/cp/closepath ld
/S/stroke ld
/L/lineto ld
/CC/setcmykcolor ld
/A/ashow ld
/GS/gsave ld
/RC/setrgbcolor ld
/RM/rmoveto ld
/ML/setmiterlimit ld
/re {4 2 roll M
1 index 0 rlineto
0 exch rlineto
neg 0 rlineto
cp } bd
/_ctm matrix def
/_tm matrix def
/BT { _ctm currentmatrix pop matrix _tm copy pop 0 0 moveto } bd
/ET { _ctm setmatrix } bd
/iTm { _ctm setmatrix _tm concat } bd
/Tm { _tm astore pop iTm 0 0 moveto } bd
/ux 0.0 def
/uy 0.0 def
/F {
  /Tp exch def
  /Tf exch def
  Tf findfont Tp scalefont setfont
  /cf Tf def  /cs Tp def
} bd
/ULS {currentpoint /uy exch def /ux exch def} bd
/ULE {
  /Tcx currentpoint pop def
  gsave
  newpath
  cf findfont cs scalefont dup
  /FontMatrix get 0 get /Ts exch def /FontInfo get dup
  /UnderlinePosition get Ts mul /To exch def
  /UnderlineThickness get Ts mul /Tt exch def
  ux uy To add moveto  Tcx uy To add lineto
  Tt setlinewidth stroke
  grestore
} bd
/OLE {
  /Tcx currentpoint pop def
  gsave
  newpath
  cf findfont cs scalefont dup
  /FontMatrix get 0 get /Ts exch def /FontInfo get dup
  /UnderlinePosition get Ts mul /To exch def
  /UnderlineThickness get Ts mul /Tt exch def
  ux uy To add cs add moveto Tcx uy To add cs add lineto
  Tt setlinewidth stroke
  grestore
} bd
/SOE {
  /Tcx currentpoint pop def
  gsave
  newpath
  cf findfont cs scalefont dup
  /FontMatrix get 0 get /Ts exch def /FontInfo get dup
  /UnderlinePosition get Ts mul /To exch def
  /UnderlineThickness get Ts mul /Tt exch def
  ux uy To add cs 10 mul 26 idiv add moveto Tcx uy To add cs 10 mul 26 idiv add lineto
  Tt setlinewidth stroke
  grestore
} bd
/QT {
/Y22 exch store
/X22 exch store
/Y21 exch store
/X21 exch store
currentpoint
/Y21 load 2 mul add 3 div exch
/X21 load 2 mul add 3 div exch
/X21 load 2 mul /X22 load add 3 div
/Y21 load 2 mul /Y22 load add 3 div
/X22 load /Y22 load curveto
} bd
/SSPD {
dup length /d exch dict def
{
/v exch def
/k exch def
currentpagedevice k known {
/cpdv currentpagedevice k get def
v cpdv ne {
/upd false def
/nullv v type /nulltype eq def
/nullcpdv cpdv type /nulltype eq def
nullv nullcpdv or
{
/upd true def
} {
/sametype v type cpdv type eq def
sametype {
v type /arraytype eq {
/vlen v length def
/cpdvlen cpdv length def
vlen cpdvlen eq {
0 1 vlen 1 sub {
/i exch def
/obj v i get def
/cpdobj cpdv i get def
obj cpdobj ne {
/upd true def
exit
} if
} for
} {
/upd true def
} ifelse
} {
v type /dicttype eq {
v {
/dv exch def
/dk exch def
/cpddv cpdv dk get def
dv cpddv ne {
/upd true def
exit
} if
} forall
} {
/upd true def
} ifelse
} ifelse
} if
} ifelse
upd true eq {
d k v put
} if
} if
} if
} forall
d length 0 gt {
d setpagedevice
} if
} bd
%%EndResource
%%BeginResource: procset (Apache XML Graphics EPS ProcSet) 1.0 0
%%Version: 1.0 0
%%Copyright: (Copyright 2002-2003 The Apache Software Foundation. License terms: http://www.apache.org/licenses/LICENSE-2.0)
/BeginEPSF { %def
/b4_Inc_state save def         % Save state for cleanup
/dict_count countdictstack def % Count objects on dict stack
/op_count count 1 sub def      % Count objects on operand stack
userdict begin                 % Push userdict on dict stack
/showpage { } def              % Redefine showpage, { } = null proc
0 setgray 0 setlinecap         % Prepare graphics state
1 setlinewidth 0 setlinejoin
10 setmiterlimit [ ] 0 setdash newpath
/languagelevel where           % If level not equal to 1 then
{pop languagelevel             % set strokeadjust and
1 ne                           % overprint to their defaults.
{false setstrokeadjust false setoverprint
} if
} if
} bd
/EndEPSF { %def
count op_count sub {pop} repeat            % Clean up stacks
countdictstack dict_count sub {end} repeat
b4_Inc_state restore
} bd
%%EndResource
%FOPBeginFontDict
%%IncludeResource: font Courier-Bold
%%IncludeResource: font Helvetica
%%IncludeResource: font Courier-BoldOblique
%%IncludeResource: font Courier-Oblique
%%IncludeResource: font Times-Roman
%%IncludeResource: font Helvetica-BoldOblique
%%IncludeResource: font Helvetica-Bold
%%IncludeResource: font Helvetica-Oblique
%%IncludeResource: font Times-BoldItalic
%%IncludeResource: font Courier
%%IncludeResource: font Times-Italic
%%IncludeResource: font Times-Bold
%%IncludeResource: font Symbol
%%IncludeResource: font ZapfDingbats
%FOPEndFontDict
%%BeginResource: encoding WinAnsiEncoding
/WinAnsiEncoding [
/.notdef /.notdef /.notdef /.notdef /.notdef
/.notdef /.notdef /.notdef /.notdef /.notdef
/.notdef /.notdef /.notdef /.notdef /.notdef
/.notdef /.notdef /.notdef /.notdef /.notdef
/.notdef /.notdef /.notdef /.notdef /.notdef
/.notdef /.notdef /.notdef /.notdef /.notdef
/.notdef /.notdef /space /exclam /quotedbl
/numbersign /dollar /percent /ampersand /quotesingle
/parenleft /parenright /asterisk /plus /comma
/hyphen /period /slash /zero /one
/two /three /four /five /six
/seven /eight /nine /colon /semicolon
/less /equal /greater /question /at
/A /B /C /D /E
/F /G /H /I /J
/K /L /M /N /O
/P /Q /R /S /T
/U /V /W /X /Y
/Z /bracketleft /backslash /bracketright /asciicircum
/underscore /quoteleft /a /b /c
/d /e /f /g /h
/i /j /k /l /m
/n /o /p /q /r
/s /t /u /v /w
/x /y /z /braceleft /bar
/braceright /asciitilde /bullet /Euro /bullet
/quotesinglbase /florin /quotedblbase /ellipsis /dagger
/daggerdbl /circumflex /perthousand /Scaron /guilsinglleft
/OE /bullet /Zcaron /bullet /bullet
/quoteleft /quoteright /quotedblleft /quotedblright /bullet
/endash /emdash /asciitilde /trademark /scaron
/guilsinglright /oe /bullet /zcaron /Ydieresis
/space /exclamdown /cent /sterling /currency
/yen /brokenbar /section /dieresis /copyright
/ordfeminine /guillemotleft /logicalnot /sfthyphen /registered
/macron /degree /plusminus /twosuperior /threesuperior
/acute /mu /paragraph /middot /cedilla
/onesuperior /ordmasculine /guillemotright /onequarter /onehalf
/threequarters /questiondown /Agrave /Aacute /Acircumflex
/Atilde /Adieresis /Aring /AE /Ccedilla
/Egrave /Eacute /Ecircumflex /Edieresis /Igrave
/Iacute /Icircumflex /Idieresis /Eth /Ntilde
/Ograve /Oacute /Ocircumflex /Otilde /Odieresis
/multiply /Oslash /Ugrave /Uacute /Ucircumflex
/Udieresis /Yacute /Thorn /germandbls /agrave
/aacute /acircumflex /atilde /adieresis /aring
/ae /ccedilla /egrave /eacute /ecircumflex
/edieresis /igrave /iacute /icircumflex /idieresis
/eth /ntilde /ograve /oacute /ocircumflex
/otilde /odieresis /divide /oslash /ugrave
/uacute /ucircumflex /udieresis /yacute /thorn
/ydieresis
] def
%%EndResource
%FOPBeginFontReencode
/Courier-Bold findfont
dup length dict begin
  {1 index /FID ne {def} {pop pop} ifelse} forall
  /Encoding WinAnsiEncoding def
  currentdict
end
/Courier-Bold exch definefont pop
/Helvetica findfont
dup length dict begin
  {1 index /FID ne {def} {pop pop} ifelse} forall
  /Encoding WinAnsiEncoding def
  currentdict
end
/Helvetica exch definefont pop
/Courier-BoldOblique findfont
dup length dict begin
  {1 index /FID ne {def} {pop pop} ifelse} forall
  /Encoding WinAnsiEncoding def
  currentdict
end
/Courier-BoldOblique exch definefont pop
/Courier-Oblique findfont
dup length dict begin
  {1 index /FID ne {def} {pop pop} ifelse} forall
  /Encoding WinAnsiEncoding def
  currentdict
end
/Courier-Oblique exch definefont pop
/Times-Roman findfont
dup length dict begin
  {1 index /FID ne {def} {pop pop} ifelse} forall
  /Encoding WinAnsiEncoding def
  currentdict
end
/Times-Roman exch definefont pop
/Helvetica-BoldOblique findfont
dup length dict begin
  {1 index /FID ne {def} {pop pop} ifelse} forall
  /Encoding WinAnsiEncoding def
  currentdict
end
/Helvetica-BoldOblique exch definefont pop
/Helvetica-Bold findfont
dup length dict begin
  {1 index /FID ne {def} {pop pop} ifelse} forall
  /Encoding WinAnsiEncoding def
  currentdict
end
/Helvetica-Bold exch definefont pop
/Helvetica-Oblique findfont
dup length dict begin
  {1 index /FID ne {def} {pop pop} ifelse} forall
  /Encoding WinAnsiEncoding def
  currentdict
end
/Helvetica-Oblique exch definefont pop
/Times-BoldItalic findfont
dup length dict begin
  {1 index /FID ne {def} {pop pop} ifelse} forall
  /Encoding WinAnsiEncoding def
  currentdict
end
/Times-BoldItalic exch definefont pop
/Courier findfont
dup length dict begin
  {1 index /FID ne {def} {pop pop} ifelse} forall
  /Encoding WinAnsiEncoding def
  currentdict
end
/Courier exch definefont pop
/Times-Italic findfont
dup length dict begin
  {1 index /FID ne {def} {pop pop} ifelse} forall
  /Encoding WinAnsiEncoding def
  currentdict
end
/Times-Italic exch definefont pop
/Times-Bold findfont
dup length dict begin
  {1 index /FID ne {def} {pop pop} ifelse} forall
  /Encoding WinAnsiEncoding def
  currentdict
end
/Times-Bold exch definefont pop
%FOPEndFontReencode
%%EndProlog
%%Page: 1 1
%%PageBoundingBox: 0 0 420 315
%%BeginPageSetup
[1 0 0 -1 0 315] CT
%%EndPageSetup
GS
[0.75 0 0 0.75 0 0] CT
1 GC
N
0 0 560 420 re
f
GR
GS
[0.75 0 0 0.75 0 0] CT
1 GC
N
0 0 560 420 re
f
GR
GS
[0.75 0 0 0.75 0 0] CT
1 GC
N
73 374 M
507 374 L
507 31 L
73 31 L
cp
f
GR
GS
[0.75 0 0 0.75 0 0] CT
0.149 GC
2 setlinecap
1 LJ
0.667 LW
N
73 374 M
507 374 L
S
GR
GS
[0.75 0 0 0.75 0 0] CT
0.149 GC
2 setlinecap
1 LJ
0.667 LW
N
73 31 M
507 31 L
S
GR
GS
[0.75 0 0 0.75 0 0] CT
0.149 GC
2 setlinecap
1 LJ
0.667 LW
N
73 374 M
73 369.66 L
S
GR
GS
[0.75 0 0 0.75 0 0] CT
0.149 GC
2 setlinecap
1 LJ
0.667 LW
N
145.333 374 M
145.333 369.66 L
S
GR
GS
[0.75 0 0 0.75 0 0] CT
0.149 GC
2 setlinecap
1 LJ
0.667 LW
N
217.667 374 M
217.667 369.66 L
S
GR
GS
[0.75 0 0 0.75 0 0] CT
0.149 GC
2 setlinecap
1 LJ
0.667 LW
N
290 374 M
290 369.66 L
S
GR
GS
[0.75 0 0 0.75 0 0] CT
0.149 GC
2 setlinecap
1 LJ
0.667 LW
N
362.333 374 M
362.333 369.66 L
S
GR
GS
[0.75 0 0 0.75 0 0] CT
0.149 GC
2 setlinecap
1 LJ
0.667 LW
N
434.667 374 M
434.667 369.66 L
S
GR
GS
[0.75 0 0 0.75 0 0] CT
0.149 GC
2 setlinecap
1 LJ
0.667 LW
N
507 374 M
507 369.66 L
S
GR
GS
[0.75 0 0 0.75 0 0] CT
0.149 GC
2 setlinecap
1 LJ
0.667 LW
N
73 31 M
73 35.34 L
S
GR
GS
[0.75 0 0 0.75 0 0] CT
0.149 GC
2 setlinecap
1 LJ
0.667 LW
N
145.333 31 M
145.333 35.34 L
S
GR
GS
[0.75 0 0 0.75 0 0] CT
0.149 GC
2 setlinecap
1 LJ
0.667 LW
N
217.667 31 M
217.667 35.34 L
S
GR
GS
[0.75 0 0 0.75 0 0] CT
0.149 GC
2 setlinecap
1 LJ
0.667 LW
N
290 31 M
290 35.34 L
S
GR
GS
[0.75 0 0 0.75 0 0] CT
0.149 GC
2 setlinecap
1 LJ
0.667 LW
N
362.333 31 M
362.333 35.34 L
S
GR
GS
[0.75 0 0 0.75 0 0] CT
0.149 GC
2 setlinecap
1 LJ
0.667 LW
N
434.667 31 M
434.667 35.34 L
S
GR
GS
[0.75 0 0 0.75 0 0] CT
0.149 GC
2 setlinecap
1 LJ
0.667 LW
N
507 31 M
507 35.34 L
S
GR
GS
[0.75 0 0 0.75 54.75 284.50001] CT
0.149 GC
/Helvetica 13 F
GS
[1 0 0 1 0 0] CT
-4 13 moveto 
1 -1 scale
(0) t 
GR
GR
GS
[0.75 0 0 0.75 109 284.50001] CT
0.149 GC
/Helvetica 13 F
GS
[1 0 0 1 0 0] CT
-11 13 moveto 
1 -1 scale
(200) t 
GR
GR
GS
[0.75 0 0 0.75 163.25 284.50001] CT
0.149 GC
/Helvetica 13 F
GS
[1 0 0 1 0 0] CT
-11 13 moveto 
1 -1 scale
(400) t 
GR
GR
GS
[0.75 0 0 0.75 217.5 284.50001] CT
0.149 GC
/Helvetica 13 F
GS
[1 0 0 1 0 0] CT
-11 13 moveto 
1 -1 scale
(600) t 
GR
GR
GS
[0.75 0 0 0.75 271.75001 284.50001] CT
0.149 GC
/Helvetica 13 F
GS
[1 0 0 1 0 0] CT
-11 13 moveto 
1 -1 scale
(800) t 
GR
GR
GS
[0.75 0 0 0.75 325.99999 284.50001] CT
0.149 GC
/Helvetica 13 F
GS
[1 0 0 1 0 0] CT
-14.5 13 moveto 
1 -1 scale
(1000) t 
GR
GR
GS
[0.75 0 0 0.75 380.25 284.50001] CT
0.149 GC
/Helvetica 13 F
GS
[1 0 0 1 0 0] CT
-14.5 13 moveto 
1 -1 scale
(1200) t 
GR
GR
GS
[0.75 0 0 0.75 217.50016 297.49999] CT
0.149 GC
/Helvetica 15 F
GS
[1 0 0 1 0 0] CT
-11 14 moveto 
1 -1 scale
(t\(s\)) t 
GR
GR
GS
[0.75 0 0 0.75 0 0] CT
0.149 GC
2 setlinecap
1 LJ
0.667 LW
N
73 374 M
73 31 L
S
GR
GS
[0.75 0 0 0.75 0 0] CT
0.149 GC
2 setlinecap
1 LJ
0.667 LW
N
507 374 M
507 31 L
S
GR
GS
[0.75 0 0 0.75 0 0] CT
0.149 GC
2 setlinecap
1 LJ
0.667 LW
N
73 374 M
77.34 374 L
S
GR
GS
[0.75 0 0 0.75 0 0] CT
0.149 GC
2 setlinecap
1 LJ
0.667 LW
N
73 316.833 M
77.34 316.833 L
S
GR
GS
[0.75 0 0 0.75 0 0] CT
0.149 GC
2 setlinecap
1 LJ
0.667 LW
N
73 259.667 M
77.34 259.667 L
S
GR
GS
[0.75 0 0 0.75 0 0] CT
0.149 GC
2 setlinecap
1 LJ
0.667 LW
N
73 202.5 M
77.34 202.5 L
S
GR
GS
[0.75 0 0 0.75 0 0] CT
0.149 GC
2 setlinecap
1 LJ
0.667 LW
N
73 145.333 M
77.34 145.333 L
S
GR
GS
[0.75 0 0 0.75 0 0] CT
0.149 GC
2 setlinecap
1 LJ
0.667 LW
N
73 88.167 M
77.34 88.167 L
S
GR
GS
[0.75 0 0 0.75 0 0] CT
0.149 GC
2 setlinecap
1 LJ
0.667 LW
N
73 31 M
77.34 31 L
S
GR
GS
[0.75 0 0 0.75 0 0] CT
0.149 GC
2 setlinecap
1 LJ
0.667 LW
N
507 374 M
502.66 374 L
S
GR
GS
[0.75 0 0 0.75 0 0] CT
0.149 GC
2 setlinecap
1 LJ
0.667 LW
N
507 316.833 M
502.66 316.833 L
S
GR
GS
[0.75 0 0 0.75 0 0] CT
0.149 GC
2 setlinecap
1 LJ
0.667 LW
N
507 259.667 M
502.66 259.667 L
S
GR
GS
[0.75 0 0 0.75 0 0] CT
0.149 GC
2 setlinecap
1 LJ
0.667 LW
N
507 202.5 M
502.66 202.5 L
S
GR
GS
[0.75 0 0 0.75 0 0] CT
0.149 GC
2 setlinecap
1 LJ
0.667 LW
N
507 145.333 M
502.66 145.333 L
S
GR
GS
[0.75 0 0 0.75 0 0] CT
0.149 GC
2 setlinecap
1 LJ
0.667 LW
N
507 88.167 M
502.66 88.167 L
S
GR
GS
[0.75 0 0 0.75 0 0] CT
0.149 GC
2 setlinecap
1 LJ
0.667 LW
N
507 31 M
502.66 31 L
S
GR
GS
[0.75 0 0 0.75 50.75 280.5] CT
0.149 GC
/Helvetica 13 F
GS
[1 0 0 1 0 0] CT
-12 5 moveto 
1 -1 scale
(-1) t 
GR
GR
GS
[0.75 0 0 0.75 50.75 237.62501] CT
0.149 GC
/Helvetica 13 F
GS
[1 0 0 1 0 0] CT
-8 5 moveto 
1 -1 scale
(0) t 
GR
GR
GS
[0.75 0 0 0.75 50.75 194.74999] CT
0.149 GC
/Helvetica 13 F
GS
[1 0 0 1 0 0] CT
-8 5 moveto 
1 -1 scale
(1) t 
GR
GR
GS
[0.75 0 0 0.75 50.75 151.875] CT
0.149 GC
/Helvetica 13 F
GS
[1 0 0 1 0 0] CT
-8 5 moveto 
1 -1 scale
(2) t 
GR
GR
GS
[0.75 0 0 0.75 50.75 109] CT
0.149 GC
/Helvetica 13 F
GS
[1 0 0 1 0 0] CT
-8 5 moveto 
1 -1 scale
(3) t 
GR
GR
GS
[0.75 0 0 0.75 50.75 66.125] CT
0.149 GC
/Helvetica 13 F
GS
[1 0 0 1 0 0] CT
-8 5 moveto 
1 -1 scale
(4) t 
GR
GR
GS
[0.75 0 0 0.75 50.75 23.25] CT
0.149 GC
/Helvetica 13 F
GS
[1 0 0 1 0 0] CT
-8 5 moveto 
1 -1 scale
(5) t 
GR
GR
GS
[0.75 0 0 0.75 217.50021 21.18751] CT
/any-Bold 15 F
GS
[1 0 0 1 0 0] CT
-197 -4 moveto 
1 -1 scale
(Response of system with 1 order regulator - input error) t 
GR
GR
GS
[0.75 0 0 0.75 0 0] CT
0 0.447 0.741 RC
1 LJ
0.667 LW
N
73 316.833 M
73.362 316.833 L
73.362 311.117 L
73.362 311.117 L
73.473 311.117 L
73.583 311.117 L
73.743 311.117 L
73.97 311.117 L
74.282 311.117 L
74.671 311.117 L
75.117 311.117 L
75.649 311.117 L
76.3 311.117 L
77.125 311.117 L
78.221 311.117 L
79.744 311.117 L
81.622 311.117 L
82.691 311.117 L
83.76 311.117 L
85.239 311.117 L
87.07 311.117 L
88.215 311.117 L
89.36 311.117 L
90.846 311.117 L
92.593 311.117 L
93.759 311.117 L
94.926 311.117 L
96.397 311.117 L
98.102 311.117 L
99.292 311.117 L
100.482 311.117 L
101.946 311.117 L
103.615 311.117 L
104.82 311.117 L
106.026 311.117 L
107.483 311.117 L
109.126 311.117 L
110.623 311.117 L
111.841 311.117 L
112.977 311.117 L
114.298 311.117 L
115.891 311.117 L
117.51 311.117 L
118.852 311.117 L
119.985 311.117 L
121.182 311.117 L
122.653 311.117 L
124.32 311.117 L
125.819 311.117 L
127.02 311.117 L
S
GR
GS
[0.75 0 0 0.75 0 0] CT
0 0.447 0.741 RC
1 LJ
0.667 LW
N
125.819 311.117 M
127.02 311.117 L
128.14 311.117 L
129.463 311.117 L
131.076 311.117 L
132.708 311.117 L
134.041 311.117 L
135.158 311.117 L
136.348 311.117 L
137.829 311.117 L
139.513 311.117 L
140.702 311.117 L
141.891 311.117 L
143.351 311.117 L
145.017 311.117 L
146.527 311.117 L
147.737 311.117 L
148.855 311.117 L
150.166 311.117 L
151.771 311.117 L
153.41 311.117 L
154.756 311.117 L
155.876 311.117 L
157.058 311.117 L
158.526 311.117 L
160.209 311.117 L
161.407 311.117 L
162.606 311.117 L
164.065 311.117 L
165.72 311.117 L
167.222 311.117 L
168.436 311.117 L
169.562 311.117 L
170.88 311.117 L
172.48 311.117 L
174.108 311.117 L
175.451 311.117 L
176.576 311.117 L
177.767 311.117 L
179.238 311.117 L
180.913 311.117 L
181.5 311.117 L
181.5 311.117 L
181.5 311.117 L
181.556 311.117 L
181.612 311.117 L
181.696 311.117 L
181.807 311.117 L
181.935 311.117 L
182.116 311.117 L
182.346 311.117 L
182.601 311.117 L
S
GR
GS
[0.75 0 0 0.75 0 0] CT
0 0.447 0.741 RC
1 LJ
0.667 LW
N
182.346 311.117 M
182.601 311.117 L
182.895 311.117 L
183.24 311.117 L
183.664 311.117 L
184.235 311.117 L
184.916 311.117 L
185.681 311.117 L
186.618 311.117 L
187.856 311.117 L
189.582 311.117 L
190.632 311.117 L
191.682 311.117 L
193.086 311.117 L
194.77 311.117 L
195.905 311.117 L
197.041 311.117 L
198.469 311.117 L
200.127 311.117 L
201.302 311.117 L
202.477 311.117 L
203.913 311.117 L
205.544 311.117 L
207.027 311.117 L
208.225 311.117 L
209.337 311.117 L
210.639 311.117 L
212.223 311.117 L
213.836 311.117 L
215.167 311.117 L
216.282 311.117 L
217.462 311.117 L
218.921 311.117 L
220.584 311.117 L
221.774 311.117 L
222.964 311.117 L
224.411 311.117 L
226.053 311.117 L
227.547 311.117 L
228.755 311.117 L
229.876 311.117 L
231.185 311.117 L
232.774 311.117 L
234.393 311.117 L
235.73 311.117 L
236.851 311.117 L
238.036 311.117 L
239.499 311.117 L
241.165 311.117 L
242.36 311.117 L
243.554 311.117 L
245.006 311.117 L
S
GR
GS
[0.75 0 0 0.75 0 0] CT
0 0.447 0.741 RC
1 LJ
0.667 LW
N
243.554 311.117 M
245.006 311.117 L
246.649 311.117 L
248.145 311.117 L
249.356 311.117 L
250.481 311.117 L
251.793 311.117 L
253.385 311.117 L
253.833 311.117 L
253.833 311.117 L
254.256 311.117 L
254.679 311.117 L
255.38 311.117 L
256.21 311.117 L
257.337 311.117 L
258.882 311.117 L
259.957 311.117 L
261.033 311.117 L
262.403 311.117 L
264.03 311.117 L
265.208 311.117 L
266.386 311.117 L
267.805 311.117 L
269.402 311.117 L
270.864 311.117 L
272.067 311.117 L
273.194 311.117 L
274.5 311.117 L
276.066 311.117 L
277.654 311.117 L
278.98 311.117 L
280.106 311.117 L
281.299 311.117 L
282.757 311.117 L
284.4 311.117 L
285.878 311.117 L
287.071 311.117 L
288.19 311.117 L
289.509 311.117 L
291.108 311.117 L
292.718 311.117 L
294.039 311.117 L
295.152 311.117 L
296.343 311.117 L
297.819 311.117 L
299.487 311.117 L
300.669 311.117 L
301.85 311.117 L
303.301 311.117 L
304.957 311.117 L
306.462 311.117 L
307.667 311.117 L
S
GR
GS
[0.75 0 0 0.75 0 0] CT
0 0.447 0.741 RC
1 LJ
0.667 LW
N
306.462 311.117 M
307.667 311.117 L
308.779 311.117 L
310.084 311.117 L
311.68 311.117 L
313.312 311.117 L
314.654 311.117 L
315.77 311.117 L
316.946 311.117 L
318.408 311.117 L
320.083 311.117 L
321.278 311.117 L
322.473 311.117 L
323.927 311.117 L
325.574 311.117 L
327.07 311.117 L
328.28 311.117 L
329.405 311.117 L
330.718 311.117 L
332.313 311.117 L
333.934 311.117 L
335.272 311.117 L
336.395 311.117 L
337.583 311.117 L
339.051 311.117 L
340.72 311.117 L
341.915 311.117 L
343.11 311.117 L
344.564 311.117 L
346.212 311.117 L
347.711 311.117 L
348.923 311.117 L
350.048 311.117 L
351.361 311.117 L
352.955 311.117 L
354.578 311.117 L
355.919 311.117 L
357.043 311.117 L
358.231 311.117 L
359.698 311.117 L
361.368 311.117 L
362.333 311.117 L
362.333 311.117 L
362.333 311.117 L
362.637 311.117 L
362.941 311.117 L
363.351 311.117 L
363.811 311.117 L
364.357 311.117 L
365.015 311.117 L
365.837 311.117 L
366.904 311.117 L
S
GR
GS
[0.75 0 0 0.75 0 0] CT
0 0.447 0.741 RC
1 LJ
0.667 LW
N
365.837 311.117 M
366.904 311.117 L
368.351 311.117 L
369.876 311.117 L
371.401 311.117 L
372.658 311.117 L
373.724 311.117 L
374.881 311.117 L
376.332 311.117 L
377.979 311.117 L
379.135 311.117 L
380.291 311.117 L
381.722 311.117 L
383.371 311.117 L
384.563 311.117 L
385.756 311.117 L
387.194 311.117 L
388.813 311.117 L
390.29 311.117 L
391.498 311.117 L
392.627 311.117 L
393.938 311.117 L
395.515 311.117 L
397.115 311.117 L
398.446 311.117 L
399.573 311.117 L
400.764 311.117 L
402.226 311.117 L
403.878 311.117 L
405.364 311.117 L
406.558 311.117 L
407.675 311.117 L
408.993 311.117 L
410.596 311.117 L
412.214 311.117 L
413.539 311.117 L
414.651 311.117 L
415.839 311.117 L
417.315 311.117 L
418.988 311.117 L
420.171 311.117 L
421.354 311.117 L
422.807 311.117 L
424.466 311.117 L
425.971 311.117 L
427.176 311.117 L
428.289 311.117 L
429.595 311.117 L
431.193 311.117 L
432.826 311.117 L
434.168 311.117 L
435.284 311.117 L
S
GR
GS
[0.75 0 0 0.75 0 0] CT
0 0.447 0.741 RC
1 LJ
0.667 LW
N
434.168 311.117 M
435.284 311.117 L
436.462 311.117 L
437.924 311.117 L
439.601 311.117 L
440.796 311.117 L
441.991 311.117 L
443.446 311.117 L
445.095 311.117 L
446.592 311.117 L
447.802 311.117 L
448.926 311.117 L
450.24 311.117 L
451.835 311.117 L
453.458 311.117 L
454.797 311.117 L
455.92 311.117 L
457.108 311.117 L
458.575 311.117 L
460.246 311.117 L
461.441 311.117 L
462.636 311.117 L
464.091 311.117 L
465.739 311.117 L
467.239 311.117 L
468.451 311.117 L
469.576 311.117 L
470.889 311.117 L
472.484 311.117 L
474.108 311.117 L
475.449 311.117 L
476.573 311.117 L
477.761 311.117 L
479.228 311.117 L
480.898 311.117 L
482.096 311.117 L
483.293 311.117 L
484.748 311.117 L
486.395 311.117 L
487.894 311.117 L
489.107 311.117 L
490.234 311.117 L
491.549 311.117 L
493.144 311.117 L
494.766 311.117 L
496.108 311.117 L
497.233 311.117 L
498.423 311.117 L
499.891 311.117 L
501.56 311.117 L
502.758 311.117 L
503.956 311.117 L
S
GR
GS
[0.75 0 0 0.75 0 0] CT
0 0.447 0.741 RC
1 LJ
0.667 LW
N
502.758 311.117 M
503.956 311.117 L
505.411 311.117 L
507 311.117 L
S
GR
GS
[0.75 0 0 0.75 0 0] CT
0.851 0.325 0.098 RC
1 LJ
0.667 LW
N
73 316.833 M
73.362 316.833 L
73.362 316.833 L
73.362 316.833 L
73.473 316.833 L
73.583 316.833 L
73.743 316.833 L
73.97 316.833 L
74.282 316.833 L
74.671 316.833 L
75.117 316.833 L
75.649 316.833 L
76.3 316.833 L
77.125 316.833 L
78.221 316.833 L
79.744 316.833 L
81.622 316.833 L
82.691 316.833 L
83.76 316.833 L
85.239 316.833 L
87.07 316.833 L
88.215 316.833 L
89.36 316.833 L
90.846 316.833 L
92.593 316.833 L
93.759 316.833 L
94.926 316.833 L
96.397 316.833 L
98.102 316.833 L
99.292 316.833 L
100.482 316.833 L
101.946 316.833 L
103.615 316.833 L
104.82 316.833 L
106.026 316.833 L
107.483 316.833 L
109.126 316.833 L
110.623 316.833 L
111.841 316.833 L
112.977 316.833 L
114.298 316.833 L
115.891 316.833 L
117.51 316.833 L
118.852 316.833 L
119.985 316.833 L
121.182 316.833 L
122.653 316.833 L
124.32 316.833 L
125.819 316.833 L
127.02 316.833 L
S
GR
GS
[0.75 0 0 0.75 0 0] CT
0.851 0.325 0.098 RC
1 LJ
0.667 LW
N
125.819 316.833 M
127.02 316.833 L
128.14 316.833 L
129.463 316.833 L
131.076 316.833 L
132.708 316.833 L
134.041 316.833 L
135.158 316.833 L
136.348 316.833 L
137.829 316.833 L
139.513 316.833 L
140.702 316.833 L
141.891 316.833 L
143.351 316.833 L
145.017 316.833 L
146.527 316.833 L
147.737 316.833 L
148.855 316.833 L
150.166 316.833 L
151.771 316.833 L
153.41 316.833 L
154.756 316.833 L
155.876 316.833 L
157.058 316.833 L
158.526 316.833 L
160.209 316.833 L
161.407 316.833 L
162.606 316.833 L
164.065 316.833 L
165.72 316.833 L
167.222 316.833 L
168.436 316.833 L
169.562 316.833 L
170.88 316.833 L
172.48 316.833 L
174.108 316.833 L
175.451 316.833 L
176.576 316.833 L
177.767 316.833 L
179.238 316.833 L
180.913 316.833 L
181.5 316.833 L
181.5 311.117 L
181.5 311.117 L
181.556 311.117 L
181.612 311.117 L
181.696 311.117 L
181.807 311.117 L
181.935 311.117 L
182.116 311.117 L
182.346 311.117 L
182.601 311.117 L
S
GR
GS
[0.75 0 0 0.75 0 0] CT
0.851 0.325 0.098 RC
1 LJ
0.667 LW
N
182.346 311.117 M
182.601 311.117 L
182.895 311.117 L
183.24 311.117 L
183.664 311.117 L
184.235 311.117 L
184.916 311.117 L
185.681 311.117 L
186.618 311.117 L
187.856 311.117 L
189.582 311.117 L
190.632 311.117 L
191.682 311.117 L
193.086 311.117 L
194.77 311.117 L
195.905 311.117 L
197.041 311.117 L
198.469 311.117 L
200.127 311.117 L
201.302 311.117 L
202.477 311.117 L
203.913 311.117 L
205.544 311.117 L
207.027 311.117 L
208.225 311.117 L
209.337 311.117 L
210.639 311.117 L
212.223 311.117 L
213.836 311.117 L
215.167 311.117 L
216.282 311.117 L
217.462 311.117 L
218.921 311.117 L
220.584 311.117 L
221.774 311.117 L
222.964 311.117 L
224.411 311.117 L
226.053 311.117 L
227.547 311.117 L
228.755 311.117 L
229.876 311.117 L
231.185 311.117 L
232.774 311.117 L
234.393 311.117 L
235.73 311.117 L
236.851 311.117 L
238.036 311.117 L
239.499 311.117 L
241.165 311.117 L
242.36 311.117 L
243.554 311.117 L
245.006 311.117 L
S
GR
GS
[0.75 0 0 0.75 0 0] CT
0.851 0.325 0.098 RC
1 LJ
0.667 LW
N
243.554 311.117 M
245.006 311.117 L
246.649 311.117 L
248.145 311.117 L
249.356 311.117 L
250.481 311.117 L
251.793 311.117 L
253.385 311.117 L
253.833 311.117 L
253.833 311.117 L
254.256 311.117 L
254.679 311.117 L
255.38 311.117 L
256.21 311.117 L
257.337 311.117 L
258.882 311.117 L
259.957 311.117 L
261.033 311.117 L
262.403 311.117 L
264.03 311.117 L
265.208 311.117 L
266.386 311.117 L
267.805 311.117 L
269.402 311.117 L
270.864 311.117 L
272.067 311.117 L
273.194 311.117 L
274.5 311.117 L
276.066 311.117 L
277.654 311.117 L
278.98 311.117 L
280.106 311.117 L
281.299 311.117 L
282.757 311.117 L
284.4 311.117 L
285.878 311.117 L
287.071 311.117 L
288.19 311.117 L
289.509 311.117 L
291.108 311.117 L
292.718 311.117 L
294.039 311.117 L
295.152 311.117 L
296.343 311.117 L
297.819 311.117 L
299.487 311.117 L
300.669 311.117 L
301.85 311.117 L
303.301 311.117 L
304.957 311.117 L
306.462 311.117 L
307.667 311.117 L
S
GR
GS
[0.75 0 0 0.75 0 0] CT
0.851 0.325 0.098 RC
1 LJ
0.667 LW
N
306.462 311.117 M
307.667 311.117 L
308.779 311.117 L
310.084 311.117 L
311.68 311.117 L
313.312 311.117 L
314.654 311.117 L
315.77 311.117 L
316.946 311.117 L
318.408 311.117 L
320.083 311.117 L
321.278 311.117 L
322.473 311.117 L
323.927 311.117 L
325.574 311.117 L
327.07 311.117 L
328.28 311.117 L
329.405 311.117 L
330.718 311.117 L
332.313 311.117 L
333.934 311.117 L
335.272 311.117 L
336.395 311.117 L
337.583 311.117 L
339.051 311.117 L
340.72 311.117 L
341.915 311.117 L
343.11 311.117 L
344.564 311.117 L
346.212 311.117 L
347.711 311.117 L
348.923 311.117 L
350.048 311.117 L
351.361 311.117 L
352.955 311.117 L
354.578 311.117 L
355.919 311.117 L
357.043 311.117 L
358.231 311.117 L
359.698 311.117 L
361.368 311.117 L
362.333 311.117 L
362.333 311.117 L
362.333 311.117 L
362.637 311.117 L
362.941 311.117 L
363.351 311.117 L
363.811 311.117 L
364.357 311.117 L
365.015 311.117 L
365.837 311.117 L
366.904 311.117 L
S
GR
GS
[0.75 0 0 0.75 0 0] CT
0.851 0.325 0.098 RC
1 LJ
0.667 LW
N
365.837 311.117 M
366.904 311.117 L
368.351 311.117 L
369.876 311.117 L
371.401 311.117 L
372.658 311.117 L
373.724 311.117 L
374.881 311.117 L
376.332 311.117 L
377.979 311.117 L
379.135 311.117 L
380.291 311.117 L
381.722 311.117 L
383.371 311.117 L
384.563 311.117 L
385.756 311.117 L
387.194 311.117 L
388.813 311.117 L
390.29 311.117 L
391.498 311.117 L
392.627 311.117 L
393.938 311.117 L
395.515 311.117 L
397.115 311.117 L
398.446 311.117 L
399.573 311.117 L
400.764 311.117 L
402.226 311.117 L
403.878 311.117 L
405.364 311.117 L
406.558 311.117 L
407.675 311.117 L
408.993 311.117 L
410.596 311.117 L
412.214 311.117 L
413.539 311.117 L
414.651 311.117 L
415.839 311.117 L
417.315 311.117 L
418.988 311.117 L
420.171 311.117 L
421.354 311.117 L
422.807 311.117 L
424.466 311.117 L
425.971 311.117 L
427.176 311.117 L
428.289 311.117 L
429.595 311.117 L
431.193 311.117 L
432.826 311.117 L
434.168 311.117 L
435.284 311.117 L
S
GR
GS
[0.75 0 0 0.75 0 0] CT
0.851 0.325 0.098 RC
1 LJ
0.667 LW
N
434.168 311.117 M
435.284 311.117 L
436.462 311.117 L
437.924 311.117 L
439.601 311.117 L
440.796 311.117 L
441.991 311.117 L
443.446 311.117 L
445.095 311.117 L
446.592 311.117 L
447.802 311.117 L
448.926 311.117 L
450.24 311.117 L
451.835 311.117 L
453.458 311.117 L
454.797 311.117 L
455.92 311.117 L
457.108 311.117 L
458.575 311.117 L
460.246 311.117 L
461.441 311.117 L
462.636 311.117 L
464.091 311.117 L
465.739 311.117 L
467.239 311.117 L
468.451 311.117 L
469.576 311.117 L
470.889 311.117 L
472.484 311.117 L
474.108 311.117 L
475.449 311.117 L
476.573 311.117 L
477.761 311.117 L
479.228 311.117 L
480.898 311.117 L
482.096 311.117 L
483.293 311.117 L
484.748 311.117 L
486.395 311.117 L
487.894 311.117 L
489.107 311.117 L
490.234 311.117 L
491.549 311.117 L
493.144 311.117 L
494.766 311.117 L
496.108 311.117 L
497.233 311.117 L
498.423 311.117 L
499.891 311.117 L
501.56 311.117 L
502.758 311.117 L
503.956 311.117 L
S
GR
GS
[0.75 0 0 0.75 0 0] CT
0.851 0.325 0.098 RC
1 LJ
0.667 LW
N
502.758 311.117 M
503.956 311.117 L
505.411 311.117 L
507 311.117 L
S
GR
GS
[0.75 0 0 0.75 0 0] CT
0.929 0.694 0.125 RC
1 LJ
0.667 LW
N
73 316.833 M
73.362 316.833 L
73.362 316.833 L
73.362 316.833 L
73.473 316.833 L
73.583 316.833 L
73.743 316.833 L
73.97 316.833 L
74.282 316.833 L
74.671 316.833 L
75.117 316.833 L
75.649 316.833 L
76.3 316.833 L
77.125 316.833 L
78.221 316.833 L
79.744 316.833 L
81.622 316.833 L
82.691 316.833 L
83.76 316.833 L
85.239 316.833 L
87.07 316.833 L
88.215 316.833 L
89.36 316.833 L
90.846 316.833 L
92.593 316.833 L
93.759 316.833 L
94.926 316.833 L
96.397 316.833 L
98.102 316.833 L
99.292 316.833 L
100.482 316.833 L
101.946 316.833 L
103.615 316.833 L
104.82 316.833 L
106.026 316.833 L
107.483 316.833 L
109.126 316.833 L
110.623 316.833 L
111.841 316.833 L
112.977 316.833 L
114.298 316.833 L
115.891 316.833 L
117.51 316.833 L
118.852 316.833 L
119.985 316.833 L
121.182 316.833 L
122.653 316.833 L
124.32 316.833 L
125.819 316.833 L
127.02 316.833 L
S
GR
GS
[0.75 0 0 0.75 0 0] CT
0.929 0.694 0.125 RC
1 LJ
0.667 LW
N
125.819 316.833 M
127.02 316.833 L
128.14 316.833 L
129.463 316.833 L
131.076 316.833 L
132.708 316.833 L
134.041 316.833 L
135.158 316.833 L
136.348 316.833 L
137.829 316.833 L
139.513 316.833 L
140.702 316.833 L
141.891 316.833 L
143.351 316.833 L
145.017 316.833 L
146.527 316.833 L
147.737 316.833 L
148.855 316.833 L
150.166 316.833 L
151.771 316.833 L
153.41 316.833 L
154.756 316.833 L
155.876 316.833 L
157.058 316.833 L
158.526 316.833 L
160.209 316.833 L
161.407 316.833 L
162.606 316.833 L
164.065 316.833 L
165.72 316.833 L
167.222 316.833 L
168.436 316.833 L
169.562 316.833 L
170.88 316.833 L
172.48 316.833 L
174.108 316.833 L
175.451 316.833 L
176.576 316.833 L
177.767 316.833 L
179.238 316.833 L
180.913 316.833 L
181.5 316.833 L
181.5 316.833 L
181.5 316.833 L
181.556 316.833 L
181.612 316.833 L
181.696 316.833 L
181.807 316.833 L
181.935 316.833 L
182.116 316.833 L
182.346 316.833 L
182.601 316.833 L
S
GR
GS
[0.75 0 0 0.75 0 0] CT
0.929 0.694 0.125 RC
1 LJ
0.667 LW
N
182.346 316.833 M
182.601 316.833 L
182.895 316.833 L
183.24 316.833 L
183.664 316.833 L
184.235 316.833 L
184.916 316.833 L
185.681 316.833 L
186.618 316.833 L
187.856 316.833 L
189.582 316.833 L
190.632 316.833 L
191.682 316.833 L
193.086 316.833 L
194.77 316.833 L
195.905 316.833 L
197.041 316.833 L
198.469 316.833 L
200.127 316.833 L
201.302 316.833 L
202.477 316.833 L
203.913 316.833 L
205.544 316.833 L
207.027 316.833 L
208.225 316.833 L
209.337 316.833 L
210.639 316.833 L
212.223 316.833 L
213.836 316.833 L
215.167 316.833 L
216.282 316.833 L
217.462 316.833 L
218.921 316.833 L
220.584 316.833 L
221.774 316.833 L
222.964 316.833 L
224.411 316.833 L
226.053 316.833 L
227.547 316.833 L
228.755 316.833 L
229.876 316.833 L
231.185 316.833 L
232.774 316.833 L
234.393 316.833 L
235.73 316.833 L
236.851 316.833 L
238.036 316.833 L
239.499 316.833 L
241.165 316.833 L
242.36 316.833 L
243.554 316.833 L
245.006 316.833 L
S
GR
GS
[0.75 0 0 0.75 0 0] CT
0.929 0.694 0.125 RC
1 LJ
0.667 LW
N
243.554 316.833 M
245.006 316.833 L
246.649 316.833 L
248.145 316.833 L
249.356 316.833 L
250.481 316.833 L
251.793 316.833 L
253.385 316.833 L
253.833 316.833 L
253.833 31 L
254.256 31 L
254.679 31 L
255.38 31 L
256.21 31 L
257.337 31 L
258.882 31 L
259.957 31 L
261.033 31 L
262.403 31 L
264.03 31 L
265.208 31 L
266.386 31 L
267.805 31 L
269.402 31 L
270.864 31 L
272.067 31 L
273.194 31 L
274.5 31 L
276.066 31 L
277.654 31 L
278.98 31 L
280.106 31 L
281.299 31 L
282.757 31 L
284.4 31 L
285.878 31 L
287.071 31 L
288.19 31 L
289.509 31 L
291.108 31 L
292.718 31 L
294.039 31 L
295.152 31 L
296.343 31 L
297.819 31 L
299.487 31 L
300.669 31 L
301.85 31 L
303.301 31 L
304.957 31 L
306.462 31 L
307.667 31 L
S
GR
GS
[0.75 0 0 0.75 0 0] CT
0.929 0.694 0.125 RC
1 LJ
0.667 LW
N
306.462 31 M
307.667 31 L
308.779 31 L
310.084 31 L
311.68 31 L
313.312 31 L
314.654 31 L
315.77 31 L
316.946 31 L
318.408 31 L
320.083 31 L
321.278 31 L
322.473 31 L
323.927 31 L
325.574 31 L
327.07 31 L
328.28 31 L
329.405 31 L
330.718 31 L
332.313 31 L
333.934 31 L
335.272 31 L
336.395 31 L
337.583 31 L
339.051 31 L
340.72 31 L
341.915 31 L
343.11 31 L
344.564 31 L
346.212 31 L
347.711 31 L
348.923 31 L
350.048 31 L
351.361 31 L
352.955 31 L
354.578 31 L
355.919 31 L
357.043 31 L
358.231 31 L
359.698 31 L
361.368 31 L
362.333 31 L
362.333 31 L
362.333 31 L
362.637 31 L
362.941 31 L
363.351 31 L
363.811 31 L
364.357 31 L
365.015 31 L
365.837 31 L
366.904 31 L
S
GR
GS
[0.75 0 0 0.75 0 0] CT
0.929 0.694 0.125 RC
1 LJ
0.667 LW
N
365.837 31 M
366.904 31 L
368.351 31 L
369.876 31 L
371.401 31 L
372.658 31 L
373.724 31 L
374.881 31 L
376.332 31 L
377.979 31 L
379.135 31 L
380.291 31 L
381.722 31 L
383.371 31 L
384.563 31 L
385.756 31 L
387.194 31 L
388.813 31 L
390.29 31 L
391.498 31 L
392.627 31 L
393.938 31 L
395.515 31 L
397.115 31 L
398.446 31 L
399.573 31 L
400.764 31 L
402.226 31 L
403.878 31 L
405.364 31 L
406.558 31 L
407.675 31 L
408.993 31 L
410.596 31 L
412.214 31 L
413.539 31 L
414.651 31 L
415.839 31 L
417.315 31 L
418.988 31 L
420.171 31 L
421.354 31 L
422.807 31 L
424.466 31 L
425.971 31 L
427.176 31 L
428.289 31 L
429.595 31 L
431.193 31 L
432.826 31 L
434.168 31 L
435.284 31 L
S
GR
GS
[0.75 0 0 0.75 0 0] CT
0.929 0.694 0.125 RC
1 LJ
0.667 LW
N
434.168 31 M
435.284 31 L
436.462 31 L
437.924 31 L
439.601 31 L
440.796 31 L
441.991 31 L
443.446 31 L
445.095 31 L
446.592 31 L
447.802 31 L
448.926 31 L
450.24 31 L
451.835 31 L
453.458 31 L
454.797 31 L
455.92 31 L
457.108 31 L
458.575 31 L
460.246 31 L
461.441 31 L
462.636 31 L
464.091 31 L
465.739 31 L
467.239 31 L
468.451 31 L
469.576 31 L
470.889 31 L
472.484 31 L
474.108 31 L
475.449 31 L
476.573 31 L
477.761 31 L
479.228 31 L
480.898 31 L
482.096 31 L
483.293 31 L
484.748 31 L
486.395 31 L
487.894 31 L
489.107 31 L
490.234 31 L
491.549 31 L
493.144 31 L
494.766 31 L
496.108 31 L
497.233 31 L
498.423 31 L
499.891 31 L
501.56 31 L
502.758 31 L
503.956 31 L
S
GR
GS
[0.75 0 0 0.75 0 0] CT
0.929 0.694 0.125 RC
1 LJ
0.667 LW
N
502.758 31 M
503.956 31 L
505.411 31 L
507 31 L
S
GR
GS
[0.75 0 0 0.75 0 0] CT
0.494 0.184 0.557 RC
1 LJ
0.667 LW
N
73 316.833 M
73.362 316.833 L
73.362 316.833 L
73.362 316.833 L
73.473 316.833 L
73.583 316.833 L
73.743 316.833 L
73.97 316.833 L
74.282 316.833 L
74.671 316.833 L
75.117 316.833 L
75.649 316.833 L
76.3 316.833 L
77.125 316.833 L
78.221 316.833 L
79.744 316.833 L
81.622 316.833 L
82.691 316.833 L
83.76 316.833 L
85.239 316.833 L
87.07 316.833 L
88.215 316.833 L
89.36 316.833 L
90.846 316.833 L
92.593 316.833 L
93.759 316.833 L
94.926 316.833 L
96.397 316.833 L
98.102 316.833 L
99.292 316.833 L
100.482 316.833 L
101.946 316.833 L
103.615 316.833 L
104.82 316.833 L
106.026 316.833 L
107.483 316.833 L
109.126 316.833 L
110.623 316.833 L
111.841 316.833 L
112.977 316.833 L
114.298 316.833 L
115.891 316.833 L
117.51 316.833 L
118.852 316.833 L
119.985 316.833 L
121.182 316.833 L
122.653 316.833 L
124.32 316.833 L
125.819 316.833 L
127.02 316.833 L
S
GR
GS
[0.75 0 0 0.75 0 0] CT
0.494 0.184 0.557 RC
1 LJ
0.667 LW
N
125.819 316.833 M
127.02 316.833 L
128.14 316.833 L
129.463 316.833 L
131.076 316.833 L
132.708 316.833 L
134.041 316.833 L
135.158 316.833 L
136.348 316.833 L
137.829 316.833 L
139.513 316.833 L
140.702 316.833 L
141.891 316.833 L
143.351 316.833 L
145.017 316.833 L
146.527 316.833 L
147.737 316.833 L
148.855 316.833 L
150.166 316.833 L
151.771 316.833 L
153.41 316.833 L
154.756 316.833 L
155.876 316.833 L
157.058 316.833 L
158.526 316.833 L
160.209 316.833 L
161.407 316.833 L
162.606 316.833 L
164.065 316.833 L
165.72 316.833 L
167.222 316.833 L
168.436 316.833 L
169.562 316.833 L
170.88 316.833 L
172.48 316.833 L
174.108 316.833 L
175.451 316.833 L
176.576 316.833 L
177.767 316.833 L
179.238 316.833 L
180.913 316.833 L
181.5 316.833 L
181.5 316.833 L
181.5 316.833 L
181.556 316.833 L
181.612 316.833 L
181.696 316.833 L
181.807 316.833 L
181.935 316.833 L
182.116 316.833 L
182.346 316.833 L
182.601 316.833 L
S
GR
GS
[0.75 0 0 0.75 0 0] CT
0.494 0.184 0.557 RC
1 LJ
0.667 LW
N
182.346 316.833 M
182.601 316.833 L
182.895 316.833 L
183.24 316.833 L
183.664 316.833 L
184.235 316.833 L
184.916 316.833 L
185.681 316.833 L
186.618 316.833 L
187.856 316.833 L
189.582 316.833 L
190.632 316.833 L
191.682 316.833 L
193.086 316.833 L
194.77 316.833 L
195.905 316.833 L
197.041 316.833 L
198.469 316.833 L
200.127 316.833 L
201.302 316.833 L
202.477 316.833 L
203.913 316.833 L
205.544 316.833 L
207.027 316.833 L
208.225 316.833 L
209.337 316.833 L
210.639 316.833 L
212.223 316.833 L
213.836 316.833 L
215.167 316.833 L
216.282 316.833 L
217.462 316.833 L
218.921 316.833 L
220.584 316.833 L
221.774 316.833 L
222.964 316.833 L
224.411 316.833 L
226.053 316.833 L
227.547 316.833 L
228.755 316.833 L
229.876 316.833 L
231.185 316.833 L
232.774 316.833 L
234.393 316.833 L
235.73 316.833 L
236.851 316.833 L
238.036 316.833 L
239.499 316.833 L
241.165 316.833 L
242.36 316.833 L
243.554 316.833 L
245.006 316.833 L
S
GR
GS
[0.75 0 0 0.75 0 0] CT
0.494 0.184 0.557 RC
1 LJ
0.667 LW
N
243.554 316.833 M
245.006 316.833 L
246.649 316.833 L
248.145 316.833 L
249.356 316.833 L
250.481 316.833 L
251.793 316.833 L
253.385 316.833 L
253.833 316.833 L
253.833 316.833 L
254.256 316.833 L
254.679 316.833 L
255.38 316.833 L
256.21 316.833 L
257.337 316.833 L
258.882 316.833 L
259.957 316.833 L
261.033 316.833 L
262.403 316.833 L
264.03 316.833 L
265.208 316.833 L
266.386 316.833 L
267.805 316.833 L
269.402 316.833 L
270.864 316.833 L
272.067 316.833 L
273.194 316.833 L
274.5 316.833 L
276.066 316.833 L
277.654 316.833 L
278.98 316.833 L
280.106 316.833 L
281.299 316.833 L
282.757 316.833 L
284.4 316.833 L
285.878 316.833 L
287.071 316.833 L
288.19 316.833 L
289.509 316.833 L
291.108 316.833 L
292.718 316.833 L
294.039 316.833 L
295.152 316.833 L
296.343 316.833 L
297.819 316.833 L
299.487 316.833 L
300.669 316.833 L
301.85 316.833 L
303.301 316.833 L
304.957 316.833 L
306.462 316.833 L
307.667 316.833 L
S
GR
GS
[0.75 0 0 0.75 0 0] CT
0.494 0.184 0.557 RC
1 LJ
0.667 LW
N
306.462 316.833 M
307.667 316.833 L
308.779 316.833 L
310.084 316.833 L
311.68 316.833 L
313.312 316.833 L
314.654 316.833 L
315.77 316.833 L
316.946 316.833 L
318.408 316.833 L
320.083 316.833 L
321.278 316.833 L
322.473 316.833 L
323.927 316.833 L
325.574 316.833 L
327.07 316.833 L
328.28 316.833 L
329.405 316.833 L
330.718 316.833 L
332.313 316.833 L
333.934 316.833 L
335.272 316.833 L
336.395 316.833 L
337.583 316.833 L
339.051 316.833 L
340.72 316.833 L
341.915 316.833 L
343.11 316.833 L
344.564 316.833 L
346.212 316.833 L
347.711 316.833 L
348.923 316.833 L
350.048 316.833 L
351.361 316.833 L
352.955 316.833 L
354.578 316.833 L
355.919 316.833 L
357.043 316.833 L
358.231 316.833 L
359.698 316.833 L
361.368 316.833 L
362.333 316.833 L
362.333 31 L
362.333 31 L
362.637 31 L
362.941 31 L
363.351 31 L
363.811 31 L
364.357 31 L
365.015 31 L
365.837 31 L
366.904 31 L
S
GR
GS
[0.75 0 0 0.75 0 0] CT
0.494 0.184 0.557 RC
1 LJ
0.667 LW
N
365.837 31 M
366.904 31 L
368.351 31 L
369.876 31 L
371.401 31 L
372.658 31 L
373.724 31 L
374.881 31 L
376.332 31 L
377.979 31 L
379.135 31 L
380.291 31 L
381.722 31 L
383.371 31 L
384.563 31 L
385.756 31 L
387.194 31 L
388.813 31 L
390.29 31 L
391.498 31 L
392.627 31 L
393.938 31 L
395.515 31 L
397.115 31 L
398.446 31 L
399.573 31 L
400.764 31 L
402.226 31 L
403.878 31 L
405.364 31 L
406.558 31 L
407.675 31 L
408.993 31 L
410.596 31 L
412.214 31 L
413.539 31 L
414.651 31 L
415.839 31 L
417.315 31 L
418.988 31 L
420.171 31 L
421.354 31 L
422.807 31 L
424.466 31 L
425.971 31 L
427.176 31 L
428.289 31 L
429.595 31 L
431.193 31 L
432.826 31 L
434.168 31 L
435.284 31 L
S
GR
GS
[0.75 0 0 0.75 0 0] CT
0.494 0.184 0.557 RC
1 LJ
0.667 LW
N
434.168 31 M
435.284 31 L
436.462 31 L
437.924 31 L
439.601 31 L
440.796 31 L
441.991 31 L
443.446 31 L
445.095 31 L
446.592 31 L
447.802 31 L
448.926 31 L
450.24 31 L
451.835 31 L
453.458 31 L
454.797 31 L
455.92 31 L
457.108 31 L
458.575 31 L
460.246 31 L
461.441 31 L
462.636 31 L
464.091 31 L
465.739 31 L
467.239 31 L
468.451 31 L
469.576 31 L
470.889 31 L
472.484 31 L
474.108 31 L
475.449 31 L
476.573 31 L
477.761 31 L
479.228 31 L
480.898 31 L
482.096 31 L
483.293 31 L
484.748 31 L
486.395 31 L
487.894 31 L
489.107 31 L
490.234 31 L
491.549 31 L
493.144 31 L
494.766 31 L
496.108 31 L
497.233 31 L
498.423 31 L
499.891 31 L
501.56 31 L
502.758 31 L
503.956 31 L
S
GR
GS
[0.75 0 0 0.75 0 0] CT
0.494 0.184 0.557 RC
1 LJ
0.667 LW
N
502.758 31 M
503.956 31 L
505.411 31 L
507 31 L
S
GR
GS
[0.75 0 0 0.75 0 0] CT
0.467 0.675 0.188 RC
1 LJ
0.667 LW
N
73 316.833 M
73.362 316.833 L
73.362 316.833 L
73.362 316.833 L
73.473 316.799 L
73.583 316.765 L
73.743 316.717 L
73.97 316.649 L
74.282 316.557 L
74.671 316.444 L
75.117 316.317 L
75.649 316.17 L
76.3 315.996 L
77.125 315.783 L
78.221 315.516 L
79.744 315.169 L
81.622 314.779 L
82.691 314.574 L
83.76 314.38 L
85.239 314.13 L
87.07 313.847 L
88.215 313.683 L
89.36 313.53 L
90.846 313.344 L
92.593 313.144 L
93.759 313.02 L
94.926 312.904 L
96.397 312.768 L
98.102 312.623 L
99.292 312.529 L
100.482 312.441 L
101.946 312.341 L
103.615 312.235 L
104.82 312.165 L
106.026 312.099 L
107.483 312.025 L
109.126 311.948 L
110.623 311.883 L
111.841 311.835 L
112.977 311.792 L
114.298 311.746 L
115.891 311.694 L
117.51 311.646 L
118.852 311.609 L
119.985 311.579 L
121.182 311.551 L
122.653 311.517 L
124.32 311.483 L
125.819 311.455 L
127.02 311.433 L
S
GR
GS
[0.75 0 0 0.75 0 0] CT
0.467 0.675 0.188 RC
1 LJ
0.667 LW
N
125.819 311.455 M
127.02 311.433 L
128.14 311.415 L
129.463 311.394 L
131.076 311.371 L
132.708 311.35 L
134.041 311.334 L
135.158 311.321 L
136.348 311.308 L
137.829 311.294 L
139.513 311.278 L
140.702 311.268 L
141.891 311.259 L
143.351 311.248 L
145.017 311.237 L
146.527 311.227 L
147.737 311.22 L
148.855 311.214 L
150.166 311.208 L
151.771 311.2 L
153.41 311.193 L
154.756 311.188 L
155.876 311.184 L
157.058 311.179 L
158.526 311.175 L
160.209 311.17 L
161.407 311.166 L
162.606 311.163 L
164.065 311.16 L
165.72 311.156 L
167.222 311.153 L
168.436 311.151 L
169.562 311.149 L
170.88 311.146 L
172.48 311.144 L
174.108 311.142 L
175.451 311.14 L
176.576 311.139 L
177.767 311.137 L
179.238 311.136 L
180.913 311.134 L
181.5 311.133 L
181.5 311.133 L
181.5 311.133 L
181.556 311.133 L
181.612 311.133 L
181.696 311.133 L
181.807 311.133 L
181.935 311.133 L
182.116 311.133 L
182.346 311.133 L
182.601 311.132 L
S
GR
GS
[0.75 0 0 0.75 0 0] CT
0.467 0.675 0.188 RC
1 LJ
0.667 LW
N
182.346 311.133 M
182.601 311.132 L
182.895 311.132 L
183.24 311.132 L
183.664 311.132 L
184.235 311.131 L
184.916 311.131 L
185.681 311.13 L
186.618 311.129 L
187.856 311.129 L
189.582 311.128 L
190.632 311.127 L
191.682 311.126 L
193.086 311.126 L
194.77 311.125 L
195.905 311.124 L
197.041 311.124 L
198.469 311.123 L
200.127 311.123 L
201.302 311.122 L
202.477 311.122 L
203.913 311.122 L
205.544 311.121 L
207.027 311.121 L
208.225 311.121 L
209.337 311.12 L
210.639 311.12 L
212.223 311.12 L
213.836 311.12 L
215.167 311.119 L
216.282 311.119 L
217.462 311.119 L
218.921 311.119 L
220.584 311.119 L
221.774 311.119 L
222.964 311.118 L
224.411 311.118 L
226.053 311.118 L
227.547 311.118 L
228.755 311.118 L
229.876 311.118 L
231.185 311.118 L
232.774 311.118 L
234.393 311.118 L
235.73 311.118 L
236.851 311.118 L
238.036 311.117 L
239.499 311.117 L
241.165 311.117 L
242.36 311.117 L
243.554 311.117 L
245.006 311.117 L
S
GR
GS
[0.75 0 0 0.75 0 0] CT
0.467 0.675 0.188 RC
1 LJ
0.667 LW
N
243.554 311.117 M
245.006 311.117 L
246.649 311.117 L
248.145 311.117 L
249.356 311.117 L
250.481 311.117 L
251.793 311.117 L
253.385 311.117 L
253.833 311.117 L
253.833 311.117 L
254.256 310.953 L
254.679 310.796 L
255.38 310.549 L
256.21 310.277 L
257.337 309.943 L
258.882 309.544 L
259.957 309.303 L
261.033 309.09 L
262.403 308.855 L
264.03 308.623 L
265.208 308.485 L
266.386 308.368 L
267.805 308.255 L
269.402 308.158 L
270.864 308.094 L
272.067 308.058 L
273.194 308.036 L
274.5 308.023 L
276.066 308.024 L
277.654 308.04 L
278.98 308.064 L
280.106 308.091 L
281.299 308.125 L
282.757 308.174 L
284.4 308.236 L
285.878 308.298 L
287.071 308.351 L
288.19 308.403 L
289.509 308.467 L
291.108 308.547 L
292.718 308.63 L
294.039 308.698 L
295.152 308.757 L
296.343 308.82 L
297.819 308.897 L
299.487 308.985 L
300.669 309.047 L
301.85 309.108 L
303.301 309.182 L
304.957 309.265 L
306.462 309.339 L
307.667 309.397 L
S
GR
GS
[0.75 0 0 0.75 0 0] CT
0.467 0.675 0.188 RC
1 LJ
0.667 LW
N
306.462 309.339 M
307.667 309.397 L
308.779 309.449 L
310.084 309.51 L
311.68 309.582 L
313.312 309.653 L
314.654 309.71 L
315.77 309.756 L
316.946 309.804 L
318.408 309.861 L
320.083 309.924 L
321.278 309.968 L
322.473 310.01 L
323.927 310.06 L
325.574 310.114 L
327.07 310.161 L
328.28 310.198 L
329.405 310.231 L
330.718 310.269 L
332.313 310.312 L
333.934 310.354 L
335.272 310.388 L
336.395 310.415 L
337.583 310.443 L
339.051 310.475 L
340.72 310.511 L
341.915 310.535 L
343.11 310.559 L
344.564 310.586 L
346.212 310.616 L
347.711 310.642 L
348.923 310.661 L
350.048 310.679 L
351.361 310.699 L
352.955 310.722 L
354.578 310.744 L
355.919 310.762 L
357.043 310.776 L
358.231 310.79 L
359.698 310.807 L
361.368 310.825 L
362.333 310.835 L
362.333 310.835 L
362.333 310.835 L
362.637 310.822 L
362.941 310.788 L
363.351 310.729 L
363.811 310.656 L
364.357 310.568 L
365.015 310.467 L
365.837 310.349 L
366.904 310.21 L
S
GR
GS
[0.75 0 0 0.75 0 0] CT
0.467 0.675 0.188 RC
1 LJ
0.667 LW
N
365.837 310.349 M
366.904 310.21 L
368.351 310.046 L
369.876 309.901 L
371.401 309.781 L
372.658 309.699 L
373.724 309.64 L
374.881 309.587 L
376.332 309.534 L
377.979 309.489 L
379.135 309.468 L
380.291 309.453 L
381.722 309.443 L
383.371 309.441 L
384.563 309.446 L
385.756 309.455 L
387.194 309.471 L
388.813 309.495 L
390.29 309.522 L
391.498 309.546 L
392.627 309.571 L
393.938 309.601 L
395.515 309.641 L
397.115 309.682 L
398.446 309.718 L
399.573 309.749 L
400.764 309.783 L
402.226 309.824 L
403.878 309.871 L
405.364 309.914 L
406.558 309.948 L
407.675 309.979 L
408.993 310.016 L
410.596 310.061 L
412.214 310.105 L
413.539 310.14 L
414.651 310.169 L
415.839 310.2 L
417.315 310.237 L
418.988 310.279 L
420.171 310.307 L
421.354 310.335 L
422.807 310.368 L
424.466 310.404 L
425.971 310.436 L
427.176 310.461 L
428.289 310.483 L
429.595 310.509 L
431.193 310.538 L
432.826 310.568 L
434.168 310.591 L
435.284 310.61 L
S
GR
GS
[0.75 0 0 0.75 0 0] CT
0.467 0.675 0.188 RC
1 LJ
0.667 LW
N
434.168 310.591 M
435.284 310.61 L
436.462 310.629 L
437.924 310.652 L
439.601 310.677 L
440.796 310.694 L
441.991 310.71 L
443.446 310.73 L
445.095 310.751 L
446.592 310.769 L
447.802 310.783 L
448.926 310.796 L
450.24 310.81 L
451.835 310.826 L
453.458 310.842 L
454.797 310.855 L
455.92 310.865 L
457.108 310.875 L
458.575 310.887 L
460.246 310.901 L
461.441 310.91 L
462.636 310.918 L
464.091 310.928 L
465.739 310.939 L
467.239 310.948 L
468.451 310.956 L
469.576 310.962 L
470.889 310.969 L
472.484 310.978 L
474.108 310.986 L
475.449 310.992 L
476.573 310.997 L
477.761 311.002 L
479.228 311.008 L
480.898 311.015 L
482.096 311.019 L
483.293 311.023 L
484.748 311.028 L
486.395 311.033 L
487.894 311.038 L
489.107 311.042 L
490.234 311.045 L
491.549 311.048 L
493.144 311.052 L
494.766 311.056 L
496.108 311.059 L
497.233 311.061 L
498.423 311.064 L
499.891 311.067 L
501.56 311.07 L
502.758 311.072 L
503.956 311.074 L
S
GR
GS
[0.75 0 0 0.75 0 0] CT
0.467 0.675 0.188 RC
1 LJ
0.667 LW
N
502.758 311.072 M
503.956 311.074 L
505.411 311.076 L
507 311.078 L
S
GR
GS
[0.75 0 0 0.75 0 0] CT
0.302 0.745 0.933 RC
1 LJ
0.667 LW
N
73 316.833 M
73.362 316.833 L
73.362 316.833 L
73.362 316.833 L
73.473 316.833 L
73.583 316.833 L
73.743 316.833 L
73.97 316.833 L
74.282 316.833 L
74.671 316.833 L
75.117 316.833 L
75.649 316.833 L
76.3 316.833 L
77.125 316.833 L
78.221 316.833 L
79.744 316.833 L
81.622 316.833 L
82.691 316.833 L
83.76 316.833 L
85.239 316.833 L
87.07 316.833 L
88.215 316.833 L
89.36 316.833 L
90.846 316.833 L
92.593 316.833 L
93.759 316.833 L
94.926 316.833 L
96.397 316.833 L
98.102 316.833 L
99.292 316.833 L
100.482 316.833 L
101.946 316.833 L
103.615 316.833 L
104.82 316.833 L
106.026 316.833 L
107.483 316.833 L
109.126 316.833 L
110.623 316.833 L
111.841 316.833 L
112.977 316.833 L
114.298 316.833 L
115.891 316.833 L
117.51 316.833 L
118.852 316.833 L
119.985 316.833 L
121.182 316.833 L
122.653 316.833 L
124.32 316.833 L
125.819 316.833 L
127.02 316.833 L
S
GR
GS
[0.75 0 0 0.75 0 0] CT
0.302 0.745 0.933 RC
1 LJ
0.667 LW
N
125.819 316.833 M
127.02 316.833 L
128.14 316.833 L
129.463 316.833 L
131.076 316.833 L
132.708 316.833 L
134.041 316.833 L
135.158 316.833 L
136.348 316.833 L
137.829 316.833 L
139.513 316.833 L
140.702 316.833 L
141.891 316.833 L
143.351 316.833 L
145.017 316.833 L
146.527 316.833 L
147.737 316.833 L
148.855 316.833 L
150.166 316.833 L
151.771 316.833 L
153.41 316.833 L
154.756 316.833 L
155.876 316.833 L
157.058 316.833 L
158.526 316.833 L
160.209 316.833 L
161.407 316.833 L
162.606 316.833 L
164.065 316.833 L
165.72 316.833 L
167.222 316.833 L
168.436 316.833 L
169.562 316.833 L
170.88 316.833 L
172.48 316.833 L
174.108 316.833 L
175.451 316.833 L
176.576 316.833 L
177.767 316.833 L
179.238 316.833 L
180.913 316.833 L
181.5 316.833 L
181.5 316.833 L
181.5 316.833 L
181.556 316.809 L
181.612 316.784 L
181.696 316.747 L
181.807 316.699 L
181.935 316.644 L
182.116 316.567 L
182.346 316.471 L
182.601 316.366 L
S
GR
GS
[0.75 0 0 0.75 0 0] CT
0.302 0.745 0.933 RC
1 LJ
0.667 LW
N
182.346 316.471 M
182.601 316.366 L
182.895 316.248 L
183.24 316.113 L
183.664 315.951 L
184.235 315.742 L
184.916 315.505 L
185.681 315.252 L
186.618 314.963 L
187.856 314.612 L
189.582 314.174 L
190.632 313.936 L
191.682 313.716 L
193.086 313.448 L
194.77 313.163 L
195.905 312.991 L
197.041 312.833 L
198.469 312.653 L
200.127 312.468 L
201.302 312.351 L
202.477 312.243 L
203.913 312.125 L
205.544 312.005 L
207.027 311.909 L
208.225 311.839 L
209.337 311.779 L
210.639 311.716 L
212.223 311.647 L
213.836 311.584 L
215.167 311.539 L
216.282 311.504 L
217.462 311.47 L
218.921 311.432 L
220.584 311.394 L
221.774 311.37 L
222.964 311.347 L
224.411 311.323 L
226.053 311.298 L
227.547 311.278 L
228.755 311.264 L
229.876 311.252 L
231.185 311.239 L
232.774 311.225 L
234.393 311.212 L
235.73 311.203 L
236.851 311.195 L
238.036 311.188 L
239.499 311.181 L
241.165 311.173 L
242.36 311.168 L
243.554 311.164 L
245.006 311.159 L
S
GR
GS
[0.75 0 0 0.75 0 0] CT
0.302 0.745 0.933 RC
1 LJ
0.667 LW
N
243.554 311.164 M
245.006 311.159 L
246.649 311.154 L
248.145 311.15 L
249.356 311.147 L
250.481 311.144 L
251.793 311.141 L
253.385 311.139 L
253.833 311.138 L
253.833 311.138 L
254.256 311.124 L
254.679 311.088 L
255.38 310.998 L
256.21 310.863 L
257.337 310.664 L
258.882 310.402 L
259.957 310.238 L
261.033 310.094 L
262.403 309.938 L
264.03 309.79 L
265.208 309.706 L
266.386 309.639 L
267.805 309.579 L
269.402 309.533 L
270.864 309.509 L
272.067 309.5 L
273.194 309.5 L
274.5 309.507 L
276.066 309.526 L
277.654 309.553 L
278.98 309.582 L
280.106 309.609 L
281.299 309.641 L
282.757 309.683 L
284.4 309.733 L
285.878 309.781 L
287.071 309.82 L
288.19 309.857 L
289.509 309.901 L
291.108 309.954 L
292.718 310.008 L
294.039 310.051 L
295.152 310.087 L
296.343 310.125 L
297.819 310.171 L
299.487 310.221 L
300.669 310.256 L
301.85 310.29 L
303.301 310.331 L
304.957 310.375 L
306.462 310.414 L
307.667 310.444 L
S
GR
GS
[0.75 0 0 0.75 0 0] CT
0.302 0.745 0.933 RC
1 LJ
0.667 LW
N
306.462 310.414 M
307.667 310.444 L
308.779 310.47 L
310.084 310.5 L
311.68 310.536 L
313.312 310.57 L
314.654 310.597 L
315.77 310.619 L
316.946 310.641 L
318.408 310.667 L
320.083 310.695 L
321.278 310.714 L
322.473 310.733 L
323.927 310.754 L
325.574 310.777 L
327.07 310.797 L
328.28 310.812 L
329.405 310.825 L
330.718 310.84 L
332.313 310.857 L
333.934 310.874 L
335.272 310.887 L
336.395 310.897 L
337.583 310.907 L
339.051 310.92 L
340.72 310.933 L
341.915 310.942 L
343.11 310.95 L
344.564 310.96 L
346.212 310.97 L
347.711 310.979 L
348.923 310.986 L
350.048 310.992 L
351.361 310.998 L
352.955 311.006 L
354.578 311.013 L
355.919 311.019 L
357.043 311.023 L
358.231 311.028 L
359.698 311.033 L
361.368 311.039 L
362.333 311.042 L
362.333 311.042 L
362.333 311.042 L
362.637 310.905 L
362.941 310.774 L
363.351 310.604 L
363.811 310.423 L
364.357 310.222 L
365.015 309.998 L
365.837 309.744 L
366.904 309.454 L
S
GR
GS
[0.75 0 0 0.75 0 0] CT
0.302 0.745 0.933 RC
1 LJ
0.667 LW
N
365.837 309.744 M
366.904 309.454 L
368.351 309.125 L
369.876 308.849 L
371.401 308.636 L
372.658 308.5 L
373.724 308.411 L
374.881 308.336 L
376.332 308.273 L
377.979 308.235 L
379.135 308.227 L
380.291 308.233 L
381.722 308.254 L
383.371 308.297 L
384.563 308.338 L
385.756 308.386 L
387.194 308.451 L
388.813 308.532 L
390.29 308.611 L
391.498 308.679 L
392.627 308.744 L
393.938 308.821 L
395.515 308.915 L
397.115 309.01 L
398.446 309.089 L
399.573 309.156 L
400.764 309.225 L
402.226 309.31 L
403.878 309.402 L
405.364 309.484 L
406.558 309.547 L
407.675 309.605 L
408.993 309.672 L
410.596 309.751 L
412.214 309.827 L
413.539 309.886 L
414.651 309.935 L
415.839 309.985 L
417.315 310.045 L
418.988 310.11 L
420.171 310.153 L
421.354 310.196 L
422.807 310.245 L
424.466 310.299 L
425.971 310.345 L
427.176 310.38 L
428.289 310.412 L
429.595 310.447 L
431.193 310.488 L
432.826 310.527 L
434.168 310.558 L
435.284 310.582 L
S
GR
GS
[0.75 0 0 0.75 0 0] CT
0.302 0.745 0.933 RC
1 LJ
0.667 LW
N
434.168 310.558 M
435.284 310.582 L
436.462 310.607 L
437.924 310.636 L
439.601 310.668 L
440.796 310.689 L
441.991 310.709 L
443.446 310.733 L
445.095 310.758 L
446.592 310.779 L
447.802 310.796 L
448.926 310.81 L
450.24 310.826 L
451.835 310.845 L
453.458 310.863 L
454.797 310.876 L
455.92 310.887 L
457.108 310.899 L
458.575 310.911 L
460.246 310.925 L
461.441 310.935 L
462.636 310.944 L
464.091 310.954 L
465.739 310.965 L
467.239 310.974 L
468.451 310.981 L
469.576 310.987 L
470.889 310.994 L
472.484 311.002 L
474.108 311.01 L
475.449 311.016 L
476.573 311.021 L
477.761 311.025 L
479.228 311.031 L
480.898 311.037 L
482.096 311.041 L
483.293 311.044 L
484.748 311.049 L
486.395 311.053 L
487.894 311.057 L
489.107 311.06 L
490.234 311.063 L
491.549 311.066 L
493.144 311.069 L
494.766 311.072 L
496.108 311.075 L
497.233 311.077 L
498.423 311.079 L
499.891 311.081 L
501.56 311.084 L
502.758 311.085 L
503.956 311.087 L
S
GR
GS
[0.75 0 0 0.75 0 0] CT
0.302 0.745 0.933 RC
1 LJ
0.667 LW
N
502.758 311.085 M
503.956 311.087 L
505.411 311.089 L
507 311.09 L
S
GR
GS
[0.75 0 0 0.75 0 0] CT
1 GC
N
421 143 M
421 44 L
494 44 L
494 143 L
cp
f
GR
GS
[0.75 0 0 0.75 354.75 40.65076] CT
/Helvetica 12 F
GS
[1 0 0 1 0 0] CT
0 4.5 moveto 
1 -1 scale
(w1) t 
GR
GR
GS
[0.75 0 0 0.75 0 0] CT
0 0.447 0.741 RC
1 LJ
0.667 LW
N
429 54.201 M
469 54.201 L
S
GR
GS
[0.75 0 0 0.75 354.75 52.44046] CT
/Helvetica 12 F
GS
[1 0 0 1 0 0] CT
0 4.5 moveto 
1 -1 scale
(w2) t 
GR
GR
GS
[0.75 0 0 0.75 0 0] CT
0.851 0.325 0.098 RC
1 LJ
0.667 LW
N
429 69.921 M
469 69.921 L
S
GR
GS
[0.75 0 0 0.75 354.75 64.23015] CT
/Helvetica 12 F
GS
[1 0 0 1 0 0] CT
0 4.5 moveto 
1 -1 scale
(di1) t 
GR
GR
GS
[0.75 0 0 0.75 0 0] CT
0.929 0.694 0.125 RC
1 LJ
0.667 LW
N
429 85.64 M
469 85.64 L
S
GR
GS
[0.75 0 0 0.75 354.75 76.01985] CT
/Helvetica 12 F
GS
[1 0 0 1 0 0] CT
0 4.5 moveto 
1 -1 scale
(di2) t 
GR
GR
GS
[0.75 0 0 0.75 0 0] CT
0.494 0.184 0.557 RC
1 LJ
0.667 LW
N
429 101.36 M
469 101.36 L
S
GR
GS
[0.75 0 0 0.75 354.75 87.80954] CT
/Helvetica 12 F
GS
[1 0 0 1 0 0] CT
0 4.5 moveto 
1 -1 scale
(y1) t 
GR
GR
GS
[0.75 0 0 0.75 0 0] CT
0.467 0.675 0.188 RC
1 LJ
0.667 LW
N
429 117.079 M
469 117.079 L
S
GR
GS
[0.75 0 0 0.75 354.75 99.59924] CT
/Helvetica 12 F
GS
[1 0 0 1 0 0] CT
0 4.5 moveto 
1 -1 scale
(y2) t 
GR
GR
GS
[0.75 0 0 0.75 0 0] CT
0.302 0.745 0.933 RC
1 LJ
0.667 LW
N
429 132.799 M
469 132.799 L
S
GR
GS
[0.75 0 0 0.75 0 0] CT
0.149 GC
10.0 ML
0.667 LW
N
421 143 M
421 44 L
494 44 L
494 143 L
cp
S
GR
%%Trailer
%%Pages: 1
%%EOF
