%!PS-Adobe-3.0 EPSF-3.0
%%Creator: (MATLAB, The Mathworks, Inc. Version 8.6.0.267246 \(R2015b\). Operating System: Windows 8)
%%Title: E:/Projects/skola/rls/pics/SP3/par_2o_e_u.eps
%%CreationDate: 2017-03-17T12:43:48
%%Pages: (atend)
%%BoundingBox: 0 0 420 315
%%LanguageLevel: 2
%%EndComments
%%BeginProlog
%%BeginResource: procset (Apache XML Graphics Std ProcSet) 1.2 0
%%Version: 1.2 0
%%Copyright: (Copyright 2001-2003,2010 The Apache Software Foundation. License terms: http://www.apache.org/licenses/LICENSE-2.0)
/bd{bind def}bind def
/ld{load def}bd
/GR/grestore ld
/M/moveto ld
/LJ/setlinejoin ld
/C/curveto ld
/f/fill ld
/LW/setlinewidth ld
/GC/setgray ld
/t/show ld
/N/newpath ld
/CT/concat ld
/cp/closepath ld
/S/stroke ld
/L/lineto ld
/CC/setcmykcolor ld
/A/ashow ld
/GS/gsave ld
/RC/setrgbcolor ld
/RM/rmoveto ld
/ML/setmiterlimit ld
/re {4 2 roll M
1 index 0 rlineto
0 exch rlineto
neg 0 rlineto
cp } bd
/_ctm matrix def
/_tm matrix def
/BT { _ctm currentmatrix pop matrix _tm copy pop 0 0 moveto } bd
/ET { _ctm setmatrix } bd
/iTm { _ctm setmatrix _tm concat } bd
/Tm { _tm astore pop iTm 0 0 moveto } bd
/ux 0.0 def
/uy 0.0 def
/F {
  /Tp exch def
  /Tf exch def
  Tf findfont Tp scalefont setfont
  /cf Tf def  /cs Tp def
} bd
/ULS {currentpoint /uy exch def /ux exch def} bd
/ULE {
  /Tcx currentpoint pop def
  gsave
  newpath
  cf findfont cs scalefont dup
  /FontMatrix get 0 get /Ts exch def /FontInfo get dup
  /UnderlinePosition get Ts mul /To exch def
  /UnderlineThickness get Ts mul /Tt exch def
  ux uy To add moveto  Tcx uy To add lineto
  Tt setlinewidth stroke
  grestore
} bd
/OLE {
  /Tcx currentpoint pop def
  gsave
  newpath
  cf findfont cs scalefont dup
  /FontMatrix get 0 get /Ts exch def /FontInfo get dup
  /UnderlinePosition get Ts mul /To exch def
  /UnderlineThickness get Ts mul /Tt exch def
  ux uy To add cs add moveto Tcx uy To add cs add lineto
  Tt setlinewidth stroke
  grestore
} bd
/SOE {
  /Tcx currentpoint pop def
  gsave
  newpath
  cf findfont cs scalefont dup
  /FontMatrix get 0 get /Ts exch def /FontInfo get dup
  /UnderlinePosition get Ts mul /To exch def
  /UnderlineThickness get Ts mul /Tt exch def
  ux uy To add cs 10 mul 26 idiv add moveto Tcx uy To add cs 10 mul 26 idiv add lineto
  Tt setlinewidth stroke
  grestore
} bd
/QT {
/Y22 exch store
/X22 exch store
/Y21 exch store
/X21 exch store
currentpoint
/Y21 load 2 mul add 3 div exch
/X21 load 2 mul add 3 div exch
/X21 load 2 mul /X22 load add 3 div
/Y21 load 2 mul /Y22 load add 3 div
/X22 load /Y22 load curveto
} bd
/SSPD {
dup length /d exch dict def
{
/v exch def
/k exch def
currentpagedevice k known {
/cpdv currentpagedevice k get def
v cpdv ne {
/upd false def
/nullv v type /nulltype eq def
/nullcpdv cpdv type /nulltype eq def
nullv nullcpdv or
{
/upd true def
} {
/sametype v type cpdv type eq def
sametype {
v type /arraytype eq {
/vlen v length def
/cpdvlen cpdv length def
vlen cpdvlen eq {
0 1 vlen 1 sub {
/i exch def
/obj v i get def
/cpdobj cpdv i get def
obj cpdobj ne {
/upd true def
exit
} if
} for
} {
/upd true def
} ifelse
} {
v type /dicttype eq {
v {
/dv exch def
/dk exch def
/cpddv cpdv dk get def
dv cpddv ne {
/upd true def
exit
} if
} forall
} {
/upd true def
} ifelse
} ifelse
} if
} ifelse
upd true eq {
d k v put
} if
} if
} if
} forall
d length 0 gt {
d setpagedevice
} if
} bd
%%EndResource
%%BeginResource: procset (Apache XML Graphics EPS ProcSet) 1.0 0
%%Version: 1.0 0
%%Copyright: (Copyright 2002-2003 The Apache Software Foundation. License terms: http://www.apache.org/licenses/LICENSE-2.0)
/BeginEPSF { %def
/b4_Inc_state save def         % Save state for cleanup
/dict_count countdictstack def % Count objects on dict stack
/op_count count 1 sub def      % Count objects on operand stack
userdict begin                 % Push userdict on dict stack
/showpage { } def              % Redefine showpage, { } = null proc
0 setgray 0 setlinecap         % Prepare graphics state
1 setlinewidth 0 setlinejoin
10 setmiterlimit [ ] 0 setdash newpath
/languagelevel where           % If level not equal to 1 then
{pop languagelevel             % set strokeadjust and
1 ne                           % overprint to their defaults.
{false setstrokeadjust false setoverprint
} if
} if
} bd
/EndEPSF { %def
count op_count sub {pop} repeat            % Clean up stacks
countdictstack dict_count sub {end} repeat
b4_Inc_state restore
} bd
%%EndResource
%FOPBeginFontDict
%%IncludeResource: font Courier-Bold
%%IncludeResource: font Helvetica
%%IncludeResource: font Courier-BoldOblique
%%IncludeResource: font Courier-Oblique
%%IncludeResource: font Times-Roman
%%IncludeResource: font Helvetica-BoldOblique
%%IncludeResource: font Helvetica-Bold
%%IncludeResource: font Helvetica-Oblique
%%IncludeResource: font Times-BoldItalic
%%IncludeResource: font Courier
%%IncludeResource: font Times-Italic
%%IncludeResource: font Times-Bold
%%IncludeResource: font Symbol
%%IncludeResource: font ZapfDingbats
%FOPEndFontDict
%%BeginResource: encoding WinAnsiEncoding
/WinAnsiEncoding [
/.notdef /.notdef /.notdef /.notdef /.notdef
/.notdef /.notdef /.notdef /.notdef /.notdef
/.notdef /.notdef /.notdef /.notdef /.notdef
/.notdef /.notdef /.notdef /.notdef /.notdef
/.notdef /.notdef /.notdef /.notdef /.notdef
/.notdef /.notdef /.notdef /.notdef /.notdef
/.notdef /.notdef /space /exclam /quotedbl
/numbersign /dollar /percent /ampersand /quotesingle
/parenleft /parenright /asterisk /plus /comma
/hyphen /period /slash /zero /one
/two /three /four /five /six
/seven /eight /nine /colon /semicolon
/less /equal /greater /question /at
/A /B /C /D /E
/F /G /H /I /J
/K /L /M /N /O
/P /Q /R /S /T
/U /V /W /X /Y
/Z /bracketleft /backslash /bracketright /asciicircum
/underscore /quoteleft /a /b /c
/d /e /f /g /h
/i /j /k /l /m
/n /o /p /q /r
/s /t /u /v /w
/x /y /z /braceleft /bar
/braceright /asciitilde /bullet /Euro /bullet
/quotesinglbase /florin /quotedblbase /ellipsis /dagger
/daggerdbl /circumflex /perthousand /Scaron /guilsinglleft
/OE /bullet /Zcaron /bullet /bullet
/quoteleft /quoteright /quotedblleft /quotedblright /bullet
/endash /emdash /asciitilde /trademark /scaron
/guilsinglright /oe /bullet /zcaron /Ydieresis
/space /exclamdown /cent /sterling /currency
/yen /brokenbar /section /dieresis /copyright
/ordfeminine /guillemotleft /logicalnot /sfthyphen /registered
/macron /degree /plusminus /twosuperior /threesuperior
/acute /mu /paragraph /middot /cedilla
/onesuperior /ordmasculine /guillemotright /onequarter /onehalf
/threequarters /questiondown /Agrave /Aacute /Acircumflex
/Atilde /Adieresis /Aring /AE /Ccedilla
/Egrave /Eacute /Ecircumflex /Edieresis /Igrave
/Iacute /Icircumflex /Idieresis /Eth /Ntilde
/Ograve /Oacute /Ocircumflex /Otilde /Odieresis
/multiply /Oslash /Ugrave /Uacute /Ucircumflex
/Udieresis /Yacute /Thorn /germandbls /agrave
/aacute /acircumflex /atilde /adieresis /aring
/ae /ccedilla /egrave /eacute /ecircumflex
/edieresis /igrave /iacute /icircumflex /idieresis
/eth /ntilde /ograve /oacute /ocircumflex
/otilde /odieresis /divide /oslash /ugrave
/uacute /ucircumflex /udieresis /yacute /thorn
/ydieresis
] def
%%EndResource
%FOPBeginFontReencode
/Courier-Bold findfont
dup length dict begin
  {1 index /FID ne {def} {pop pop} ifelse} forall
  /Encoding WinAnsiEncoding def
  currentdict
end
/Courier-Bold exch definefont pop
/Helvetica findfont
dup length dict begin
  {1 index /FID ne {def} {pop pop} ifelse} forall
  /Encoding WinAnsiEncoding def
  currentdict
end
/Helvetica exch definefont pop
/Courier-BoldOblique findfont
dup length dict begin
  {1 index /FID ne {def} {pop pop} ifelse} forall
  /Encoding WinAnsiEncoding def
  currentdict
end
/Courier-BoldOblique exch definefont pop
/Courier-Oblique findfont
dup length dict begin
  {1 index /FID ne {def} {pop pop} ifelse} forall
  /Encoding WinAnsiEncoding def
  currentdict
end
/Courier-Oblique exch definefont pop
/Times-Roman findfont
dup length dict begin
  {1 index /FID ne {def} {pop pop} ifelse} forall
  /Encoding WinAnsiEncoding def
  currentdict
end
/Times-Roman exch definefont pop
/Helvetica-BoldOblique findfont
dup length dict begin
  {1 index /FID ne {def} {pop pop} ifelse} forall
  /Encoding WinAnsiEncoding def
  currentdict
end
/Helvetica-BoldOblique exch definefont pop
/Helvetica-Bold findfont
dup length dict begin
  {1 index /FID ne {def} {pop pop} ifelse} forall
  /Encoding WinAnsiEncoding def
  currentdict
end
/Helvetica-Bold exch definefont pop
/Helvetica-Oblique findfont
dup length dict begin
  {1 index /FID ne {def} {pop pop} ifelse} forall
  /Encoding WinAnsiEncoding def
  currentdict
end
/Helvetica-Oblique exch definefont pop
/Times-BoldItalic findfont
dup length dict begin
  {1 index /FID ne {def} {pop pop} ifelse} forall
  /Encoding WinAnsiEncoding def
  currentdict
end
/Times-BoldItalic exch definefont pop
/Courier findfont
dup length dict begin
  {1 index /FID ne {def} {pop pop} ifelse} forall
  /Encoding WinAnsiEncoding def
  currentdict
end
/Courier exch definefont pop
/Times-Italic findfont
dup length dict begin
  {1 index /FID ne {def} {pop pop} ifelse} forall
  /Encoding WinAnsiEncoding def
  currentdict
end
/Times-Italic exch definefont pop
/Times-Bold findfont
dup length dict begin
  {1 index /FID ne {def} {pop pop} ifelse} forall
  /Encoding WinAnsiEncoding def
  currentdict
end
/Times-Bold exch definefont pop
%FOPEndFontReencode
%%EndProlog
%%Page: 1 1
%%PageBoundingBox: 0 0 420 315
%%BeginPageSetup
[1 0 0 -1 0 315] CT
%%EndPageSetup
GS
[0.75 0 0 0.75 0 0] CT
1 GC
N
0 0 560 420 re
f
GR
GS
[0.75 0 0 0.75 0 0] CT
1 GC
N
0 0 560 420 re
f
GR
GS
[0.75 0 0 0.75 0 0] CT
1 GC
N
73 374 M
507 374 L
507 31 L
73 31 L
cp
f
GR
GS
[0.75 0 0 0.75 0 0] CT
0.149 GC
2 setlinecap
1 LJ
0.667 LW
N
73 374 M
507 374 L
S
GR
GS
[0.75 0 0 0.75 0 0] CT
0.149 GC
2 setlinecap
1 LJ
0.667 LW
N
73 31 M
507 31 L
S
GR
GS
[0.75 0 0 0.75 0 0] CT
0.149 GC
2 setlinecap
1 LJ
0.667 LW
N
73 374 M
73 369.66 L
S
GR
GS
[0.75 0 0 0.75 0 0] CT
0.149 GC
2 setlinecap
1 LJ
0.667 LW
N
145.333 374 M
145.333 369.66 L
S
GR
GS
[0.75 0 0 0.75 0 0] CT
0.149 GC
2 setlinecap
1 LJ
0.667 LW
N
217.667 374 M
217.667 369.66 L
S
GR
GS
[0.75 0 0 0.75 0 0] CT
0.149 GC
2 setlinecap
1 LJ
0.667 LW
N
290 374 M
290 369.66 L
S
GR
GS
[0.75 0 0 0.75 0 0] CT
0.149 GC
2 setlinecap
1 LJ
0.667 LW
N
362.333 374 M
362.333 369.66 L
S
GR
GS
[0.75 0 0 0.75 0 0] CT
0.149 GC
2 setlinecap
1 LJ
0.667 LW
N
434.667 374 M
434.667 369.66 L
S
GR
GS
[0.75 0 0 0.75 0 0] CT
0.149 GC
2 setlinecap
1 LJ
0.667 LW
N
507 374 M
507 369.66 L
S
GR
GS
[0.75 0 0 0.75 0 0] CT
0.149 GC
2 setlinecap
1 LJ
0.667 LW
N
73 31 M
73 35.34 L
S
GR
GS
[0.75 0 0 0.75 0 0] CT
0.149 GC
2 setlinecap
1 LJ
0.667 LW
N
145.333 31 M
145.333 35.34 L
S
GR
GS
[0.75 0 0 0.75 0 0] CT
0.149 GC
2 setlinecap
1 LJ
0.667 LW
N
217.667 31 M
217.667 35.34 L
S
GR
GS
[0.75 0 0 0.75 0 0] CT
0.149 GC
2 setlinecap
1 LJ
0.667 LW
N
290 31 M
290 35.34 L
S
GR
GS
[0.75 0 0 0.75 0 0] CT
0.149 GC
2 setlinecap
1 LJ
0.667 LW
N
362.333 31 M
362.333 35.34 L
S
GR
GS
[0.75 0 0 0.75 0 0] CT
0.149 GC
2 setlinecap
1 LJ
0.667 LW
N
434.667 31 M
434.667 35.34 L
S
GR
GS
[0.75 0 0 0.75 0 0] CT
0.149 GC
2 setlinecap
1 LJ
0.667 LW
N
507 31 M
507 35.34 L
S
GR
GS
[0.75 0 0 0.75 54.75 284.50001] CT
0.149 GC
/Helvetica 13 F
GS
[1 0 0 1 0 0] CT
-4 13 moveto 
1 -1 scale
(0) t 
GR
GR
GS
[0.75 0 0 0.75 109 284.50001] CT
0.149 GC
/Helvetica 13 F
GS
[1 0 0 1 0 0] CT
-11 13 moveto 
1 -1 scale
(200) t 
GR
GR
GS
[0.75 0 0 0.75 163.25 284.50001] CT
0.149 GC
/Helvetica 13 F
GS
[1 0 0 1 0 0] CT
-11 13 moveto 
1 -1 scale
(400) t 
GR
GR
GS
[0.75 0 0 0.75 217.5 284.50001] CT
0.149 GC
/Helvetica 13 F
GS
[1 0 0 1 0 0] CT
-11 13 moveto 
1 -1 scale
(600) t 
GR
GR
GS
[0.75 0 0 0.75 271.75001 284.50001] CT
0.149 GC
/Helvetica 13 F
GS
[1 0 0 1 0 0] CT
-11 13 moveto 
1 -1 scale
(800) t 
GR
GR
GS
[0.75 0 0 0.75 325.99999 284.50001] CT
0.149 GC
/Helvetica 13 F
GS
[1 0 0 1 0 0] CT
-14.5 13 moveto 
1 -1 scale
(1000) t 
GR
GR
GS
[0.75 0 0 0.75 380.25 284.50001] CT
0.149 GC
/Helvetica 13 F
GS
[1 0 0 1 0 0] CT
-14.5 13 moveto 
1 -1 scale
(1200) t 
GR
GR
GS
[0.75 0 0 0.75 217.50016 297.49999] CT
0.149 GC
/Helvetica 15 F
GS
[1 0 0 1 0 0] CT
-11 14 moveto 
1 -1 scale
(t\(s\)) t 
GR
GR
GS
[0.75 0 0 0.75 0 0] CT
0.149 GC
2 setlinecap
1 LJ
0.667 LW
N
73 374 M
73 31 L
S
GR
GS
[0.75 0 0 0.75 0 0] CT
0.149 GC
2 setlinecap
1 LJ
0.667 LW
N
507 374 M
507 31 L
S
GR
GS
[0.75 0 0 0.75 0 0] CT
0.149 GC
2 setlinecap
1 LJ
0.667 LW
N
73 374 M
77.34 374 L
S
GR
GS
[0.75 0 0 0.75 0 0] CT
0.149 GC
2 setlinecap
1 LJ
0.667 LW
N
73 316.833 M
77.34 316.833 L
S
GR
GS
[0.75 0 0 0.75 0 0] CT
0.149 GC
2 setlinecap
1 LJ
0.667 LW
N
73 259.667 M
77.34 259.667 L
S
GR
GS
[0.75 0 0 0.75 0 0] CT
0.149 GC
2 setlinecap
1 LJ
0.667 LW
N
73 202.5 M
77.34 202.5 L
S
GR
GS
[0.75 0 0 0.75 0 0] CT
0.149 GC
2 setlinecap
1 LJ
0.667 LW
N
73 145.333 M
77.34 145.333 L
S
GR
GS
[0.75 0 0 0.75 0 0] CT
0.149 GC
2 setlinecap
1 LJ
0.667 LW
N
73 88.167 M
77.34 88.167 L
S
GR
GS
[0.75 0 0 0.75 0 0] CT
0.149 GC
2 setlinecap
1 LJ
0.667 LW
N
73 31 M
77.34 31 L
S
GR
GS
[0.75 0 0 0.75 0 0] CT
0.149 GC
2 setlinecap
1 LJ
0.667 LW
N
507 374 M
502.66 374 L
S
GR
GS
[0.75 0 0 0.75 0 0] CT
0.149 GC
2 setlinecap
1 LJ
0.667 LW
N
507 316.833 M
502.66 316.833 L
S
GR
GS
[0.75 0 0 0.75 0 0] CT
0.149 GC
2 setlinecap
1 LJ
0.667 LW
N
507 259.667 M
502.66 259.667 L
S
GR
GS
[0.75 0 0 0.75 0 0] CT
0.149 GC
2 setlinecap
1 LJ
0.667 LW
N
507 202.5 M
502.66 202.5 L
S
GR
GS
[0.75 0 0 0.75 0 0] CT
0.149 GC
2 setlinecap
1 LJ
0.667 LW
N
507 145.333 M
502.66 145.333 L
S
GR
GS
[0.75 0 0 0.75 0 0] CT
0.149 GC
2 setlinecap
1 LJ
0.667 LW
N
507 88.167 M
502.66 88.167 L
S
GR
GS
[0.75 0 0 0.75 0 0] CT
0.149 GC
2 setlinecap
1 LJ
0.667 LW
N
507 31 M
502.66 31 L
S
GR
GS
[0.75 0 0 0.75 50.75 280.5] CT
0.149 GC
/Helvetica 13 F
GS
[1 0 0 1 0 0] CT
-12 5 moveto 
1 -1 scale
(-4) t 
GR
GR
GS
[0.75 0 0 0.75 50.75 237.62501] CT
0.149 GC
/Helvetica 13 F
GS
[1 0 0 1 0 0] CT
-12 5 moveto 
1 -1 scale
(-2) t 
GR
GR
GS
[0.75 0 0 0.75 50.75 194.74999] CT
0.149 GC
/Helvetica 13 F
GS
[1 0 0 1 0 0] CT
-8 5 moveto 
1 -1 scale
(0) t 
GR
GR
GS
[0.75 0 0 0.75 50.75 151.875] CT
0.149 GC
/Helvetica 13 F
GS
[1 0 0 1 0 0] CT
-8 5 moveto 
1 -1 scale
(2) t 
GR
GR
GS
[0.75 0 0 0.75 50.75 109] CT
0.149 GC
/Helvetica 13 F
GS
[1 0 0 1 0 0] CT
-8 5 moveto 
1 -1 scale
(4) t 
GR
GR
GS
[0.75 0 0 0.75 50.75 66.125] CT
0.149 GC
/Helvetica 13 F
GS
[1 0 0 1 0 0] CT
-8 5 moveto 
1 -1 scale
(6) t 
GR
GR
GS
[0.75 0 0 0.75 50.75 23.25] CT
0.149 GC
/Helvetica 13 F
GS
[1 0 0 1 0 0] CT
-8 5 moveto 
1 -1 scale
(8) t 
GR
GR
GS
[0.75 0 0 0.75 217.50021 21.18751] CT
/any-Bold 15 F
GS
[1 0 0 1 0 0] CT
-167.5 -4 moveto 
1 -1 scale
(Response of system 2 order regulator - control) t 
GR
GR
GS
[0.75 0 0 0.75 0 0] CT
0 0.447 0.741 RC
1 LJ
0.667 LW
N
73 259.667 M
73.362 259.667 L
73.362 259.667 L
73.362 259.667 L
73.409 227.673 L
73.452 207.211 L
73.509 187.525 L
73.578 172.488 L
73.669 160.745 L
73.791 152.905 L
73.928 148.621 L
74.09 145.761 L
74.285 143.248 L
74.531 140.451 L
74.858 136.978 L
75.382 132.153 L
75.944 128.063 L
76.311 125.891 L
76.678 124.113 L
77.167 122.248 L
77.769 120.616 L
78.164 119.824 L
78.56 119.243 L
79.058 118.759 L
79.633 118.484 L
80.032 118.401 L
80.431 118.415 L
80.924 118.543 L
81.489 118.814 L
81.895 119.041 L
82.3 119.312 L
82.792 119.689 L
83.346 120.168 L
83.851 120.632 L
84.261 120.99 L
84.643 121.336 L
85.088 121.759 L
85.626 122.285 L
86.172 122.835 L
86.625 123.266 L
87.006 123.61 L
87.409 123.987 L
87.905 124.456 L
88.467 124.993 L
88.872 125.348 L
89.276 125.705 L
89.767 126.139 L
90.323 126.634 L
90.829 127.077 L
91.239 127.395 L
S
GR
GS
[0.75 0 0 0.75 0 0] CT
0 0.447 0.741 RC
1 LJ
0.667 LW
N
90.829 127.077 M
91.239 127.395 L
91.62 127.691 L
92.064 128.042 L
92.602 128.467 L
93.15 128.904 L
93.603 129.233 L
93.983 129.487 L
94.385 129.765 L
94.88 130.109 L
95.444 130.505 L
95.848 130.757 L
96.253 131.011 L
96.744 131.321 L
97.3 131.675 L
97.806 131.991 L
98.216 132.209 L
98.597 132.412 L
99.041 132.657 L
99.579 132.955 L
100.127 133.266 L
100.58 133.493 L
100.96 133.662 L
101.362 133.853 L
101.858 134.092 L
102.421 134.371 L
102.825 134.541 L
103.23 134.714 L
103.721 134.929 L
104.277 135.178 L
104.783 135.401 L
105.193 135.545 L
105.574 135.681 L
106.018 135.849 L
106.556 136.057 L
107.104 136.279 L
107.557 136.434 L
107.937 136.544 L
108.339 136.673 L
108.834 136.838 L
109.398 137.036 L
109.802 137.149 L
110.207 137.266 L
110.698 137.414 L
111.254 137.591 L
111.76 137.749 L
112.17 137.842 L
112.551 137.932 L
112.995 138.047 L
113.533 138.193 L
114.081 138.352 L
114.534 138.458 L
S
GR
GS
[0.75 0 0 0.75 0 0] CT
0 0.447 0.741 RC
1 LJ
0.667 LW
N
114.081 138.352 M
114.534 138.458 L
114.914 138.527 L
115.316 138.614 L
115.811 138.728 L
116.375 138.869 L
116.779 138.943 L
117.184 139.022 L
117.675 139.125 L
118.231 139.251 L
118.737 139.365 L
119.147 139.423 L
119.528 139.481 L
119.972 139.56 L
120.51 139.662 L
121.058 139.779 L
121.511 139.85 L
121.891 139.891 L
122.293 139.949 L
122.788 140.029 L
123.352 140.131 L
123.756 140.178 L
124.161 140.23 L
124.652 140.302 L
125.208 140.394 L
125.714 140.477 L
126.124 140.511 L
126.505 140.547 L
126.949 140.6 L
127.487 140.673 L
128.035 140.761 L
128.488 140.809 L
128.868 140.83 L
129.27 140.869 L
129.765 140.924 L
130.329 141 L
130.733 141.028 L
131.138 141.062 L
131.629 141.112 L
132.185 141.18 L
132.691 141.242 L
133.101 141.259 L
133.482 141.28 L
133.926 141.317 L
134.464 141.369 L
135.012 141.437 L
135.465 141.468 L
135.845 141.477 L
136.247 141.501 L
136.742 141.54 L
137.306 141.597 L
137.71 141.613 L
S
GR
GS
[0.75 0 0 0.75 0 0] CT
0 0.447 0.741 RC
1 LJ
0.667 LW
N
137.306 141.597 M
137.71 141.613 L
138.115 141.634 L
138.606 141.669 L
139.162 141.721 L
139.668 141.769 L
140.078 141.774 L
140.459 141.785 L
140.903 141.809 L
141.441 141.848 L
141.989 141.902 L
142.442 141.922 L
142.822 141.921 L
143.224 141.936 L
143.719 141.964 L
144.283 142.009 L
144.687 142.015 L
145.092 142.028 L
145.583 142.053 L
146.139 142.093 L
146.645 142.131 L
147.055 142.129 L
147.436 142.132 L
147.88 142.149 L
148.418 142.178 L
148.966 142.222 L
149.419 142.234 L
149.799 142.227 L
150.201 142.236 L
150.696 142.255 L
151.26 142.292 L
151.664 142.292 L
152.069 142.299 L
152.56 142.317 L
153.116 142.349 L
153.622 142.381 L
154.032 142.373 L
154.413 142.371 L
154.857 142.382 L
155.395 142.404 L
155.943 142.442 L
156.396 142.449 L
156.776 142.438 L
157.178 142.442 L
157.673 142.456 L
158.237 142.486 L
158.641 142.482 L
159.046 142.485 L
159.537 142.498 L
160.093 142.525 L
160.599 142.552 L
161.009 142.541 L
S
GR
GS
[0.75 0 0 0.75 0 0] CT
0 0.447 0.741 RC
1 LJ
0.667 LW
N
160.599 142.552 M
161.009 142.541 L
161.39 142.535 L
161.834 142.543 L
162.372 142.56 L
162.92 142.594 L
163.373 142.597 L
163.753 142.583 L
164.155 142.584 L
164.65 142.594 L
165.214 142.62 L
165.618 142.614 L
166.023 142.614 L
166.514 142.623 L
167.07 142.647 L
167.576 142.67 L
167.986 142.656 L
168.367 142.649 L
168.811 142.653 L
169.349 142.668 L
169.897 142.698 L
170.35 142.699 L
170.73 142.682 L
171.132 142.681 L
171.627 142.689 L
172.191 142.713 L
172.595 142.704 L
173 142.702 L
173.491 142.709 L
174.047 142.73 L
174.553 142.752 L
174.963 142.736 L
175.344 142.727 L
175.788 142.729 L
176.326 142.742 L
176.874 142.77 L
177.327 142.769 L
177.707 142.751 L
178.109 142.748 L
178.604 142.755 L
179.168 142.776 L
179.572 142.766 L
179.977 142.763 L
180.468 142.769 L
181.024 142.788 L
181.5 142.81 L
181.5 142.81 L
181.5 142.81 L
181.524 142.868 L
181.549 143.046 L
181.584 143.501 L
181.624 144.27 L
S
GR
GS
[0.75 0 0 0.75 0 0] CT
0 0.447 0.741 RC
1 LJ
0.667 LW
N
181.584 143.501 M
181.624 144.27 L
181.677 145.606 L
181.75 147.975 L
181.843 151.648 L
181.947 156.22 L
182.066 161.802 L
182.204 168.411 L
182.372 176.129 L
182.587 185.221 L
182.852 194.824 L
183.131 203.047 L
183.462 210.628 L
183.864 217.305 L
184.368 222.89 L
184.906 226.571 L
185.511 228.918 L
185.963 229.858 L
186.414 230.315 L
186.904 230.41 L
187.398 230.194 L
187.855 229.787 L
188.279 229.275 L
188.711 228.651 L
189.186 227.876 L
189.689 226.983 L
190.168 226.085 L
190.6 225.248 L
191.019 224.425 L
191.472 223.527 L
191.972 222.538 L
192.472 221.555 L
192.923 220.681 L
193.338 219.892 L
193.767 219.089 L
194.25 218.209 L
194.763 217.299 L
195.242 216.477 L
195.665 215.772 L
196.076 215.106 L
196.532 214.39 L
197.043 213.616 L
197.549 212.88 L
197.994 212.255 L
198.398 211.707 L
198.825 211.147 L
199.317 210.526 L
199.841 209.892 L
200.318 209.338 L
200.73 208.877 L
201.135 208.441 L
201.595 207.962 L
S
GR
GS
[0.75 0 0 0.75 0 0] CT
0 0.447 0.741 RC
1 LJ
0.667 LW
N
201.135 208.441 M
201.595 207.962 L
202.118 207.44 L
202.629 206.953 L
203.066 206.553 L
203.461 206.205 L
203.886 205.842 L
204.388 205.432 L
204.922 205.014 L
205.397 204.659 L
205.799 204.37 L
206.197 204.093 L
206.662 203.782 L
207.197 203.44 L
207.712 203.125 L
208.141 202.874 L
208.526 202.656 L
208.951 202.424 L
209.462 202.157 L
210.005 201.886 L
210.477 201.66 L
210.87 201.48 L
211.263 201.306 L
211.732 201.105 L
212.278 200.882 L
212.796 200.681 L
213.218 200.523 L
213.596 200.387 L
214.02 200.239 L
214.538 200.066 L
215.089 199.891 L
215.559 199.748 L
215.944 199.635 L
216.333 199.525 L
216.805 199.396 L
217.359 199.252 L
217.88 199.123 L
218.297 199.023 L
218.669 198.938 L
219.093 198.844 L
219.617 198.732 L
220.173 198.62 L
220.641 198.529 L
221.021 198.458 L
221.406 198.388 L
221.881 198.306 L
222.44 198.213 L
222.854 198.147 L
223.269 198.084 L
223.756 198.012 L
224.292 197.937 L
224.783 197.871 L
S
GR
GS
[0.75 0 0 0.75 0 0] CT
0 0.447 0.741 RC
1 LJ
0.667 LW
N
224.292 197.937 M
224.783 197.871 L
225.195 197.818 L
225.586 197.769 L
226.035 197.715 L
226.562 197.655 L
227.09 197.597 L
227.535 197.55 L
227.922 197.511 L
228.333 197.471 L
228.828 197.425 L
229.374 197.376 L
229.865 197.334 L
230.268 197.301 L
230.653 197.27 L
231.104 197.236 L
231.641 197.196 L
232.174 197.159 L
232.614 197.13 L
232.993 197.105 L
233.401 197.08 L
233.902 197.05 L
234.457 197.018 L
234.948 196.992 L
235.344 196.971 L
235.723 196.952 L
236.176 196.93 L
236.721 196.904 L
237.258 196.88 L
237.694 196.862 L
238.067 196.847 L
238.474 196.831 L
238.979 196.811 L
239.54 196.791 L
239.932 196.777 L
240.323 196.764 L
240.811 196.748 L
241.375 196.731 L
241.778 196.719 L
242.181 196.708 L
242.67 196.694 L
243.221 196.68 L
243.721 196.667 L
244.128 196.658 L
244.507 196.649 L
244.949 196.639 L
245.484 196.627 L
246.026 196.616 L
246.474 196.608 L
246.851 196.601 L
247.252 196.593 L
247.745 196.585 L
S
GR
GS
[0.75 0 0 0.75 0 0] CT
0 0.447 0.741 RC
1 LJ
0.667 LW
N
247.252 196.593 M
247.745 196.585 L
248.304 196.575 L
248.704 196.569 L
249.105 196.563 L
249.592 196.556 L
250.145 196.548 L
250.648 196.541 L
251.055 196.536 L
251.432 196.531 L
251.872 196.526 L
252.407 196.52 L
252.951 196.514 L
253.401 196.509 L
253.778 196.505 L
253.833 196.505 L
253.833 53.588 L
253.833 53.588 L
254.03 54.285 L
254.227 55.579 L
254.511 57.671 L
254.874 60.378 L
255.383 64.094 L
256.016 68.489 L
256.377 70.813 L
256.738 73.06 L
257.236 76.014 L
257.85 79.461 L
258.239 81.499 L
258.627 83.474 L
259.127 85.935 L
259.712 88.712 L
260.107 90.493 L
260.502 92.239 L
260.997 94.385 L
261.569 96.812 L
261.971 98.452 L
262.373 100.069 L
262.866 102.025 L
263.427 104.216 L
263.935 106.163 L
264.342 107.663 L
264.719 109.042 L
265.163 110.652 L
265.704 112.593 L
266.255 114.549 L
266.707 116.104 L
267.085 117.365 L
267.484 118.701 L
267.981 120.343 L
268.547 122.2 L
268.95 123.474 L
S
GR
GS
[0.75 0 0 0.75 0 0] CT
0 0.447 0.741 RC
1 LJ
0.667 LW
N
268.547 122.2 M
268.95 123.474 L
269.353 124.737 L
269.845 126.265 L
270.404 127.981 L
270.911 129.514 L
271.32 130.695 L
271.699 131.781 L
272.142 133.046 L
272.682 134.567 L
273.231 136.103 L
273.684 137.321 L
274.06 138.298 L
274.455 139.326 L
274.944 140.586 L
275.505 142.017 L
275.908 143.004 L
276.311 143.982 L
276.799 145.153 L
277.35 146.455 L
277.85 147.615 L
278.257 148.52 L
278.637 149.354 L
279.079 150.318 L
279.613 151.465 L
280.155 152.611 L
280.603 153.528 L
280.981 154.279 L
281.382 155.069 L
281.874 156.029 L
282.432 157.098 L
282.934 158.036 L
283.335 158.758 L
283.709 159.424 L
284.152 160.203 L
284.692 161.138 L
285.238 162.065 L
285.684 162.796 L
286.057 163.392 L
286.455 164.024 L
286.951 164.797 L
287.515 165.659 L
287.912 166.247 L
288.309 166.827 L
288.798 167.527 L
289.356 168.312 L
289.76 168.863 L
290.164 169.405 L
290.652 170.047 L
291.2 170.754 L
291.699 171.384 L
292.108 171.882 L
S
GR
GS
[0.75 0 0 0.75 0 0] CT
0 0.447 0.741 RC
1 LJ
0.667 LW
N
291.699 171.384 M
292.108 171.882 L
292.489 172.34 L
292.931 172.863 L
293.464 173.48 L
294.004 174.093 L
294.452 174.586 L
294.832 174.994 L
295.234 175.419 L
295.726 175.931 L
296.282 176.496 L
296.783 176.992 L
297.185 177.378 L
297.56 177.734 L
298.004 178.146 L
298.543 178.637 L
299.088 179.121 L
299.533 179.506 L
299.907 179.82 L
300.306 180.152 L
300.802 180.556 L
301.365 181.003 L
301.762 181.31 L
302.16 181.612 L
302.648 181.975 L
303.205 182.38 L
303.711 182.738 L
304.116 183.016 L
304.49 183.268 L
304.928 183.559 L
305.465 183.908 L
306.013 184.255 L
306.464 184.532 L
306.838 184.757 L
307.233 184.99 L
307.725 185.274 L
308.287 185.592 L
308.688 185.812 L
309.089 186.028 L
309.578 186.286 L
310.131 186.571 L
310.633 186.823 L
311.039 187.021 L
311.416 187.201 L
311.857 187.408 L
312.392 187.654 L
312.937 187.897 L
313.386 188.093 L
313.763 188.253 L
314.161 188.419 L
314.653 188.62 L
315.213 188.843 L
S
GR
GS
[0.75 0 0 0.75 0 0] CT
0 0.447 0.741 RC
1 LJ
0.667 LW
N
314.653 188.62 M
315.213 188.843 L
315.614 188.999 L
316.015 189.151 L
316.503 189.332 L
317.056 189.533 L
317.559 189.71 L
317.965 189.85 L
318.342 189.977 L
318.783 190.123 L
319.317 190.295 L
319.862 190.466 L
320.311 190.604 L
320.688 190.716 L
321.086 190.833 L
321.578 190.974 L
322.138 191.131 L
322.54 191.24 L
322.941 191.347 L
323.428 191.474 L
323.981 191.615 L
324.483 191.739 L
324.89 191.837 L
325.268 191.926 L
325.708 192.028 L
326.243 192.149 L
326.787 192.268 L
327.236 192.365 L
327.613 192.444 L
328.012 192.525 L
328.504 192.624 L
329.063 192.733 L
329.465 192.81 L
329.866 192.885 L
330.354 192.974 L
330.906 193.072 L
331.408 193.158 L
331.815 193.227 L
332.193 193.289 L
332.633 193.36 L
333.168 193.445 L
333.711 193.528 L
334.161 193.595 L
334.538 193.65 L
334.937 193.707 L
335.429 193.776 L
335.988 193.852 L
336.39 193.906 L
336.791 193.958 L
337.279 194.02 L
337.831 194.088 L
338.333 194.149 L
S
GR
GS
[0.75 0 0 0.75 0 0] CT
0 0.447 0.741 RC
1 LJ
0.667 LW
N
337.831 194.088 M
338.333 194.149 L
338.74 194.196 L
339.118 194.24 L
339.559 194.289 L
340.093 194.348 L
340.636 194.406 L
341.086 194.453 L
341.463 194.491 L
341.862 194.531 L
342.354 194.579 L
342.913 194.632 L
343.315 194.669 L
343.716 194.705 L
344.204 194.748 L
344.756 194.796 L
345.258 194.838 L
345.665 194.871 L
346.043 194.901 L
346.484 194.936 L
347.018 194.976 L
347.561 195.017 L
348.011 195.049 L
348.388 195.076 L
348.787 195.103 L
349.279 195.137 L
349.838 195.173 L
350.24 195.199 L
350.641 195.224 L
351.129 195.254 L
351.681 195.287 L
352.183 195.316 L
352.59 195.339 L
352.968 195.36 L
353.409 195.384 L
353.943 195.412 L
354.486 195.44 L
354.936 195.463 L
355.313 195.481 L
355.712 195.501 L
356.204 195.524 L
356.763 195.549 L
357.165 195.567 L
357.566 195.584 L
358.054 195.605 L
358.606 195.628 L
359.108 195.648 L
359.515 195.664 L
359.893 195.679 L
360.334 195.695 L
360.868 195.715 L
361.411 195.734 L
S
GR
GS
[0.75 0 0 0.75 0 0] CT
0 0.447 0.741 RC
1 LJ
0.667 LW
N
360.868 195.715 M
361.411 195.734 L
361.861 195.75 L
362.238 195.763 L
362.333 195.766 L
362.333 195.766 L
362.333 195.766 L
362.487 195.787 L
362.64 195.86 L
362.856 196.019 L
363.122 196.202 L
363.502 196.288 L
364.019 196.011 L
364.473 195.47 L
364.927 194.748 L
365.407 193.868 L
365.891 192.922 L
366.349 192.006 L
366.784 191.138 L
367.225 190.273 L
367.695 189.376 L
368.184 188.481 L
368.657 187.656 L
369.098 186.925 L
369.529 186.248 L
369.985 185.573 L
370.472 184.897 L
370.96 184.269 L
371.413 183.727 L
371.841 183.253 L
372.28 182.803 L
372.757 182.354 L
373.254 181.929 L
373.726 181.564 L
374.159 181.261 L
374.585 180.993 L
375.043 180.734 L
375.539 180.487 L
376.031 180.276 L
376.479 180.111 L
376.899 179.978 L
377.336 179.862 L
377.82 179.758 L
378.326 179.675 L
378.797 179.62 L
379.221 179.588 L
379.64 179.572 L
380.103 179.571 L
380.61 179.589 L
381.105 179.623 L
381.547 179.668 L
381.957 179.721 L
S
GR
GS
[0.75 0 0 0.75 0 0] CT
0 0.447 0.741 RC
1 LJ
0.667 LW
N
381.547 179.668 M
381.957 179.721 L
382.394 179.788 L
382.887 179.876 L
383.402 179.981 L
383.87 180.088 L
384.284 180.19 L
384.698 180.299 L
385.165 180.43 L
385.684 180.584 L
386.183 180.741 L
386.616 180.882 L
387.017 181.017 L
387.453 181.169 L
387.957 181.35 L
388.481 181.542 L
388.945 181.717 L
389.349 181.872 L
389.757 182.031 L
390.231 182.218 L
390.762 182.431 L
391.264 182.634 L
391.687 182.807 L
392.079 182.968 L
392.516 183.148 L
393.031 183.362 L
393.563 183.584 L
394.023 183.775 L
394.416 183.94 L
394.82 184.108 L
395.3 184.308 L
395.843 184.534 L
396.346 184.743 L
396.761 184.914 L
397.145 185.072 L
397.583 185.251 L
398.108 185.465 L
398.647 185.682 L
399.103 185.865 L
399.487 186.018 L
399.887 186.176 L
400.373 186.366 L
400.925 186.58 L
401.429 186.774 L
401.838 186.928 L
402.215 187.07 L
402.653 187.234 L
403.186 187.43 L
403.732 187.627 L
404.183 187.789 L
404.561 187.923 L
404.958 188.062 L
S
GR
GS
[0.75 0 0 0.75 0 0] CT
0 0.447 0.741 RC
1 LJ
0.667 LW
N
404.561 187.923 M
404.958 188.062 L
405.448 188.231 L
406.007 188.422 L
406.41 188.557 L
406.813 188.691 L
407.301 188.85 L
407.851 189.027 L
408.352 189.185 L
408.759 189.312 L
409.139 189.429 L
409.58 189.563 L
410.114 189.722 L
410.656 189.88 L
411.105 190.009 L
411.483 190.116 L
411.883 190.228 L
412.376 190.363 L
412.934 190.514 L
413.435 190.646 L
413.837 190.75 L
414.211 190.846 L
414.654 190.958 L
415.193 191.091 L
415.74 191.223 L
416.186 191.329 L
416.559 191.416 L
416.957 191.507 L
417.452 191.619 L
418.016 191.744 L
418.414 191.83 L
418.811 191.914 L
419.3 192.016 L
419.857 192.13 L
420.362 192.232 L
420.767 192.311 L
421.141 192.383 L
421.579 192.466 L
422.116 192.566 L
422.665 192.666 L
423.115 192.745 L
423.489 192.811 L
423.885 192.879 L
424.376 192.961 L
424.939 193.054 L
425.34 193.118 L
425.741 193.181 L
426.229 193.257 L
426.782 193.341 L
427.285 193.415 L
427.691 193.474 L
428.068 193.527 L
S
GR
GS
[0.75 0 0 0.75 0 0] CT
0 0.447 0.741 RC
1 LJ
0.667 LW
N
427.691 193.474 M
428.068 193.527 L
428.508 193.589 L
429.044 193.662 L
429.588 193.734 L
430.038 193.793 L
430.414 193.841 L
430.812 193.891 L
431.304 193.951 L
431.865 194.018 L
432.266 194.065 L
432.667 194.111 L
433.154 194.166 L
433.707 194.227 L
434.21 194.281 L
434.616 194.323 L
434.994 194.362 L
435.434 194.407 L
435.969 194.459 L
436.513 194.512 L
436.963 194.554 L
437.34 194.588 L
437.738 194.624 L
438.23 194.668 L
438.79 194.716 L
439.191 194.75 L
439.592 194.783 L
440.08 194.822 L
440.632 194.866 L
441.135 194.904 L
441.541 194.935 L
441.919 194.963 L
442.36 194.995 L
442.894 195.032 L
443.438 195.07 L
443.888 195.1 L
444.265 195.124 L
444.663 195.15 L
445.155 195.181 L
445.715 195.215 L
446.116 195.239 L
446.518 195.263 L
447.005 195.291 L
447.557 195.322 L
448.06 195.349 L
448.466 195.371 L
448.844 195.391 L
449.285 195.413 L
449.819 195.44 L
450.363 195.466 L
450.813 195.487 L
451.19 195.505 L
S
GR
GS
[0.75 0 0 0.75 0 0] CT
0 0.447 0.741 RC
1 LJ
0.667 LW
N
450.813 195.487 M
451.19 195.505 L
451.589 195.523 L
452.08 195.545 L
452.64 195.569 L
453.041 195.586 L
453.443 195.603 L
453.93 195.623 L
454.482 195.644 L
454.985 195.664 L
455.391 195.679 L
455.769 195.693 L
456.21 195.709 L
456.744 195.728 L
457.288 195.746 L
457.738 195.761 L
458.115 195.774 L
458.514 195.786 L
459.005 195.802 L
459.565 195.819 L
459.966 195.831 L
460.368 195.842 L
460.855 195.856 L
461.407 195.871 L
461.91 195.885 L
462.316 195.896 L
462.694 195.906 L
463.135 195.917 L
463.669 195.93 L
464.213 195.943 L
464.663 195.953 L
465.04 195.962 L
465.439 195.971 L
465.93 195.982 L
466.49 195.994 L
466.891 196.002 L
467.293 196.01 L
467.78 196.02 L
468.332 196.031 L
468.835 196.04 L
469.241 196.047 L
469.619 196.054 L
470.06 196.062 L
470.594 196.071 L
471.138 196.08 L
471.588 196.088 L
471.965 196.094 L
472.364 196.1 L
472.855 196.107 L
473.415 196.116 L
473.816 196.122 L
474.218 196.127 L
S
GR
GS
[0.75 0 0 0.75 0 0] CT
0 0.447 0.741 RC
1 LJ
0.667 LW
N
473.816 196.122 M
474.218 196.127 L
474.705 196.134 L
475.257 196.142 L
475.76 196.148 L
476.166 196.153 L
476.544 196.158 L
476.985 196.164 L
477.519 196.17 L
478.063 196.176 L
478.512 196.181 L
478.89 196.186 L
479.289 196.19 L
479.78 196.195 L
480.34 196.201 L
480.741 196.205 L
481.143 196.209 L
481.63 196.214 L
482.182 196.219 L
482.685 196.223 L
483.091 196.227 L
483.469 196.23 L
483.91 196.234 L
484.444 196.239 L
484.988 196.243 L
485.437 196.247 L
485.815 196.249 L
486.214 196.253 L
486.705 196.256 L
487.265 196.26 L
487.666 196.263 L
488.068 196.266 L
488.555 196.269 L
489.107 196.273 L
489.609 196.276 L
490.016 196.278 L
490.394 196.281 L
490.835 196.283 L
491.369 196.286 L
491.913 196.289 L
492.362 196.292 L
492.74 196.294 L
493.139 196.296 L
493.63 196.298 L
494.19 196.301 L
494.591 196.303 L
494.993 196.305 L
495.48 196.307 L
496.032 196.31 L
496.534 196.312 L
496.941 196.314 L
497.319 196.315 L
S
GR
GS
[0.75 0 0 0.75 0 0] CT
0 0.447 0.741 RC
1 LJ
0.667 LW
N
496.941 196.314 M
497.319 196.315 L
497.76 196.317 L
498.294 196.319 L
498.838 196.322 L
499.287 196.323 L
499.665 196.325 L
500.064 196.326 L
500.555 196.328 L
501.115 196.33 L
501.516 196.331 L
501.918 196.332 L
502.405 196.334 L
502.957 196.336 L
503.46 196.337 L
503.866 196.338 L
504.244 196.34 L
504.685 196.341 L
505.219 196.342 L
505.763 196.344 L
506.212 196.345 L
506.59 196.346 L
507 196.347 L
S
GR
GS
[0.75 0 0 0.75 0 0] CT
0.851 0.325 0.098 RC
1 LJ
0.667 LW
N
73 259.667 M
73.362 259.667 L
73.362 259.667 L
73.362 259.667 L
73.409 259.954 L
73.452 260.587 L
73.509 261.837 L
73.578 263.678 L
73.669 266.463 L
73.791 270.32 L
73.928 274.59 L
74.09 279.381 L
74.285 284.723 L
74.531 290.775 L
74.858 297.87 L
75.382 307.254 L
75.944 315.181 L
76.311 319.379 L
76.678 322.941 L
77.167 326.863 L
77.769 330.602 L
78.164 332.537 L
78.56 334.13 L
79.058 335.73 L
79.633 337.115 L
80.032 337.841 L
80.431 338.408 L
80.924 338.927 L
81.489 339.321 L
81.895 339.496 L
82.3 339.598 L
82.792 339.642 L
83.346 339.607 L
83.851 339.513 L
84.261 339.402 L
84.643 339.276 L
85.088 339.108 L
85.626 338.882 L
86.172 338.632 L
86.625 338.413 L
87.006 338.221 L
87.409 338.016 L
87.905 337.76 L
88.467 337.467 L
88.872 337.255 L
89.276 337.045 L
89.767 336.791 L
90.323 336.507 L
90.829 336.252 L
91.239 336.047 L
S
GR
GS
[0.75 0 0 0.75 0 0] CT
0.851 0.325 0.098 RC
1 LJ
0.667 LW
N
90.829 336.252 M
91.239 336.047 L
91.62 335.859 L
92.064 335.645 L
92.602 335.39 L
93.15 335.138 L
93.603 334.932 L
93.983 334.762 L
94.385 334.586 L
94.88 334.375 L
95.444 334.141 L
95.848 333.976 L
96.253 333.814 L
96.744 333.623 L
97.3 333.413 L
97.806 333.227 L
98.216 333.078 L
98.597 332.943 L
99.041 332.789 L
99.579 332.608 L
100.127 332.431 L
100.58 332.286 L
100.96 332.166 L
101.362 332.043 L
101.858 331.895 L
102.421 331.733 L
102.825 331.618 L
103.23 331.506 L
103.721 331.373 L
104.277 331.228 L
104.783 331.1 L
105.193 330.997 L
105.574 330.903 L
106.018 330.797 L
106.556 330.672 L
107.104 330.55 L
107.557 330.45 L
107.937 330.367 L
108.339 330.282 L
108.834 330.181 L
109.398 330.069 L
109.802 329.99 L
110.207 329.912 L
110.698 329.821 L
111.254 329.721 L
111.76 329.633 L
112.17 329.562 L
112.551 329.497 L
112.995 329.424 L
113.533 329.339 L
114.081 329.255 L
114.534 329.186 L
S
GR
GS
[0.75 0 0 0.75 0 0] CT
0.851 0.325 0.098 RC
1 LJ
0.667 LW
N
114.081 329.255 M
114.534 329.186 L
114.914 329.129 L
115.316 329.07 L
115.811 329 L
116.375 328.924 L
116.779 328.869 L
117.184 328.816 L
117.675 328.753 L
118.231 328.684 L
118.737 328.624 L
119.147 328.575 L
119.528 328.53 L
119.972 328.48 L
120.51 328.421 L
121.058 328.364 L
121.511 328.316 L
121.891 328.276 L
122.293 328.236 L
122.788 328.188 L
123.352 328.136 L
123.756 328.098 L
124.161 328.061 L
124.652 328.018 L
125.208 327.971 L
125.714 327.93 L
126.124 327.895 L
126.505 327.864 L
126.949 327.83 L
127.487 327.789 L
128.035 327.75 L
128.488 327.718 L
128.868 327.69 L
129.27 327.662 L
129.765 327.629 L
130.329 327.593 L
130.733 327.567 L
131.138 327.541 L
131.629 327.512 L
132.185 327.48 L
132.691 327.452 L
133.101 327.428 L
133.482 327.406 L
133.926 327.382 L
134.464 327.355 L
135.012 327.328 L
135.465 327.306 L
135.845 327.286 L
136.247 327.267 L
136.742 327.244 L
137.306 327.22 L
137.71 327.202 L
S
GR
GS
[0.75 0 0 0.75 0 0] CT
0.851 0.325 0.098 RC
1 LJ
0.667 LW
N
137.306 327.22 M
137.71 327.202 L
138.115 327.184 L
138.606 327.164 L
139.162 327.142 L
139.668 327.123 L
140.078 327.106 L
140.459 327.091 L
140.903 327.075 L
141.441 327.056 L
141.989 327.038 L
142.442 327.022 L
142.822 327.009 L
143.224 326.995 L
143.719 326.98 L
144.283 326.963 L
144.687 326.95 L
145.092 326.938 L
145.583 326.924 L
146.139 326.909 L
146.645 326.897 L
147.055 326.885 L
147.436 326.874 L
147.88 326.863 L
148.418 326.85 L
148.966 326.838 L
149.419 326.827 L
149.799 326.817 L
150.201 326.808 L
150.696 326.797 L
151.26 326.786 L
151.664 326.777 L
152.069 326.769 L
152.56 326.759 L
153.116 326.749 L
153.622 326.741 L
154.032 326.732 L
154.413 326.725 L
154.857 326.717 L
155.395 326.708 L
155.943 326.701 L
156.396 326.693 L
156.776 326.686 L
157.178 326.679 L
157.673 326.672 L
158.237 326.665 L
158.641 326.658 L
159.046 326.652 L
159.537 326.646 L
160.093 326.639 L
160.599 326.634 L
161.009 326.628 L
S
GR
GS
[0.75 0 0 0.75 0 0] CT
0.851 0.325 0.098 RC
1 LJ
0.667 LW
N
160.599 326.634 M
161.009 326.628 L
161.39 326.622 L
161.834 326.617 L
162.372 326.611 L
162.92 326.606 L
163.373 326.601 L
163.753 326.595 L
164.155 326.591 L
164.65 326.586 L
165.214 326.581 L
165.618 326.576 L
166.023 326.572 L
166.514 326.568 L
167.07 326.564 L
167.576 326.56 L
167.986 326.555 L
168.367 326.551 L
168.811 326.548 L
169.349 326.544 L
169.897 326.541 L
170.35 326.537 L
170.73 326.533 L
171.132 326.53 L
171.627 326.526 L
172.191 326.524 L
172.595 326.52 L
173 326.517 L
173.491 326.514 L
174.047 326.511 L
174.553 326.509 L
174.963 326.506 L
175.344 326.503 L
175.788 326.5 L
176.326 326.498 L
176.874 326.496 L
177.327 326.493 L
177.707 326.49 L
178.109 326.488 L
178.604 326.486 L
179.168 326.484 L
179.572 326.481 L
179.977 326.479 L
180.468 326.477 L
181.024 326.476 L
181.5 326.475 L
181.5 326.475 L
181.5 326.475 L
181.524 321.615 L
181.549 316.911 L
181.584 310.333 L
181.624 303.19 L
S
GR
GS
[0.75 0 0 0.75 0 0] CT
0.851 0.325 0.098 RC
1 LJ
0.667 LW
N
181.584 310.333 M
181.624 303.19 L
181.677 294.453 L
181.75 283.217 L
181.843 270.213 L
181.947 257.507 L
182.066 244.738 L
182.204 231.909 L
182.372 218.881 L
182.587 205.284 L
182.852 192.277 L
183.131 181.874 L
183.462 172.676 L
183.864 164.774 L
184.368 158.277 L
184.906 154.121 L
185.511 151.703 L
185.963 150.968 L
186.414 150.893 L
186.904 151.374 L
187.398 152.307 L
187.855 153.468 L
188.279 154.738 L
188.711 156.178 L
189.186 157.883 L
189.689 159.787 L
190.168 161.657 L
190.6 163.372 L
191.019 165.042 L
191.472 166.846 L
191.972 168.818 L
192.472 170.764 L
192.923 172.488 L
193.338 174.038 L
193.767 175.609 L
194.25 177.327 L
194.763 179.098 L
195.242 180.695 L
195.665 182.063 L
196.076 183.354 L
196.532 184.74 L
197.043 186.235 L
197.549 187.658 L
197.994 188.862 L
198.398 189.92 L
198.825 191 L
199.317 192.197 L
199.841 193.418 L
200.318 194.484 L
200.73 195.372 L
201.135 196.212 L
201.595 197.134 L
S
GR
GS
[0.75 0 0 0.75 0 0] CT
0.851 0.325 0.098 RC
1 LJ
0.667 LW
N
201.135 196.212 M
201.595 197.134 L
202.118 198.137 L
202.629 199.075 L
203.066 199.845 L
203.461 200.514 L
203.886 201.212 L
204.388 202 L
204.922 202.803 L
205.397 203.486 L
205.799 204.042 L
206.197 204.574 L
206.662 205.171 L
207.197 205.83 L
207.712 206.435 L
208.141 206.919 L
208.526 207.337 L
208.951 207.783 L
209.462 208.296 L
210.005 208.818 L
210.477 209.251 L
210.87 209.599 L
211.263 209.934 L
211.732 210.319 L
212.278 210.748 L
212.796 211.136 L
213.218 211.44 L
213.596 211.701 L
214.02 211.985 L
214.538 212.318 L
215.089 212.655 L
215.559 212.93 L
215.944 213.147 L
216.333 213.359 L
216.805 213.606 L
217.359 213.884 L
217.88 214.132 L
218.297 214.323 L
218.669 214.488 L
219.093 214.669 L
219.617 214.883 L
220.173 215.1 L
220.641 215.275 L
221.021 215.411 L
221.406 215.545 L
221.881 215.704 L
222.44 215.882 L
222.854 216.009 L
223.269 216.131 L
223.756 216.269 L
224.292 216.414 L
224.783 216.541 L
S
GR
GS
[0.75 0 0 0.75 0 0] CT
0.851 0.325 0.098 RC
1 LJ
0.667 LW
N
224.292 216.414 M
224.783 216.541 L
225.195 216.643 L
225.586 216.737 L
226.035 216.841 L
226.562 216.957 L
227.09 217.068 L
227.535 217.158 L
227.922 217.234 L
228.333 217.311 L
228.828 217.4 L
229.374 217.495 L
229.865 217.575 L
230.268 217.639 L
230.653 217.698 L
231.104 217.765 L
231.641 217.84 L
232.174 217.912 L
232.614 217.969 L
232.993 218.016 L
233.401 218.065 L
233.902 218.122 L
234.457 218.183 L
234.948 218.235 L
235.344 218.275 L
235.723 218.312 L
236.176 218.354 L
236.721 218.403 L
237.258 218.449 L
237.694 218.485 L
238.067 218.515 L
238.474 218.546 L
238.979 218.583 L
239.54 218.622 L
239.932 218.648 L
240.323 218.674 L
240.811 218.704 L
241.375 218.738 L
241.778 218.761 L
242.181 218.783 L
242.67 218.809 L
243.221 218.837 L
243.721 218.861 L
244.128 218.88 L
244.507 218.897 L
244.949 218.916 L
245.484 218.938 L
246.026 218.959 L
246.474 218.976 L
246.851 218.99 L
247.252 219.004 L
247.745 219.02 L
S
GR
GS
[0.75 0 0 0.75 0 0] CT
0.851 0.325 0.098 RC
1 LJ
0.667 LW
N
247.252 219.004 M
247.745 219.02 L
248.304 219.038 L
248.704 219.051 L
249.105 219.063 L
249.592 219.076 L
250.145 219.092 L
250.648 219.105 L
251.055 219.115 L
251.432 219.124 L
251.872 219.134 L
252.407 219.146 L
252.951 219.158 L
253.401 219.167 L
253.778 219.174 L
253.833 219.175 L
253.833 219.175 L
253.833 219.175 L
254.03 219.169 L
254.227 219.128 L
254.511 219.034 L
254.874 218.93 L
255.383 218.93 L
256.016 219.253 L
256.377 219.591 L
256.738 220.028 L
257.236 220.764 L
257.85 221.832 L
258.239 222.568 L
258.627 223.336 L
259.127 224.353 L
259.712 225.555 L
260.107 226.357 L
260.502 227.147 L
260.997 228.114 L
261.569 229.186 L
261.971 229.904 L
262.373 230.593 L
262.866 231.394 L
263.427 232.246 L
263.935 232.962 L
264.342 233.495 L
264.719 233.96 L
265.163 234.47 L
265.704 235.04 L
266.255 235.563 L
266.707 235.95 L
267.085 236.243 L
267.484 236.528 L
267.981 236.846 L
268.547 237.161 L
268.95 237.355 L
S
GR
GS
[0.75 0 0 0.75 0 0] CT
0.851 0.325 0.098 RC
1 LJ
0.667 LW
N
268.547 237.161 M
268.95 237.355 L
269.353 237.526 L
269.845 237.705 L
270.404 237.871 L
270.911 237.989 L
271.32 238.061 L
271.699 238.112 L
272.142 238.153 L
272.682 238.178 L
273.231 238.177 L
273.684 238.156 L
274.06 238.125 L
274.455 238.083 L
274.944 238.015 L
275.505 237.918 L
275.908 237.836 L
276.311 237.745 L
276.799 237.623 L
277.35 237.473 L
277.85 237.324 L
278.257 237.194 L
278.637 237.068 L
279.079 236.915 L
279.613 236.721 L
280.155 236.517 L
280.603 236.341 L
280.981 236.189 L
281.382 236.025 L
281.874 235.818 L
282.432 235.58 L
282.934 235.361 L
283.335 235.183 L
283.709 235.016 L
284.152 234.816 L
284.692 234.57 L
285.238 234.32 L
285.684 234.114 L
286.057 233.941 L
286.455 233.755 L
286.951 233.525 L
287.515 233.262 L
287.912 233.077 L
288.309 232.892 L
288.798 232.665 L
289.356 232.407 L
289.76 232.22 L
290.164 232.035 L
290.652 231.812 L
291.2 231.563 L
291.699 231.338 L
292.108 231.155 L
S
GR
GS
[0.75 0 0 0.75 0 0] CT
0.851 0.325 0.098 RC
1 LJ
0.667 LW
N
291.699 231.338 M
292.108 231.155 L
292.489 230.986 L
292.931 230.791 L
293.464 230.558 L
294.004 230.325 L
294.452 230.133 L
294.832 229.972 L
295.234 229.803 L
295.726 229.599 L
296.282 229.371 L
296.783 229.168 L
297.185 229.007 L
297.56 228.859 L
298.004 228.685 L
298.543 228.477 L
299.088 228.271 L
299.533 228.104 L
299.907 227.966 L
300.306 227.821 L
300.802 227.642 L
301.365 227.444 L
301.762 227.305 L
302.16 227.169 L
302.648 227.004 L
303.205 226.819 L
303.711 226.654 L
304.116 226.524 L
304.49 226.406 L
304.928 226.269 L
305.465 226.105 L
306.013 225.94 L
306.464 225.807 L
306.838 225.699 L
307.233 225.586 L
307.725 225.448 L
308.287 225.293 L
308.688 225.185 L
309.089 225.078 L
309.578 224.95 L
310.131 224.809 L
310.633 224.683 L
311.039 224.583 L
311.416 224.492 L
311.857 224.387 L
312.392 224.263 L
312.937 224.139 L
313.386 224.038 L
313.763 223.956 L
314.161 223.87 L
314.653 223.766 L
315.213 223.65 L
S
GR
GS
[0.75 0 0 0.75 0 0] CT
0.851 0.325 0.098 RC
1 LJ
0.667 LW
N
314.653 223.766 M
315.213 223.65 L
315.614 223.569 L
316.015 223.489 L
316.503 223.394 L
317.056 223.288 L
317.559 223.194 L
317.965 223.12 L
318.342 223.052 L
318.783 222.975 L
319.317 222.883 L
319.862 222.791 L
320.311 222.717 L
320.688 222.656 L
321.086 222.593 L
321.578 222.516 L
322.138 222.431 L
322.54 222.371 L
322.941 222.313 L
323.428 222.243 L
323.981 222.166 L
324.483 222.098 L
324.89 222.044 L
325.268 221.994 L
325.708 221.938 L
326.243 221.871 L
326.787 221.804 L
327.236 221.75 L
327.613 221.706 L
328.012 221.66 L
328.504 221.605 L
329.063 221.544 L
329.465 221.501 L
329.866 221.458 L
330.354 221.408 L
330.906 221.353 L
331.408 221.303 L
331.815 221.264 L
332.193 221.229 L
332.633 221.188 L
333.168 221.14 L
333.711 221.093 L
334.161 221.054 L
334.538 221.022 L
334.937 220.99 L
335.429 220.95 L
335.988 220.906 L
336.39 220.875 L
336.791 220.845 L
337.279 220.809 L
337.831 220.77 L
338.333 220.735 L
S
GR
GS
[0.75 0 0 0.75 0 0] CT
0.851 0.325 0.098 RC
1 LJ
0.667 LW
N
337.831 220.77 M
338.333 220.735 L
338.74 220.707 L
339.118 220.682 L
339.559 220.653 L
340.093 220.619 L
340.636 220.585 L
341.086 220.558 L
341.463 220.535 L
341.862 220.512 L
342.354 220.484 L
342.913 220.453 L
343.315 220.431 L
343.716 220.41 L
344.204 220.384 L
344.756 220.356 L
345.258 220.331 L
345.665 220.312 L
346.043 220.294 L
346.484 220.274 L
347.018 220.25 L
347.561 220.226 L
348.011 220.206 L
348.388 220.191 L
348.787 220.174 L
349.279 220.154 L
349.838 220.132 L
350.24 220.117 L
350.641 220.102 L
351.129 220.084 L
351.681 220.065 L
352.183 220.047 L
352.59 220.033 L
352.968 220.021 L
353.409 220.007 L
353.943 219.99 L
354.486 219.973 L
354.936 219.959 L
355.313 219.948 L
355.712 219.937 L
356.204 219.923 L
356.763 219.908 L
357.165 219.897 L
357.566 219.886 L
358.054 219.874 L
358.606 219.86 L
359.108 219.848 L
359.515 219.838 L
359.893 219.829 L
360.334 219.819 L
360.868 219.807 L
361.411 219.796 L
S
GR
GS
[0.75 0 0 0.75 0 0] CT
0.851 0.325 0.098 RC
1 LJ
0.667 LW
N
360.868 219.807 M
361.411 219.796 L
361.861 219.786 L
362.238 219.779 L
362.333 219.777 L
362.333 76.86 L
362.333 76.86 L
362.487 77.036 L
362.64 77.522 L
362.856 78.614 L
363.122 80.443 L
363.502 83.651 L
364.019 88.67 L
364.473 93.387 L
364.927 98.216 L
365.407 103.345 L
365.891 108.45 L
366.349 113.196 L
366.784 117.603 L
367.225 121.957 L
367.695 126.462 L
368.184 130.99 L
368.657 135.207 L
369.098 138.997 L
369.529 142.576 L
369.985 146.217 L
370.472 149.955 L
370.96 153.535 L
371.413 156.728 L
371.841 159.619 L
372.28 162.468 L
372.757 165.429 L
373.254 168.376 L
373.726 171.05 L
374.159 173.397 L
374.585 175.606 L
375.043 177.885 L
375.539 180.238 L
376.031 182.457 L
376.479 184.386 L
376.899 186.113 L
377.336 187.838 L
377.82 189.659 L
378.326 191.466 L
378.797 193.066 L
379.221 194.443 L
379.64 195.745 L
380.103 197.116 L
380.61 198.545 L
381.105 199.869 L
381.547 200.991 L
381.957 201.988 L
S
GR
GS
[0.75 0 0 0.75 0 0] CT
0.851 0.325 0.098 RC
1 LJ
0.667 LW
N
381.547 200.991 M
381.957 201.988 L
382.394 203.001 L
382.887 204.091 L
383.402 205.167 L
383.87 206.095 L
384.284 206.877 L
384.698 207.624 L
385.165 208.428 L
385.684 209.272 L
386.183 210.039 L
386.616 210.671 L
387.017 211.229 L
387.453 211.808 L
387.957 212.442 L
388.481 213.063 L
388.945 213.583 L
389.349 214.012 L
389.757 214.426 L
390.231 214.883 L
390.762 215.364 L
391.264 215.792 L
391.687 216.133 L
392.079 216.433 L
392.516 216.752 L
393.031 217.105 L
393.563 217.447 L
394.023 217.724 L
394.416 217.949 L
394.82 218.168 L
395.3 218.413 L
395.843 218.673 L
396.346 218.897 L
396.761 219.071 L
397.145 219.223 L
397.583 219.386 L
398.108 219.57 L
398.647 219.744 L
399.103 219.881 L
399.487 219.989 L
399.887 220.095 L
400.373 220.216 L
400.925 220.342 L
401.429 220.447 L
401.838 220.527 L
402.215 220.595 L
402.653 220.669 L
403.186 220.752 L
403.732 220.828 L
404.183 220.886 L
404.561 220.93 L
404.958 220.973 L
S
GR
GS
[0.75 0 0 0.75 0 0] CT
0.851 0.325 0.098 RC
1 LJ
0.667 LW
N
404.561 220.93 M
404.958 220.973 L
405.448 221.021 L
406.007 221.07 L
406.41 221.101 L
406.813 221.129 L
407.301 221.16 L
407.851 221.189 L
408.352 221.212 L
408.759 221.228 L
409.139 221.241 L
409.58 221.253 L
410.114 221.265 L
410.656 221.273 L
411.105 221.278 L
411.483 221.281 L
411.883 221.282 L
412.376 221.281 L
412.934 221.277 L
413.435 221.272 L
413.837 221.267 L
414.211 221.261 L
414.654 221.253 L
415.193 221.241 L
415.74 221.228 L
416.186 221.216 L
416.559 221.205 L
416.957 221.193 L
417.452 221.177 L
418.016 221.157 L
418.414 221.143 L
418.811 221.128 L
419.3 221.109 L
419.857 221.087 L
420.362 221.066 L
420.767 221.049 L
421.141 221.033 L
421.579 221.014 L
422.116 220.99 L
422.665 220.966 L
423.115 220.945 L
423.489 220.928 L
423.885 220.91 L
424.376 220.887 L
424.939 220.861 L
425.34 220.842 L
425.741 220.824 L
426.229 220.801 L
426.782 220.775 L
427.285 220.751 L
427.691 220.732 L
428.068 220.715 L
S
GR
GS
[0.75 0 0 0.75 0 0] CT
0.851 0.325 0.098 RC
1 LJ
0.667 LW
N
427.691 220.732 M
428.068 220.715 L
428.508 220.694 L
429.044 220.669 L
429.588 220.644 L
430.038 220.624 L
430.414 220.607 L
430.812 220.589 L
431.304 220.566 L
431.865 220.542 L
432.266 220.524 L
432.667 220.506 L
433.154 220.485 L
433.707 220.462 L
434.21 220.44 L
434.616 220.423 L
434.994 220.408 L
435.434 220.389 L
435.969 220.368 L
436.513 220.346 L
436.963 220.328 L
437.34 220.314 L
437.738 220.298 L
438.23 220.28 L
438.79 220.259 L
439.191 220.244 L
439.592 220.229 L
440.08 220.212 L
440.632 220.192 L
441.135 220.175 L
441.541 220.161 L
441.919 220.148 L
442.36 220.134 L
442.894 220.116 L
443.438 220.099 L
443.888 220.085 L
444.265 220.073 L
444.663 220.061 L
445.155 220.046 L
445.715 220.03 L
446.116 220.018 L
446.518 220.007 L
447.005 219.993 L
447.557 219.978 L
448.06 219.964 L
448.466 219.954 L
448.844 219.944 L
449.285 219.933 L
449.819 219.919 L
450.363 219.906 L
450.813 219.895 L
451.19 219.886 L
S
GR
GS
[0.75 0 0 0.75 0 0] CT
0.851 0.325 0.098 RC
1 LJ
0.667 LW
N
450.813 219.895 M
451.19 219.886 L
451.589 219.877 L
452.08 219.866 L
452.64 219.854 L
453.041 219.845 L
453.443 219.836 L
453.93 219.826 L
454.482 219.815 L
454.985 219.804 L
455.391 219.796 L
455.769 219.789 L
456.21 219.781 L
456.744 219.771 L
457.288 219.761 L
457.738 219.753 L
458.115 219.746 L
458.514 219.739 L
459.005 219.731 L
459.565 219.722 L
459.966 219.716 L
460.368 219.709 L
460.855 219.702 L
461.407 219.693 L
461.91 219.686 L
462.316 219.68 L
462.694 219.675 L
463.135 219.669 L
463.669 219.661 L
464.213 219.654 L
464.663 219.648 L
465.04 219.644 L
465.439 219.639 L
465.93 219.633 L
466.49 219.626 L
466.891 219.621 L
467.293 219.617 L
467.78 219.611 L
468.332 219.605 L
468.835 219.6 L
469.241 219.596 L
469.619 219.592 L
470.06 219.587 L
470.594 219.582 L
471.138 219.577 L
471.588 219.573 L
471.965 219.569 L
472.364 219.566 L
472.855 219.561 L
473.415 219.557 L
473.816 219.553 L
474.218 219.55 L
S
GR
GS
[0.75 0 0 0.75 0 0] CT
0.851 0.325 0.098 RC
1 LJ
0.667 LW
N
473.816 219.553 M
474.218 219.55 L
474.705 219.546 L
475.257 219.542 L
475.76 219.538 L
476.166 219.535 L
476.544 219.532 L
476.985 219.529 L
477.519 219.525 L
478.063 219.522 L
478.512 219.519 L
478.89 219.516 L
479.289 219.514 L
479.78 219.511 L
480.34 219.507 L
480.741 219.505 L
481.143 219.503 L
481.63 219.5 L
482.182 219.497 L
482.685 219.494 L
483.091 219.492 L
483.469 219.49 L
483.91 219.488 L
484.444 219.485 L
484.988 219.483 L
485.437 219.48 L
485.815 219.479 L
486.214 219.477 L
486.705 219.475 L
487.265 219.472 L
487.666 219.471 L
488.068 219.469 L
488.555 219.467 L
489.107 219.465 L
489.609 219.463 L
490.016 219.462 L
490.394 219.46 L
490.835 219.459 L
491.369 219.457 L
491.913 219.455 L
492.362 219.454 L
492.74 219.452 L
493.139 219.451 L
493.63 219.45 L
494.19 219.448 L
494.591 219.447 L
494.993 219.446 L
495.48 219.444 L
496.032 219.443 L
496.534 219.441 L
496.941 219.44 L
497.319 219.439 L
S
GR
GS
[0.75 0 0 0.75 0 0] CT
0.851 0.325 0.098 RC
1 LJ
0.667 LW
N
496.941 219.44 M
497.319 219.439 L
497.76 219.438 L
498.294 219.437 L
498.838 219.436 L
499.287 219.435 L
499.665 219.434 L
500.064 219.433 L
500.555 219.432 L
501.115 219.431 L
501.516 219.43 L
501.918 219.429 L
502.405 219.428 L
502.957 219.427 L
503.46 219.426 L
503.866 219.425 L
504.244 219.425 L
504.685 219.424 L
505.219 219.423 L
505.763 219.422 L
506.212 219.421 L
506.59 219.421 L
507 219.42 L
S
GR
GS
[0.75 0 0 0.75 0 0] CT
1 GC
N
424 80 M
424 44 L
494 44 L
494 80 L
cp
f
GR
GS
[0.75 0 0 0.75 357 40.625] CT
/Helvetica 12 F
GS
[1 0 0 1 0 0] CT
0 4.5 moveto 
1 -1 scale
(u1) t 
GR
GR
GS
[0.75 0 0 0.75 0 0] CT
0 0.447 0.741 RC
1 LJ
0.667 LW
N
432 54.167 M
472 54.167 L
S
GR
GS
[0.75 0 0 0.75 357 52.375] CT
/Helvetica 12 F
GS
[1 0 0 1 0 0] CT
0 4.5 moveto 
1 -1 scale
(u2) t 
GR
GR
GS
[0.75 0 0 0.75 0 0] CT
0.851 0.325 0.098 RC
1 LJ
0.667 LW
N
432 69.833 M
472 69.833 L
S
GR
GS
[0.75 0 0 0.75 0 0] CT
0.149 GC
10.0 ML
0.667 LW
N
424 80 M
424 44 L
494 44 L
494 80 L
cp
S
GR
%%Trailer
%%Pages: 1
%%EOF
