%!PS-Adobe-3.0 EPSF-3.0
%%Creator: (MATLAB, The Mathworks, Inc. Version 8.6.0.267246 \(R2015b\). Operating System: Windows 8)
%%Title: E:/Projects/skola/rls/pics/SP3/par_2o_e_y.eps
%%CreationDate: 2017-03-17T12:43:58
%%Pages: (atend)
%%BoundingBox: 0 0 420 315
%%LanguageLevel: 2
%%EndComments
%%BeginProlog
%%BeginResource: procset (Apache XML Graphics Std ProcSet) 1.2 0
%%Version: 1.2 0
%%Copyright: (Copyright 2001-2003,2010 The Apache Software Foundation. License terms: http://www.apache.org/licenses/LICENSE-2.0)
/bd{bind def}bind def
/ld{load def}bd
/GR/grestore ld
/M/moveto ld
/LJ/setlinejoin ld
/C/curveto ld
/f/fill ld
/LW/setlinewidth ld
/GC/setgray ld
/t/show ld
/N/newpath ld
/CT/concat ld
/cp/closepath ld
/S/stroke ld
/L/lineto ld
/CC/setcmykcolor ld
/A/ashow ld
/GS/gsave ld
/RC/setrgbcolor ld
/RM/rmoveto ld
/ML/setmiterlimit ld
/re {4 2 roll M
1 index 0 rlineto
0 exch rlineto
neg 0 rlineto
cp } bd
/_ctm matrix def
/_tm matrix def
/BT { _ctm currentmatrix pop matrix _tm copy pop 0 0 moveto } bd
/ET { _ctm setmatrix } bd
/iTm { _ctm setmatrix _tm concat } bd
/Tm { _tm astore pop iTm 0 0 moveto } bd
/ux 0.0 def
/uy 0.0 def
/F {
  /Tp exch def
  /Tf exch def
  Tf findfont Tp scalefont setfont
  /cf Tf def  /cs Tp def
} bd
/ULS {currentpoint /uy exch def /ux exch def} bd
/ULE {
  /Tcx currentpoint pop def
  gsave
  newpath
  cf findfont cs scalefont dup
  /FontMatrix get 0 get /Ts exch def /FontInfo get dup
  /UnderlinePosition get Ts mul /To exch def
  /UnderlineThickness get Ts mul /Tt exch def
  ux uy To add moveto  Tcx uy To add lineto
  Tt setlinewidth stroke
  grestore
} bd
/OLE {
  /Tcx currentpoint pop def
  gsave
  newpath
  cf findfont cs scalefont dup
  /FontMatrix get 0 get /Ts exch def /FontInfo get dup
  /UnderlinePosition get Ts mul /To exch def
  /UnderlineThickness get Ts mul /Tt exch def
  ux uy To add cs add moveto Tcx uy To add cs add lineto
  Tt setlinewidth stroke
  grestore
} bd
/SOE {
  /Tcx currentpoint pop def
  gsave
  newpath
  cf findfont cs scalefont dup
  /FontMatrix get 0 get /Ts exch def /FontInfo get dup
  /UnderlinePosition get Ts mul /To exch def
  /UnderlineThickness get Ts mul /Tt exch def
  ux uy To add cs 10 mul 26 idiv add moveto Tcx uy To add cs 10 mul 26 idiv add lineto
  Tt setlinewidth stroke
  grestore
} bd
/QT {
/Y22 exch store
/X22 exch store
/Y21 exch store
/X21 exch store
currentpoint
/Y21 load 2 mul add 3 div exch
/X21 load 2 mul add 3 div exch
/X21 load 2 mul /X22 load add 3 div
/Y21 load 2 mul /Y22 load add 3 div
/X22 load /Y22 load curveto
} bd
/SSPD {
dup length /d exch dict def
{
/v exch def
/k exch def
currentpagedevice k known {
/cpdv currentpagedevice k get def
v cpdv ne {
/upd false def
/nullv v type /nulltype eq def
/nullcpdv cpdv type /nulltype eq def
nullv nullcpdv or
{
/upd true def
} {
/sametype v type cpdv type eq def
sametype {
v type /arraytype eq {
/vlen v length def
/cpdvlen cpdv length def
vlen cpdvlen eq {
0 1 vlen 1 sub {
/i exch def
/obj v i get def
/cpdobj cpdv i get def
obj cpdobj ne {
/upd true def
exit
} if
} for
} {
/upd true def
} ifelse
} {
v type /dicttype eq {
v {
/dv exch def
/dk exch def
/cpddv cpdv dk get def
dv cpddv ne {
/upd true def
exit
} if
} forall
} {
/upd true def
} ifelse
} ifelse
} if
} ifelse
upd true eq {
d k v put
} if
} if
} if
} forall
d length 0 gt {
d setpagedevice
} if
} bd
%%EndResource
%%BeginResource: procset (Apache XML Graphics EPS ProcSet) 1.0 0
%%Version: 1.0 0
%%Copyright: (Copyright 2002-2003 The Apache Software Foundation. License terms: http://www.apache.org/licenses/LICENSE-2.0)
/BeginEPSF { %def
/b4_Inc_state save def         % Save state for cleanup
/dict_count countdictstack def % Count objects on dict stack
/op_count count 1 sub def      % Count objects on operand stack
userdict begin                 % Push userdict on dict stack
/showpage { } def              % Redefine showpage, { } = null proc
0 setgray 0 setlinecap         % Prepare graphics state
1 setlinewidth 0 setlinejoin
10 setmiterlimit [ ] 0 setdash newpath
/languagelevel where           % If level not equal to 1 then
{pop languagelevel             % set strokeadjust and
1 ne                           % overprint to their defaults.
{false setstrokeadjust false setoverprint
} if
} if
} bd
/EndEPSF { %def
count op_count sub {pop} repeat            % Clean up stacks
countdictstack dict_count sub {end} repeat
b4_Inc_state restore
} bd
%%EndResource
%FOPBeginFontDict
%%IncludeResource: font Courier-Bold
%%IncludeResource: font Helvetica
%%IncludeResource: font Courier-BoldOblique
%%IncludeResource: font Courier-Oblique
%%IncludeResource: font Times-Roman
%%IncludeResource: font Helvetica-BoldOblique
%%IncludeResource: font Helvetica-Bold
%%IncludeResource: font Helvetica-Oblique
%%IncludeResource: font Times-BoldItalic
%%IncludeResource: font Courier
%%IncludeResource: font Times-Italic
%%IncludeResource: font Times-Bold
%%IncludeResource: font Symbol
%%IncludeResource: font ZapfDingbats
%FOPEndFontDict
%%BeginResource: encoding WinAnsiEncoding
/WinAnsiEncoding [
/.notdef /.notdef /.notdef /.notdef /.notdef
/.notdef /.notdef /.notdef /.notdef /.notdef
/.notdef /.notdef /.notdef /.notdef /.notdef
/.notdef /.notdef /.notdef /.notdef /.notdef
/.notdef /.notdef /.notdef /.notdef /.notdef
/.notdef /.notdef /.notdef /.notdef /.notdef
/.notdef /.notdef /space /exclam /quotedbl
/numbersign /dollar /percent /ampersand /quotesingle
/parenleft /parenright /asterisk /plus /comma
/hyphen /period /slash /zero /one
/two /three /four /five /six
/seven /eight /nine /colon /semicolon
/less /equal /greater /question /at
/A /B /C /D /E
/F /G /H /I /J
/K /L /M /N /O
/P /Q /R /S /T
/U /V /W /X /Y
/Z /bracketleft /backslash /bracketright /asciicircum
/underscore /quoteleft /a /b /c
/d /e /f /g /h
/i /j /k /l /m
/n /o /p /q /r
/s /t /u /v /w
/x /y /z /braceleft /bar
/braceright /asciitilde /bullet /Euro /bullet
/quotesinglbase /florin /quotedblbase /ellipsis /dagger
/daggerdbl /circumflex /perthousand /Scaron /guilsinglleft
/OE /bullet /Zcaron /bullet /bullet
/quoteleft /quoteright /quotedblleft /quotedblright /bullet
/endash /emdash /asciitilde /trademark /scaron
/guilsinglright /oe /bullet /zcaron /Ydieresis
/space /exclamdown /cent /sterling /currency
/yen /brokenbar /section /dieresis /copyright
/ordfeminine /guillemotleft /logicalnot /sfthyphen /registered
/macron /degree /plusminus /twosuperior /threesuperior
/acute /mu /paragraph /middot /cedilla
/onesuperior /ordmasculine /guillemotright /onequarter /onehalf
/threequarters /questiondown /Agrave /Aacute /Acircumflex
/Atilde /Adieresis /Aring /AE /Ccedilla
/Egrave /Eacute /Ecircumflex /Edieresis /Igrave
/Iacute /Icircumflex /Idieresis /Eth /Ntilde
/Ograve /Oacute /Ocircumflex /Otilde /Odieresis
/multiply /Oslash /Ugrave /Uacute /Ucircumflex
/Udieresis /Yacute /Thorn /germandbls /agrave
/aacute /acircumflex /atilde /adieresis /aring
/ae /ccedilla /egrave /eacute /ecircumflex
/edieresis /igrave /iacute /icircumflex /idieresis
/eth /ntilde /ograve /oacute /ocircumflex
/otilde /odieresis /divide /oslash /ugrave
/uacute /ucircumflex /udieresis /yacute /thorn
/ydieresis
] def
%%EndResource
%FOPBeginFontReencode
/Courier-Bold findfont
dup length dict begin
  {1 index /FID ne {def} {pop pop} ifelse} forall
  /Encoding WinAnsiEncoding def
  currentdict
end
/Courier-Bold exch definefont pop
/Helvetica findfont
dup length dict begin
  {1 index /FID ne {def} {pop pop} ifelse} forall
  /Encoding WinAnsiEncoding def
  currentdict
end
/Helvetica exch definefont pop
/Courier-BoldOblique findfont
dup length dict begin
  {1 index /FID ne {def} {pop pop} ifelse} forall
  /Encoding WinAnsiEncoding def
  currentdict
end
/Courier-BoldOblique exch definefont pop
/Courier-Oblique findfont
dup length dict begin
  {1 index /FID ne {def} {pop pop} ifelse} forall
  /Encoding WinAnsiEncoding def
  currentdict
end
/Courier-Oblique exch definefont pop
/Times-Roman findfont
dup length dict begin
  {1 index /FID ne {def} {pop pop} ifelse} forall
  /Encoding WinAnsiEncoding def
  currentdict
end
/Times-Roman exch definefont pop
/Helvetica-BoldOblique findfont
dup length dict begin
  {1 index /FID ne {def} {pop pop} ifelse} forall
  /Encoding WinAnsiEncoding def
  currentdict
end
/Helvetica-BoldOblique exch definefont pop
/Helvetica-Bold findfont
dup length dict begin
  {1 index /FID ne {def} {pop pop} ifelse} forall
  /Encoding WinAnsiEncoding def
  currentdict
end
/Helvetica-Bold exch definefont pop
/Helvetica-Oblique findfont
dup length dict begin
  {1 index /FID ne {def} {pop pop} ifelse} forall
  /Encoding WinAnsiEncoding def
  currentdict
end
/Helvetica-Oblique exch definefont pop
/Times-BoldItalic findfont
dup length dict begin
  {1 index /FID ne {def} {pop pop} ifelse} forall
  /Encoding WinAnsiEncoding def
  currentdict
end
/Times-BoldItalic exch definefont pop
/Courier findfont
dup length dict begin
  {1 index /FID ne {def} {pop pop} ifelse} forall
  /Encoding WinAnsiEncoding def
  currentdict
end
/Courier exch definefont pop
/Times-Italic findfont
dup length dict begin
  {1 index /FID ne {def} {pop pop} ifelse} forall
  /Encoding WinAnsiEncoding def
  currentdict
end
/Times-Italic exch definefont pop
/Times-Bold findfont
dup length dict begin
  {1 index /FID ne {def} {pop pop} ifelse} forall
  /Encoding WinAnsiEncoding def
  currentdict
end
/Times-Bold exch definefont pop
%FOPEndFontReencode
%%EndProlog
%%Page: 1 1
%%PageBoundingBox: 0 0 420 315
%%BeginPageSetup
[1 0 0 -1 0 315] CT
%%EndPageSetup
GS
[0.75 0 0 0.75 0 0] CT
1 GC
N
0 0 560 420 re
f
GR
GS
[0.75 0 0 0.75 0 0] CT
1 GC
N
0 0 560 420 re
f
GR
GS
[0.75 0 0 0.75 0 0] CT
1 GC
N
73 374 M
507 374 L
507 31 L
73 31 L
cp
f
GR
GS
[0.75 0 0 0.75 0 0] CT
0.149 GC
2 setlinecap
1 LJ
0.667 LW
N
73 374 M
507 374 L
S
GR
GS
[0.75 0 0 0.75 0 0] CT
0.149 GC
2 setlinecap
1 LJ
0.667 LW
N
73 31 M
507 31 L
S
GR
GS
[0.75 0 0 0.75 0 0] CT
0.149 GC
2 setlinecap
1 LJ
0.667 LW
N
73 374 M
73 369.66 L
S
GR
GS
[0.75 0 0 0.75 0 0] CT
0.149 GC
2 setlinecap
1 LJ
0.667 LW
N
145.333 374 M
145.333 369.66 L
S
GR
GS
[0.75 0 0 0.75 0 0] CT
0.149 GC
2 setlinecap
1 LJ
0.667 LW
N
217.667 374 M
217.667 369.66 L
S
GR
GS
[0.75 0 0 0.75 0 0] CT
0.149 GC
2 setlinecap
1 LJ
0.667 LW
N
290 374 M
290 369.66 L
S
GR
GS
[0.75 0 0 0.75 0 0] CT
0.149 GC
2 setlinecap
1 LJ
0.667 LW
N
362.333 374 M
362.333 369.66 L
S
GR
GS
[0.75 0 0 0.75 0 0] CT
0.149 GC
2 setlinecap
1 LJ
0.667 LW
N
434.667 374 M
434.667 369.66 L
S
GR
GS
[0.75 0 0 0.75 0 0] CT
0.149 GC
2 setlinecap
1 LJ
0.667 LW
N
507 374 M
507 369.66 L
S
GR
GS
[0.75 0 0 0.75 0 0] CT
0.149 GC
2 setlinecap
1 LJ
0.667 LW
N
73 31 M
73 35.34 L
S
GR
GS
[0.75 0 0 0.75 0 0] CT
0.149 GC
2 setlinecap
1 LJ
0.667 LW
N
145.333 31 M
145.333 35.34 L
S
GR
GS
[0.75 0 0 0.75 0 0] CT
0.149 GC
2 setlinecap
1 LJ
0.667 LW
N
217.667 31 M
217.667 35.34 L
S
GR
GS
[0.75 0 0 0.75 0 0] CT
0.149 GC
2 setlinecap
1 LJ
0.667 LW
N
290 31 M
290 35.34 L
S
GR
GS
[0.75 0 0 0.75 0 0] CT
0.149 GC
2 setlinecap
1 LJ
0.667 LW
N
362.333 31 M
362.333 35.34 L
S
GR
GS
[0.75 0 0 0.75 0 0] CT
0.149 GC
2 setlinecap
1 LJ
0.667 LW
N
434.667 31 M
434.667 35.34 L
S
GR
GS
[0.75 0 0 0.75 0 0] CT
0.149 GC
2 setlinecap
1 LJ
0.667 LW
N
507 31 M
507 35.34 L
S
GR
GS
[0.75 0 0 0.75 54.75 284.50001] CT
0.149 GC
/Helvetica 13 F
GS
[1 0 0 1 0 0] CT
-4 13 moveto 
1 -1 scale
(0) t 
GR
GR
GS
[0.75 0 0 0.75 109 284.50001] CT
0.149 GC
/Helvetica 13 F
GS
[1 0 0 1 0 0] CT
-11 13 moveto 
1 -1 scale
(200) t 
GR
GR
GS
[0.75 0 0 0.75 163.25 284.50001] CT
0.149 GC
/Helvetica 13 F
GS
[1 0 0 1 0 0] CT
-11 13 moveto 
1 -1 scale
(400) t 
GR
GR
GS
[0.75 0 0 0.75 217.5 284.50001] CT
0.149 GC
/Helvetica 13 F
GS
[1 0 0 1 0 0] CT
-11 13 moveto 
1 -1 scale
(600) t 
GR
GR
GS
[0.75 0 0 0.75 271.75001 284.50001] CT
0.149 GC
/Helvetica 13 F
GS
[1 0 0 1 0 0] CT
-11 13 moveto 
1 -1 scale
(800) t 
GR
GR
GS
[0.75 0 0 0.75 325.99999 284.50001] CT
0.149 GC
/Helvetica 13 F
GS
[1 0 0 1 0 0] CT
-14.5 13 moveto 
1 -1 scale
(1000) t 
GR
GR
GS
[0.75 0 0 0.75 380.25 284.50001] CT
0.149 GC
/Helvetica 13 F
GS
[1 0 0 1 0 0] CT
-14.5 13 moveto 
1 -1 scale
(1200) t 
GR
GR
GS
[0.75 0 0 0.75 217.50016 297.49999] CT
0.149 GC
/Helvetica 15 F
GS
[1 0 0 1 0 0] CT
-11 14 moveto 
1 -1 scale
(t\(s\)) t 
GR
GR
GS
[0.75 0 0 0.75 0 0] CT
0.149 GC
2 setlinecap
1 LJ
0.667 LW
N
73 374 M
73 31 L
S
GR
GS
[0.75 0 0 0.75 0 0] CT
0.149 GC
2 setlinecap
1 LJ
0.667 LW
N
507 374 M
507 31 L
S
GR
GS
[0.75 0 0 0.75 0 0] CT
0.149 GC
2 setlinecap
1 LJ
0.667 LW
N
73 374 M
77.34 374 L
S
GR
GS
[0.75 0 0 0.75 0 0] CT
0.149 GC
2 setlinecap
1 LJ
0.667 LW
N
73 335.889 M
77.34 335.889 L
S
GR
GS
[0.75 0 0 0.75 0 0] CT
0.149 GC
2 setlinecap
1 LJ
0.667 LW
N
73 297.778 M
77.34 297.778 L
S
GR
GS
[0.75 0 0 0.75 0 0] CT
0.149 GC
2 setlinecap
1 LJ
0.667 LW
N
73 259.667 M
77.34 259.667 L
S
GR
GS
[0.75 0 0 0.75 0 0] CT
0.149 GC
2 setlinecap
1 LJ
0.667 LW
N
73 221.556 M
77.34 221.556 L
S
GR
GS
[0.75 0 0 0.75 0 0] CT
0.149 GC
2 setlinecap
1 LJ
0.667 LW
N
73 183.444 M
77.34 183.444 L
S
GR
GS
[0.75 0 0 0.75 0 0] CT
0.149 GC
2 setlinecap
1 LJ
0.667 LW
N
73 145.333 M
77.34 145.333 L
S
GR
GS
[0.75 0 0 0.75 0 0] CT
0.149 GC
2 setlinecap
1 LJ
0.667 LW
N
73 107.222 M
77.34 107.222 L
S
GR
GS
[0.75 0 0 0.75 0 0] CT
0.149 GC
2 setlinecap
1 LJ
0.667 LW
N
73 69.111 M
77.34 69.111 L
S
GR
GS
[0.75 0 0 0.75 0 0] CT
0.149 GC
2 setlinecap
1 LJ
0.667 LW
N
73 31 M
77.34 31 L
S
GR
GS
[0.75 0 0 0.75 0 0] CT
0.149 GC
2 setlinecap
1 LJ
0.667 LW
N
507 374 M
502.66 374 L
S
GR
GS
[0.75 0 0 0.75 0 0] CT
0.149 GC
2 setlinecap
1 LJ
0.667 LW
N
507 335.889 M
502.66 335.889 L
S
GR
GS
[0.75 0 0 0.75 0 0] CT
0.149 GC
2 setlinecap
1 LJ
0.667 LW
N
507 297.778 M
502.66 297.778 L
S
GR
GS
[0.75 0 0 0.75 0 0] CT
0.149 GC
2 setlinecap
1 LJ
0.667 LW
N
507 259.667 M
502.66 259.667 L
S
GR
GS
[0.75 0 0 0.75 0 0] CT
0.149 GC
2 setlinecap
1 LJ
0.667 LW
N
507 221.556 M
502.66 221.556 L
S
GR
GS
[0.75 0 0 0.75 0 0] CT
0.149 GC
2 setlinecap
1 LJ
0.667 LW
N
507 183.444 M
502.66 183.444 L
S
GR
GS
[0.75 0 0 0.75 0 0] CT
0.149 GC
2 setlinecap
1 LJ
0.667 LW
N
507 145.333 M
502.66 145.333 L
S
GR
GS
[0.75 0 0 0.75 0 0] CT
0.149 GC
2 setlinecap
1 LJ
0.667 LW
N
507 107.222 M
502.66 107.222 L
S
GR
GS
[0.75 0 0 0.75 0 0] CT
0.149 GC
2 setlinecap
1 LJ
0.667 LW
N
507 69.111 M
502.66 69.111 L
S
GR
GS
[0.75 0 0 0.75 0 0] CT
0.149 GC
2 setlinecap
1 LJ
0.667 LW
N
507 31 M
502.66 31 L
S
GR
GS
[0.75 0 0 0.75 50.75 280.5] CT
0.149 GC
/Helvetica 13 F
GS
[1 0 0 1 0 0] CT
-30 5 moveto 
1 -1 scale
(-0.02) t 
GR
GR
GS
[0.75 0 0 0.75 50.75 251.91666] CT
0.149 GC
/Helvetica 13 F
GS
[1 0 0 1 0 0] CT
-8 5 moveto 
1 -1 scale
(0) t 
GR
GR
GS
[0.75 0 0 0.75 50.75 223.33333] CT
0.149 GC
/Helvetica 13 F
GS
[1 0 0 1 0 0] CT
-26 5 moveto 
1 -1 scale
(0.02) t 
GR
GR
GS
[0.75 0 0 0.75 50.75 194.74999] CT
0.149 GC
/Helvetica 13 F
GS
[1 0 0 1 0 0] CT
-26 5 moveto 
1 -1 scale
(0.04) t 
GR
GR
GS
[0.75 0 0 0.75 50.75 166.16667] CT
0.149 GC
/Helvetica 13 F
GS
[1 0 0 1 0 0] CT
-26 5 moveto 
1 -1 scale
(0.06) t 
GR
GR
GS
[0.75 0 0 0.75 50.75 137.58333] CT
0.149 GC
/Helvetica 13 F
GS
[1 0 0 1 0 0] CT
-26 5 moveto 
1 -1 scale
(0.08) t 
GR
GR
GS
[0.75 0 0 0.75 50.75 109] CT
0.149 GC
/Helvetica 13 F
GS
[1 0 0 1 0 0] CT
-19 5 moveto 
1 -1 scale
(0.1) t 
GR
GR
GS
[0.75 0 0 0.75 50.75 80.41667] CT
0.149 GC
/Helvetica 13 F
GS
[1 0 0 1 0 0] CT
-26 5 moveto 
1 -1 scale
(0.12) t 
GR
GR
GS
[0.75 0 0 0.75 50.75 51.83333] CT
0.149 GC
/Helvetica 13 F
GS
[1 0 0 1 0 0] CT
-26 5 moveto 
1 -1 scale
(0.14) t 
GR
GR
GS
[0.75 0 0 0.75 50.75 23.25001] CT
0.149 GC
/Helvetica 13 F
GS
[1 0 0 1 0 0] CT
-26 5 moveto 
1 -1 scale
(0.16) t 
GR
GR
GS
[0.75 0 0 0.75 217.50021 21.18751] CT
/any-Bold 15 F
GS
[1 0 0 1 0 0] CT
-135.5 -4 moveto 
1 -1 scale
(Response of system 2 order regulator) t 
GR
GR
GS
[0.75 0 0 0.75 0 0] CT
0 0.447 0.741 RC
1 LJ
0.667 LW
N
73 335.889 M
73.362 335.889 L
73.362 145.333 L
73.362 145.333 L
73.409 145.333 L
73.452 145.333 L
73.509 145.333 L
73.578 145.333 L
73.669 145.333 L
73.791 145.333 L
73.928 145.333 L
74.09 145.333 L
74.285 145.333 L
74.531 145.333 L
74.858 145.333 L
75.382 145.333 L
75.944 145.333 L
76.311 145.333 L
76.678 145.333 L
77.167 145.333 L
77.769 145.333 L
78.164 145.333 L
78.56 145.333 L
79.058 145.333 L
79.633 145.333 L
80.032 145.333 L
80.431 145.333 L
80.924 145.333 L
81.489 145.333 L
81.895 145.333 L
82.3 145.333 L
82.792 145.333 L
83.346 145.333 L
83.851 145.333 L
84.261 145.333 L
84.643 145.333 L
85.088 145.333 L
85.626 145.333 L
86.172 145.333 L
86.625 145.333 L
87.006 145.333 L
87.409 145.333 L
87.905 145.333 L
88.467 145.333 L
88.872 145.333 L
89.276 145.333 L
89.767 145.333 L
90.323 145.333 L
90.829 145.333 L
91.239 145.333 L
S
GR
GS
[0.75 0 0 0.75 0 0] CT
0 0.447 0.741 RC
1 LJ
0.667 LW
N
90.829 145.333 M
91.239 145.333 L
91.62 145.333 L
92.064 145.333 L
92.602 145.333 L
93.15 145.333 L
93.603 145.333 L
93.983 145.333 L
94.385 145.333 L
94.88 145.333 L
95.444 145.333 L
95.848 145.333 L
96.253 145.333 L
96.744 145.333 L
97.3 145.333 L
97.806 145.333 L
98.216 145.333 L
98.597 145.333 L
99.041 145.333 L
99.579 145.333 L
100.127 145.333 L
100.58 145.333 L
100.96 145.333 L
101.362 145.333 L
101.858 145.333 L
102.421 145.333 L
102.825 145.333 L
103.23 145.333 L
103.721 145.333 L
104.277 145.333 L
104.783 145.333 L
105.193 145.333 L
105.574 145.333 L
106.018 145.333 L
106.556 145.333 L
107.104 145.333 L
107.557 145.333 L
107.937 145.333 L
108.339 145.333 L
108.834 145.333 L
109.398 145.333 L
109.802 145.333 L
110.207 145.333 L
110.698 145.333 L
111.254 145.333 L
111.76 145.333 L
112.17 145.333 L
112.551 145.333 L
112.995 145.333 L
113.533 145.333 L
114.081 145.333 L
114.534 145.333 L
S
GR
GS
[0.75 0 0 0.75 0 0] CT
0 0.447 0.741 RC
1 LJ
0.667 LW
N
114.081 145.333 M
114.534 145.333 L
114.914 145.333 L
115.316 145.333 L
115.811 145.333 L
116.375 145.333 L
116.779 145.333 L
117.184 145.333 L
117.675 145.333 L
118.231 145.333 L
118.737 145.333 L
119.147 145.333 L
119.528 145.333 L
119.972 145.333 L
120.51 145.333 L
121.058 145.333 L
121.511 145.333 L
121.891 145.333 L
122.293 145.333 L
122.788 145.333 L
123.352 145.333 L
123.756 145.333 L
124.161 145.333 L
124.652 145.333 L
125.208 145.333 L
125.714 145.333 L
126.124 145.333 L
126.505 145.333 L
126.949 145.333 L
127.487 145.333 L
128.035 145.333 L
128.488 145.333 L
128.868 145.333 L
129.27 145.333 L
129.765 145.333 L
130.329 145.333 L
130.733 145.333 L
131.138 145.333 L
131.629 145.333 L
132.185 145.333 L
132.691 145.333 L
133.101 145.333 L
133.482 145.333 L
133.926 145.333 L
134.464 145.333 L
135.012 145.333 L
135.465 145.333 L
135.845 145.333 L
136.247 145.333 L
136.742 145.333 L
137.306 145.333 L
137.71 145.333 L
S
GR
GS
[0.75 0 0 0.75 0 0] CT
0 0.447 0.741 RC
1 LJ
0.667 LW
N
137.306 145.333 M
137.71 145.333 L
138.115 145.333 L
138.606 145.333 L
139.162 145.333 L
139.668 145.333 L
140.078 145.333 L
140.459 145.333 L
140.903 145.333 L
141.441 145.333 L
141.989 145.333 L
142.442 145.333 L
142.822 145.333 L
143.224 145.333 L
143.719 145.333 L
144.283 145.333 L
144.687 145.333 L
145.092 145.333 L
145.583 145.333 L
146.139 145.333 L
146.645 145.333 L
147.055 145.333 L
147.436 145.333 L
147.88 145.333 L
148.418 145.333 L
148.966 145.333 L
149.419 145.333 L
149.799 145.333 L
150.201 145.333 L
150.696 145.333 L
151.26 145.333 L
151.664 145.333 L
152.069 145.333 L
152.56 145.333 L
153.116 145.333 L
153.622 145.333 L
154.032 145.333 L
154.413 145.333 L
154.857 145.333 L
155.395 145.333 L
155.943 145.333 L
156.396 145.333 L
156.776 145.333 L
157.178 145.333 L
157.673 145.333 L
158.237 145.333 L
158.641 145.333 L
159.046 145.333 L
159.537 145.333 L
160.093 145.333 L
160.599 145.333 L
161.009 145.333 L
S
GR
GS
[0.75 0 0 0.75 0 0] CT
0 0.447 0.741 RC
1 LJ
0.667 LW
N
160.599 145.333 M
161.009 145.333 L
161.39 145.333 L
161.834 145.333 L
162.372 145.333 L
162.92 145.333 L
163.373 145.333 L
163.753 145.333 L
164.155 145.333 L
164.65 145.333 L
165.214 145.333 L
165.618 145.333 L
166.023 145.333 L
166.514 145.333 L
167.07 145.333 L
167.576 145.333 L
167.986 145.333 L
168.367 145.333 L
168.811 145.333 L
169.349 145.333 L
169.897 145.333 L
170.35 145.333 L
170.73 145.333 L
171.132 145.333 L
171.627 145.333 L
172.191 145.333 L
172.595 145.333 L
173 145.333 L
173.491 145.333 L
174.047 145.333 L
174.553 145.333 L
174.963 145.333 L
175.344 145.333 L
175.788 145.333 L
176.326 145.333 L
176.874 145.333 L
177.327 145.333 L
177.707 145.333 L
178.109 145.333 L
178.604 145.333 L
179.168 145.333 L
179.572 145.333 L
179.977 145.333 L
180.468 145.333 L
181.024 145.333 L
181.5 145.333 L
181.5 145.333 L
181.5 145.333 L
181.524 145.333 L
181.549 145.333 L
181.584 145.333 L
181.624 145.333 L
S
GR
GS
[0.75 0 0 0.75 0 0] CT
0 0.447 0.741 RC
1 LJ
0.667 LW
N
181.584 145.333 M
181.624 145.333 L
181.677 145.333 L
181.75 145.333 L
181.843 145.333 L
181.947 145.333 L
182.066 145.333 L
182.204 145.333 L
182.372 145.333 L
182.587 145.333 L
182.852 145.333 L
183.131 145.333 L
183.462 145.333 L
183.864 145.333 L
184.368 145.333 L
184.906 145.333 L
185.511 145.333 L
185.963 145.333 L
186.414 145.333 L
186.904 145.333 L
187.398 145.333 L
187.855 145.333 L
188.279 145.333 L
188.711 145.333 L
189.186 145.333 L
189.689 145.333 L
190.168 145.333 L
190.6 145.333 L
191.019 145.333 L
191.472 145.333 L
191.972 145.333 L
192.472 145.333 L
192.923 145.333 L
193.338 145.333 L
193.767 145.333 L
194.25 145.333 L
194.763 145.333 L
195.242 145.333 L
195.665 145.333 L
196.076 145.333 L
196.532 145.333 L
197.043 145.333 L
197.549 145.333 L
197.994 145.333 L
198.398 145.333 L
198.825 145.333 L
199.317 145.333 L
199.841 145.333 L
200.318 145.333 L
200.73 145.333 L
201.135 145.333 L
201.595 145.333 L
S
GR
GS
[0.75 0 0 0.75 0 0] CT
0 0.447 0.741 RC
1 LJ
0.667 LW
N
201.135 145.333 M
201.595 145.333 L
202.118 145.333 L
202.629 145.333 L
203.066 145.333 L
203.461 145.333 L
203.886 145.333 L
204.388 145.333 L
204.922 145.333 L
205.397 145.333 L
205.799 145.333 L
206.197 145.333 L
206.662 145.333 L
207.197 145.333 L
207.712 145.333 L
208.141 145.333 L
208.526 145.333 L
208.951 145.333 L
209.462 145.333 L
210.005 145.333 L
210.477 145.333 L
210.87 145.333 L
211.263 145.333 L
211.732 145.333 L
212.278 145.333 L
212.796 145.333 L
213.218 145.333 L
213.596 145.333 L
214.02 145.333 L
214.538 145.333 L
215.089 145.333 L
215.559 145.333 L
215.944 145.333 L
216.333 145.333 L
216.805 145.333 L
217.359 145.333 L
217.88 145.333 L
218.297 145.333 L
218.669 145.333 L
219.093 145.333 L
219.617 145.333 L
220.173 145.333 L
220.641 145.333 L
221.021 145.333 L
221.406 145.333 L
221.881 145.333 L
222.44 145.333 L
222.854 145.333 L
223.269 145.333 L
223.756 145.333 L
224.292 145.333 L
224.783 145.333 L
S
GR
GS
[0.75 0 0 0.75 0 0] CT
0 0.447 0.741 RC
1 LJ
0.667 LW
N
224.292 145.333 M
224.783 145.333 L
225.195 145.333 L
225.586 145.333 L
226.035 145.333 L
226.562 145.333 L
227.09 145.333 L
227.535 145.333 L
227.922 145.333 L
228.333 145.333 L
228.828 145.333 L
229.374 145.333 L
229.865 145.333 L
230.268 145.333 L
230.653 145.333 L
231.104 145.333 L
231.641 145.333 L
232.174 145.333 L
232.614 145.333 L
232.993 145.333 L
233.401 145.333 L
233.902 145.333 L
234.457 145.333 L
234.948 145.333 L
235.344 145.333 L
235.723 145.333 L
236.176 145.333 L
236.721 145.333 L
237.258 145.333 L
237.694 145.333 L
238.067 145.333 L
238.474 145.333 L
238.979 145.333 L
239.54 145.333 L
239.932 145.333 L
240.323 145.333 L
240.811 145.333 L
241.375 145.333 L
241.778 145.333 L
242.181 145.333 L
242.67 145.333 L
243.221 145.333 L
243.721 145.333 L
244.128 145.333 L
244.507 145.333 L
244.949 145.333 L
245.484 145.333 L
246.026 145.333 L
246.474 145.333 L
246.851 145.333 L
247.252 145.333 L
247.745 145.333 L
S
GR
GS
[0.75 0 0 0.75 0 0] CT
0 0.447 0.741 RC
1 LJ
0.667 LW
N
247.252 145.333 M
247.745 145.333 L
248.304 145.333 L
248.704 145.333 L
249.105 145.333 L
249.592 145.333 L
250.145 145.333 L
250.648 145.333 L
251.055 145.333 L
251.432 145.333 L
251.872 145.333 L
252.407 145.333 L
252.951 145.333 L
253.401 145.333 L
253.778 145.333 L
253.833 145.333 L
253.833 145.333 L
253.833 145.333 L
254.03 145.333 L
254.227 145.333 L
254.511 145.333 L
254.874 145.333 L
255.383 145.333 L
256.016 145.333 L
256.377 145.333 L
256.738 145.333 L
257.236 145.333 L
257.85 145.333 L
258.239 145.333 L
258.627 145.333 L
259.127 145.333 L
259.712 145.333 L
260.107 145.333 L
260.502 145.333 L
260.997 145.333 L
261.569 145.333 L
261.971 145.333 L
262.373 145.333 L
262.866 145.333 L
263.427 145.333 L
263.935 145.333 L
264.342 145.333 L
264.719 145.333 L
265.163 145.333 L
265.704 145.333 L
266.255 145.333 L
266.707 145.333 L
267.085 145.333 L
267.484 145.333 L
267.981 145.333 L
268.547 145.333 L
268.95 145.333 L
S
GR
GS
[0.75 0 0 0.75 0 0] CT
0 0.447 0.741 RC
1 LJ
0.667 LW
N
268.547 145.333 M
268.95 145.333 L
269.353 145.333 L
269.845 145.333 L
270.404 145.333 L
270.911 145.333 L
271.32 145.333 L
271.699 145.333 L
272.142 145.333 L
272.682 145.333 L
273.231 145.333 L
273.684 145.333 L
274.06 145.333 L
274.455 145.333 L
274.944 145.333 L
275.505 145.333 L
275.908 145.333 L
276.311 145.333 L
276.799 145.333 L
277.35 145.333 L
277.85 145.333 L
278.257 145.333 L
278.637 145.333 L
279.079 145.333 L
279.613 145.333 L
280.155 145.333 L
280.603 145.333 L
280.981 145.333 L
281.382 145.333 L
281.874 145.333 L
282.432 145.333 L
282.934 145.333 L
283.335 145.333 L
283.709 145.333 L
284.152 145.333 L
284.692 145.333 L
285.238 145.333 L
285.684 145.333 L
286.057 145.333 L
286.455 145.333 L
286.951 145.333 L
287.515 145.333 L
287.912 145.333 L
288.309 145.333 L
288.798 145.333 L
289.356 145.333 L
289.76 145.333 L
290.164 145.333 L
290.652 145.333 L
291.2 145.333 L
291.699 145.333 L
292.108 145.333 L
S
GR
GS
[0.75 0 0 0.75 0 0] CT
0 0.447 0.741 RC
1 LJ
0.667 LW
N
291.699 145.333 M
292.108 145.333 L
292.489 145.333 L
292.931 145.333 L
293.464 145.333 L
294.004 145.333 L
294.452 145.333 L
294.832 145.333 L
295.234 145.333 L
295.726 145.333 L
296.282 145.333 L
296.783 145.333 L
297.185 145.333 L
297.56 145.333 L
298.004 145.333 L
298.543 145.333 L
299.088 145.333 L
299.533 145.333 L
299.907 145.333 L
300.306 145.333 L
300.802 145.333 L
301.365 145.333 L
301.762 145.333 L
302.16 145.333 L
302.648 145.333 L
303.205 145.333 L
303.711 145.333 L
304.116 145.333 L
304.49 145.333 L
304.928 145.333 L
305.465 145.333 L
306.013 145.333 L
306.464 145.333 L
306.838 145.333 L
307.233 145.333 L
307.725 145.333 L
308.287 145.333 L
308.688 145.333 L
309.089 145.333 L
309.578 145.333 L
310.131 145.333 L
310.633 145.333 L
311.039 145.333 L
311.416 145.333 L
311.857 145.333 L
312.392 145.333 L
312.937 145.333 L
313.386 145.333 L
313.763 145.333 L
314.161 145.333 L
314.653 145.333 L
315.213 145.333 L
S
GR
GS
[0.75 0 0 0.75 0 0] CT
0 0.447 0.741 RC
1 LJ
0.667 LW
N
314.653 145.333 M
315.213 145.333 L
315.614 145.333 L
316.015 145.333 L
316.503 145.333 L
317.056 145.333 L
317.559 145.333 L
317.965 145.333 L
318.342 145.333 L
318.783 145.333 L
319.317 145.333 L
319.862 145.333 L
320.311 145.333 L
320.688 145.333 L
321.086 145.333 L
321.578 145.333 L
322.138 145.333 L
322.54 145.333 L
322.941 145.333 L
323.428 145.333 L
323.981 145.333 L
324.483 145.333 L
324.89 145.333 L
325.268 145.333 L
325.708 145.333 L
326.243 145.333 L
326.787 145.333 L
327.236 145.333 L
327.613 145.333 L
328.012 145.333 L
328.504 145.333 L
329.063 145.333 L
329.465 145.333 L
329.866 145.333 L
330.354 145.333 L
330.906 145.333 L
331.408 145.333 L
331.815 145.333 L
332.193 145.333 L
332.633 145.333 L
333.168 145.333 L
333.711 145.333 L
334.161 145.333 L
334.538 145.333 L
334.937 145.333 L
335.429 145.333 L
335.988 145.333 L
336.39 145.333 L
336.791 145.333 L
337.279 145.333 L
337.831 145.333 L
338.333 145.333 L
S
GR
GS
[0.75 0 0 0.75 0 0] CT
0 0.447 0.741 RC
1 LJ
0.667 LW
N
337.831 145.333 M
338.333 145.333 L
338.74 145.333 L
339.118 145.333 L
339.559 145.333 L
340.093 145.333 L
340.636 145.333 L
341.086 145.333 L
341.463 145.333 L
341.862 145.333 L
342.354 145.333 L
342.913 145.333 L
343.315 145.333 L
343.716 145.333 L
344.204 145.333 L
344.756 145.333 L
345.258 145.333 L
345.665 145.333 L
346.043 145.333 L
346.484 145.333 L
347.018 145.333 L
347.561 145.333 L
348.011 145.333 L
348.388 145.333 L
348.787 145.333 L
349.279 145.333 L
349.838 145.333 L
350.24 145.333 L
350.641 145.333 L
351.129 145.333 L
351.681 145.333 L
352.183 145.333 L
352.59 145.333 L
352.968 145.333 L
353.409 145.333 L
353.943 145.333 L
354.486 145.333 L
354.936 145.333 L
355.313 145.333 L
355.712 145.333 L
356.204 145.333 L
356.763 145.333 L
357.165 145.333 L
357.566 145.333 L
358.054 145.333 L
358.606 145.333 L
359.108 145.333 L
359.515 145.333 L
359.893 145.333 L
360.334 145.333 L
360.868 145.333 L
361.411 145.333 L
S
GR
GS
[0.75 0 0 0.75 0 0] CT
0 0.447 0.741 RC
1 LJ
0.667 LW
N
360.868 145.333 M
361.411 145.333 L
361.861 145.333 L
362.238 145.333 L
362.333 145.333 L
362.333 145.333 L
362.333 145.333 L
362.487 145.333 L
362.64 145.333 L
362.856 145.333 L
363.122 145.333 L
363.502 145.333 L
364.019 145.333 L
364.473 145.333 L
364.927 145.333 L
365.407 145.333 L
365.891 145.333 L
366.349 145.333 L
366.784 145.333 L
367.225 145.333 L
367.695 145.333 L
368.184 145.333 L
368.657 145.333 L
369.098 145.333 L
369.529 145.333 L
369.985 145.333 L
370.472 145.333 L
370.96 145.333 L
371.413 145.333 L
371.841 145.333 L
372.28 145.333 L
372.757 145.333 L
373.254 145.333 L
373.726 145.333 L
374.159 145.333 L
374.585 145.333 L
375.043 145.333 L
375.539 145.333 L
376.031 145.333 L
376.479 145.333 L
376.899 145.333 L
377.336 145.333 L
377.82 145.333 L
378.326 145.333 L
378.797 145.333 L
379.221 145.333 L
379.64 145.333 L
380.103 145.333 L
380.61 145.333 L
381.105 145.333 L
381.547 145.333 L
381.957 145.333 L
S
GR
GS
[0.75 0 0 0.75 0 0] CT
0 0.447 0.741 RC
1 LJ
0.667 LW
N
381.547 145.333 M
381.957 145.333 L
382.394 145.333 L
382.887 145.333 L
383.402 145.333 L
383.87 145.333 L
384.284 145.333 L
384.698 145.333 L
385.165 145.333 L
385.684 145.333 L
386.183 145.333 L
386.616 145.333 L
387.017 145.333 L
387.453 145.333 L
387.957 145.333 L
388.481 145.333 L
388.945 145.333 L
389.349 145.333 L
389.757 145.333 L
390.231 145.333 L
390.762 145.333 L
391.264 145.333 L
391.687 145.333 L
392.079 145.333 L
392.516 145.333 L
393.031 145.333 L
393.563 145.333 L
394.023 145.333 L
394.416 145.333 L
394.82 145.333 L
395.3 145.333 L
395.843 145.333 L
396.346 145.333 L
396.761 145.333 L
397.145 145.333 L
397.583 145.333 L
398.108 145.333 L
398.647 145.333 L
399.103 145.333 L
399.487 145.333 L
399.887 145.333 L
400.373 145.333 L
400.925 145.333 L
401.429 145.333 L
401.838 145.333 L
402.215 145.333 L
402.653 145.333 L
403.186 145.333 L
403.732 145.333 L
404.183 145.333 L
404.561 145.333 L
404.958 145.333 L
S
GR
GS
[0.75 0 0 0.75 0 0] CT
0 0.447 0.741 RC
1 LJ
0.667 LW
N
404.561 145.333 M
404.958 145.333 L
405.448 145.333 L
406.007 145.333 L
406.41 145.333 L
406.813 145.333 L
407.301 145.333 L
407.851 145.333 L
408.352 145.333 L
408.759 145.333 L
409.139 145.333 L
409.58 145.333 L
410.114 145.333 L
410.656 145.333 L
411.105 145.333 L
411.483 145.333 L
411.883 145.333 L
412.376 145.333 L
412.934 145.333 L
413.435 145.333 L
413.837 145.333 L
414.211 145.333 L
414.654 145.333 L
415.193 145.333 L
415.74 145.333 L
416.186 145.333 L
416.559 145.333 L
416.957 145.333 L
417.452 145.333 L
418.016 145.333 L
418.414 145.333 L
418.811 145.333 L
419.3 145.333 L
419.857 145.333 L
420.362 145.333 L
420.767 145.333 L
421.141 145.333 L
421.579 145.333 L
422.116 145.333 L
422.665 145.333 L
423.115 145.333 L
423.489 145.333 L
423.885 145.333 L
424.376 145.333 L
424.939 145.333 L
425.34 145.333 L
425.741 145.333 L
426.229 145.333 L
426.782 145.333 L
427.285 145.333 L
427.691 145.333 L
428.068 145.333 L
S
GR
GS
[0.75 0 0 0.75 0 0] CT
0 0.447 0.741 RC
1 LJ
0.667 LW
N
427.691 145.333 M
428.068 145.333 L
428.508 145.333 L
429.044 145.333 L
429.588 145.333 L
430.038 145.333 L
430.414 145.333 L
430.812 145.333 L
431.304 145.333 L
431.865 145.333 L
432.266 145.333 L
432.667 145.333 L
433.154 145.333 L
433.707 145.333 L
434.21 145.333 L
434.616 145.333 L
434.994 145.333 L
435.434 145.333 L
435.969 145.333 L
436.513 145.333 L
436.963 145.333 L
437.34 145.333 L
437.738 145.333 L
438.23 145.333 L
438.79 145.333 L
439.191 145.333 L
439.592 145.333 L
440.08 145.333 L
440.632 145.333 L
441.135 145.333 L
441.541 145.333 L
441.919 145.333 L
442.36 145.333 L
442.894 145.333 L
443.438 145.333 L
443.888 145.333 L
444.265 145.333 L
444.663 145.333 L
445.155 145.333 L
445.715 145.333 L
446.116 145.333 L
446.518 145.333 L
447.005 145.333 L
447.557 145.333 L
448.06 145.333 L
448.466 145.333 L
448.844 145.333 L
449.285 145.333 L
449.819 145.333 L
450.363 145.333 L
450.813 145.333 L
451.19 145.333 L
S
GR
GS
[0.75 0 0 0.75 0 0] CT
0 0.447 0.741 RC
1 LJ
0.667 LW
N
450.813 145.333 M
451.19 145.333 L
451.589 145.333 L
452.08 145.333 L
452.64 145.333 L
453.041 145.333 L
453.443 145.333 L
453.93 145.333 L
454.482 145.333 L
454.985 145.333 L
455.391 145.333 L
455.769 145.333 L
456.21 145.333 L
456.744 145.333 L
457.288 145.333 L
457.738 145.333 L
458.115 145.333 L
458.514 145.333 L
459.005 145.333 L
459.565 145.333 L
459.966 145.333 L
460.368 145.333 L
460.855 145.333 L
461.407 145.333 L
461.91 145.333 L
462.316 145.333 L
462.694 145.333 L
463.135 145.333 L
463.669 145.333 L
464.213 145.333 L
464.663 145.333 L
465.04 145.333 L
465.439 145.333 L
465.93 145.333 L
466.49 145.333 L
466.891 145.333 L
467.293 145.333 L
467.78 145.333 L
468.332 145.333 L
468.835 145.333 L
469.241 145.333 L
469.619 145.333 L
470.06 145.333 L
470.594 145.333 L
471.138 145.333 L
471.588 145.333 L
471.965 145.333 L
472.364 145.333 L
472.855 145.333 L
473.415 145.333 L
473.816 145.333 L
474.218 145.333 L
S
GR
GS
[0.75 0 0 0.75 0 0] CT
0 0.447 0.741 RC
1 LJ
0.667 LW
N
473.816 145.333 M
474.218 145.333 L
474.705 145.333 L
475.257 145.333 L
475.76 145.333 L
476.166 145.333 L
476.544 145.333 L
476.985 145.333 L
477.519 145.333 L
478.063 145.333 L
478.512 145.333 L
478.89 145.333 L
479.289 145.333 L
479.78 145.333 L
480.34 145.333 L
480.741 145.333 L
481.143 145.333 L
481.63 145.333 L
482.182 145.333 L
482.685 145.333 L
483.091 145.333 L
483.469 145.333 L
483.91 145.333 L
484.444 145.333 L
484.988 145.333 L
485.437 145.333 L
485.815 145.333 L
486.214 145.333 L
486.705 145.333 L
487.265 145.333 L
487.666 145.333 L
488.068 145.333 L
488.555 145.333 L
489.107 145.333 L
489.609 145.333 L
490.016 145.333 L
490.394 145.333 L
490.835 145.333 L
491.369 145.333 L
491.913 145.333 L
492.362 145.333 L
492.74 145.333 L
493.139 145.333 L
493.63 145.333 L
494.19 145.333 L
494.591 145.333 L
494.993 145.333 L
495.48 145.333 L
496.032 145.333 L
496.534 145.333 L
496.941 145.333 L
497.319 145.333 L
S
GR
GS
[0.75 0 0 0.75 0 0] CT
0 0.447 0.741 RC
1 LJ
0.667 LW
N
496.941 145.333 M
497.319 145.333 L
497.76 145.333 L
498.294 145.333 L
498.838 145.333 L
499.287 145.333 L
499.665 145.333 L
500.064 145.333 L
500.555 145.333 L
501.115 145.333 L
501.516 145.333 L
501.918 145.333 L
502.405 145.333 L
502.957 145.333 L
503.46 145.333 L
503.866 145.333 L
504.244 145.333 L
504.685 145.333 L
505.219 145.333 L
505.763 145.333 L
506.212 145.333 L
506.59 145.333 L
507 145.333 L
S
GR
GS
[0.75 0 0 0.75 0 0] CT
0.851 0.325 0.098 RC
1 LJ
0.667 LW
N
73 335.889 M
73.362 335.889 L
73.362 335.889 L
73.362 335.889 L
73.409 335.889 L
73.452 335.889 L
73.509 335.889 L
73.578 335.889 L
73.669 335.889 L
73.791 335.889 L
73.928 335.889 L
74.09 335.889 L
74.285 335.889 L
74.531 335.889 L
74.858 335.889 L
75.382 335.889 L
75.944 335.889 L
76.311 335.889 L
76.678 335.889 L
77.167 335.889 L
77.769 335.889 L
78.164 335.889 L
78.56 335.889 L
79.058 335.889 L
79.633 335.889 L
80.032 335.889 L
80.431 335.889 L
80.924 335.889 L
81.489 335.889 L
81.895 335.889 L
82.3 335.889 L
82.792 335.889 L
83.346 335.889 L
83.851 335.889 L
84.261 335.889 L
84.643 335.889 L
85.088 335.889 L
85.626 335.889 L
86.172 335.889 L
86.625 335.889 L
87.006 335.889 L
87.409 335.889 L
87.905 335.889 L
88.467 335.889 L
88.872 335.889 L
89.276 335.889 L
89.767 335.889 L
90.323 335.889 L
90.829 335.889 L
91.239 335.889 L
S
GR
GS
[0.75 0 0 0.75 0 0] CT
0.851 0.325 0.098 RC
1 LJ
0.667 LW
N
90.829 335.889 M
91.239 335.889 L
91.62 335.889 L
92.064 335.889 L
92.602 335.889 L
93.15 335.889 L
93.603 335.889 L
93.983 335.889 L
94.385 335.889 L
94.88 335.889 L
95.444 335.889 L
95.848 335.889 L
96.253 335.889 L
96.744 335.889 L
97.3 335.889 L
97.806 335.889 L
98.216 335.889 L
98.597 335.889 L
99.041 335.889 L
99.579 335.889 L
100.127 335.889 L
100.58 335.889 L
100.96 335.889 L
101.362 335.889 L
101.858 335.889 L
102.421 335.889 L
102.825 335.889 L
103.23 335.889 L
103.721 335.889 L
104.277 335.889 L
104.783 335.889 L
105.193 335.889 L
105.574 335.889 L
106.018 335.889 L
106.556 335.889 L
107.104 335.889 L
107.557 335.889 L
107.937 335.889 L
108.339 335.889 L
108.834 335.889 L
109.398 335.889 L
109.802 335.889 L
110.207 335.889 L
110.698 335.889 L
111.254 335.889 L
111.76 335.889 L
112.17 335.889 L
112.551 335.889 L
112.995 335.889 L
113.533 335.889 L
114.081 335.889 L
114.534 335.889 L
S
GR
GS
[0.75 0 0 0.75 0 0] CT
0.851 0.325 0.098 RC
1 LJ
0.667 LW
N
114.081 335.889 M
114.534 335.889 L
114.914 335.889 L
115.316 335.889 L
115.811 335.889 L
116.375 335.889 L
116.779 335.889 L
117.184 335.889 L
117.675 335.889 L
118.231 335.889 L
118.737 335.889 L
119.147 335.889 L
119.528 335.889 L
119.972 335.889 L
120.51 335.889 L
121.058 335.889 L
121.511 335.889 L
121.891 335.889 L
122.293 335.889 L
122.788 335.889 L
123.352 335.889 L
123.756 335.889 L
124.161 335.889 L
124.652 335.889 L
125.208 335.889 L
125.714 335.889 L
126.124 335.889 L
126.505 335.889 L
126.949 335.889 L
127.487 335.889 L
128.035 335.889 L
128.488 335.889 L
128.868 335.889 L
129.27 335.889 L
129.765 335.889 L
130.329 335.889 L
130.733 335.889 L
131.138 335.889 L
131.629 335.889 L
132.185 335.889 L
132.691 335.889 L
133.101 335.889 L
133.482 335.889 L
133.926 335.889 L
134.464 335.889 L
135.012 335.889 L
135.465 335.889 L
135.845 335.889 L
136.247 335.889 L
136.742 335.889 L
137.306 335.889 L
137.71 335.889 L
S
GR
GS
[0.75 0 0 0.75 0 0] CT
0.851 0.325 0.098 RC
1 LJ
0.667 LW
N
137.306 335.889 M
137.71 335.889 L
138.115 335.889 L
138.606 335.889 L
139.162 335.889 L
139.668 335.889 L
140.078 335.889 L
140.459 335.889 L
140.903 335.889 L
141.441 335.889 L
141.989 335.889 L
142.442 335.889 L
142.822 335.889 L
143.224 335.889 L
143.719 335.889 L
144.283 335.889 L
144.687 335.889 L
145.092 335.889 L
145.583 335.889 L
146.139 335.889 L
146.645 335.889 L
147.055 335.889 L
147.436 335.889 L
147.88 335.889 L
148.418 335.889 L
148.966 335.889 L
149.419 335.889 L
149.799 335.889 L
150.201 335.889 L
150.696 335.889 L
151.26 335.889 L
151.664 335.889 L
152.069 335.889 L
152.56 335.889 L
153.116 335.889 L
153.622 335.889 L
154.032 335.889 L
154.413 335.889 L
154.857 335.889 L
155.395 335.889 L
155.943 335.889 L
156.396 335.889 L
156.776 335.889 L
157.178 335.889 L
157.673 335.889 L
158.237 335.889 L
158.641 335.889 L
159.046 335.889 L
159.537 335.889 L
160.093 335.889 L
160.599 335.889 L
161.009 335.889 L
S
GR
GS
[0.75 0 0 0.75 0 0] CT
0.851 0.325 0.098 RC
1 LJ
0.667 LW
N
160.599 335.889 M
161.009 335.889 L
161.39 335.889 L
161.834 335.889 L
162.372 335.889 L
162.92 335.889 L
163.373 335.889 L
163.753 335.889 L
164.155 335.889 L
164.65 335.889 L
165.214 335.889 L
165.618 335.889 L
166.023 335.889 L
166.514 335.889 L
167.07 335.889 L
167.576 335.889 L
167.986 335.889 L
168.367 335.889 L
168.811 335.889 L
169.349 335.889 L
169.897 335.889 L
170.35 335.889 L
170.73 335.889 L
171.132 335.889 L
171.627 335.889 L
172.191 335.889 L
172.595 335.889 L
173 335.889 L
173.491 335.889 L
174.047 335.889 L
174.553 335.889 L
174.963 335.889 L
175.344 335.889 L
175.788 335.889 L
176.326 335.889 L
176.874 335.889 L
177.327 335.889 L
177.707 335.889 L
178.109 335.889 L
178.604 335.889 L
179.168 335.889 L
179.572 335.889 L
179.977 335.889 L
180.468 335.889 L
181.024 335.889 L
181.5 335.889 L
181.5 145.333 L
181.5 145.333 L
181.524 145.333 L
181.549 145.333 L
181.584 145.333 L
181.624 145.333 L
S
GR
GS
[0.75 0 0 0.75 0 0] CT
0.851 0.325 0.098 RC
1 LJ
0.667 LW
N
181.584 145.333 M
181.624 145.333 L
181.677 145.333 L
181.75 145.333 L
181.843 145.333 L
181.947 145.333 L
182.066 145.333 L
182.204 145.333 L
182.372 145.333 L
182.587 145.333 L
182.852 145.333 L
183.131 145.333 L
183.462 145.333 L
183.864 145.333 L
184.368 145.333 L
184.906 145.333 L
185.511 145.333 L
185.963 145.333 L
186.414 145.333 L
186.904 145.333 L
187.398 145.333 L
187.855 145.333 L
188.279 145.333 L
188.711 145.333 L
189.186 145.333 L
189.689 145.333 L
190.168 145.333 L
190.6 145.333 L
191.019 145.333 L
191.472 145.333 L
191.972 145.333 L
192.472 145.333 L
192.923 145.333 L
193.338 145.333 L
193.767 145.333 L
194.25 145.333 L
194.763 145.333 L
195.242 145.333 L
195.665 145.333 L
196.076 145.333 L
196.532 145.333 L
197.043 145.333 L
197.549 145.333 L
197.994 145.333 L
198.398 145.333 L
198.825 145.333 L
199.317 145.333 L
199.841 145.333 L
200.318 145.333 L
200.73 145.333 L
201.135 145.333 L
201.595 145.333 L
S
GR
GS
[0.75 0 0 0.75 0 0] CT
0.851 0.325 0.098 RC
1 LJ
0.667 LW
N
201.135 145.333 M
201.595 145.333 L
202.118 145.333 L
202.629 145.333 L
203.066 145.333 L
203.461 145.333 L
203.886 145.333 L
204.388 145.333 L
204.922 145.333 L
205.397 145.333 L
205.799 145.333 L
206.197 145.333 L
206.662 145.333 L
207.197 145.333 L
207.712 145.333 L
208.141 145.333 L
208.526 145.333 L
208.951 145.333 L
209.462 145.333 L
210.005 145.333 L
210.477 145.333 L
210.87 145.333 L
211.263 145.333 L
211.732 145.333 L
212.278 145.333 L
212.796 145.333 L
213.218 145.333 L
213.596 145.333 L
214.02 145.333 L
214.538 145.333 L
215.089 145.333 L
215.559 145.333 L
215.944 145.333 L
216.333 145.333 L
216.805 145.333 L
217.359 145.333 L
217.88 145.333 L
218.297 145.333 L
218.669 145.333 L
219.093 145.333 L
219.617 145.333 L
220.173 145.333 L
220.641 145.333 L
221.021 145.333 L
221.406 145.333 L
221.881 145.333 L
222.44 145.333 L
222.854 145.333 L
223.269 145.333 L
223.756 145.333 L
224.292 145.333 L
224.783 145.333 L
S
GR
GS
[0.75 0 0 0.75 0 0] CT
0.851 0.325 0.098 RC
1 LJ
0.667 LW
N
224.292 145.333 M
224.783 145.333 L
225.195 145.333 L
225.586 145.333 L
226.035 145.333 L
226.562 145.333 L
227.09 145.333 L
227.535 145.333 L
227.922 145.333 L
228.333 145.333 L
228.828 145.333 L
229.374 145.333 L
229.865 145.333 L
230.268 145.333 L
230.653 145.333 L
231.104 145.333 L
231.641 145.333 L
232.174 145.333 L
232.614 145.333 L
232.993 145.333 L
233.401 145.333 L
233.902 145.333 L
234.457 145.333 L
234.948 145.333 L
235.344 145.333 L
235.723 145.333 L
236.176 145.333 L
236.721 145.333 L
237.258 145.333 L
237.694 145.333 L
238.067 145.333 L
238.474 145.333 L
238.979 145.333 L
239.54 145.333 L
239.932 145.333 L
240.323 145.333 L
240.811 145.333 L
241.375 145.333 L
241.778 145.333 L
242.181 145.333 L
242.67 145.333 L
243.221 145.333 L
243.721 145.333 L
244.128 145.333 L
244.507 145.333 L
244.949 145.333 L
245.484 145.333 L
246.026 145.333 L
246.474 145.333 L
246.851 145.333 L
247.252 145.333 L
247.745 145.333 L
S
GR
GS
[0.75 0 0 0.75 0 0] CT
0.851 0.325 0.098 RC
1 LJ
0.667 LW
N
247.252 145.333 M
247.745 145.333 L
248.304 145.333 L
248.704 145.333 L
249.105 145.333 L
249.592 145.333 L
250.145 145.333 L
250.648 145.333 L
251.055 145.333 L
251.432 145.333 L
251.872 145.333 L
252.407 145.333 L
252.951 145.333 L
253.401 145.333 L
253.778 145.333 L
253.833 145.333 L
253.833 145.333 L
253.833 145.333 L
254.03 145.333 L
254.227 145.333 L
254.511 145.333 L
254.874 145.333 L
255.383 145.333 L
256.016 145.333 L
256.377 145.333 L
256.738 145.333 L
257.236 145.333 L
257.85 145.333 L
258.239 145.333 L
258.627 145.333 L
259.127 145.333 L
259.712 145.333 L
260.107 145.333 L
260.502 145.333 L
260.997 145.333 L
261.569 145.333 L
261.971 145.333 L
262.373 145.333 L
262.866 145.333 L
263.427 145.333 L
263.935 145.333 L
264.342 145.333 L
264.719 145.333 L
265.163 145.333 L
265.704 145.333 L
266.255 145.333 L
266.707 145.333 L
267.085 145.333 L
267.484 145.333 L
267.981 145.333 L
268.547 145.333 L
268.95 145.333 L
S
GR
GS
[0.75 0 0 0.75 0 0] CT
0.851 0.325 0.098 RC
1 LJ
0.667 LW
N
268.547 145.333 M
268.95 145.333 L
269.353 145.333 L
269.845 145.333 L
270.404 145.333 L
270.911 145.333 L
271.32 145.333 L
271.699 145.333 L
272.142 145.333 L
272.682 145.333 L
273.231 145.333 L
273.684 145.333 L
274.06 145.333 L
274.455 145.333 L
274.944 145.333 L
275.505 145.333 L
275.908 145.333 L
276.311 145.333 L
276.799 145.333 L
277.35 145.333 L
277.85 145.333 L
278.257 145.333 L
278.637 145.333 L
279.079 145.333 L
279.613 145.333 L
280.155 145.333 L
280.603 145.333 L
280.981 145.333 L
281.382 145.333 L
281.874 145.333 L
282.432 145.333 L
282.934 145.333 L
283.335 145.333 L
283.709 145.333 L
284.152 145.333 L
284.692 145.333 L
285.238 145.333 L
285.684 145.333 L
286.057 145.333 L
286.455 145.333 L
286.951 145.333 L
287.515 145.333 L
287.912 145.333 L
288.309 145.333 L
288.798 145.333 L
289.356 145.333 L
289.76 145.333 L
290.164 145.333 L
290.652 145.333 L
291.2 145.333 L
291.699 145.333 L
292.108 145.333 L
S
GR
GS
[0.75 0 0 0.75 0 0] CT
0.851 0.325 0.098 RC
1 LJ
0.667 LW
N
291.699 145.333 M
292.108 145.333 L
292.489 145.333 L
292.931 145.333 L
293.464 145.333 L
294.004 145.333 L
294.452 145.333 L
294.832 145.333 L
295.234 145.333 L
295.726 145.333 L
296.282 145.333 L
296.783 145.333 L
297.185 145.333 L
297.56 145.333 L
298.004 145.333 L
298.543 145.333 L
299.088 145.333 L
299.533 145.333 L
299.907 145.333 L
300.306 145.333 L
300.802 145.333 L
301.365 145.333 L
301.762 145.333 L
302.16 145.333 L
302.648 145.333 L
303.205 145.333 L
303.711 145.333 L
304.116 145.333 L
304.49 145.333 L
304.928 145.333 L
305.465 145.333 L
306.013 145.333 L
306.464 145.333 L
306.838 145.333 L
307.233 145.333 L
307.725 145.333 L
308.287 145.333 L
308.688 145.333 L
309.089 145.333 L
309.578 145.333 L
310.131 145.333 L
310.633 145.333 L
311.039 145.333 L
311.416 145.333 L
311.857 145.333 L
312.392 145.333 L
312.937 145.333 L
313.386 145.333 L
313.763 145.333 L
314.161 145.333 L
314.653 145.333 L
315.213 145.333 L
S
GR
GS
[0.75 0 0 0.75 0 0] CT
0.851 0.325 0.098 RC
1 LJ
0.667 LW
N
314.653 145.333 M
315.213 145.333 L
315.614 145.333 L
316.015 145.333 L
316.503 145.333 L
317.056 145.333 L
317.559 145.333 L
317.965 145.333 L
318.342 145.333 L
318.783 145.333 L
319.317 145.333 L
319.862 145.333 L
320.311 145.333 L
320.688 145.333 L
321.086 145.333 L
321.578 145.333 L
322.138 145.333 L
322.54 145.333 L
322.941 145.333 L
323.428 145.333 L
323.981 145.333 L
324.483 145.333 L
324.89 145.333 L
325.268 145.333 L
325.708 145.333 L
326.243 145.333 L
326.787 145.333 L
327.236 145.333 L
327.613 145.333 L
328.012 145.333 L
328.504 145.333 L
329.063 145.333 L
329.465 145.333 L
329.866 145.333 L
330.354 145.333 L
330.906 145.333 L
331.408 145.333 L
331.815 145.333 L
332.193 145.333 L
332.633 145.333 L
333.168 145.333 L
333.711 145.333 L
334.161 145.333 L
334.538 145.333 L
334.937 145.333 L
335.429 145.333 L
335.988 145.333 L
336.39 145.333 L
336.791 145.333 L
337.279 145.333 L
337.831 145.333 L
338.333 145.333 L
S
GR
GS
[0.75 0 0 0.75 0 0] CT
0.851 0.325 0.098 RC
1 LJ
0.667 LW
N
337.831 145.333 M
338.333 145.333 L
338.74 145.333 L
339.118 145.333 L
339.559 145.333 L
340.093 145.333 L
340.636 145.333 L
341.086 145.333 L
341.463 145.333 L
341.862 145.333 L
342.354 145.333 L
342.913 145.333 L
343.315 145.333 L
343.716 145.333 L
344.204 145.333 L
344.756 145.333 L
345.258 145.333 L
345.665 145.333 L
346.043 145.333 L
346.484 145.333 L
347.018 145.333 L
347.561 145.333 L
348.011 145.333 L
348.388 145.333 L
348.787 145.333 L
349.279 145.333 L
349.838 145.333 L
350.24 145.333 L
350.641 145.333 L
351.129 145.333 L
351.681 145.333 L
352.183 145.333 L
352.59 145.333 L
352.968 145.333 L
353.409 145.333 L
353.943 145.333 L
354.486 145.333 L
354.936 145.333 L
355.313 145.333 L
355.712 145.333 L
356.204 145.333 L
356.763 145.333 L
357.165 145.333 L
357.566 145.333 L
358.054 145.333 L
358.606 145.333 L
359.108 145.333 L
359.515 145.333 L
359.893 145.333 L
360.334 145.333 L
360.868 145.333 L
361.411 145.333 L
S
GR
GS
[0.75 0 0 0.75 0 0] CT
0.851 0.325 0.098 RC
1 LJ
0.667 LW
N
360.868 145.333 M
361.411 145.333 L
361.861 145.333 L
362.238 145.333 L
362.333 145.333 L
362.333 145.333 L
362.333 145.333 L
362.487 145.333 L
362.64 145.333 L
362.856 145.333 L
363.122 145.333 L
363.502 145.333 L
364.019 145.333 L
364.473 145.333 L
364.927 145.333 L
365.407 145.333 L
365.891 145.333 L
366.349 145.333 L
366.784 145.333 L
367.225 145.333 L
367.695 145.333 L
368.184 145.333 L
368.657 145.333 L
369.098 145.333 L
369.529 145.333 L
369.985 145.333 L
370.472 145.333 L
370.96 145.333 L
371.413 145.333 L
371.841 145.333 L
372.28 145.333 L
372.757 145.333 L
373.254 145.333 L
373.726 145.333 L
374.159 145.333 L
374.585 145.333 L
375.043 145.333 L
375.539 145.333 L
376.031 145.333 L
376.479 145.333 L
376.899 145.333 L
377.336 145.333 L
377.82 145.333 L
378.326 145.333 L
378.797 145.333 L
379.221 145.333 L
379.64 145.333 L
380.103 145.333 L
380.61 145.333 L
381.105 145.333 L
381.547 145.333 L
381.957 145.333 L
S
GR
GS
[0.75 0 0 0.75 0 0] CT
0.851 0.325 0.098 RC
1 LJ
0.667 LW
N
381.547 145.333 M
381.957 145.333 L
382.394 145.333 L
382.887 145.333 L
383.402 145.333 L
383.87 145.333 L
384.284 145.333 L
384.698 145.333 L
385.165 145.333 L
385.684 145.333 L
386.183 145.333 L
386.616 145.333 L
387.017 145.333 L
387.453 145.333 L
387.957 145.333 L
388.481 145.333 L
388.945 145.333 L
389.349 145.333 L
389.757 145.333 L
390.231 145.333 L
390.762 145.333 L
391.264 145.333 L
391.687 145.333 L
392.079 145.333 L
392.516 145.333 L
393.031 145.333 L
393.563 145.333 L
394.023 145.333 L
394.416 145.333 L
394.82 145.333 L
395.3 145.333 L
395.843 145.333 L
396.346 145.333 L
396.761 145.333 L
397.145 145.333 L
397.583 145.333 L
398.108 145.333 L
398.647 145.333 L
399.103 145.333 L
399.487 145.333 L
399.887 145.333 L
400.373 145.333 L
400.925 145.333 L
401.429 145.333 L
401.838 145.333 L
402.215 145.333 L
402.653 145.333 L
403.186 145.333 L
403.732 145.333 L
404.183 145.333 L
404.561 145.333 L
404.958 145.333 L
S
GR
GS
[0.75 0 0 0.75 0 0] CT
0.851 0.325 0.098 RC
1 LJ
0.667 LW
N
404.561 145.333 M
404.958 145.333 L
405.448 145.333 L
406.007 145.333 L
406.41 145.333 L
406.813 145.333 L
407.301 145.333 L
407.851 145.333 L
408.352 145.333 L
408.759 145.333 L
409.139 145.333 L
409.58 145.333 L
410.114 145.333 L
410.656 145.333 L
411.105 145.333 L
411.483 145.333 L
411.883 145.333 L
412.376 145.333 L
412.934 145.333 L
413.435 145.333 L
413.837 145.333 L
414.211 145.333 L
414.654 145.333 L
415.193 145.333 L
415.74 145.333 L
416.186 145.333 L
416.559 145.333 L
416.957 145.333 L
417.452 145.333 L
418.016 145.333 L
418.414 145.333 L
418.811 145.333 L
419.3 145.333 L
419.857 145.333 L
420.362 145.333 L
420.767 145.333 L
421.141 145.333 L
421.579 145.333 L
422.116 145.333 L
422.665 145.333 L
423.115 145.333 L
423.489 145.333 L
423.885 145.333 L
424.376 145.333 L
424.939 145.333 L
425.34 145.333 L
425.741 145.333 L
426.229 145.333 L
426.782 145.333 L
427.285 145.333 L
427.691 145.333 L
428.068 145.333 L
S
GR
GS
[0.75 0 0 0.75 0 0] CT
0.851 0.325 0.098 RC
1 LJ
0.667 LW
N
427.691 145.333 M
428.068 145.333 L
428.508 145.333 L
429.044 145.333 L
429.588 145.333 L
430.038 145.333 L
430.414 145.333 L
430.812 145.333 L
431.304 145.333 L
431.865 145.333 L
432.266 145.333 L
432.667 145.333 L
433.154 145.333 L
433.707 145.333 L
434.21 145.333 L
434.616 145.333 L
434.994 145.333 L
435.434 145.333 L
435.969 145.333 L
436.513 145.333 L
436.963 145.333 L
437.34 145.333 L
437.738 145.333 L
438.23 145.333 L
438.79 145.333 L
439.191 145.333 L
439.592 145.333 L
440.08 145.333 L
440.632 145.333 L
441.135 145.333 L
441.541 145.333 L
441.919 145.333 L
442.36 145.333 L
442.894 145.333 L
443.438 145.333 L
443.888 145.333 L
444.265 145.333 L
444.663 145.333 L
445.155 145.333 L
445.715 145.333 L
446.116 145.333 L
446.518 145.333 L
447.005 145.333 L
447.557 145.333 L
448.06 145.333 L
448.466 145.333 L
448.844 145.333 L
449.285 145.333 L
449.819 145.333 L
450.363 145.333 L
450.813 145.333 L
451.19 145.333 L
S
GR
GS
[0.75 0 0 0.75 0 0] CT
0.851 0.325 0.098 RC
1 LJ
0.667 LW
N
450.813 145.333 M
451.19 145.333 L
451.589 145.333 L
452.08 145.333 L
452.64 145.333 L
453.041 145.333 L
453.443 145.333 L
453.93 145.333 L
454.482 145.333 L
454.985 145.333 L
455.391 145.333 L
455.769 145.333 L
456.21 145.333 L
456.744 145.333 L
457.288 145.333 L
457.738 145.333 L
458.115 145.333 L
458.514 145.333 L
459.005 145.333 L
459.565 145.333 L
459.966 145.333 L
460.368 145.333 L
460.855 145.333 L
461.407 145.333 L
461.91 145.333 L
462.316 145.333 L
462.694 145.333 L
463.135 145.333 L
463.669 145.333 L
464.213 145.333 L
464.663 145.333 L
465.04 145.333 L
465.439 145.333 L
465.93 145.333 L
466.49 145.333 L
466.891 145.333 L
467.293 145.333 L
467.78 145.333 L
468.332 145.333 L
468.835 145.333 L
469.241 145.333 L
469.619 145.333 L
470.06 145.333 L
470.594 145.333 L
471.138 145.333 L
471.588 145.333 L
471.965 145.333 L
472.364 145.333 L
472.855 145.333 L
473.415 145.333 L
473.816 145.333 L
474.218 145.333 L
S
GR
GS
[0.75 0 0 0.75 0 0] CT
0.851 0.325 0.098 RC
1 LJ
0.667 LW
N
473.816 145.333 M
474.218 145.333 L
474.705 145.333 L
475.257 145.333 L
475.76 145.333 L
476.166 145.333 L
476.544 145.333 L
476.985 145.333 L
477.519 145.333 L
478.063 145.333 L
478.512 145.333 L
478.89 145.333 L
479.289 145.333 L
479.78 145.333 L
480.34 145.333 L
480.741 145.333 L
481.143 145.333 L
481.63 145.333 L
482.182 145.333 L
482.685 145.333 L
483.091 145.333 L
483.469 145.333 L
483.91 145.333 L
484.444 145.333 L
484.988 145.333 L
485.437 145.333 L
485.815 145.333 L
486.214 145.333 L
486.705 145.333 L
487.265 145.333 L
487.666 145.333 L
488.068 145.333 L
488.555 145.333 L
489.107 145.333 L
489.609 145.333 L
490.016 145.333 L
490.394 145.333 L
490.835 145.333 L
491.369 145.333 L
491.913 145.333 L
492.362 145.333 L
492.74 145.333 L
493.139 145.333 L
493.63 145.333 L
494.19 145.333 L
494.591 145.333 L
494.993 145.333 L
495.48 145.333 L
496.032 145.333 L
496.534 145.333 L
496.941 145.333 L
497.319 145.333 L
S
GR
GS
[0.75 0 0 0.75 0 0] CT
0.851 0.325 0.098 RC
1 LJ
0.667 LW
N
496.941 145.333 M
497.319 145.333 L
497.76 145.333 L
498.294 145.333 L
498.838 145.333 L
499.287 145.333 L
499.665 145.333 L
500.064 145.333 L
500.555 145.333 L
501.115 145.333 L
501.516 145.333 L
501.918 145.333 L
502.405 145.333 L
502.957 145.333 L
503.46 145.333 L
503.866 145.333 L
504.244 145.333 L
504.685 145.333 L
505.219 145.333 L
505.763 145.333 L
506.212 145.333 L
506.59 145.333 L
507 145.333 L
S
GR
GS
[0.75 0 0 0.75 0 0] CT
0.929 0.694 0.125 RC
1 LJ
0.667 LW
N
73 335.889 M
73.362 335.889 L
73.362 335.889 L
73.362 335.889 L
73.409 335.814 L
73.452 335.649 L
73.509 335.316 L
73.578 334.814 L
73.669 334.031 L
73.791 332.896 L
73.928 331.568 L
74.09 329.976 L
74.285 328.059 L
74.531 325.676 L
74.858 322.538 L
75.382 317.636 L
75.944 312.523 L
76.311 309.271 L
76.678 306.082 L
77.167 301.918 L
77.769 296.956 L
78.164 293.777 L
78.56 290.664 L
79.058 286.833 L
79.633 282.546 L
80.032 279.644 L
80.431 276.803 L
80.924 273.375 L
81.489 269.558 L
81.895 266.887 L
82.3 264.274 L
82.792 261.183 L
83.346 257.791 L
83.851 254.79 L
84.261 252.411 L
84.643 250.243 L
85.088 247.771 L
85.626 244.862 L
86.172 241.991 L
86.625 239.677 L
87.006 237.772 L
87.409 235.798 L
87.905 233.425 L
88.467 230.81 L
88.872 228.978 L
89.276 227.186 L
89.767 225.061 L
90.323 222.721 L
90.829 220.65 L
91.239 219.013 L
S
GR
GS
[0.75 0 0 0.75 0 0] CT
0.929 0.694 0.125 RC
1 LJ
0.667 LW
N
90.829 220.65 M
91.239 219.013 L
91.62 217.526 L
92.064 215.83 L
92.602 213.827 L
93.15 211.845 L
93.603 210.25 L
93.983 208.941 L
94.385 207.587 L
94.88 205.957 L
95.444 204.154 L
95.848 202.893 L
96.253 201.659 L
96.744 200.196 L
97.3 198.586 L
97.806 197.162 L
98.216 196.036 L
98.597 195.012 L
99.041 193.844 L
99.579 192.465 L
100.127 191.103 L
100.58 190.005 L
100.96 189.105 L
101.362 188.172 L
101.858 187.05 L
102.421 185.81 L
102.825 184.942 L
103.23 184.093 L
103.721 183.087 L
104.277 181.978 L
104.783 180.998 L
105.193 180.223 L
105.574 179.519 L
106.018 178.715 L
106.556 177.767 L
107.104 176.829 L
107.557 176.073 L
107.937 175.454 L
108.339 174.813 L
108.834 174.04 L
109.398 173.186 L
109.802 172.589 L
110.207 172.005 L
110.698 171.313 L
111.254 170.55 L
111.76 169.875 L
112.17 169.342 L
112.551 168.858 L
112.995 168.305 L
113.533 167.652 L
114.081 167.006 L
114.534 166.487 L
S
GR
GS
[0.75 0 0 0.75 0 0] CT
0.929 0.694 0.125 RC
1 LJ
0.667 LW
N
114.081 167.006 M
114.534 166.487 L
114.914 166.06 L
115.316 165.619 L
115.811 165.088 L
116.375 164.5 L
116.779 164.089 L
117.184 163.687 L
117.675 163.211 L
118.231 162.686 L
118.737 162.221 L
119.147 161.855 L
119.528 161.521 L
119.972 161.141 L
120.51 160.691 L
121.058 160.247 L
121.511 159.889 L
121.891 159.596 L
122.293 159.293 L
122.788 158.927 L
123.352 158.522 L
123.756 158.24 L
124.161 157.963 L
124.652 157.635 L
125.208 157.274 L
125.714 156.954 L
126.124 156.702 L
126.505 156.473 L
126.949 156.211 L
127.487 155.902 L
128.035 155.596 L
128.488 155.35 L
128.868 155.148 L
129.27 154.939 L
129.765 154.688 L
130.329 154.409 L
130.733 154.215 L
131.138 154.024 L
131.629 153.799 L
132.185 153.55 L
132.691 153.33 L
133.101 153.157 L
133.482 152.999 L
133.926 152.819 L
134.464 152.606 L
135.012 152.395 L
135.465 152.226 L
135.845 152.087 L
136.247 151.943 L
136.742 151.77 L
137.306 151.579 L
137.71 151.445 L
S
GR
GS
[0.75 0 0 0.75 0 0] CT
0.929 0.694 0.125 RC
1 LJ
0.667 LW
N
137.306 151.579 M
137.71 151.445 L
138.115 151.314 L
138.606 151.159 L
139.162 150.987 L
139.668 150.836 L
140.078 150.717 L
140.459 150.608 L
140.903 150.484 L
141.441 150.338 L
141.989 150.193 L
142.442 150.076 L
142.822 149.981 L
143.224 149.882 L
143.719 149.763 L
144.283 149.631 L
144.687 149.539 L
145.092 149.449 L
145.583 149.342 L
146.139 149.224 L
146.645 149.12 L
147.055 149.038 L
147.436 148.963 L
147.88 148.878 L
148.418 148.777 L
148.966 148.677 L
149.419 148.597 L
149.799 148.531 L
150.201 148.463 L
150.696 148.381 L
151.26 148.29 L
151.664 148.227 L
152.069 148.165 L
152.56 148.092 L
153.116 148.011 L
153.622 147.939 L
154.032 147.882 L
154.413 147.831 L
154.857 147.772 L
155.395 147.703 L
155.943 147.634 L
156.396 147.579 L
156.776 147.534 L
157.178 147.487 L
157.673 147.431 L
158.237 147.368 L
158.641 147.325 L
159.046 147.282 L
159.537 147.231 L
160.093 147.176 L
160.599 147.126 L
161.009 147.087 L
S
GR
GS
[0.75 0 0 0.75 0 0] CT
0.929 0.694 0.125 RC
1 LJ
0.667 LW
N
160.599 147.126 M
161.009 147.087 L
161.39 147.052 L
161.834 147.012 L
162.372 146.964 L
162.92 146.916 L
163.373 146.879 L
163.753 146.848 L
164.155 146.815 L
164.65 146.777 L
165.214 146.733 L
165.618 146.704 L
166.023 146.674 L
166.514 146.639 L
167.07 146.601 L
167.576 146.567 L
167.986 146.54 L
168.367 146.516 L
168.811 146.488 L
169.349 146.455 L
169.897 146.423 L
170.35 146.397 L
170.73 146.375 L
171.132 146.353 L
171.627 146.326 L
172.191 146.297 L
172.595 146.276 L
173 146.256 L
173.491 146.232 L
174.047 146.206 L
174.553 146.182 L
174.963 146.164 L
175.344 146.147 L
175.788 146.128 L
176.326 146.105 L
176.874 146.083 L
177.327 146.065 L
177.707 146.05 L
178.109 146.035 L
178.604 146.017 L
179.168 145.996 L
179.572 145.982 L
179.977 145.968 L
180.468 145.952 L
181.024 145.933 L
181.5 145.918 L
181.5 145.918 L
181.5 145.918 L
181.524 145.917 L
181.549 145.917 L
181.584 145.916 L
181.624 145.914 L
S
GR
GS
[0.75 0 0 0.75 0 0] CT
0.929 0.694 0.125 RC
1 LJ
0.667 LW
N
181.584 145.916 M
181.624 145.914 L
181.677 145.913 L
181.75 145.911 L
181.843 145.908 L
181.947 145.905 L
182.066 145.901 L
182.204 145.897 L
182.372 145.892 L
182.587 145.885 L
182.852 145.878 L
183.131 145.87 L
183.462 145.86 L
183.864 145.849 L
184.368 145.835 L
184.906 145.821 L
185.511 145.805 L
185.963 145.794 L
186.414 145.783 L
186.904 145.771 L
187.398 145.76 L
187.855 145.75 L
188.279 145.74 L
188.711 145.731 L
189.186 145.721 L
189.689 145.711 L
190.168 145.701 L
190.6 145.693 L
191.019 145.685 L
191.472 145.676 L
191.972 145.667 L
192.472 145.658 L
192.923 145.651 L
193.338 145.644 L
193.767 145.637 L
194.25 145.629 L
194.763 145.621 L
195.242 145.614 L
195.665 145.607 L
196.076 145.601 L
196.532 145.595 L
197.043 145.588 L
197.549 145.581 L
197.994 145.575 L
198.398 145.57 L
198.825 145.565 L
199.317 145.559 L
199.841 145.552 L
200.318 145.547 L
200.73 145.542 L
201.135 145.538 L
201.595 145.533 L
S
GR
GS
[0.75 0 0 0.75 0 0] CT
0.929 0.694 0.125 RC
1 LJ
0.667 LW
N
201.135 145.538 M
201.595 145.533 L
202.118 145.527 L
202.629 145.522 L
203.066 145.518 L
203.461 145.514 L
203.886 145.51 L
204.388 145.505 L
204.922 145.5 L
205.397 145.496 L
205.799 145.493 L
206.197 145.489 L
206.662 145.485 L
207.197 145.481 L
207.712 145.477 L
208.141 145.474 L
208.526 145.471 L
208.951 145.468 L
209.462 145.464 L
210.005 145.46 L
210.477 145.457 L
210.87 145.455 L
211.263 145.452 L
211.732 145.449 L
212.278 145.446 L
212.796 145.443 L
213.218 145.44 L
213.596 145.438 L
214.02 145.436 L
214.538 145.433 L
215.089 145.43 L
215.559 145.428 L
215.944 145.426 L
216.333 145.424 L
216.805 145.422 L
217.359 145.419 L
217.88 145.417 L
218.297 145.415 L
218.669 145.413 L
219.093 145.411 L
219.617 145.409 L
220.173 145.407 L
220.641 145.405 L
221.021 145.404 L
221.406 145.402 L
221.881 145.401 L
222.44 145.399 L
222.854 145.397 L
223.269 145.396 L
223.756 145.394 L
224.292 145.392 L
224.783 145.391 L
S
GR
GS
[0.75 0 0 0.75 0 0] CT
0.929 0.694 0.125 RC
1 LJ
0.667 LW
N
224.292 145.392 M
224.783 145.391 L
225.195 145.39 L
225.586 145.389 L
226.035 145.387 L
226.562 145.386 L
227.09 145.384 L
227.535 145.383 L
227.922 145.382 L
228.333 145.381 L
228.828 145.38 L
229.374 145.378 L
229.865 145.377 L
230.268 145.376 L
230.653 145.375 L
231.104 145.374 L
231.641 145.373 L
232.174 145.372 L
232.614 145.371 L
232.993 145.37 L
233.401 145.37 L
233.902 145.369 L
234.457 145.368 L
234.948 145.367 L
235.344 145.366 L
235.723 145.365 L
236.176 145.365 L
236.721 145.364 L
237.258 145.363 L
237.694 145.362 L
238.067 145.362 L
238.474 145.361 L
238.979 145.36 L
239.54 145.359 L
239.932 145.359 L
240.323 145.358 L
240.811 145.358 L
241.375 145.357 L
241.778 145.357 L
242.181 145.356 L
242.67 145.355 L
243.221 145.355 L
243.721 145.354 L
244.128 145.354 L
244.507 145.353 L
244.949 145.353 L
245.484 145.352 L
246.026 145.352 L
246.474 145.351 L
246.851 145.351 L
247.252 145.351 L
247.745 145.35 L
S
GR
GS
[0.75 0 0 0.75 0 0] CT
0.929 0.694 0.125 RC
1 LJ
0.667 LW
N
247.252 145.351 M
247.745 145.35 L
248.304 145.35 L
248.704 145.349 L
249.105 145.349 L
249.592 145.349 L
250.145 145.348 L
250.648 145.348 L
251.055 145.347 L
251.432 145.347 L
251.872 145.347 L
252.407 145.346 L
252.951 145.346 L
253.401 145.346 L
253.778 145.346 L
253.833 145.345 L
253.833 145.345 L
253.833 145.345 L
254.03 142.769 L
254.227 140.233 L
254.511 136.651 L
254.874 132.211 L
255.383 126.229 L
256.016 119.214 L
256.377 115.397 L
256.738 111.716 L
257.236 106.861 L
257.85 101.202 L
258.239 97.808 L
258.627 94.55 L
259.127 90.547 L
259.712 86.135 L
260.107 83.318 L
260.502 80.623 L
260.997 77.411 L
261.569 73.924 L
261.971 71.613 L
262.373 69.413 L
262.866 66.863 L
263.427 64.15 L
263.935 61.861 L
264.342 60.135 L
264.719 58.619 L
265.163 56.94 L
265.704 55.033 L
266.255 53.245 L
266.707 51.889 L
267.085 50.832 L
267.484 49.784 L
267.981 48.581 L
268.547 47.335 L
268.95 46.53 L
S
GR
GS
[0.75 0 0 0.75 0 0] CT
0.929 0.694 0.125 RC
1 LJ
0.667 LW
N
268.547 47.335 M
268.95 46.53 L
269.353 45.788 L
269.845 44.966 L
270.404 44.14 L
270.911 43.484 L
271.32 43.019 L
271.699 42.635 L
272.142 42.242 L
272.682 41.844 L
273.231 41.523 L
273.684 41.321 L
274.06 41.194 L
274.455 41.1 L
274.944 41.035 L
275.505 41.028 L
275.908 41.067 L
276.311 41.14 L
276.799 41.272 L
277.35 41.477 L
277.85 41.713 L
278.257 41.937 L
278.637 42.171 L
279.079 42.472 L
279.613 42.877 L
280.155 43.33 L
280.603 43.737 L
280.981 44.1 L
281.382 44.504 L
281.874 45.028 L
282.432 45.655 L
282.934 46.246 L
283.335 46.738 L
283.709 47.211 L
284.152 47.786 L
284.692 48.512 L
285.238 49.269 L
285.684 49.904 L
286.057 50.446 L
286.455 51.035 L
286.951 51.783 L
287.515 52.65 L
287.912 53.273 L
288.309 53.903 L
288.798 54.687 L
289.356 55.596 L
289.76 56.263 L
290.164 56.936 L
290.652 57.754 L
291.2 58.683 L
291.699 59.537 L
292.108 60.24 L
S
GR
GS
[0.75 0 0 0.75 0 0] CT
0.929 0.694 0.125 RC
1 LJ
0.667 LW
N
291.699 59.537 M
292.108 60.24 L
292.489 60.899 L
292.931 61.668 L
293.464 62.597 L
294.004 63.543 L
294.452 64.333 L
294.832 65.002 L
295.234 65.712 L
295.726 66.583 L
296.282 67.568 L
296.783 68.455 L
297.185 69.167 L
297.56 69.833 L
298.004 70.617 L
298.543 71.571 L
299.088 72.531 L
299.533 73.315 L
299.907 73.972 L
300.306 74.672 L
300.802 75.538 L
301.365 76.517 L
301.762 77.206 L
302.16 77.893 L
302.648 78.732 L
303.205 79.686 L
303.711 80.546 L
304.116 81.231 L
304.49 81.861 L
304.928 82.596 L
305.465 83.49 L
306.013 84.397 L
306.464 85.137 L
306.838 85.748 L
307.233 86.39 L
307.725 87.182 L
308.287 88.082 L
308.688 88.718 L
309.089 89.35 L
309.578 90.114 L
310.131 90.972 L
310.633 91.744 L
311.039 92.362 L
311.416 92.932 L
311.857 93.594 L
312.392 94.389 L
312.937 95.19 L
313.386 95.845 L
313.763 96.389 L
314.161 96.96 L
314.653 97.659 L
315.213 98.446 L
S
GR
GS
[0.75 0 0 0.75 0 0] CT
0.929 0.694 0.125 RC
1 LJ
0.667 LW
N
314.653 97.659 M
315.213 98.446 L
315.614 99.003 L
316.015 99.556 L
316.503 100.221 L
317.056 100.968 L
317.559 101.638 L
317.965 102.174 L
318.342 102.668 L
318.783 103.239 L
319.317 103.924 L
319.862 104.612 L
320.311 105.174 L
320.688 105.641 L
321.086 106.129 L
321.578 106.725 L
322.138 107.396 L
322.54 107.87 L
322.941 108.34 L
323.428 108.905 L
323.981 109.536 L
324.483 110.102 L
324.89 110.555 L
325.268 110.972 L
325.708 111.452 L
326.243 112.028 L
326.787 112.605 L
327.236 113.076 L
327.613 113.467 L
328.012 113.876 L
328.504 114.374 L
329.063 114.932 L
329.465 115.328 L
329.866 115.719 L
330.354 116.188 L
330.906 116.712 L
331.408 117.181 L
331.815 117.556 L
332.193 117.901 L
332.633 118.298 L
333.168 118.773 L
333.711 119.249 L
334.161 119.637 L
334.538 119.959 L
334.937 120.295 L
335.429 120.704 L
335.988 121.162 L
336.39 121.486 L
336.791 121.807 L
337.279 122.191 L
337.831 122.619 L
338.333 123.002 L
S
GR
GS
[0.75 0 0 0.75 0 0] CT
0.929 0.694 0.125 RC
1 LJ
0.667 LW
N
337.831 122.619 M
338.333 123.002 L
338.74 123.308 L
339.118 123.589 L
339.559 123.913 L
340.093 124.3 L
340.636 124.687 L
341.086 125.002 L
341.463 125.263 L
341.862 125.536 L
342.354 125.868 L
342.913 126.239 L
343.315 126.502 L
343.716 126.761 L
344.204 127.072 L
344.756 127.417 L
345.258 127.727 L
345.665 127.974 L
346.043 128.201 L
346.484 128.462 L
347.018 128.773 L
347.561 129.084 L
348.011 129.338 L
348.388 129.548 L
348.787 129.767 L
349.279 130.033 L
349.838 130.331 L
350.24 130.542 L
350.641 130.75 L
351.129 130.998 L
351.681 131.275 L
352.183 131.523 L
352.59 131.72 L
352.968 131.901 L
353.409 132.11 L
353.943 132.358 L
354.486 132.607 L
354.936 132.809 L
355.313 132.976 L
355.712 133.151 L
356.204 133.363 L
356.763 133.6 L
357.165 133.768 L
357.566 133.933 L
358.054 134.13 L
358.606 134.35 L
359.108 134.547 L
359.515 134.704 L
359.893 134.847 L
360.334 135.013 L
360.868 135.21 L
361.411 135.407 L
S
GR
GS
[0.75 0 0 0.75 0 0] CT
0.929 0.694 0.125 RC
1 LJ
0.667 LW
N
360.868 135.21 M
361.411 135.407 L
361.861 135.567 L
362.238 135.699 L
362.333 135.732 L
362.333 135.732 L
362.333 135.732 L
362.487 135.634 L
362.64 135.295 L
362.856 134.542 L
363.122 133.344 L
363.502 131.391 L
364.019 128.601 L
364.473 126.175 L
364.927 123.83 L
365.407 121.451 L
365.891 119.172 L
366.349 117.117 L
366.784 115.257 L
367.225 113.458 L
367.695 111.634 L
368.184 109.838 L
368.657 108.196 L
369.098 106.746 L
369.529 105.399 L
369.985 104.051 L
370.472 102.691 L
370.96 101.414 L
371.413 100.296 L
371.841 99.303 L
372.28 98.342 L
372.757 97.366 L
373.254 96.418 L
373.726 95.58 L
374.159 94.864 L
374.585 94.208 L
375.043 93.553 L
375.539 92.9 L
376.031 92.309 L
376.479 91.818 L
376.899 91.397 L
377.336 90.996 L
377.82 90.598 L
378.326 90.23 L
378.797 89.929 L
379.221 89.691 L
379.64 89.486 L
380.103 89.293 L
380.61 89.12 L
381.105 88.988 L
381.547 88.9 L
381.957 88.843 L
S
GR
GS
[0.75 0 0 0.75 0 0] CT
0.929 0.694 0.125 RC
1 LJ
0.667 LW
N
381.547 88.9 M
381.957 88.843 L
382.394 88.806 L
382.887 88.794 L
383.402 88.813 L
383.87 88.857 L
384.284 88.916 L
384.698 88.993 L
385.165 89.101 L
385.684 89.247 L
386.183 89.41 L
386.616 89.569 L
387.017 89.731 L
387.453 89.921 L
387.957 90.16 L
388.481 90.427 L
388.945 90.68 L
389.349 90.912 L
389.757 91.156 L
390.231 91.452 L
390.762 91.799 L
391.264 92.141 L
391.687 92.439 L
392.079 92.722 L
392.516 93.046 L
393.031 93.439 L
393.563 93.855 L
394.023 94.223 L
394.416 94.544 L
394.82 94.879 L
395.3 95.283 L
395.843 95.748 L
396.346 96.186 L
396.761 96.552 L
397.145 96.893 L
397.583 97.287 L
398.108 97.763 L
398.647 98.258 L
399.103 98.679 L
399.487 99.037 L
399.887 99.411 L
400.373 99.867 L
400.925 100.389 L
401.429 100.868 L
401.838 101.257 L
402.215 101.617 L
402.653 102.037 L
403.186 102.548 L
403.732 103.071 L
404.183 103.505 L
404.561 103.868 L
404.958 104.249 L
S
GR
GS
[0.75 0 0 0.75 0 0] CT
0.929 0.694 0.125 RC
1 LJ
0.667 LW
N
404.561 103.868 M
404.958 104.249 L
405.448 104.719 L
406.007 105.255 L
406.41 105.641 L
406.813 106.026 L
407.301 106.49 L
407.851 107.013 L
408.352 107.488 L
408.759 107.872 L
409.139 108.229 L
409.58 108.643 L
410.114 109.141 L
410.656 109.644 L
411.105 110.059 L
411.483 110.407 L
411.883 110.773 L
412.376 111.221 L
412.934 111.726 L
413.435 112.176 L
413.837 112.534 L
414.211 112.867 L
414.654 113.257 L
415.193 113.729 L
415.74 114.204 L
416.186 114.588 L
416.559 114.907 L
416.957 115.246 L
417.452 115.663 L
418.016 116.134 L
418.414 116.464 L
418.811 116.791 L
419.3 117.189 L
419.857 117.639 L
420.362 118.043 L
420.767 118.364 L
421.141 118.658 L
421.579 119 L
422.116 119.414 L
422.665 119.832 L
423.115 120.172 L
423.489 120.453 L
423.885 120.746 L
424.376 121.107 L
424.939 121.516 L
425.34 121.804 L
425.741 122.089 L
426.229 122.433 L
426.782 122.819 L
427.285 123.164 L
427.691 123.44 L
428.068 123.694 L
S
GR
GS
[0.75 0 0 0.75 0 0] CT
0.929 0.694 0.125 RC
1 LJ
0.667 LW
N
427.691 123.44 M
428.068 123.694 L
428.508 123.988 L
429.044 124.341 L
429.588 124.696 L
430.038 124.984 L
430.414 125.224 L
430.812 125.474 L
431.304 125.781 L
431.865 126.125 L
432.266 126.368 L
432.667 126.609 L
433.154 126.899 L
433.707 127.222 L
434.21 127.513 L
434.616 127.744 L
434.994 127.957 L
435.434 128.203 L
435.969 128.498 L
436.513 128.793 L
436.963 129.034 L
437.34 129.233 L
437.738 129.442 L
438.23 129.696 L
438.79 129.981 L
439.191 130.183 L
439.592 130.382 L
440.08 130.622 L
440.632 130.889 L
441.135 131.128 L
441.541 131.319 L
441.919 131.494 L
442.36 131.697 L
442.894 131.939 L
443.438 132.181 L
443.888 132.378 L
444.265 132.542 L
444.663 132.713 L
445.155 132.921 L
445.715 133.154 L
446.116 133.318 L
446.518 133.481 L
447.005 133.676 L
447.557 133.893 L
448.06 134.088 L
448.466 134.243 L
448.844 134.386 L
449.285 134.55 L
449.819 134.746 L
450.363 134.942 L
450.813 135.102 L
451.19 135.235 L
S
GR
GS
[0.75 0 0 0.75 0 0] CT
0.929 0.694 0.125 RC
1 LJ
0.667 LW
N
450.813 135.102 M
451.19 135.235 L
451.589 135.373 L
452.08 135.541 L
452.64 135.729 L
453.041 135.862 L
453.443 135.993 L
453.93 136.15 L
454.482 136.325 L
454.985 136.482 L
455.391 136.607 L
455.769 136.722 L
456.21 136.854 L
456.744 137.011 L
457.288 137.169 L
457.738 137.297 L
458.115 137.403 L
458.514 137.514 L
459.005 137.648 L
459.565 137.799 L
459.966 137.905 L
460.368 138.01 L
460.855 138.136 L
461.407 138.275 L
461.91 138.4 L
462.316 138.5 L
462.694 138.591 L
463.135 138.696 L
463.669 138.822 L
464.213 138.947 L
464.663 139.049 L
465.04 139.134 L
465.439 139.222 L
465.93 139.329 L
466.49 139.448 L
466.891 139.532 L
467.293 139.616 L
467.78 139.715 L
468.332 139.826 L
468.835 139.925 L
469.241 140.004 L
469.619 140.076 L
470.06 140.16 L
470.594 140.259 L
471.138 140.358 L
471.588 140.438 L
471.965 140.505 L
472.364 140.575 L
472.855 140.659 L
473.415 140.753 L
473.816 140.82 L
474.218 140.886 L
S
GR
GS
[0.75 0 0 0.75 0 0] CT
0.929 0.694 0.125 RC
1 LJ
0.667 LW
N
473.816 140.82 M
474.218 140.886 L
474.705 140.964 L
475.257 141.051 L
475.76 141.129 L
476.166 141.191 L
476.544 141.248 L
476.985 141.314 L
477.519 141.392 L
478.063 141.47 L
478.512 141.533 L
478.89 141.586 L
479.289 141.64 L
479.78 141.707 L
480.34 141.781 L
480.741 141.833 L
481.143 141.884 L
481.63 141.946 L
482.182 142.014 L
482.685 142.075 L
483.091 142.124 L
483.469 142.169 L
483.91 142.22 L
484.444 142.281 L
484.988 142.342 L
485.437 142.392 L
485.815 142.433 L
486.214 142.475 L
486.705 142.527 L
487.265 142.585 L
487.666 142.626 L
488.068 142.666 L
488.555 142.714 L
489.107 142.768 L
489.609 142.815 L
490.016 142.853 L
490.394 142.888 L
490.835 142.928 L
491.369 142.976 L
491.913 143.023 L
492.362 143.062 L
492.74 143.094 L
493.139 143.127 L
493.63 143.167 L
494.19 143.212 L
494.591 143.244 L
494.993 143.275 L
495.48 143.313 L
496.032 143.354 L
496.534 143.392 L
496.941 143.421 L
497.319 143.448 L
S
GR
GS
[0.75 0 0 0.75 0 0] CT
0.929 0.694 0.125 RC
1 LJ
0.667 LW
N
496.941 143.421 M
497.319 143.448 L
497.76 143.479 L
498.294 143.516 L
498.838 143.553 L
499.287 143.583 L
499.665 143.608 L
500.064 143.634 L
500.555 143.665 L
501.115 143.7 L
501.516 143.725 L
501.918 143.749 L
502.405 143.778 L
502.957 143.81 L
503.46 143.839 L
503.866 143.862 L
504.244 143.883 L
504.685 143.907 L
505.219 143.936 L
505.763 143.964 L
506.212 143.987 L
506.59 144.007 L
507 144.027 L
S
GR
GS
[0.75 0 0 0.75 0 0] CT
0.494 0.184 0.557 RC
1 LJ
0.667 LW
N
73 335.889 M
73.362 335.889 L
73.362 335.889 L
73.362 335.889 L
73.409 335.889 L
73.452 335.889 L
73.509 335.889 L
73.578 335.889 L
73.669 335.889 L
73.791 335.889 L
73.928 335.889 L
74.09 335.889 L
74.285 335.889 L
74.531 335.889 L
74.858 335.889 L
75.382 335.889 L
75.944 335.889 L
76.311 335.889 L
76.678 335.889 L
77.167 335.889 L
77.769 335.889 L
78.164 335.889 L
78.56 335.889 L
79.058 335.889 L
79.633 335.889 L
80.032 335.889 L
80.431 335.889 L
80.924 335.889 L
81.489 335.889 L
81.895 335.889 L
82.3 335.889 L
82.792 335.889 L
83.346 335.889 L
83.851 335.889 L
84.261 335.889 L
84.643 335.889 L
85.088 335.889 L
85.626 335.889 L
86.172 335.889 L
86.625 335.889 L
87.006 335.889 L
87.409 335.889 L
87.905 335.889 L
88.467 335.889 L
88.872 335.889 L
89.276 335.889 L
89.767 335.889 L
90.323 335.889 L
90.829 335.889 L
91.239 335.889 L
S
GR
GS
[0.75 0 0 0.75 0 0] CT
0.494 0.184 0.557 RC
1 LJ
0.667 LW
N
90.829 335.889 M
91.239 335.889 L
91.62 335.889 L
92.064 335.889 L
92.602 335.889 L
93.15 335.889 L
93.603 335.889 L
93.983 335.889 L
94.385 335.889 L
94.88 335.889 L
95.444 335.889 L
95.848 335.889 L
96.253 335.889 L
96.744 335.889 L
97.3 335.889 L
97.806 335.889 L
98.216 335.889 L
98.597 335.889 L
99.041 335.889 L
99.579 335.889 L
100.127 335.889 L
100.58 335.889 L
100.96 335.889 L
101.362 335.889 L
101.858 335.889 L
102.421 335.889 L
102.825 335.889 L
103.23 335.889 L
103.721 335.889 L
104.277 335.889 L
104.783 335.889 L
105.193 335.889 L
105.574 335.889 L
106.018 335.889 L
106.556 335.889 L
107.104 335.889 L
107.557 335.889 L
107.937 335.889 L
108.339 335.889 L
108.834 335.889 L
109.398 335.889 L
109.802 335.889 L
110.207 335.889 L
110.698 335.889 L
111.254 335.889 L
111.76 335.889 L
112.17 335.889 L
112.551 335.889 L
112.995 335.889 L
113.533 335.889 L
114.081 335.889 L
114.534 335.889 L
S
GR
GS
[0.75 0 0 0.75 0 0] CT
0.494 0.184 0.557 RC
1 LJ
0.667 LW
N
114.081 335.889 M
114.534 335.889 L
114.914 335.889 L
115.316 335.889 L
115.811 335.889 L
116.375 335.889 L
116.779 335.889 L
117.184 335.889 L
117.675 335.889 L
118.231 335.889 L
118.737 335.889 L
119.147 335.889 L
119.528 335.889 L
119.972 335.889 L
120.51 335.889 L
121.058 335.889 L
121.511 335.889 L
121.891 335.889 L
122.293 335.889 L
122.788 335.889 L
123.352 335.889 L
123.756 335.889 L
124.161 335.889 L
124.652 335.889 L
125.208 335.889 L
125.714 335.889 L
126.124 335.889 L
126.505 335.889 L
126.949 335.889 L
127.487 335.889 L
128.035 335.889 L
128.488 335.889 L
128.868 335.889 L
129.27 335.889 L
129.765 335.889 L
130.329 335.889 L
130.733 335.889 L
131.138 335.889 L
131.629 335.889 L
132.185 335.889 L
132.691 335.889 L
133.101 335.889 L
133.482 335.889 L
133.926 335.889 L
134.464 335.889 L
135.012 335.889 L
135.465 335.889 L
135.845 335.889 L
136.247 335.889 L
136.742 335.889 L
137.306 335.889 L
137.71 335.889 L
S
GR
GS
[0.75 0 0 0.75 0 0] CT
0.494 0.184 0.557 RC
1 LJ
0.667 LW
N
137.306 335.889 M
137.71 335.889 L
138.115 335.889 L
138.606 335.889 L
139.162 335.889 L
139.668 335.889 L
140.078 335.889 L
140.459 335.889 L
140.903 335.889 L
141.441 335.889 L
141.989 335.889 L
142.442 335.889 L
142.822 335.889 L
143.224 335.889 L
143.719 335.889 L
144.283 335.889 L
144.687 335.889 L
145.092 335.889 L
145.583 335.889 L
146.139 335.889 L
146.645 335.889 L
147.055 335.889 L
147.436 335.889 L
147.88 335.889 L
148.418 335.889 L
148.966 335.889 L
149.419 335.889 L
149.799 335.889 L
150.201 335.889 L
150.696 335.889 L
151.26 335.889 L
151.664 335.889 L
152.069 335.889 L
152.56 335.889 L
153.116 335.889 L
153.622 335.889 L
154.032 335.889 L
154.413 335.889 L
154.857 335.889 L
155.395 335.889 L
155.943 335.889 L
156.396 335.889 L
156.776 335.889 L
157.178 335.889 L
157.673 335.889 L
158.237 335.889 L
158.641 335.889 L
159.046 335.889 L
159.537 335.889 L
160.093 335.889 L
160.599 335.889 L
161.009 335.889 L
S
GR
GS
[0.75 0 0 0.75 0 0] CT
0.494 0.184 0.557 RC
1 LJ
0.667 LW
N
160.599 335.889 M
161.009 335.889 L
161.39 335.889 L
161.834 335.889 L
162.372 335.889 L
162.92 335.889 L
163.373 335.889 L
163.753 335.889 L
164.155 335.889 L
164.65 335.889 L
165.214 335.889 L
165.618 335.889 L
166.023 335.889 L
166.514 335.889 L
167.07 335.889 L
167.576 335.889 L
167.986 335.889 L
168.367 335.889 L
168.811 335.889 L
169.349 335.889 L
169.897 335.889 L
170.35 335.889 L
170.73 335.889 L
171.132 335.889 L
171.627 335.889 L
172.191 335.889 L
172.595 335.889 L
173 335.889 L
173.491 335.889 L
174.047 335.889 L
174.553 335.889 L
174.963 335.889 L
175.344 335.889 L
175.788 335.889 L
176.326 335.889 L
176.874 335.889 L
177.327 335.889 L
177.707 335.889 L
178.109 335.889 L
178.604 335.889 L
179.168 335.889 L
179.572 335.889 L
179.977 335.889 L
180.468 335.889 L
181.024 335.889 L
181.5 335.889 L
181.5 335.889 L
181.5 335.889 L
181.524 335.883 L
181.549 335.864 L
181.584 335.815 L
181.624 335.729 L
S
GR
GS
[0.75 0 0 0.75 0 0] CT
0.494 0.184 0.557 RC
1 LJ
0.667 LW
N
181.584 335.815 M
181.624 335.729 L
181.677 335.574 L
181.75 335.28 L
181.843 334.784 L
181.947 334.098 L
182.066 333.159 L
182.204 331.889 L
182.372 330.155 L
182.587 327.678 L
182.852 324.363 L
183.131 320.671 L
183.462 316.141 L
183.864 310.576 L
184.368 303.643 L
184.906 296.421 L
185.511 288.618 L
185.963 283.031 L
186.414 277.649 L
186.904 272.04 L
187.398 266.613 L
187.855 261.802 L
188.279 257.511 L
188.711 253.293 L
189.186 248.844 L
189.689 244.33 L
190.168 240.216 L
190.6 236.649 L
191.019 233.323 L
191.472 229.86 L
191.972 226.2 L
192.472 222.693 L
192.923 219.657 L
193.338 216.977 L
193.767 214.3 L
194.25 211.413 L
194.763 208.474 L
195.242 205.853 L
195.665 203.626 L
196.076 201.539 L
196.532 199.312 L
197.043 196.922 L
197.549 194.66 L
197.994 192.753 L
198.398 191.084 L
198.825 189.383 L
199.317 187.505 L
199.841 185.592 L
200.318 183.925 L
200.73 182.54 L
201.135 181.23 L
201.595 179.795 L
S
GR
GS
[0.75 0 0 0.75 0 0] CT
0.494 0.184 0.557 RC
1 LJ
0.667 LW
N
201.135 181.23 M
201.595 179.795 L
202.118 178.233 L
202.629 176.777 L
203.066 175.582 L
203.461 174.543 L
203.886 173.461 L
204.388 172.239 L
204.922 170.995 L
205.397 169.937 L
205.799 169.076 L
206.197 168.253 L
206.662 167.328 L
207.197 166.309 L
207.712 165.373 L
208.141 164.624 L
208.526 163.977 L
208.951 163.288 L
209.462 162.494 L
210.005 161.687 L
210.477 161.017 L
210.87 160.48 L
211.263 159.962 L
211.732 159.366 L
212.278 158.704 L
212.796 158.103 L
213.218 157.634 L
213.596 157.229 L
214.02 156.79 L
214.538 156.276 L
215.089 155.755 L
215.559 155.33 L
215.944 154.994 L
216.333 154.667 L
216.805 154.284 L
217.359 153.855 L
217.88 153.471 L
218.297 153.176 L
218.669 152.921 L
219.093 152.642 L
219.617 152.31 L
220.173 151.974 L
220.641 151.705 L
221.021 151.493 L
221.406 151.287 L
221.881 151.041 L
222.44 150.765 L
222.854 150.57 L
223.269 150.381 L
223.756 150.168 L
224.292 149.943 L
224.783 149.747 L
S
GR
GS
[0.75 0 0 0.75 0 0] CT
0.494 0.184 0.557 RC
1 LJ
0.667 LW
N
224.292 149.943 M
224.783 149.747 L
225.195 149.589 L
225.586 149.444 L
226.035 149.283 L
226.562 149.103 L
227.09 148.931 L
227.535 148.792 L
227.922 148.675 L
228.333 148.555 L
228.828 148.417 L
229.374 148.271 L
229.865 148.146 L
230.268 148.048 L
230.653 147.957 L
231.104 147.854 L
231.641 147.737 L
232.174 147.626 L
232.614 147.538 L
232.993 147.465 L
233.401 147.389 L
233.902 147.3 L
234.457 147.206 L
234.948 147.126 L
235.344 147.064 L
235.723 147.007 L
236.176 146.941 L
236.721 146.865 L
237.258 146.794 L
237.694 146.739 L
238.067 146.693 L
238.474 146.645 L
238.979 146.587 L
239.54 146.527 L
239.932 146.486 L
240.323 146.447 L
240.811 146.4 L
241.375 146.348 L
241.778 146.312 L
242.181 146.278 L
242.67 146.238 L
243.221 146.194 L
243.721 146.157 L
244.128 146.128 L
244.507 146.102 L
244.949 146.072 L
245.484 146.038 L
246.026 146.005 L
246.474 145.979 L
246.851 145.958 L
247.252 145.936 L
247.745 145.91 L
S
GR
GS
[0.75 0 0 0.75 0 0] CT
0.494 0.184 0.557 RC
1 LJ
0.667 LW
N
247.252 145.936 M
247.745 145.91 L
248.304 145.882 L
248.704 145.863 L
249.105 145.845 L
249.592 145.823 L
250.145 145.799 L
250.648 145.779 L
251.055 145.763 L
251.432 145.749 L
251.872 145.733 L
252.407 145.715 L
252.951 145.697 L
253.401 145.683 L
253.778 145.671 L
253.833 145.67 L
253.833 145.67 L
253.833 145.67 L
254.03 145.561 L
254.227 145.266 L
254.511 144.56 L
254.874 143.266 L
255.383 140.906 L
256.016 137.426 L
256.377 135.283 L
256.738 133.086 L
257.236 130.036 L
257.85 126.322 L
258.239 124.039 L
258.627 121.825 L
259.127 119.088 L
259.712 116.072 L
260.107 114.156 L
260.502 112.336 L
260.997 110.191 L
261.569 107.899 L
261.971 106.406 L
262.373 105.008 L
262.866 103.42 L
263.427 101.773 L
263.935 100.424 L
264.342 99.434 L
264.719 98.586 L
265.163 97.673 L
265.704 96.675 L
266.255 95.782 L
266.707 95.137 L
267.085 94.656 L
267.484 94.202 L
267.981 93.712 L
268.547 93.247 L
268.95 92.974 L
S
GR
GS
[0.75 0 0 0.75 0 0] CT
0.494 0.184 0.557 RC
1 LJ
0.667 LW
N
268.547 93.247 M
268.95 92.974 L
269.353 92.748 L
269.845 92.53 L
270.404 92.356 L
270.911 92.261 L
271.32 92.227 L
271.699 92.226 L
272.142 92.26 L
272.682 92.352 L
273.231 92.498 L
273.684 92.654 L
274.06 92.808 L
274.455 92.991 L
274.944 93.247 L
275.505 93.578 L
275.908 93.838 L
276.311 94.116 L
276.799 94.474 L
277.35 94.906 L
277.85 95.321 L
278.257 95.673 L
278.637 96.012 L
279.079 96.42 L
279.613 96.929 L
280.155 97.462 L
280.603 97.915 L
280.981 98.305 L
281.382 98.723 L
281.874 99.247 L
282.432 99.851 L
282.934 100.401 L
283.335 100.847 L
283.709 101.266 L
284.152 101.765 L
284.692 102.378 L
285.238 103.002 L
285.684 103.514 L
286.057 103.944 L
286.455 104.404 L
286.951 104.977 L
287.515 105.629 L
287.912 106.089 L
288.309 106.548 L
288.798 107.112 L
289.356 107.754 L
289.76 108.218 L
290.164 108.681 L
290.652 109.236 L
291.2 109.857 L
291.699 110.42 L
292.108 110.877 L
S
GR
GS
[0.75 0 0 0.75 0 0] CT
0.494 0.184 0.557 RC
1 LJ
0.667 LW
N
291.699 110.42 M
292.108 110.877 L
292.489 111.301 L
292.931 111.791 L
293.464 112.376 L
294.004 112.964 L
294.452 113.448 L
294.832 113.855 L
295.234 114.282 L
295.726 114.801 L
296.282 115.381 L
296.783 115.897 L
297.185 116.307 L
297.56 116.687 L
298.004 117.132 L
298.543 117.666 L
299.088 118.198 L
299.533 118.629 L
299.907 118.986 L
300.306 119.364 L
300.802 119.828 L
301.365 120.346 L
301.762 120.708 L
302.16 121.066 L
302.648 121.5 L
303.205 121.988 L
303.711 122.424 L
304.116 122.768 L
304.49 123.083 L
304.928 123.447 L
305.465 123.886 L
306.013 124.328 L
306.464 124.685 L
306.838 124.978 L
307.233 125.283 L
307.725 125.658 L
308.287 126.079 L
308.688 126.375 L
309.089 126.667 L
309.578 127.017 L
310.131 127.407 L
310.633 127.755 L
311.039 128.032 L
311.416 128.286 L
311.857 128.578 L
312.392 128.927 L
312.937 129.276 L
313.386 129.558 L
313.763 129.792 L
314.161 130.036 L
314.653 130.332 L
315.213 130.663 L
S
GR
GS
[0.75 0 0 0.75 0 0] CT
0.494 0.184 0.557 RC
1 LJ
0.667 LW
N
314.653 130.332 M
315.213 130.663 L
315.614 130.896 L
316.015 131.125 L
316.503 131.4 L
317.056 131.706 L
317.559 131.979 L
317.965 132.195 L
318.342 132.394 L
318.783 132.622 L
319.317 132.893 L
319.862 133.165 L
320.311 133.385 L
320.688 133.566 L
321.086 133.755 L
321.578 133.985 L
322.138 134.241 L
322.54 134.421 L
322.941 134.599 L
323.428 134.811 L
323.981 135.046 L
324.483 135.256 L
324.89 135.423 L
325.268 135.575 L
325.708 135.751 L
326.243 135.959 L
326.787 136.167 L
327.236 136.336 L
327.613 136.475 L
328.012 136.62 L
328.504 136.795 L
329.063 136.991 L
329.465 137.129 L
329.866 137.264 L
330.354 137.426 L
330.906 137.606 L
331.408 137.765 L
331.815 137.893 L
332.193 138.009 L
332.633 138.142 L
333.168 138.301 L
333.711 138.459 L
334.161 138.587 L
334.538 138.692 L
334.937 138.802 L
335.429 138.935 L
335.988 139.083 L
336.39 139.188 L
336.791 139.29 L
337.279 139.413 L
337.831 139.549 L
338.333 139.669 L
S
GR
GS
[0.75 0 0 0.75 0 0] CT
0.494 0.184 0.557 RC
1 LJ
0.667 LW
N
337.831 139.549 M
338.333 139.669 L
338.74 139.765 L
339.118 139.853 L
339.559 139.954 L
340.093 140.074 L
340.636 140.193 L
341.086 140.289 L
341.463 140.369 L
341.862 140.452 L
342.354 140.552 L
342.913 140.664 L
343.315 140.742 L
343.716 140.82 L
344.204 140.912 L
344.756 141.014 L
345.258 141.105 L
345.665 141.177 L
346.043 141.243 L
346.484 141.319 L
347.018 141.409 L
347.561 141.498 L
348.011 141.57 L
348.388 141.63 L
348.787 141.692 L
349.279 141.768 L
349.838 141.851 L
350.24 141.91 L
350.641 141.968 L
351.129 142.037 L
351.681 142.114 L
352.183 142.182 L
352.59 142.236 L
352.968 142.285 L
353.409 142.342 L
353.943 142.409 L
354.486 142.476 L
354.936 142.531 L
355.313 142.575 L
355.712 142.622 L
356.204 142.678 L
356.763 142.741 L
357.165 142.785 L
357.566 142.828 L
358.054 142.88 L
358.606 142.937 L
359.108 142.988 L
359.515 143.028 L
359.893 143.065 L
360.334 143.107 L
360.868 143.158 L
361.411 143.208 L
S
GR
GS
[0.75 0 0 0.75 0 0] CT
0.494 0.184 0.557 RC
1 LJ
0.667 LW
N
360.868 143.158 M
361.411 143.208 L
361.861 143.248 L
362.238 143.281 L
362.333 143.29 L
362.333 143.29 L
362.333 143.29 L
362.487 140.956 L
362.64 138.644 L
362.856 135.431 L
363.122 131.547 L
363.502 126.196 L
364.019 119.283 L
364.473 113.571 L
364.927 108.197 L
365.407 102.867 L
365.891 97.867 L
366.349 93.451 L
366.784 89.532 L
367.225 85.82 L
367.695 82.138 L
368.184 78.598 L
368.657 75.444 L
369.098 72.728 L
369.529 70.269 L
369.985 67.874 L
370.472 65.533 L
370.96 63.408 L
371.413 61.613 L
371.841 60.075 L
372.28 58.644 L
372.757 57.252 L
373.254 55.97 L
373.726 54.903 L
374.159 54.046 L
374.585 53.313 L
375.043 52.637 L
375.539 52.031 L
376.031 51.552 L
376.479 51.215 L
376.899 50.981 L
377.336 50.816 L
377.82 50.722 L
378.326 50.718 L
378.797 50.795 L
379.221 50.927 L
379.64 51.113 L
380.103 51.377 L
380.61 51.734 L
381.105 52.148 L
381.547 52.565 L
381.957 52.992 L
S
GR
GS
[0.75 0 0 0.75 0 0] CT
0.494 0.184 0.557 RC
1 LJ
0.667 LW
N
381.547 52.565 M
381.957 52.992 L
382.394 53.485 L
382.887 54.087 L
383.402 54.762 L
383.87 55.415 L
384.284 56.021 L
384.698 56.652 L
385.165 57.392 L
385.684 58.244 L
386.183 59.093 L
386.616 59.849 L
387.017 60.566 L
387.453 61.362 L
387.957 62.3 L
388.481 63.293 L
388.945 64.187 L
389.349 64.974 L
389.757 65.778 L
390.231 66.721 L
390.762 67.787 L
391.264 68.803 L
391.687 69.665 L
392.079 70.466 L
392.516 71.362 L
393.031 72.421 L
393.563 73.518 L
394.023 74.465 L
394.416 75.276 L
394.82 76.108 L
395.3 77.095 L
395.843 78.209 L
396.346 79.238 L
396.761 80.084 L
397.145 80.863 L
397.583 81.748 L
398.108 82.804 L
398.647 83.881 L
399.103 84.785 L
399.487 85.543 L
399.887 86.327 L
400.373 87.271 L
400.925 88.336 L
401.429 89.3 L
401.838 90.072 L
402.215 90.781 L
402.653 91.598 L
403.186 92.581 L
403.732 93.575 L
404.183 94.389 L
404.561 95.064 L
404.958 95.766 L
S
GR
GS
[0.75 0 0 0.75 0 0] CT
0.494 0.184 0.557 RC
1 LJ
0.667 LW
N
404.561 95.064 M
404.958 95.766 L
405.448 96.623 L
406.007 97.589 L
406.41 98.277 L
406.813 98.958 L
407.301 99.771 L
407.851 100.677 L
408.352 101.49 L
408.759 102.143 L
409.139 102.744 L
409.58 103.436 L
410.114 104.26 L
410.656 105.084 L
411.105 105.757 L
411.483 106.316 L
411.883 106.901 L
412.376 107.611 L
412.934 108.403 L
413.435 109.103 L
413.837 109.656 L
414.211 110.165 L
414.654 110.758 L
415.193 111.47 L
415.74 112.178 L
416.186 112.747 L
416.559 113.217 L
416.957 113.711 L
417.452 114.317 L
418.016 114.994 L
418.414 115.464 L
418.811 115.928 L
419.3 116.488 L
419.857 117.117 L
420.362 117.676 L
420.767 118.116 L
421.141 118.517 L
421.579 118.982 L
422.116 119.54 L
422.665 120.099 L
423.115 120.55 L
423.489 120.92 L
423.885 121.304 L
424.376 121.775 L
424.939 122.303 L
425.34 122.673 L
425.741 123.037 L
426.229 123.473 L
426.782 123.958 L
427.285 124.39 L
427.691 124.733 L
428.068 125.047 L
S
GR
GS
[0.75 0 0 0.75 0 0] CT
0.494 0.184 0.557 RC
1 LJ
0.667 LW
N
427.691 124.733 M
428.068 125.047 L
428.508 125.408 L
429.044 125.838 L
429.588 126.267 L
430.038 126.615 L
430.414 126.901 L
430.812 127.2 L
431.304 127.562 L
431.865 127.967 L
432.266 128.251 L
432.667 128.531 L
433.154 128.865 L
433.707 129.237 L
434.21 129.568 L
434.616 129.83 L
434.994 130.071 L
435.434 130.347 L
435.969 130.675 L
436.513 131.003 L
436.963 131.268 L
437.34 131.486 L
437.738 131.714 L
438.23 131.99 L
438.79 132.298 L
439.191 132.514 L
439.592 132.727 L
440.08 132.981 L
440.632 133.263 L
441.135 133.514 L
441.541 133.713 L
441.919 133.896 L
442.36 134.105 L
442.894 134.354 L
443.438 134.601 L
443.888 134.802 L
444.265 134.967 L
444.663 135.14 L
445.155 135.348 L
445.715 135.581 L
446.116 135.744 L
446.518 135.905 L
447.005 136.096 L
447.557 136.309 L
448.06 136.498 L
448.466 136.648 L
448.844 136.786 L
449.285 136.944 L
449.819 137.131 L
450.363 137.317 L
450.813 137.468 L
451.19 137.593 L
S
GR
GS
[0.75 0 0 0.75 0 0] CT
0.494 0.184 0.557 RC
1 LJ
0.667 LW
N
450.813 137.468 M
451.19 137.593 L
451.589 137.722 L
452.08 137.879 L
452.64 138.054 L
453.041 138.177 L
453.443 138.297 L
453.93 138.441 L
454.482 138.601 L
454.985 138.743 L
455.391 138.856 L
455.769 138.959 L
456.21 139.077 L
456.744 139.217 L
457.288 139.357 L
457.738 139.47 L
458.115 139.564 L
458.514 139.661 L
459.005 139.778 L
459.565 139.909 L
459.966 140.001 L
460.368 140.091 L
460.855 140.199 L
461.407 140.318 L
461.91 140.425 L
462.316 140.509 L
462.694 140.586 L
463.135 140.675 L
463.669 140.78 L
464.213 140.884 L
464.663 140.969 L
465.04 141.038 L
465.439 141.111 L
465.93 141.199 L
466.49 141.296 L
466.891 141.365 L
467.293 141.433 L
467.78 141.513 L
468.332 141.602 L
468.835 141.681 L
469.241 141.744 L
469.619 141.802 L
470.06 141.868 L
470.594 141.946 L
471.138 142.024 L
471.588 142.087 L
471.965 142.139 L
472.364 142.193 L
472.855 142.259 L
473.415 142.332 L
473.816 142.383 L
474.218 142.433 L
S
GR
GS
[0.75 0 0 0.75 0 0] CT
0.494 0.184 0.557 RC
1 LJ
0.667 LW
N
473.816 142.383 M
474.218 142.433 L
474.705 142.493 L
475.257 142.559 L
475.76 142.619 L
476.166 142.665 L
476.544 142.708 L
476.985 142.757 L
477.519 142.816 L
478.063 142.874 L
478.512 142.921 L
478.89 142.96 L
479.289 143 L
479.78 143.049 L
480.34 143.103 L
480.741 143.141 L
481.143 143.178 L
481.63 143.223 L
482.182 143.272 L
482.685 143.316 L
483.091 143.351 L
483.469 143.383 L
483.91 143.42 L
484.444 143.463 L
484.988 143.506 L
485.437 143.541 L
485.815 143.57 L
486.214 143.6 L
486.705 143.636 L
487.265 143.677 L
487.666 143.705 L
488.068 143.733 L
488.555 143.766 L
489.107 143.803 L
489.609 143.835 L
490.016 143.861 L
490.394 143.885 L
490.835 143.912 L
491.369 143.945 L
491.913 143.977 L
492.362 144.003 L
492.74 144.024 L
493.139 144.046 L
493.63 144.073 L
494.19 144.103 L
494.591 144.124 L
494.993 144.145 L
495.48 144.17 L
496.032 144.197 L
496.534 144.221 L
496.941 144.241 L
497.319 144.258 L
S
GR
GS
[0.75 0 0 0.75 0 0] CT
0.494 0.184 0.557 RC
1 LJ
0.667 LW
N
496.941 144.241 M
497.319 144.258 L
497.76 144.278 L
498.294 144.302 L
498.838 144.326 L
499.287 144.346 L
499.665 144.361 L
500.064 144.378 L
500.555 144.398 L
501.115 144.42 L
501.516 144.436 L
501.918 144.451 L
502.405 144.47 L
502.957 144.49 L
503.46 144.508 L
503.866 144.522 L
504.244 144.535 L
504.685 144.55 L
505.219 144.568 L
505.763 144.586 L
506.212 144.6 L
506.59 144.612 L
507 144.625 L
S
GR
GS
[0.75 0 0 0.75 0 0] CT
1 GC
N
422 112 M
422 44 L
494 44 L
494 112 L
cp
f
GR
GS
[0.75 0 0 0.75 355.5 40.7005] CT
/Helvetica 12 F
GS
[1 0 0 1 0 0] CT
0 4.5 moveto 
1 -1 scale
(w1) t 
GR
GR
GS
[0.75 0 0 0.75 0 0] CT
0 0.447 0.741 RC
1 LJ
0.667 LW
N
430 54.267 M
470 54.267 L
S
GR
GS
[0.75 0 0 0.75 355.5 52.56683] CT
/Helvetica 12 F
GS
[1 0 0 1 0 0] CT
0 4.5 moveto 
1 -1 scale
(w2) t 
GR
GR
GS
[0.75 0 0 0.75 0 0] CT
0.851 0.325 0.098 RC
1 LJ
0.667 LW
N
430 70.089 M
470 70.089 L
S
GR
GS
[0.75 0 0 0.75 355.5 64.43317] CT
/Helvetica 12 F
GS
[1 0 0 1 0 0] CT
0 4.5 moveto 
1 -1 scale
(y1) t 
GR
GR
GS
[0.75 0 0 0.75 0 0] CT
0.929 0.694 0.125 RC
1 LJ
0.667 LW
N
430 85.911 M
470 85.911 L
S
GR
GS
[0.75 0 0 0.75 355.5 76.29951] CT
/Helvetica 12 F
GS
[1 0 0 1 0 0] CT
0 4.5 moveto 
1 -1 scale
(y2) t 
GR
GR
GS
[0.75 0 0 0.75 0 0] CT
0.494 0.184 0.557 RC
1 LJ
0.667 LW
N
430 101.733 M
470 101.733 L
S
GR
GS
[0.75 0 0 0.75 0 0] CT
0.149 GC
10.0 ML
0.667 LW
N
422 112 M
422 44 L
494 44 L
494 112 L
cp
S
GR
%%Trailer
%%Pages: 1
%%EOF
