%!PS-Adobe-3.0 EPSF-3.0
%%Creator: (MATLAB, The Mathworks, Inc. Version 8.6.0.267246 \(R2015b\). Operating System: Windows 8)
%%Title: E:/Projects/skola/rls/pics/SP3/par_1o_e_u.eps
%%CreationDate: 2017-03-17T12:42:24
%%Pages: (atend)
%%BoundingBox: 0 0 420 315
%%LanguageLevel: 2
%%EndComments
%%BeginProlog
%%BeginResource: procset (Apache XML Graphics Std ProcSet) 1.2 0
%%Version: 1.2 0
%%Copyright: (Copyright 2001-2003,2010 The Apache Software Foundation. License terms: http://www.apache.org/licenses/LICENSE-2.0)
/bd{bind def}bind def
/ld{load def}bd
/GR/grestore ld
/M/moveto ld
/LJ/setlinejoin ld
/C/curveto ld
/f/fill ld
/LW/setlinewidth ld
/GC/setgray ld
/t/show ld
/N/newpath ld
/CT/concat ld
/cp/closepath ld
/S/stroke ld
/L/lineto ld
/CC/setcmykcolor ld
/A/ashow ld
/GS/gsave ld
/RC/setrgbcolor ld
/RM/rmoveto ld
/ML/setmiterlimit ld
/re {4 2 roll M
1 index 0 rlineto
0 exch rlineto
neg 0 rlineto
cp } bd
/_ctm matrix def
/_tm matrix def
/BT { _ctm currentmatrix pop matrix _tm copy pop 0 0 moveto } bd
/ET { _ctm setmatrix } bd
/iTm { _ctm setmatrix _tm concat } bd
/Tm { _tm astore pop iTm 0 0 moveto } bd
/ux 0.0 def
/uy 0.0 def
/F {
  /Tp exch def
  /Tf exch def
  Tf findfont Tp scalefont setfont
  /cf Tf def  /cs Tp def
} bd
/ULS {currentpoint /uy exch def /ux exch def} bd
/ULE {
  /Tcx currentpoint pop def
  gsave
  newpath
  cf findfont cs scalefont dup
  /FontMatrix get 0 get /Ts exch def /FontInfo get dup
  /UnderlinePosition get Ts mul /To exch def
  /UnderlineThickness get Ts mul /Tt exch def
  ux uy To add moveto  Tcx uy To add lineto
  Tt setlinewidth stroke
  grestore
} bd
/OLE {
  /Tcx currentpoint pop def
  gsave
  newpath
  cf findfont cs scalefont dup
  /FontMatrix get 0 get /Ts exch def /FontInfo get dup
  /UnderlinePosition get Ts mul /To exch def
  /UnderlineThickness get Ts mul /Tt exch def
  ux uy To add cs add moveto Tcx uy To add cs add lineto
  Tt setlinewidth stroke
  grestore
} bd
/SOE {
  /Tcx currentpoint pop def
  gsave
  newpath
  cf findfont cs scalefont dup
  /FontMatrix get 0 get /Ts exch def /FontInfo get dup
  /UnderlinePosition get Ts mul /To exch def
  /UnderlineThickness get Ts mul /Tt exch def
  ux uy To add cs 10 mul 26 idiv add moveto Tcx uy To add cs 10 mul 26 idiv add lineto
  Tt setlinewidth stroke
  grestore
} bd
/QT {
/Y22 exch store
/X22 exch store
/Y21 exch store
/X21 exch store
currentpoint
/Y21 load 2 mul add 3 div exch
/X21 load 2 mul add 3 div exch
/X21 load 2 mul /X22 load add 3 div
/Y21 load 2 mul /Y22 load add 3 div
/X22 load /Y22 load curveto
} bd
/SSPD {
dup length /d exch dict def
{
/v exch def
/k exch def
currentpagedevice k known {
/cpdv currentpagedevice k get def
v cpdv ne {
/upd false def
/nullv v type /nulltype eq def
/nullcpdv cpdv type /nulltype eq def
nullv nullcpdv or
{
/upd true def
} {
/sametype v type cpdv type eq def
sametype {
v type /arraytype eq {
/vlen v length def
/cpdvlen cpdv length def
vlen cpdvlen eq {
0 1 vlen 1 sub {
/i exch def
/obj v i get def
/cpdobj cpdv i get def
obj cpdobj ne {
/upd true def
exit
} if
} for
} {
/upd true def
} ifelse
} {
v type /dicttype eq {
v {
/dv exch def
/dk exch def
/cpddv cpdv dk get def
dv cpddv ne {
/upd true def
exit
} if
} forall
} {
/upd true def
} ifelse
} ifelse
} if
} ifelse
upd true eq {
d k v put
} if
} if
} if
} forall
d length 0 gt {
d setpagedevice
} if
} bd
%%EndResource
%%BeginResource: procset (Apache XML Graphics EPS ProcSet) 1.0 0
%%Version: 1.0 0
%%Copyright: (Copyright 2002-2003 The Apache Software Foundation. License terms: http://www.apache.org/licenses/LICENSE-2.0)
/BeginEPSF { %def
/b4_Inc_state save def         % Save state for cleanup
/dict_count countdictstack def % Count objects on dict stack
/op_count count 1 sub def      % Count objects on operand stack
userdict begin                 % Push userdict on dict stack
/showpage { } def              % Redefine showpage, { } = null proc
0 setgray 0 setlinecap         % Prepare graphics state
1 setlinewidth 0 setlinejoin
10 setmiterlimit [ ] 0 setdash newpath
/languagelevel where           % If level not equal to 1 then
{pop languagelevel             % set strokeadjust and
1 ne                           % overprint to their defaults.
{false setstrokeadjust false setoverprint
} if
} if
} bd
/EndEPSF { %def
count op_count sub {pop} repeat            % Clean up stacks
countdictstack dict_count sub {end} repeat
b4_Inc_state restore
} bd
%%EndResource
%FOPBeginFontDict
%%IncludeResource: font Courier-Bold
%%IncludeResource: font Helvetica
%%IncludeResource: font Courier-BoldOblique
%%IncludeResource: font Courier-Oblique
%%IncludeResource: font Times-Roman
%%IncludeResource: font Helvetica-BoldOblique
%%IncludeResource: font Helvetica-Bold
%%IncludeResource: font Helvetica-Oblique
%%IncludeResource: font Times-BoldItalic
%%IncludeResource: font Courier
%%IncludeResource: font Times-Italic
%%IncludeResource: font Times-Bold
%%IncludeResource: font Symbol
%%IncludeResource: font ZapfDingbats
%FOPEndFontDict
%%BeginResource: encoding WinAnsiEncoding
/WinAnsiEncoding [
/.notdef /.notdef /.notdef /.notdef /.notdef
/.notdef /.notdef /.notdef /.notdef /.notdef
/.notdef /.notdef /.notdef /.notdef /.notdef
/.notdef /.notdef /.notdef /.notdef /.notdef
/.notdef /.notdef /.notdef /.notdef /.notdef
/.notdef /.notdef /.notdef /.notdef /.notdef
/.notdef /.notdef /space /exclam /quotedbl
/numbersign /dollar /percent /ampersand /quotesingle
/parenleft /parenright /asterisk /plus /comma
/hyphen /period /slash /zero /one
/two /three /four /five /six
/seven /eight /nine /colon /semicolon
/less /equal /greater /question /at
/A /B /C /D /E
/F /G /H /I /J
/K /L /M /N /O
/P /Q /R /S /T
/U /V /W /X /Y
/Z /bracketleft /backslash /bracketright /asciicircum
/underscore /quoteleft /a /b /c
/d /e /f /g /h
/i /j /k /l /m
/n /o /p /q /r
/s /t /u /v /w
/x /y /z /braceleft /bar
/braceright /asciitilde /bullet /Euro /bullet
/quotesinglbase /florin /quotedblbase /ellipsis /dagger
/daggerdbl /circumflex /perthousand /Scaron /guilsinglleft
/OE /bullet /Zcaron /bullet /bullet
/quoteleft /quoteright /quotedblleft /quotedblright /bullet
/endash /emdash /asciitilde /trademark /scaron
/guilsinglright /oe /bullet /zcaron /Ydieresis
/space /exclamdown /cent /sterling /currency
/yen /brokenbar /section /dieresis /copyright
/ordfeminine /guillemotleft /logicalnot /sfthyphen /registered
/macron /degree /plusminus /twosuperior /threesuperior
/acute /mu /paragraph /middot /cedilla
/onesuperior /ordmasculine /guillemotright /onequarter /onehalf
/threequarters /questiondown /Agrave /Aacute /Acircumflex
/Atilde /Adieresis /Aring /AE /Ccedilla
/Egrave /Eacute /Ecircumflex /Edieresis /Igrave
/Iacute /Icircumflex /Idieresis /Eth /Ntilde
/Ograve /Oacute /Ocircumflex /Otilde /Odieresis
/multiply /Oslash /Ugrave /Uacute /Ucircumflex
/Udieresis /Yacute /Thorn /germandbls /agrave
/aacute /acircumflex /atilde /adieresis /aring
/ae /ccedilla /egrave /eacute /ecircumflex
/edieresis /igrave /iacute /icircumflex /idieresis
/eth /ntilde /ograve /oacute /ocircumflex
/otilde /odieresis /divide /oslash /ugrave
/uacute /ucircumflex /udieresis /yacute /thorn
/ydieresis
] def
%%EndResource
%FOPBeginFontReencode
/Courier-Bold findfont
dup length dict begin
  {1 index /FID ne {def} {pop pop} ifelse} forall
  /Encoding WinAnsiEncoding def
  currentdict
end
/Courier-Bold exch definefont pop
/Helvetica findfont
dup length dict begin
  {1 index /FID ne {def} {pop pop} ifelse} forall
  /Encoding WinAnsiEncoding def
  currentdict
end
/Helvetica exch definefont pop
/Courier-BoldOblique findfont
dup length dict begin
  {1 index /FID ne {def} {pop pop} ifelse} forall
  /Encoding WinAnsiEncoding def
  currentdict
end
/Courier-BoldOblique exch definefont pop
/Courier-Oblique findfont
dup length dict begin
  {1 index /FID ne {def} {pop pop} ifelse} forall
  /Encoding WinAnsiEncoding def
  currentdict
end
/Courier-Oblique exch definefont pop
/Times-Roman findfont
dup length dict begin
  {1 index /FID ne {def} {pop pop} ifelse} forall
  /Encoding WinAnsiEncoding def
  currentdict
end
/Times-Roman exch definefont pop
/Helvetica-BoldOblique findfont
dup length dict begin
  {1 index /FID ne {def} {pop pop} ifelse} forall
  /Encoding WinAnsiEncoding def
  currentdict
end
/Helvetica-BoldOblique exch definefont pop
/Helvetica-Bold findfont
dup length dict begin
  {1 index /FID ne {def} {pop pop} ifelse} forall
  /Encoding WinAnsiEncoding def
  currentdict
end
/Helvetica-Bold exch definefont pop
/Helvetica-Oblique findfont
dup length dict begin
  {1 index /FID ne {def} {pop pop} ifelse} forall
  /Encoding WinAnsiEncoding def
  currentdict
end
/Helvetica-Oblique exch definefont pop
/Times-BoldItalic findfont
dup length dict begin
  {1 index /FID ne {def} {pop pop} ifelse} forall
  /Encoding WinAnsiEncoding def
  currentdict
end
/Times-BoldItalic exch definefont pop
/Courier findfont
dup length dict begin
  {1 index /FID ne {def} {pop pop} ifelse} forall
  /Encoding WinAnsiEncoding def
  currentdict
end
/Courier exch definefont pop
/Times-Italic findfont
dup length dict begin
  {1 index /FID ne {def} {pop pop} ifelse} forall
  /Encoding WinAnsiEncoding def
  currentdict
end
/Times-Italic exch definefont pop
/Times-Bold findfont
dup length dict begin
  {1 index /FID ne {def} {pop pop} ifelse} forall
  /Encoding WinAnsiEncoding def
  currentdict
end
/Times-Bold exch definefont pop
%FOPEndFontReencode
%%EndProlog
%%Page: 1 1
%%PageBoundingBox: 0 0 420 315
%%BeginPageSetup
[1 0 0 -1 0 315] CT
%%EndPageSetup
GS
[0.75 0 0 0.75 0 0] CT
1 GC
N
0 0 560 420 re
f
GR
GS
[0.75 0 0 0.75 0 0] CT
1 GC
N
0 0 560 420 re
f
GR
GS
[0.75 0 0 0.75 0 0] CT
1 GC
N
73 374 M
507 374 L
507 31 L
73 31 L
cp
f
GR
GS
[0.75 0 0 0.75 0 0] CT
0.149 GC
2 setlinecap
1 LJ
0.667 LW
N
73 374 M
507 374 L
S
GR
GS
[0.75 0 0 0.75 0 0] CT
0.149 GC
2 setlinecap
1 LJ
0.667 LW
N
73 31 M
507 31 L
S
GR
GS
[0.75 0 0 0.75 0 0] CT
0.149 GC
2 setlinecap
1 LJ
0.667 LW
N
73 374 M
73 369.66 L
S
GR
GS
[0.75 0 0 0.75 0 0] CT
0.149 GC
2 setlinecap
1 LJ
0.667 LW
N
145.333 374 M
145.333 369.66 L
S
GR
GS
[0.75 0 0 0.75 0 0] CT
0.149 GC
2 setlinecap
1 LJ
0.667 LW
N
217.667 374 M
217.667 369.66 L
S
GR
GS
[0.75 0 0 0.75 0 0] CT
0.149 GC
2 setlinecap
1 LJ
0.667 LW
N
290 374 M
290 369.66 L
S
GR
GS
[0.75 0 0 0.75 0 0] CT
0.149 GC
2 setlinecap
1 LJ
0.667 LW
N
362.333 374 M
362.333 369.66 L
S
GR
GS
[0.75 0 0 0.75 0 0] CT
0.149 GC
2 setlinecap
1 LJ
0.667 LW
N
434.667 374 M
434.667 369.66 L
S
GR
GS
[0.75 0 0 0.75 0 0] CT
0.149 GC
2 setlinecap
1 LJ
0.667 LW
N
507 374 M
507 369.66 L
S
GR
GS
[0.75 0 0 0.75 0 0] CT
0.149 GC
2 setlinecap
1 LJ
0.667 LW
N
73 31 M
73 35.34 L
S
GR
GS
[0.75 0 0 0.75 0 0] CT
0.149 GC
2 setlinecap
1 LJ
0.667 LW
N
145.333 31 M
145.333 35.34 L
S
GR
GS
[0.75 0 0 0.75 0 0] CT
0.149 GC
2 setlinecap
1 LJ
0.667 LW
N
217.667 31 M
217.667 35.34 L
S
GR
GS
[0.75 0 0 0.75 0 0] CT
0.149 GC
2 setlinecap
1 LJ
0.667 LW
N
290 31 M
290 35.34 L
S
GR
GS
[0.75 0 0 0.75 0 0] CT
0.149 GC
2 setlinecap
1 LJ
0.667 LW
N
362.333 31 M
362.333 35.34 L
S
GR
GS
[0.75 0 0 0.75 0 0] CT
0.149 GC
2 setlinecap
1 LJ
0.667 LW
N
434.667 31 M
434.667 35.34 L
S
GR
GS
[0.75 0 0 0.75 0 0] CT
0.149 GC
2 setlinecap
1 LJ
0.667 LW
N
507 31 M
507 35.34 L
S
GR
GS
[0.75 0 0 0.75 54.75 284.50001] CT
0.149 GC
/Helvetica 13 F
GS
[1 0 0 1 0 0] CT
-4 13 moveto 
1 -1 scale
(0) t 
GR
GR
GS
[0.75 0 0 0.75 109 284.50001] CT
0.149 GC
/Helvetica 13 F
GS
[1 0 0 1 0 0] CT
-11 13 moveto 
1 -1 scale
(200) t 
GR
GR
GS
[0.75 0 0 0.75 163.25 284.50001] CT
0.149 GC
/Helvetica 13 F
GS
[1 0 0 1 0 0] CT
-11 13 moveto 
1 -1 scale
(400) t 
GR
GR
GS
[0.75 0 0 0.75 217.5 284.50001] CT
0.149 GC
/Helvetica 13 F
GS
[1 0 0 1 0 0] CT
-11 13 moveto 
1 -1 scale
(600) t 
GR
GR
GS
[0.75 0 0 0.75 271.75001 284.50001] CT
0.149 GC
/Helvetica 13 F
GS
[1 0 0 1 0 0] CT
-11 13 moveto 
1 -1 scale
(800) t 
GR
GR
GS
[0.75 0 0 0.75 325.99999 284.50001] CT
0.149 GC
/Helvetica 13 F
GS
[1 0 0 1 0 0] CT
-14.5 13 moveto 
1 -1 scale
(1000) t 
GR
GR
GS
[0.75 0 0 0.75 380.25 284.50001] CT
0.149 GC
/Helvetica 13 F
GS
[1 0 0 1 0 0] CT
-14.5 13 moveto 
1 -1 scale
(1200) t 
GR
GR
GS
[0.75 0 0 0.75 217.50016 297.49999] CT
0.149 GC
/Helvetica 15 F
GS
[1 0 0 1 0 0] CT
-11 14 moveto 
1 -1 scale
(t\(s\)) t 
GR
GR
GS
[0.75 0 0 0.75 0 0] CT
0.149 GC
2 setlinecap
1 LJ
0.667 LW
N
73 374 M
73 31 L
S
GR
GS
[0.75 0 0 0.75 0 0] CT
0.149 GC
2 setlinecap
1 LJ
0.667 LW
N
507 374 M
507 31 L
S
GR
GS
[0.75 0 0 0.75 0 0] CT
0.149 GC
2 setlinecap
1 LJ
0.667 LW
N
73 374 M
77.34 374 L
S
GR
GS
[0.75 0 0 0.75 0 0] CT
0.149 GC
2 setlinecap
1 LJ
0.667 LW
N
73 316.833 M
77.34 316.833 L
S
GR
GS
[0.75 0 0 0.75 0 0] CT
0.149 GC
2 setlinecap
1 LJ
0.667 LW
N
73 259.667 M
77.34 259.667 L
S
GR
GS
[0.75 0 0 0.75 0 0] CT
0.149 GC
2 setlinecap
1 LJ
0.667 LW
N
73 202.5 M
77.34 202.5 L
S
GR
GS
[0.75 0 0 0.75 0 0] CT
0.149 GC
2 setlinecap
1 LJ
0.667 LW
N
73 145.333 M
77.34 145.333 L
S
GR
GS
[0.75 0 0 0.75 0 0] CT
0.149 GC
2 setlinecap
1 LJ
0.667 LW
N
73 88.167 M
77.34 88.167 L
S
GR
GS
[0.75 0 0 0.75 0 0] CT
0.149 GC
2 setlinecap
1 LJ
0.667 LW
N
73 31 M
77.34 31 L
S
GR
GS
[0.75 0 0 0.75 0 0] CT
0.149 GC
2 setlinecap
1 LJ
0.667 LW
N
507 374 M
502.66 374 L
S
GR
GS
[0.75 0 0 0.75 0 0] CT
0.149 GC
2 setlinecap
1 LJ
0.667 LW
N
507 316.833 M
502.66 316.833 L
S
GR
GS
[0.75 0 0 0.75 0 0] CT
0.149 GC
2 setlinecap
1 LJ
0.667 LW
N
507 259.667 M
502.66 259.667 L
S
GR
GS
[0.75 0 0 0.75 0 0] CT
0.149 GC
2 setlinecap
1 LJ
0.667 LW
N
507 202.5 M
502.66 202.5 L
S
GR
GS
[0.75 0 0 0.75 0 0] CT
0.149 GC
2 setlinecap
1 LJ
0.667 LW
N
507 145.333 M
502.66 145.333 L
S
GR
GS
[0.75 0 0 0.75 0 0] CT
0.149 GC
2 setlinecap
1 LJ
0.667 LW
N
507 88.167 M
502.66 88.167 L
S
GR
GS
[0.75 0 0 0.75 0 0] CT
0.149 GC
2 setlinecap
1 LJ
0.667 LW
N
507 31 M
502.66 31 L
S
GR
GS
[0.75 0 0 0.75 50.75 280.5] CT
0.149 GC
/Helvetica 13 F
GS
[1 0 0 1 0 0] CT
-12 5 moveto 
1 -1 scale
(-4) t 
GR
GR
GS
[0.75 0 0 0.75 50.75 237.62501] CT
0.149 GC
/Helvetica 13 F
GS
[1 0 0 1 0 0] CT
-12 5 moveto 
1 -1 scale
(-2) t 
GR
GR
GS
[0.75 0 0 0.75 50.75 194.74999] CT
0.149 GC
/Helvetica 13 F
GS
[1 0 0 1 0 0] CT
-8 5 moveto 
1 -1 scale
(0) t 
GR
GR
GS
[0.75 0 0 0.75 50.75 151.875] CT
0.149 GC
/Helvetica 13 F
GS
[1 0 0 1 0 0] CT
-8 5 moveto 
1 -1 scale
(2) t 
GR
GR
GS
[0.75 0 0 0.75 50.75 109] CT
0.149 GC
/Helvetica 13 F
GS
[1 0 0 1 0 0] CT
-8 5 moveto 
1 -1 scale
(4) t 
GR
GR
GS
[0.75 0 0 0.75 50.75 66.125] CT
0.149 GC
/Helvetica 13 F
GS
[1 0 0 1 0 0] CT
-8 5 moveto 
1 -1 scale
(6) t 
GR
GR
GS
[0.75 0 0 0.75 50.75 23.25] CT
0.149 GC
/Helvetica 13 F
GS
[1 0 0 1 0 0] CT
-8 5 moveto 
1 -1 scale
(8) t 
GR
GR
GS
[0.75 0 0 0.75 217.50021 21.18751] CT
/any-Bold 15 F
GS
[1 0 0 1 0 0] CT
-184.5 -4 moveto 
1 -1 scale
(Response of system with 1 order regulator - control) t 
GR
GR
GS
[0.75 0 0 0.75 0 0] CT
0 0.447 0.741 RC
1 LJ
0.667 LW
N
73 259.667 M
73.362 259.667 L
73.362 148.192 L
73.362 148.192 L
73.473 148.116 L
73.583 147.645 L
73.743 146.493 L
73.97 144.302 L
74.282 140.892 L
74.671 136.691 L
75.117 132.424 L
75.649 128.261 L
76.3 124.436 L
77.125 121.172 L
78.221 118.781 L
79.744 117.736 L
81.622 118.345 L
82.691 119.155 L
83.76 120.117 L
85.239 121.562 L
87.07 123.375 L
88.215 124.481 L
89.36 125.543 L
90.846 126.848 L
92.593 128.269 L
93.759 129.155 L
94.926 129.989 L
96.397 130.97 L
98.102 132.012 L
99.292 132.689 L
100.482 133.323 L
101.946 134.049 L
103.615 134.808 L
104.82 135.318 L
106.026 135.795 L
107.483 136.331 L
109.126 136.885 L
110.623 137.348 L
111.841 137.703 L
112.977 138.013 L
114.298 138.348 L
115.891 138.721 L
117.51 139.067 L
118.852 139.334 L
119.985 139.547 L
121.182 139.757 L
122.653 139.996 L
124.32 140.242 L
125.819 140.445 L
127.02 140.601 L
S
GR
GS
[0.75 0 0 0.75 0 0] CT
0 0.447 0.741 RC
1 LJ
0.667 LW
N
125.819 140.445 M
127.02 140.601 L
128.14 140.737 L
129.463 140.886 L
131.076 141.052 L
132.708 141.203 L
134.041 141.321 L
135.158 141.415 L
136.348 141.508 L
137.829 141.614 L
139.513 141.722 L
140.702 141.796 L
141.891 141.865 L
143.351 141.942 L
145.017 142.022 L
146.527 142.087 L
147.737 142.14 L
148.855 142.186 L
150.166 142.234 L
151.771 142.288 L
153.41 142.335 L
154.756 142.375 L
155.876 142.408 L
157.058 142.438 L
158.526 142.472 L
160.209 142.506 L
161.407 142.532 L
162.606 142.555 L
164.065 142.58 L
165.72 142.605 L
167.222 142.625 L
168.436 142.644 L
169.562 142.66 L
170.88 142.676 L
172.48 142.693 L
174.108 142.706 L
175.451 142.72 L
176.576 142.732 L
177.767 142.743 L
179.238 142.754 L
180.913 142.763 L
181.5 142.771 L
181.5 142.771 L
181.5 142.771 L
181.556 150.672 L
181.612 157.656 L
181.696 166.613 L
181.807 176.252 L
181.935 184.95 L
182.116 193.973 L
182.346 201.731 L
182.601 207.361 L
S
GR
GS
[0.75 0 0 0.75 0 0] CT
0 0.447 0.741 RC
1 LJ
0.667 LW
N
182.346 201.731 M
182.601 207.361 L
182.895 211.629 L
183.24 214.953 L
183.664 217.666 L
184.235 220.014 L
184.916 221.669 L
185.681 222.571 L
186.618 222.757 L
187.856 222.04 L
189.582 220.102 L
190.632 218.698 L
191.682 217.247 L
193.086 215.331 L
194.77 213.162 L
195.905 211.807 L
197.041 210.544 L
198.469 209.088 L
200.127 207.573 L
201.302 206.607 L
202.477 205.721 L
203.913 204.742 L
205.544 203.752 L
207.027 202.953 L
208.225 202.372 L
209.337 201.878 L
210.639 201.352 L
212.223 200.779 L
213.836 200.263 L
215.167 199.884 L
216.282 199.595 L
217.462 199.315 L
218.921 199.002 L
220.584 198.687 L
221.774 198.484 L
222.964 198.3 L
224.411 198.098 L
226.053 197.894 L
227.547 197.73 L
228.755 197.61 L
229.876 197.509 L
231.185 197.401 L
232.774 197.284 L
234.393 197.179 L
235.73 197.101 L
236.851 197.042 L
238.036 196.985 L
239.499 196.922 L
241.165 196.858 L
242.36 196.817 L
243.554 196.779 L
245.006 196.738 L
S
GR
GS
[0.75 0 0 0.75 0 0] CT
0 0.447 0.741 RC
1 LJ
0.667 LW
N
243.554 196.779 M
245.006 196.738 L
246.649 196.697 L
248.145 196.663 L
249.356 196.639 L
250.481 196.619 L
251.793 196.597 L
253.385 196.573 L
253.833 196.567 L
253.833 53.65 L
254.256 56.855 L
254.679 59.936 L
255.38 64.751 L
256.21 70.041 L
257.337 76.657 L
258.882 84.922 L
259.957 90.252 L
261.033 95.298 L
262.403 101.371 L
264.03 108.127 L
265.208 112.738 L
266.386 117.129 L
267.805 122.139 L
269.402 127.434 L
270.864 131.983 L
272.067 135.519 L
273.194 138.67 L
274.5 142.135 L
276.066 146.04 L
277.654 149.733 L
278.98 152.621 L
280.106 154.945 L
281.299 157.279 L
282.757 159.964 L
284.4 162.782 L
285.878 165.141 L
287.071 166.93 L
288.19 168.519 L
289.509 170.287 L
291.108 172.287 L
292.718 174.153 L
294.039 175.579 L
295.152 176.713 L
296.343 177.86 L
297.819 179.192 L
299.487 180.586 L
300.669 181.507 L
301.85 182.376 L
303.301 183.375 L
304.957 184.432 L
306.462 185.32 L
307.667 185.984 L
S
GR
GS
[0.75 0 0 0.75 0 0] CT
0 0.447 0.741 RC
1 LJ
0.667 LW
N
306.462 185.32 M
307.667 185.984 L
308.779 186.562 L
310.084 187.201 L
311.68 187.927 L
313.312 188.612 L
314.654 189.134 L
315.77 189.542 L
316.946 189.947 L
318.408 190.418 L
320.083 190.917 L
321.278 191.248 L
322.473 191.559 L
323.927 191.912 L
325.574 192.282 L
327.07 192.591 L
328.28 192.825 L
329.405 193.029 L
330.718 193.253 L
332.313 193.505 L
333.934 193.741 L
335.272 193.922 L
336.395 194.064 L
337.583 194.205 L
339.051 194.368 L
340.72 194.539 L
341.915 194.652 L
343.11 194.759 L
344.564 194.88 L
346.212 195.006 L
347.711 195.112 L
348.923 195.192 L
350.048 195.262 L
351.361 195.338 L
352.955 195.423 L
354.578 195.504 L
355.919 195.565 L
357.043 195.613 L
358.231 195.661 L
359.698 195.716 L
361.368 195.773 L
362.333 195.804 L
362.333 195.804 L
362.333 195.804 L
362.637 195.678 L
362.941 195.376 L
363.351 194.839 L
363.811 194.161 L
364.357 193.327 L
365.015 192.324 L
365.837 191.118 L
366.904 189.665 L
S
GR
GS
[0.75 0 0 0.75 0 0] CT
0 0.447 0.741 RC
1 LJ
0.667 LW
N
365.837 191.118 M
366.904 189.665 L
368.351 187.939 L
369.876 186.444 L
371.401 185.267 L
372.658 184.516 L
373.724 184.02 L
374.881 183.611 L
376.332 183.268 L
377.979 183.073 L
379.135 183.04 L
380.291 183.081 L
381.722 183.217 L
383.371 183.471 L
384.563 183.707 L
385.756 183.979 L
387.194 184.344 L
388.813 184.793 L
390.29 185.227 L
391.498 185.594 L
392.627 185.944 L
393.938 186.354 L
395.515 186.849 L
397.115 187.347 L
398.446 187.757 L
399.573 188.098 L
400.764 188.452 L
402.226 188.875 L
403.878 189.339 L
405.364 189.739 L
406.558 190.051 L
407.675 190.332 L
408.993 190.653 L
410.596 191.026 L
412.214 191.383 L
413.539 191.662 L
414.651 191.885 L
415.839 192.115 L
417.315 192.386 L
418.988 192.676 L
420.171 192.87 L
421.354 193.055 L
422.807 193.27 L
424.466 193.501 L
425.971 193.698 L
427.176 193.846 L
428.289 193.977 L
429.595 194.122 L
431.193 194.289 L
432.826 194.447 L
434.168 194.569 L
435.284 194.665 L
S
GR
GS
[0.75 0 0 0.75 0 0] CT
0 0.447 0.741 RC
1 LJ
0.667 LW
N
434.168 194.569 M
435.284 194.665 L
436.462 194.762 L
437.924 194.874 L
439.601 194.994 L
440.796 195.074 L
441.991 195.15 L
443.446 195.236 L
445.095 195.327 L
446.592 195.404 L
447.802 195.462 L
448.926 195.514 L
450.24 195.57 L
451.835 195.634 L
453.458 195.693 L
454.797 195.739 L
455.92 195.776 L
457.108 195.812 L
458.575 195.854 L
460.246 195.898 L
461.441 195.928 L
462.636 195.955 L
464.091 195.987 L
465.739 196.02 L
467.239 196.048 L
468.451 196.069 L
469.576 196.087 L
470.889 196.107 L
472.484 196.13 L
474.108 196.151 L
475.449 196.168 L
476.573 196.181 L
477.761 196.193 L
479.228 196.208 L
480.898 196.224 L
482.096 196.234 L
483.293 196.244 L
484.748 196.255 L
486.395 196.266 L
487.894 196.276 L
489.107 196.283 L
490.234 196.29 L
491.549 196.297 L
493.144 196.304 L
494.766 196.312 L
496.108 196.317 L
497.233 196.322 L
498.423 196.326 L
499.891 196.331 L
501.56 196.336 L
502.758 196.34 L
503.956 196.343 L
S
GR
GS
[0.75 0 0 0.75 0 0] CT
0 0.447 0.741 RC
1 LJ
0.667 LW
N
502.758 196.34 M
503.956 196.343 L
505.411 196.347 L
507 196.351 L
S
GR
GS
[0.75 0 0 0.75 0 0] CT
0.851 0.325 0.098 RC
1 LJ
0.667 LW
N
73 259.667 M
73.362 259.667 L
73.362 259.667 L
73.362 259.667 L
73.473 263.963 L
73.583 267.981 L
73.743 273.349 L
73.97 280.22 L
74.282 288.476 L
74.671 297.237 L
75.117 305.564 L
75.649 313.575 L
76.3 321.109 L
77.125 327.964 L
78.221 333.789 L
79.744 337.995 L
81.622 339.816 L
82.691 339.991 L
83.76 339.828 L
85.239 339.288 L
87.07 338.382 L
88.215 337.77 L
89.36 337.156 L
90.846 336.377 L
92.593 335.509 L
93.759 334.965 L
94.926 334.45 L
96.397 333.84 L
98.102 333.189 L
99.292 332.769 L
100.482 332.373 L
101.946 331.92 L
103.615 331.445 L
104.82 331.127 L
106.026 330.83 L
107.483 330.495 L
109.126 330.147 L
110.623 329.855 L
111.841 329.636 L
112.977 329.444 L
114.298 329.234 L
115.891 329 L
117.51 328.782 L
118.852 328.615 L
119.985 328.484 L
121.182 328.354 L
122.653 328.204 L
124.32 328.048 L
125.819 327.919 L
127.02 327.824 L
S
GR
GS
[0.75 0 0 0.75 0 0] CT
0.851 0.325 0.098 RC
1 LJ
0.667 LW
N
125.819 327.919 M
127.02 327.824 L
128.14 327.741 L
129.463 327.648 L
131.076 327.544 L
132.708 327.446 L
134.041 327.373 L
135.158 327.317 L
136.348 327.26 L
137.829 327.193 L
139.513 327.123 L
140.702 327.079 L
141.891 327.036 L
143.351 326.988 L
145.017 326.936 L
146.527 326.893 L
147.737 326.862 L
148.855 326.836 L
150.166 326.805 L
151.771 326.771 L
153.41 326.739 L
154.756 326.715 L
155.876 326.697 L
157.058 326.678 L
158.526 326.656 L
160.209 326.633 L
161.407 326.619 L
162.606 326.605 L
164.065 326.589 L
165.72 326.572 L
167.222 326.558 L
168.436 326.548 L
169.562 326.539 L
170.88 326.529 L
172.48 326.518 L
174.108 326.507 L
175.451 326.499 L
176.576 326.494 L
177.767 326.488 L
179.238 326.481 L
180.913 326.473 L
181.5 326.471 L
181.5 189.271 L
181.5 189.271 L
181.556 189.454 L
181.612 189.491 L
181.696 189.322 L
181.807 188.778 L
181.935 187.824 L
182.116 186.115 L
182.346 183.67 L
182.601 180.928 L
S
GR
GS
[0.75 0 0 0.75 0 0] CT
0.851 0.325 0.098 RC
1 LJ
0.667 LW
N
182.346 183.67 M
182.601 180.928 L
182.895 177.972 L
183.24 174.937 L
183.664 171.936 L
184.235 169.069 L
184.916 167.096 L
185.681 166.295 L
186.618 166.731 L
187.856 168.79 L
189.582 173.049 L
190.632 175.94 L
191.682 178.86 L
193.086 182.655 L
194.77 186.905 L
195.905 189.548 L
197.041 192.002 L
198.469 194.827 L
200.127 197.76 L
201.302 199.631 L
202.477 201.344 L
203.913 203.238 L
205.544 205.153 L
207.027 206.697 L
208.225 207.821 L
209.337 208.776 L
210.639 209.794 L
212.223 210.902 L
213.836 211.899 L
215.167 212.633 L
216.282 213.192 L
217.462 213.733 L
218.921 214.338 L
220.584 214.949 L
221.774 215.34 L
222.964 215.697 L
224.411 216.089 L
226.053 216.483 L
227.547 216.801 L
228.755 217.032 L
229.876 217.229 L
231.185 217.437 L
232.774 217.664 L
234.393 217.867 L
235.73 218.017 L
236.851 218.132 L
238.036 218.242 L
239.499 218.366 L
241.165 218.49 L
242.36 218.57 L
243.554 218.642 L
245.006 218.722 L
S
GR
GS
[0.75 0 0 0.75 0 0] CT
0.851 0.325 0.098 RC
1 LJ
0.667 LW
N
243.554 218.642 M
245.006 218.722 L
246.649 218.802 L
248.145 218.867 L
249.356 218.914 L
250.481 218.954 L
251.793 218.996 L
253.385 219.042 L
253.833 219.054 L
253.833 219.054 L
254.256 219.162 L
254.679 219.432 L
255.38 220.131 L
256.21 221.22 L
257.337 222.922 L
258.882 225.315 L
259.957 226.878 L
261.033 228.298 L
262.403 229.866 L
264.03 231.37 L
265.208 232.228 L
266.386 232.907 L
267.805 233.512 L
269.402 233.95 L
270.864 234.159 L
272.067 234.214 L
273.194 234.183 L
274.5 234.063 L
276.066 233.819 L
277.654 233.483 L
278.98 233.147 L
280.106 232.831 L
281.299 232.472 L
282.757 232.006 L
284.4 231.458 L
285.878 230.95 L
287.071 230.536 L
288.19 230.146 L
289.509 229.688 L
291.108 229.139 L
292.718 228.596 L
294.039 228.161 L
295.152 227.803 L
296.343 227.428 L
297.819 226.979 L
299.487 226.491 L
300.669 226.158 L
301.85 225.837 L
303.301 225.458 L
304.957 225.047 L
306.462 224.692 L
307.667 224.421 L
S
GR
GS
[0.75 0 0 0.75 0 0] CT
0.851 0.325 0.098 RC
1 LJ
0.667 LW
N
306.462 224.692 M
307.667 224.421 L
308.779 224.182 L
310.084 223.913 L
311.68 223.601 L
313.312 223.302 L
314.654 223.069 L
315.77 222.886 L
316.946 222.701 L
318.408 222.483 L
320.083 222.25 L
321.278 222.093 L
322.473 221.944 L
323.927 221.773 L
325.574 221.592 L
327.07 221.439 L
328.28 221.323 L
329.405 221.22 L
330.718 221.106 L
332.313 220.978 L
333.934 220.856 L
335.272 220.762 L
336.395 220.688 L
337.583 220.614 L
339.051 220.527 L
340.72 220.436 L
341.915 220.376 L
343.11 220.318 L
344.564 220.253 L
346.212 220.184 L
347.711 220.126 L
348.923 220.082 L
350.048 220.044 L
351.361 220.001 L
352.955 219.954 L
354.578 219.909 L
355.919 219.874 L
357.043 219.847 L
358.231 219.82 L
359.698 219.789 L
361.368 219.756 L
362.333 219.738 L
362.333 76.822 L
362.333 76.822 L
362.637 80.146 L
362.941 83.415 L
363.351 87.749 L
363.811 92.527 L
364.357 98.064 L
365.015 104.538 L
365.837 112.269 L
366.904 121.704 L
S
GR
GS
[0.75 0 0 0.75 0 0] CT
0.851 0.325 0.098 RC
1 LJ
0.667 LW
N
365.837 112.269 M
366.904 121.704 L
368.351 133.4 L
369.876 144.393 L
371.401 154.115 L
372.658 161.26 L
373.724 166.747 L
374.881 172.166 L
376.332 178.242 L
377.979 184.265 L
379.135 188.004 L
380.291 191.379 L
381.722 195.103 L
383.371 198.842 L
384.563 201.218 L
385.756 203.351 L
387.194 205.63 L
388.813 207.858 L
390.29 209.617 L
391.498 210.883 L
392.627 211.941 L
393.938 213.034 L
395.515 214.177 L
397.115 215.168 L
398.446 215.879 L
399.573 216.41 L
400.764 216.909 L
402.226 217.441 L
403.878 217.949 L
405.364 218.335 L
406.558 218.601 L
407.675 218.818 L
408.993 219.041 L
410.596 219.268 L
412.214 219.454 L
413.539 219.579 L
414.651 219.668 L
415.839 219.748 L
417.315 219.828 L
418.988 219.898 L
420.171 219.936 L
421.354 219.966 L
422.807 219.992 L
424.466 220.01 L
425.971 220.019 L
427.176 220.02 L
428.289 220.018 L
429.595 220.012 L
431.193 220.001 L
432.826 219.986 L
434.168 219.971 L
435.284 219.957 L
S
GR
GS
[0.75 0 0 0.75 0 0] CT
0.851 0.325 0.098 RC
1 LJ
0.667 LW
N
434.168 219.971 M
435.284 219.957 L
436.462 219.942 L
437.924 219.922 L
439.601 219.898 L
440.796 219.88 L
441.991 219.863 L
443.446 219.841 L
445.095 219.817 L
446.592 219.795 L
447.802 219.778 L
448.926 219.763 L
450.24 219.745 L
451.835 219.724 L
453.458 219.703 L
454.797 219.687 L
455.92 219.674 L
457.108 219.66 L
458.575 219.644 L
460.246 219.627 L
461.441 219.615 L
462.636 219.604 L
464.091 219.59 L
465.739 219.576 L
467.239 219.564 L
468.451 219.555 L
469.576 219.547 L
470.889 219.538 L
472.484 219.527 L
474.108 219.517 L
475.449 219.51 L
476.573 219.504 L
477.761 219.497 L
479.228 219.49 L
480.898 219.483 L
482.096 219.478 L
483.293 219.473 L
484.748 219.467 L
486.395 219.461 L
487.894 219.456 L
489.107 219.453 L
490.234 219.449 L
491.549 219.446 L
493.144 219.442 L
494.766 219.438 L
496.108 219.435 L
497.233 219.432 L
498.423 219.43 L
499.891 219.427 L
501.56 219.424 L
502.758 219.422 L
503.956 219.421 L
S
GR
GS
[0.75 0 0 0.75 0 0] CT
0.851 0.325 0.098 RC
1 LJ
0.667 LW
N
502.758 219.422 M
503.956 219.421 L
505.411 219.418 L
507 219.416 L
S
GR
GS
[0.75 0 0 0.75 0 0] CT
1 GC
N
424 80 M
424 44 L
494 44 L
494 80 L
cp
f
GR
GS
[0.75 0 0 0.75 357 40.625] CT
/Helvetica 12 F
GS
[1 0 0 1 0 0] CT
0 4.5 moveto 
1 -1 scale
(u1) t 
GR
GR
GS
[0.75 0 0 0.75 0 0] CT
0 0.447 0.741 RC
1 LJ
0.667 LW
N
432 54.167 M
472 54.167 L
S
GR
GS
[0.75 0 0 0.75 357 52.375] CT
/Helvetica 12 F
GS
[1 0 0 1 0 0] CT
0 4.5 moveto 
1 -1 scale
(u2) t 
GR
GR
GS
[0.75 0 0 0.75 0 0] CT
0.851 0.325 0.098 RC
1 LJ
0.667 LW
N
432 69.833 M
472 69.833 L
S
GR
GS
[0.75 0 0 0.75 0 0] CT
0.149 GC
10.0 ML
0.667 LW
N
424 80 M
424 44 L
494 44 L
494 80 L
cp
S
GR
%%Trailer
%%Pages: 1
%%EOF
