%!PS-Adobe-3.0 EPSF-3.0
%%Creator: (MATLAB, The Mathworks, Inc. Version 8.6.0.267246 \(R2015b\). Operating System: Windows 8)
%%Title: E:/Projects/skola/rls/pics/SP3/par_2o_y.eps
%%CreationDate: 2017-03-17T12:33:58
%%Pages: (atend)
%%BoundingBox: 0 0 420 315
%%LanguageLevel: 2
%%EndComments
%%BeginProlog
%%BeginResource: procset (Apache XML Graphics Std ProcSet) 1.2 0
%%Version: 1.2 0
%%Copyright: (Copyright 2001-2003,2010 The Apache Software Foundation. License terms: http://www.apache.org/licenses/LICENSE-2.0)
/bd{bind def}bind def
/ld{load def}bd
/GR/grestore ld
/M/moveto ld
/LJ/setlinejoin ld
/C/curveto ld
/f/fill ld
/LW/setlinewidth ld
/GC/setgray ld
/t/show ld
/N/newpath ld
/CT/concat ld
/cp/closepath ld
/S/stroke ld
/L/lineto ld
/CC/setcmykcolor ld
/A/ashow ld
/GS/gsave ld
/RC/setrgbcolor ld
/RM/rmoveto ld
/ML/setmiterlimit ld
/re {4 2 roll M
1 index 0 rlineto
0 exch rlineto
neg 0 rlineto
cp } bd
/_ctm matrix def
/_tm matrix def
/BT { _ctm currentmatrix pop matrix _tm copy pop 0 0 moveto } bd
/ET { _ctm setmatrix } bd
/iTm { _ctm setmatrix _tm concat } bd
/Tm { _tm astore pop iTm 0 0 moveto } bd
/ux 0.0 def
/uy 0.0 def
/F {
  /Tp exch def
  /Tf exch def
  Tf findfont Tp scalefont setfont
  /cf Tf def  /cs Tp def
} bd
/ULS {currentpoint /uy exch def /ux exch def} bd
/ULE {
  /Tcx currentpoint pop def
  gsave
  newpath
  cf findfont cs scalefont dup
  /FontMatrix get 0 get /Ts exch def /FontInfo get dup
  /UnderlinePosition get Ts mul /To exch def
  /UnderlineThickness get Ts mul /Tt exch def
  ux uy To add moveto  Tcx uy To add lineto
  Tt setlinewidth stroke
  grestore
} bd
/OLE {
  /Tcx currentpoint pop def
  gsave
  newpath
  cf findfont cs scalefont dup
  /FontMatrix get 0 get /Ts exch def /FontInfo get dup
  /UnderlinePosition get Ts mul /To exch def
  /UnderlineThickness get Ts mul /Tt exch def
  ux uy To add cs add moveto Tcx uy To add cs add lineto
  Tt setlinewidth stroke
  grestore
} bd
/SOE {
  /Tcx currentpoint pop def
  gsave
  newpath
  cf findfont cs scalefont dup
  /FontMatrix get 0 get /Ts exch def /FontInfo get dup
  /UnderlinePosition get Ts mul /To exch def
  /UnderlineThickness get Ts mul /Tt exch def
  ux uy To add cs 10 mul 26 idiv add moveto Tcx uy To add cs 10 mul 26 idiv add lineto
  Tt setlinewidth stroke
  grestore
} bd
/QT {
/Y22 exch store
/X22 exch store
/Y21 exch store
/X21 exch store
currentpoint
/Y21 load 2 mul add 3 div exch
/X21 load 2 mul add 3 div exch
/X21 load 2 mul /X22 load add 3 div
/Y21 load 2 mul /Y22 load add 3 div
/X22 load /Y22 load curveto
} bd
/SSPD {
dup length /d exch dict def
{
/v exch def
/k exch def
currentpagedevice k known {
/cpdv currentpagedevice k get def
v cpdv ne {
/upd false def
/nullv v type /nulltype eq def
/nullcpdv cpdv type /nulltype eq def
nullv nullcpdv or
{
/upd true def
} {
/sametype v type cpdv type eq def
sametype {
v type /arraytype eq {
/vlen v length def
/cpdvlen cpdv length def
vlen cpdvlen eq {
0 1 vlen 1 sub {
/i exch def
/obj v i get def
/cpdobj cpdv i get def
obj cpdobj ne {
/upd true def
exit
} if
} for
} {
/upd true def
} ifelse
} {
v type /dicttype eq {
v {
/dv exch def
/dk exch def
/cpddv cpdv dk get def
dv cpddv ne {
/upd true def
exit
} if
} forall
} {
/upd true def
} ifelse
} ifelse
} if
} ifelse
upd true eq {
d k v put
} if
} if
} if
} forall
d length 0 gt {
d setpagedevice
} if
} bd
%%EndResource
%%BeginResource: procset (Apache XML Graphics EPS ProcSet) 1.0 0
%%Version: 1.0 0
%%Copyright: (Copyright 2002-2003 The Apache Software Foundation. License terms: http://www.apache.org/licenses/LICENSE-2.0)
/BeginEPSF { %def
/b4_Inc_state save def         % Save state for cleanup
/dict_count countdictstack def % Count objects on dict stack
/op_count count 1 sub def      % Count objects on operand stack
userdict begin                 % Push userdict on dict stack
/showpage { } def              % Redefine showpage, { } = null proc
0 setgray 0 setlinecap         % Prepare graphics state
1 setlinewidth 0 setlinejoin
10 setmiterlimit [ ] 0 setdash newpath
/languagelevel where           % If level not equal to 1 then
{pop languagelevel             % set strokeadjust and
1 ne                           % overprint to their defaults.
{false setstrokeadjust false setoverprint
} if
} if
} bd
/EndEPSF { %def
count op_count sub {pop} repeat            % Clean up stacks
countdictstack dict_count sub {end} repeat
b4_Inc_state restore
} bd
%%EndResource
%FOPBeginFontDict
%%IncludeResource: font Courier-Bold
%%IncludeResource: font Helvetica
%%IncludeResource: font Courier-BoldOblique
%%IncludeResource: font Courier-Oblique
%%IncludeResource: font Times-Roman
%%IncludeResource: font Helvetica-BoldOblique
%%IncludeResource: font Helvetica-Bold
%%IncludeResource: font Helvetica-Oblique
%%IncludeResource: font Times-BoldItalic
%%IncludeResource: font Courier
%%IncludeResource: font Times-Italic
%%IncludeResource: font Times-Bold
%%IncludeResource: font Symbol
%%IncludeResource: font ZapfDingbats
%FOPEndFontDict
%%BeginResource: encoding WinAnsiEncoding
/WinAnsiEncoding [
/.notdef /.notdef /.notdef /.notdef /.notdef
/.notdef /.notdef /.notdef /.notdef /.notdef
/.notdef /.notdef /.notdef /.notdef /.notdef
/.notdef /.notdef /.notdef /.notdef /.notdef
/.notdef /.notdef /.notdef /.notdef /.notdef
/.notdef /.notdef /.notdef /.notdef /.notdef
/.notdef /.notdef /space /exclam /quotedbl
/numbersign /dollar /percent /ampersand /quotesingle
/parenleft /parenright /asterisk /plus /comma
/hyphen /period /slash /zero /one
/two /three /four /five /six
/seven /eight /nine /colon /semicolon
/less /equal /greater /question /at
/A /B /C /D /E
/F /G /H /I /J
/K /L /M /N /O
/P /Q /R /S /T
/U /V /W /X /Y
/Z /bracketleft /backslash /bracketright /asciicircum
/underscore /quoteleft /a /b /c
/d /e /f /g /h
/i /j /k /l /m
/n /o /p /q /r
/s /t /u /v /w
/x /y /z /braceleft /bar
/braceright /asciitilde /bullet /Euro /bullet
/quotesinglbase /florin /quotedblbase /ellipsis /dagger
/daggerdbl /circumflex /perthousand /Scaron /guilsinglleft
/OE /bullet /Zcaron /bullet /bullet
/quoteleft /quoteright /quotedblleft /quotedblright /bullet
/endash /emdash /asciitilde /trademark /scaron
/guilsinglright /oe /bullet /zcaron /Ydieresis
/space /exclamdown /cent /sterling /currency
/yen /brokenbar /section /dieresis /copyright
/ordfeminine /guillemotleft /logicalnot /sfthyphen /registered
/macron /degree /plusminus /twosuperior /threesuperior
/acute /mu /paragraph /middot /cedilla
/onesuperior /ordmasculine /guillemotright /onequarter /onehalf
/threequarters /questiondown /Agrave /Aacute /Acircumflex
/Atilde /Adieresis /Aring /AE /Ccedilla
/Egrave /Eacute /Ecircumflex /Edieresis /Igrave
/Iacute /Icircumflex /Idieresis /Eth /Ntilde
/Ograve /Oacute /Ocircumflex /Otilde /Odieresis
/multiply /Oslash /Ugrave /Uacute /Ucircumflex
/Udieresis /Yacute /Thorn /germandbls /agrave
/aacute /acircumflex /atilde /adieresis /aring
/ae /ccedilla /egrave /eacute /ecircumflex
/edieresis /igrave /iacute /icircumflex /idieresis
/eth /ntilde /ograve /oacute /ocircumflex
/otilde /odieresis /divide /oslash /ugrave
/uacute /ucircumflex /udieresis /yacute /thorn
/ydieresis
] def
%%EndResource
%FOPBeginFontReencode
/Courier-Bold findfont
dup length dict begin
  {1 index /FID ne {def} {pop pop} ifelse} forall
  /Encoding WinAnsiEncoding def
  currentdict
end
/Courier-Bold exch definefont pop
/Helvetica findfont
dup length dict begin
  {1 index /FID ne {def} {pop pop} ifelse} forall
  /Encoding WinAnsiEncoding def
  currentdict
end
/Helvetica exch definefont pop
/Courier-BoldOblique findfont
dup length dict begin
  {1 index /FID ne {def} {pop pop} ifelse} forall
  /Encoding WinAnsiEncoding def
  currentdict
end
/Courier-BoldOblique exch definefont pop
/Courier-Oblique findfont
dup length dict begin
  {1 index /FID ne {def} {pop pop} ifelse} forall
  /Encoding WinAnsiEncoding def
  currentdict
end
/Courier-Oblique exch definefont pop
/Times-Roman findfont
dup length dict begin
  {1 index /FID ne {def} {pop pop} ifelse} forall
  /Encoding WinAnsiEncoding def
  currentdict
end
/Times-Roman exch definefont pop
/Helvetica-BoldOblique findfont
dup length dict begin
  {1 index /FID ne {def} {pop pop} ifelse} forall
  /Encoding WinAnsiEncoding def
  currentdict
end
/Helvetica-BoldOblique exch definefont pop
/Helvetica-Bold findfont
dup length dict begin
  {1 index /FID ne {def} {pop pop} ifelse} forall
  /Encoding WinAnsiEncoding def
  currentdict
end
/Helvetica-Bold exch definefont pop
/Helvetica-Oblique findfont
dup length dict begin
  {1 index /FID ne {def} {pop pop} ifelse} forall
  /Encoding WinAnsiEncoding def
  currentdict
end
/Helvetica-Oblique exch definefont pop
/Times-BoldItalic findfont
dup length dict begin
  {1 index /FID ne {def} {pop pop} ifelse} forall
  /Encoding WinAnsiEncoding def
  currentdict
end
/Times-BoldItalic exch definefont pop
/Courier findfont
dup length dict begin
  {1 index /FID ne {def} {pop pop} ifelse} forall
  /Encoding WinAnsiEncoding def
  currentdict
end
/Courier exch definefont pop
/Times-Italic findfont
dup length dict begin
  {1 index /FID ne {def} {pop pop} ifelse} forall
  /Encoding WinAnsiEncoding def
  currentdict
end
/Times-Italic exch definefont pop
/Times-Bold findfont
dup length dict begin
  {1 index /FID ne {def} {pop pop} ifelse} forall
  /Encoding WinAnsiEncoding def
  currentdict
end
/Times-Bold exch definefont pop
%FOPEndFontReencode
%%EndProlog
%%Page: 1 1
%%PageBoundingBox: 0 0 420 315
%%BeginPageSetup
[1 0 0 -1 0 315] CT
%%EndPageSetup
GS
[0.75 0 0 0.75 0 0] CT
1 GC
N
0 0 560 420 re
f
GR
GS
[0.75 0 0 0.75 0 0] CT
1 GC
N
0 0 560 420 re
f
GR
GS
[0.75 0 0 0.75 0 0] CT
1 GC
N
73 374 M
507 374 L
507 31 L
73 31 L
cp
f
GR
GS
[0.75 0 0 0.75 0 0] CT
0.149 GC
2 setlinecap
1 LJ
0.667 LW
N
73 374 M
507 374 L
S
GR
GS
[0.75 0 0 0.75 0 0] CT
0.149 GC
2 setlinecap
1 LJ
0.667 LW
N
73 31 M
507 31 L
S
GR
GS
[0.75 0 0 0.75 0 0] CT
0.149 GC
2 setlinecap
1 LJ
0.667 LW
N
73 374 M
73 369.66 L
S
GR
GS
[0.75 0 0 0.75 0 0] CT
0.149 GC
2 setlinecap
1 LJ
0.667 LW
N
145.333 374 M
145.333 369.66 L
S
GR
GS
[0.75 0 0 0.75 0 0] CT
0.149 GC
2 setlinecap
1 LJ
0.667 LW
N
217.667 374 M
217.667 369.66 L
S
GR
GS
[0.75 0 0 0.75 0 0] CT
0.149 GC
2 setlinecap
1 LJ
0.667 LW
N
290 374 M
290 369.66 L
S
GR
GS
[0.75 0 0 0.75 0 0] CT
0.149 GC
2 setlinecap
1 LJ
0.667 LW
N
362.333 374 M
362.333 369.66 L
S
GR
GS
[0.75 0 0 0.75 0 0] CT
0.149 GC
2 setlinecap
1 LJ
0.667 LW
N
434.667 374 M
434.667 369.66 L
S
GR
GS
[0.75 0 0 0.75 0 0] CT
0.149 GC
2 setlinecap
1 LJ
0.667 LW
N
507 374 M
507 369.66 L
S
GR
GS
[0.75 0 0 0.75 0 0] CT
0.149 GC
2 setlinecap
1 LJ
0.667 LW
N
73 31 M
73 35.34 L
S
GR
GS
[0.75 0 0 0.75 0 0] CT
0.149 GC
2 setlinecap
1 LJ
0.667 LW
N
145.333 31 M
145.333 35.34 L
S
GR
GS
[0.75 0 0 0.75 0 0] CT
0.149 GC
2 setlinecap
1 LJ
0.667 LW
N
217.667 31 M
217.667 35.34 L
S
GR
GS
[0.75 0 0 0.75 0 0] CT
0.149 GC
2 setlinecap
1 LJ
0.667 LW
N
290 31 M
290 35.34 L
S
GR
GS
[0.75 0 0 0.75 0 0] CT
0.149 GC
2 setlinecap
1 LJ
0.667 LW
N
362.333 31 M
362.333 35.34 L
S
GR
GS
[0.75 0 0 0.75 0 0] CT
0.149 GC
2 setlinecap
1 LJ
0.667 LW
N
434.667 31 M
434.667 35.34 L
S
GR
GS
[0.75 0 0 0.75 0 0] CT
0.149 GC
2 setlinecap
1 LJ
0.667 LW
N
507 31 M
507 35.34 L
S
GR
GS
[0.75 0 0 0.75 54.75 284.50001] CT
0.149 GC
/Helvetica 13 F
GS
[1 0 0 1 0 0] CT
-4 13 moveto 
1 -1 scale
(0) t 
GR
GR
GS
[0.75 0 0 0.75 109 284.50001] CT
0.149 GC
/Helvetica 13 F
GS
[1 0 0 1 0 0] CT
-11 13 moveto 
1 -1 scale
(200) t 
GR
GR
GS
[0.75 0 0 0.75 163.25 284.50001] CT
0.149 GC
/Helvetica 13 F
GS
[1 0 0 1 0 0] CT
-11 13 moveto 
1 -1 scale
(400) t 
GR
GR
GS
[0.75 0 0 0.75 217.5 284.50001] CT
0.149 GC
/Helvetica 13 F
GS
[1 0 0 1 0 0] CT
-11 13 moveto 
1 -1 scale
(600) t 
GR
GR
GS
[0.75 0 0 0.75 271.75001 284.50001] CT
0.149 GC
/Helvetica 13 F
GS
[1 0 0 1 0 0] CT
-11 13 moveto 
1 -1 scale
(800) t 
GR
GR
GS
[0.75 0 0 0.75 325.99999 284.50001] CT
0.149 GC
/Helvetica 13 F
GS
[1 0 0 1 0 0] CT
-14.5 13 moveto 
1 -1 scale
(1000) t 
GR
GR
GS
[0.75 0 0 0.75 380.25 284.50001] CT
0.149 GC
/Helvetica 13 F
GS
[1 0 0 1 0 0] CT
-14.5 13 moveto 
1 -1 scale
(1200) t 
GR
GR
GS
[0.75 0 0 0.75 217.50016 297.49999] CT
0.149 GC
/Helvetica 15 F
GS
[1 0 0 1 0 0] CT
-11 14 moveto 
1 -1 scale
(t\(s\)) t 
GR
GR
GS
[0.75 0 0 0.75 0 0] CT
0.149 GC
2 setlinecap
1 LJ
0.667 LW
N
73 374 M
73 31 L
S
GR
GS
[0.75 0 0 0.75 0 0] CT
0.149 GC
2 setlinecap
1 LJ
0.667 LW
N
507 374 M
507 31 L
S
GR
GS
[0.75 0 0 0.75 0 0] CT
0.149 GC
2 setlinecap
1 LJ
0.667 LW
N
73 374 M
77.34 374 L
S
GR
GS
[0.75 0 0 0.75 0 0] CT
0.149 GC
2 setlinecap
1 LJ
0.667 LW
N
73 316.833 M
77.34 316.833 L
S
GR
GS
[0.75 0 0 0.75 0 0] CT
0.149 GC
2 setlinecap
1 LJ
0.667 LW
N
73 259.667 M
77.34 259.667 L
S
GR
GS
[0.75 0 0 0.75 0 0] CT
0.149 GC
2 setlinecap
1 LJ
0.667 LW
N
73 202.5 M
77.34 202.5 L
S
GR
GS
[0.75 0 0 0.75 0 0] CT
0.149 GC
2 setlinecap
1 LJ
0.667 LW
N
73 145.333 M
77.34 145.333 L
S
GR
GS
[0.75 0 0 0.75 0 0] CT
0.149 GC
2 setlinecap
1 LJ
0.667 LW
N
73 88.167 M
77.34 88.167 L
S
GR
GS
[0.75 0 0 0.75 0 0] CT
0.149 GC
2 setlinecap
1 LJ
0.667 LW
N
73 31 M
77.34 31 L
S
GR
GS
[0.75 0 0 0.75 0 0] CT
0.149 GC
2 setlinecap
1 LJ
0.667 LW
N
507 374 M
502.66 374 L
S
GR
GS
[0.75 0 0 0.75 0 0] CT
0.149 GC
2 setlinecap
1 LJ
0.667 LW
N
507 316.833 M
502.66 316.833 L
S
GR
GS
[0.75 0 0 0.75 0 0] CT
0.149 GC
2 setlinecap
1 LJ
0.667 LW
N
507 259.667 M
502.66 259.667 L
S
GR
GS
[0.75 0 0 0.75 0 0] CT
0.149 GC
2 setlinecap
1 LJ
0.667 LW
N
507 202.5 M
502.66 202.5 L
S
GR
GS
[0.75 0 0 0.75 0 0] CT
0.149 GC
2 setlinecap
1 LJ
0.667 LW
N
507 145.333 M
502.66 145.333 L
S
GR
GS
[0.75 0 0 0.75 0 0] CT
0.149 GC
2 setlinecap
1 LJ
0.667 LW
N
507 88.167 M
502.66 88.167 L
S
GR
GS
[0.75 0 0 0.75 0 0] CT
0.149 GC
2 setlinecap
1 LJ
0.667 LW
N
507 31 M
502.66 31 L
S
GR
GS
[0.75 0 0 0.75 50.75 280.5] CT
0.149 GC
/Helvetica 13 F
GS
[1 0 0 1 0 0] CT
-30 5 moveto 
1 -1 scale
(-0.02) t 
GR
GR
GS
[0.75 0 0 0.75 50.75 237.62501] CT
0.149 GC
/Helvetica 13 F
GS
[1 0 0 1 0 0] CT
-8 5 moveto 
1 -1 scale
(0) t 
GR
GR
GS
[0.75 0 0 0.75 50.75 194.74999] CT
0.149 GC
/Helvetica 13 F
GS
[1 0 0 1 0 0] CT
-26 5 moveto 
1 -1 scale
(0.02) t 
GR
GR
GS
[0.75 0 0 0.75 50.75 151.875] CT
0.149 GC
/Helvetica 13 F
GS
[1 0 0 1 0 0] CT
-26 5 moveto 
1 -1 scale
(0.04) t 
GR
GR
GS
[0.75 0 0 0.75 50.75 109.00001] CT
0.149 GC
/Helvetica 13 F
GS
[1 0 0 1 0 0] CT
-26 5 moveto 
1 -1 scale
(0.06) t 
GR
GR
GS
[0.75 0 0 0.75 50.75 66.125] CT
0.149 GC
/Helvetica 13 F
GS
[1 0 0 1 0 0] CT
-26 5 moveto 
1 -1 scale
(0.08) t 
GR
GR
GS
[0.75 0 0 0.75 50.75 23.25] CT
0.149 GC
/Helvetica 13 F
GS
[1 0 0 1 0 0] CT
-19 5 moveto 
1 -1 scale
(0.1) t 
GR
GR
GS
[0.75 0 0 0.75 217.50021 21.18749] CT
/any-Bold 15 F
GS
[1 0 0 1 0 0] CT
-135.5 -4 moveto 
1 -1 scale
(Response of system 2 order regulator) t 
GR
GR
GS
[0.75 0 0 0.75 0 0] CT
0 0.447 0.741 RC
1 LJ
0.667 LW
N
73 316.833 M
73 316.833 L
73.362 316.833 L
73.362 31 L
73.362 31 L
73.409 31 L
73.452 31 L
73.509 31 L
73.578 31 L
73.669 31 L
73.791 31 L
73.928 31 L
74.09 31 L
74.285 31 L
74.531 31 L
74.858 31 L
75.382 31 L
75.944 31 L
76.311 31 L
76.678 31 L
77.167 31 L
77.769 31 L
78.164 31 L
78.56 31 L
79.058 31 L
79.633 31 L
80.032 31 L
80.431 31 L
80.924 31 L
81.489 31 L
81.895 31 L
82.3 31 L
82.792 31 L
83.346 31 L
83.851 31 L
84.261 31 L
84.643 31 L
85.088 31 L
85.626 31 L
86.172 31 L
86.625 31 L
87.006 31 L
87.409 31 L
87.905 31 L
88.467 31 L
88.872 31 L
89.276 31 L
89.767 31 L
90.323 31 L
90.829 31 L
S
GR
GS
[0.75 0 0 0.75 0 0] CT
0 0.447 0.741 RC
1 LJ
0.667 LW
N
90.323 31 M
90.829 31 L
91.239 31 L
91.62 31 L
92.064 31 L
92.602 31 L
93.15 31 L
93.603 31 L
93.983 31 L
94.385 31 L
94.88 31 L
95.444 31 L
95.848 31 L
96.253 31 L
96.744 31 L
97.3 31 L
97.806 31 L
98.216 31 L
98.597 31 L
99.041 31 L
99.579 31 L
100.127 31 L
100.58 31 L
100.96 31 L
101.362 31 L
101.858 31 L
102.421 31 L
102.825 31 L
103.23 31 L
103.721 31 L
104.277 31 L
104.783 31 L
105.193 31 L
105.574 31 L
106.018 31 L
106.556 31 L
107.104 31 L
107.557 31 L
107.937 31 L
108.339 31 L
108.834 31 L
109.398 31 L
109.802 31 L
110.207 31 L
110.698 31 L
111.254 31 L
111.76 31 L
112.17 31 L
112.551 31 L
112.995 31 L
113.533 31 L
114.081 31 L
S
GR
GS
[0.75 0 0 0.75 0 0] CT
0 0.447 0.741 RC
1 LJ
0.667 LW
N
113.533 31 M
114.081 31 L
114.534 31 L
114.914 31 L
115.316 31 L
115.811 31 L
116.375 31 L
116.779 31 L
117.184 31 L
117.675 31 L
118.231 31 L
118.737 31 L
119.147 31 L
119.528 31 L
119.972 31 L
120.51 31 L
121.058 31 L
121.511 31 L
121.891 31 L
122.293 31 L
122.788 31 L
123.352 31 L
123.756 31 L
124.161 31 L
124.652 31 L
125.208 31 L
125.714 31 L
126.124 31 L
126.505 31 L
126.949 31 L
127.487 31 L
128.035 31 L
128.488 31 L
128.868 31 L
129.27 31 L
129.765 31 L
130.329 31 L
130.733 31 L
131.138 31 L
131.629 31 L
132.185 31 L
132.691 31 L
133.101 31 L
133.482 31 L
133.926 31 L
134.464 31 L
135.012 31 L
135.465 31 L
135.845 31 L
136.247 31 L
136.742 31 L
137.306 31 L
S
GR
GS
[0.75 0 0 0.75 0 0] CT
0 0.447 0.741 RC
1 LJ
0.667 LW
N
136.742 31 M
137.306 31 L
137.71 31 L
138.115 31 L
138.606 31 L
139.162 31 L
139.668 31 L
140.078 31 L
140.459 31 L
140.903 31 L
141.441 31 L
141.989 31 L
142.442 31 L
142.822 31 L
143.224 31 L
143.719 31 L
144.283 31 L
144.687 31 L
145.092 31 L
145.583 31 L
146.139 31 L
146.645 31 L
147.055 31 L
147.436 31 L
147.88 31 L
148.418 31 L
148.966 31 L
149.419 31 L
149.799 31 L
150.201 31 L
150.696 31 L
151.26 31 L
151.664 31 L
152.069 31 L
152.56 31 L
153.116 31 L
153.622 31 L
154.032 31 L
154.413 31 L
154.857 31 L
155.395 31 L
155.943 31 L
156.396 31 L
156.776 31 L
157.178 31 L
157.673 31 L
158.237 31 L
158.641 31 L
159.046 31 L
159.537 31 L
160.093 31 L
160.599 31 L
S
GR
GS
[0.75 0 0 0.75 0 0] CT
0 0.447 0.741 RC
1 LJ
0.667 LW
N
160.093 31 M
160.599 31 L
161.009 31 L
161.39 31 L
161.834 31 L
162.372 31 L
162.92 31 L
163.373 31 L
163.753 31 L
164.155 31 L
164.65 31 L
165.214 31 L
165.618 31 L
166.023 31 L
166.514 31 L
167.07 31 L
167.576 31 L
167.986 31 L
168.367 31 L
168.811 31 L
169.349 31 L
169.897 31 L
170.35 31 L
170.73 31 L
171.132 31 L
171.627 31 L
172.191 31 L
172.595 31 L
173 31 L
173.491 31 L
174.047 31 L
174.553 31 L
174.963 31 L
175.344 31 L
175.788 31 L
176.326 31 L
176.874 31 L
177.327 31 L
177.707 31 L
178.109 31 L
178.604 31 L
179.168 31 L
179.572 31 L
179.977 31 L
180.468 31 L
181.024 31 L
181.5 31 L
181.5 31 L
181.5 31 L
181.524 31 L
181.549 31 L
181.584 31 L
S
GR
GS
[0.75 0 0 0.75 0 0] CT
0 0.447 0.741 RC
1 LJ
0.667 LW
N
181.549 31 M
181.584 31 L
181.624 31 L
181.677 31 L
181.75 31 L
181.843 31 L
181.947 31 L
182.066 31 L
182.204 31 L
182.372 31 L
182.587 31 L
182.852 31 L
183.131 31 L
183.462 31 L
183.864 31 L
184.368 31 L
184.906 31 L
185.511 31 L
185.963 31 L
186.414 31 L
186.904 31 L
187.398 31 L
187.855 31 L
188.279 31 L
188.711 31 L
189.186 31 L
189.689 31 L
190.168 31 L
190.6 31 L
191.019 31 L
191.472 31 L
191.972 31 L
192.472 31 L
192.923 31 L
193.338 31 L
193.767 31 L
194.25 31 L
194.763 31 L
195.242 31 L
195.665 31 L
196.076 31 L
196.532 31 L
197.043 31 L
197.549 31 L
197.994 31 L
198.398 31 L
198.825 31 L
199.317 31 L
199.841 31 L
200.318 31 L
200.73 31 L
201.135 31 L
S
GR
GS
[0.75 0 0 0.75 0 0] CT
0 0.447 0.741 RC
1 LJ
0.667 LW
N
200.73 31 M
201.135 31 L
201.595 31 L
202.118 31 L
202.629 31 L
203.066 31 L
203.461 31 L
203.886 31 L
204.388 31 L
204.922 31 L
205.397 31 L
205.799 31 L
206.197 31 L
206.662 31 L
207.197 31 L
207.712 31 L
208.141 31 L
208.526 31 L
208.951 31 L
209.462 31 L
210.005 31 L
210.477 31 L
210.87 31 L
211.263 31 L
211.732 31 L
212.278 31 L
212.796 31 L
213.218 31 L
213.596 31 L
214.02 31 L
214.538 31 L
215.089 31 L
215.559 31 L
215.944 31 L
216.333 31 L
216.805 31 L
217.359 31 L
217.88 31 L
218.297 31 L
218.669 31 L
219.093 31 L
219.617 31 L
220.173 31 L
220.641 31 L
221.021 31 L
221.406 31 L
221.881 31 L
222.44 31 L
222.854 31 L
223.269 31 L
223.756 31 L
224.292 31 L
S
GR
GS
[0.75 0 0 0.75 0 0] CT
0 0.447 0.741 RC
1 LJ
0.667 LW
N
223.756 31 M
224.292 31 L
224.783 31 L
225.195 31 L
225.586 31 L
226.035 31 L
226.562 31 L
227.09 31 L
227.535 31 L
227.922 31 L
228.333 31 L
228.828 31 L
229.374 31 L
229.865 31 L
230.268 31 L
230.653 31 L
231.104 31 L
231.641 31 L
232.174 31 L
232.614 31 L
232.993 31 L
233.401 31 L
233.902 31 L
234.457 31 L
234.948 31 L
235.344 31 L
235.723 31 L
236.176 31 L
236.721 31 L
237.258 31 L
237.694 31 L
238.067 31 L
238.474 31 L
238.979 31 L
239.54 31 L
239.932 31 L
240.323 31 L
240.811 31 L
241.375 31 L
241.778 31 L
242.181 31 L
242.67 31 L
243.221 31 L
243.721 31 L
244.128 31 L
244.507 31 L
244.949 31 L
245.484 31 L
246.026 31 L
246.474 31 L
246.851 31 L
247.252 31 L
S
GR
GS
[0.75 0 0 0.75 0 0] CT
0 0.447 0.741 RC
1 LJ
0.667 LW
N
246.851 31 M
247.252 31 L
247.745 31 L
248.304 31 L
248.704 31 L
249.105 31 L
249.592 31 L
250.145 31 L
250.648 31 L
251.055 31 L
251.432 31 L
251.872 31 L
252.407 31 L
252.951 31 L
253.401 31 L
253.778 31 L
254.176 31 L
254.668 31 L
255.228 31 L
255.629 31 L
256.031 31 L
256.518 31 L
257.07 31 L
257.572 31 L
257.979 31 L
258.357 31 L
258.798 31 L
259.332 31 L
259.876 31 L
260.325 31 L
260.703 31 L
261.102 31 L
261.594 31 L
262.153 31 L
262.554 31 L
262.956 31 L
263.443 31 L
263.995 31 L
264.498 31 L
264.904 31 L
265.282 31 L
265.723 31 L
266.257 31 L
266.801 31 L
267.251 31 L
267.628 31 L
268.027 31 L
268.518 31 L
269.078 31 L
269.479 31 L
269.881 31 L
270.368 31 L
S
GR
GS
[0.75 0 0 0.75 0 0] CT
0 0.447 0.741 RC
1 LJ
0.667 LW
N
269.881 31 M
270.368 31 L
270.92 31 L
271.423 31 L
271.829 31 L
272.207 31 L
272.648 31 L
273.182 31 L
273.726 31 L
274.176 31 L
274.553 31 L
274.952 31 L
275.443 31 L
276.003 31 L
276.404 31 L
276.806 31 L
277.293 31 L
277.845 31 L
278.348 31 L
278.754 31 L
279.132 31 L
279.573 31 L
280.107 31 L
280.651 31 L
281.101 31 L
281.478 31 L
281.877 31 L
282.368 31 L
282.928 31 L
283.329 31 L
283.731 31 L
284.218 31 L
284.77 31 L
285.273 31 L
285.679 31 L
286.057 31 L
286.498 31 L
287.032 31 L
287.576 31 L
288.025 31 L
288.403 31 L
288.802 31 L
289.293 31 L
289.853 31 L
290.254 31 L
290.656 31 L
291.143 31 L
291.695 31 L
292.198 31 L
292.604 31 L
292.982 31 L
293.423 31 L
S
GR
GS
[0.75 0 0 0.75 0 0] CT
0 0.447 0.741 RC
1 LJ
0.667 LW
N
292.982 31 M
293.423 31 L
293.957 31 L
294.501 31 L
294.95 31 L
295.328 31 L
295.727 31 L
296.218 31 L
296.778 31 L
297.179 31 L
297.581 31 L
298.068 31 L
298.62 31 L
299.122 31 L
299.529 31 L
299.907 31 L
300.348 31 L
300.882 31 L
301.426 31 L
301.875 31 L
302.253 31 L
302.652 31 L
303.143 31 L
303.703 31 L
304.104 31 L
304.506 31 L
304.993 31 L
305.545 31 L
306.047 31 L
306.454 31 L
306.832 31 L
307.273 31 L
307.807 31 L
308.351 31 L
308.8 31 L
309.178 31 L
309.577 31 L
310.068 31 L
310.628 31 L
311.029 31 L
311.431 31 L
311.918 31 L
312.47 31 L
312.972 31 L
313.379 31 L
313.757 31 L
314.198 31 L
314.732 31 L
315.276 31 L
315.725 31 L
316.103 31 L
316.502 31 L
S
GR
GS
[0.75 0 0 0.75 0 0] CT
0 0.447 0.741 RC
1 LJ
0.667 LW
N
316.103 31 M
316.502 31 L
316.993 31 L
317.553 31 L
317.954 31 L
318.356 31 L
318.843 31 L
319.395 31 L
319.897 31 L
320.304 31 L
320.682 31 L
321.123 31 L
321.657 31 L
322.201 31 L
322.65 31 L
323.028 31 L
323.427 31 L
323.918 31 L
324.478 31 L
324.879 31 L
325.281 31 L
325.768 31 L
326.32 31 L
326.822 31 L
327.229 31 L
327.607 31 L
328.048 31 L
328.582 31 L
329.126 31 L
329.575 31 L
329.953 31 L
330.352 31 L
330.843 31 L
331.403 31 L
331.804 31 L
332.206 31 L
332.693 31 L
333.245 31 L
333.747 31 L
334.154 31 L
334.532 31 L
334.973 31 L
335.507 31 L
336.051 31 L
336.5 31 L
336.878 31 L
337.277 31 L
337.768 31 L
338.328 31 L
338.729 31 L
339.131 31 L
339.618 31 L
S
GR
GS
[0.75 0 0 0.75 0 0] CT
0 0.447 0.741 RC
1 LJ
0.667 LW
N
339.131 31 M
339.618 31 L
340.17 31 L
340.672 31 L
341.079 31 L
341.457 31 L
341.898 31 L
342.432 31 L
342.976 31 L
343.425 31 L
343.803 31 L
344.202 31 L
344.693 31 L
345.253 31 L
345.654 31 L
346.056 31 L
346.543 31 L
347.095 31 L
347.597 31 L
348.004 31 L
348.382 31 L
348.823 31 L
349.357 31 L
349.901 31 L
350.35 31 L
350.728 31 L
351.127 31 L
351.618 31 L
352.178 31 L
352.579 31 L
352.981 31 L
353.468 31 L
354.02 31 L
354.522 31 L
354.929 31 L
355.307 31 L
355.748 31 L
356.282 31 L
356.826 31 L
357.275 31 L
357.653 31 L
358.052 31 L
358.543 31 L
359.103 31 L
359.504 31 L
359.906 31 L
360.393 31 L
360.945 31 L
361.447 31 L
361.854 31 L
362.232 31 L
362.673 31 L
S
GR
GS
[0.75 0 0 0.75 0 0] CT
0 0.447 0.741 RC
1 LJ
0.667 LW
N
362.232 31 M
362.673 31 L
363.207 31 L
363.751 31 L
364.2 31 L
364.578 31 L
364.977 31 L
365.468 31 L
366.028 31 L
366.429 31 L
366.831 31 L
367.318 31 L
367.87 31 L
368.372 31 L
368.779 31 L
369.157 31 L
369.598 31 L
370.132 31 L
370.676 31 L
371.125 31 L
371.503 31 L
371.902 31 L
372.393 31 L
372.953 31 L
373.354 31 L
373.756 31 L
374.243 31 L
374.795 31 L
375.297 31 L
375.704 31 L
376.082 31 L
376.523 31 L
377.057 31 L
377.601 31 L
378.05 31 L
378.428 31 L
378.827 31 L
379.318 31 L
379.878 31 L
380.279 31 L
380.681 31 L
381.168 31 L
381.72 31 L
382.222 31 L
382.629 31 L
383.007 31 L
383.448 31 L
383.982 31 L
384.526 31 L
384.975 31 L
385.353 31 L
385.752 31 L
S
GR
GS
[0.75 0 0 0.75 0 0] CT
0 0.447 0.741 RC
1 LJ
0.667 LW
N
385.353 31 M
385.752 31 L
386.243 31 L
386.803 31 L
387.204 31 L
387.606 31 L
388.093 31 L
388.645 31 L
389.147 31 L
389.554 31 L
389.932 31 L
390.373 31 L
390.907 31 L
391.451 31 L
391.9 31 L
392.278 31 L
392.677 31 L
393.168 31 L
393.728 31 L
394.129 31 L
394.531 31 L
395.018 31 L
395.57 31 L
396.072 31 L
396.479 31 L
396.857 31 L
397.298 31 L
397.832 31 L
398.376 31 L
398.825 31 L
399.203 31 L
399.602 31 L
400.093 31 L
400.653 31 L
401.054 31 L
401.456 31 L
401.943 31 L
402.495 31 L
402.997 31 L
403.404 31 L
403.782 31 L
404.223 31 L
404.757 31 L
405.301 31 L
405.75 31 L
406.128 31 L
406.526 31 L
407.018 31 L
407.578 31 L
407.979 31 L
408.381 31 L
408.868 31 L
S
GR
GS
[0.75 0 0 0.75 0 0] CT
0 0.447 0.741 RC
1 LJ
0.667 LW
N
408.381 31 M
408.868 31 L
409.42 31 L
409.922 31 L
410.329 31 L
410.707 31 L
411.148 31 L
411.682 31 L
412.226 31 L
412.675 31 L
413.053 31 L
413.451 31 L
413.943 31 L
414.503 31 L
414.904 31 L
415.306 31 L
415.793 31 L
416.345 31 L
416.847 31 L
417.254 31 L
417.632 31 L
418.073 31 L
418.607 31 L
419.151 31 L
419.6 31 L
419.978 31 L
420.376 31 L
420.868 31 L
421.428 31 L
421.829 31 L
422.231 31 L
422.718 31 L
423.27 31 L
423.772 31 L
424.179 31 L
424.557 31 L
424.998 31 L
425.532 31 L
426.076 31 L
426.525 31 L
426.903 31 L
427.301 31 L
427.793 31 L
428.353 31 L
428.754 31 L
429.156 31 L
429.643 31 L
430.195 31 L
430.697 31 L
431.104 31 L
431.482 31 L
431.923 31 L
S
GR
GS
[0.75 0 0 0.75 0 0] CT
0 0.447 0.741 RC
1 LJ
0.667 LW
N
431.482 31 M
431.923 31 L
432.457 31 L
433.001 31 L
433.45 31 L
433.828 31 L
434.226 31 L
434.718 31 L
435.278 31 L
435.679 31 L
436.081 31 L
436.568 31 L
437.12 31 L
437.622 31 L
438.029 31 L
438.407 31 L
438.848 31 L
439.382 31 L
439.926 31 L
440.375 31 L
440.753 31 L
441.151 31 L
441.643 31 L
442.203 31 L
442.604 31 L
443.006 31 L
443.493 31 L
444.045 31 L
444.547 31 L
444.954 31 L
445.332 31 L
445.773 31 L
446.307 31 L
446.851 31 L
447.3 31 L
447.678 31 L
448.076 31 L
448.568 31 L
449.128 31 L
449.529 31 L
449.931 31 L
450.418 31 L
450.97 31 L
451.472 31 L
451.879 31 L
452.257 31 L
452.698 31 L
453.232 31 L
453.776 31 L
454.225 31 L
454.603 31 L
455.001 31 L
S
GR
GS
[0.75 0 0 0.75 0 0] CT
0 0.447 0.741 RC
1 LJ
0.667 LW
N
454.603 31 M
455.001 31 L
455.493 31 L
456.053 31 L
456.454 31 L
456.856 31 L
457.343 31 L
457.895 31 L
458.397 31 L
458.804 31 L
459.182 31 L
459.623 31 L
460.157 31 L
460.701 31 L
461.15 31 L
461.528 31 L
461.926 31 L
462.418 31 L
462.978 31 L
463.379 31 L
463.781 31 L
464.268 31 L
464.82 31 L
465.322 31 L
465.729 31 L
466.107 31 L
466.548 31 L
467.082 31 L
467.626 31 L
468.075 31 L
468.453 31 L
468.851 31 L
469.343 31 L
469.902 31 L
470.304 31 L
470.705 31 L
471.193 31 L
471.745 31 L
472.247 31 L
472.654 31 L
473.032 31 L
473.473 31 L
474.007 31 L
474.551 31 L
475 31 L
475.378 31 L
475.776 31 L
476.268 31 L
476.827 31 L
477.229 31 L
477.63 31 L
478.118 31 L
S
GR
GS
[0.75 0 0 0.75 0 0] CT
0 0.447 0.741 RC
1 LJ
0.667 LW
N
477.63 31 M
478.118 31 L
478.67 31 L
479.172 31 L
479.579 31 L
479.957 31 L
480.398 31 L
480.932 31 L
481.476 31 L
481.925 31 L
482.303 31 L
482.701 31 L
483.193 31 L
483.753 31 L
484.154 31 L
484.555 31 L
485.043 31 L
485.595 31 L
486.097 31 L
486.504 31 L
486.882 31 L
487.323 31 L
487.857 31 L
488.401 31 L
488.85 31 L
489.228 31 L
489.626 31 L
490.118 31 L
490.677 31 L
491.079 31 L
491.48 31 L
491.968 31 L
492.52 31 L
493.022 31 L
493.429 31 L
493.807 31 L
494.248 31 L
494.782 31 L
495.326 31 L
495.775 31 L
496.153 31 L
496.551 31 L
497.043 31 L
497.603 31 L
498.004 31 L
498.405 31 L
498.893 31 L
499.445 31 L
499.947 31 L
500.354 31 L
500.732 31 L
501.173 31 L
S
GR
GS
[0.75 0 0 0.75 0 0] CT
0 0.447 0.741 RC
1 LJ
0.667 LW
N
500.732 31 M
501.173 31 L
501.707 31 L
502.251 31 L
502.7 31 L
503.078 31 L
503.476 31 L
503.968 31 L
504.527 31 L
504.929 31 L
505.33 31 L
505.818 31 L
506.37 31 L
506.872 31 L
507 31 L
S
GR
GS
[0.75 0 0 0.75 0 0] CT
0.851 0.325 0.098 RC
1 LJ
0.667 LW
N
73 316.833 M
73 316.833 L
73.362 316.833 L
73.362 316.833 L
73.362 316.833 L
73.409 316.833 L
73.452 316.833 L
73.509 316.833 L
73.578 316.833 L
73.669 316.833 L
73.791 316.833 L
73.928 316.833 L
74.09 316.833 L
74.285 316.833 L
74.531 316.833 L
74.858 316.833 L
75.382 316.833 L
75.944 316.833 L
76.311 316.833 L
76.678 316.833 L
77.167 316.833 L
77.769 316.833 L
78.164 316.833 L
78.56 316.833 L
79.058 316.833 L
79.633 316.833 L
80.032 316.833 L
80.431 316.833 L
80.924 316.833 L
81.489 316.833 L
81.895 316.833 L
82.3 316.833 L
82.792 316.833 L
83.346 316.833 L
83.851 316.833 L
84.261 316.833 L
84.643 316.833 L
85.088 316.833 L
85.626 316.833 L
86.172 316.833 L
86.625 316.833 L
87.006 316.833 L
87.409 316.833 L
87.905 316.833 L
88.467 316.833 L
88.872 316.833 L
89.276 316.833 L
89.767 316.833 L
90.323 316.833 L
90.829 316.833 L
S
GR
GS
[0.75 0 0 0.75 0 0] CT
0.851 0.325 0.098 RC
1 LJ
0.667 LW
N
90.323 316.833 M
90.829 316.833 L
91.239 316.833 L
91.62 316.833 L
92.064 316.833 L
92.602 316.833 L
93.15 316.833 L
93.603 316.833 L
93.983 316.833 L
94.385 316.833 L
94.88 316.833 L
95.444 316.833 L
95.848 316.833 L
96.253 316.833 L
96.744 316.833 L
97.3 316.833 L
97.806 316.833 L
98.216 316.833 L
98.597 316.833 L
99.041 316.833 L
99.579 316.833 L
100.127 316.833 L
100.58 316.833 L
100.96 316.833 L
101.362 316.833 L
101.858 316.833 L
102.421 316.833 L
102.825 316.833 L
103.23 316.833 L
103.721 316.833 L
104.277 316.833 L
104.783 316.833 L
105.193 316.833 L
105.574 316.833 L
106.018 316.833 L
106.556 316.833 L
107.104 316.833 L
107.557 316.833 L
107.937 316.833 L
108.339 316.833 L
108.834 316.833 L
109.398 316.833 L
109.802 316.833 L
110.207 316.833 L
110.698 316.833 L
111.254 316.833 L
111.76 316.833 L
112.17 316.833 L
112.551 316.833 L
112.995 316.833 L
113.533 316.833 L
114.081 316.833 L
S
GR
GS
[0.75 0 0 0.75 0 0] CT
0.851 0.325 0.098 RC
1 LJ
0.667 LW
N
113.533 316.833 M
114.081 316.833 L
114.534 316.833 L
114.914 316.833 L
115.316 316.833 L
115.811 316.833 L
116.375 316.833 L
116.779 316.833 L
117.184 316.833 L
117.675 316.833 L
118.231 316.833 L
118.737 316.833 L
119.147 316.833 L
119.528 316.833 L
119.972 316.833 L
120.51 316.833 L
121.058 316.833 L
121.511 316.833 L
121.891 316.833 L
122.293 316.833 L
122.788 316.833 L
123.352 316.833 L
123.756 316.833 L
124.161 316.833 L
124.652 316.833 L
125.208 316.833 L
125.714 316.833 L
126.124 316.833 L
126.505 316.833 L
126.949 316.833 L
127.487 316.833 L
128.035 316.833 L
128.488 316.833 L
128.868 316.833 L
129.27 316.833 L
129.765 316.833 L
130.329 316.833 L
130.733 316.833 L
131.138 316.833 L
131.629 316.833 L
132.185 316.833 L
132.691 316.833 L
133.101 316.833 L
133.482 316.833 L
133.926 316.833 L
134.464 316.833 L
135.012 316.833 L
135.465 316.833 L
135.845 316.833 L
136.247 316.833 L
136.742 316.833 L
137.306 316.833 L
S
GR
GS
[0.75 0 0 0.75 0 0] CT
0.851 0.325 0.098 RC
1 LJ
0.667 LW
N
136.742 316.833 M
137.306 316.833 L
137.71 316.833 L
138.115 316.833 L
138.606 316.833 L
139.162 316.833 L
139.668 316.833 L
140.078 316.833 L
140.459 316.833 L
140.903 316.833 L
141.441 316.833 L
141.989 316.833 L
142.442 316.833 L
142.822 316.833 L
143.224 316.833 L
143.719 316.833 L
144.283 316.833 L
144.687 316.833 L
145.092 316.833 L
145.583 316.833 L
146.139 316.833 L
146.645 316.833 L
147.055 316.833 L
147.436 316.833 L
147.88 316.833 L
148.418 316.833 L
148.966 316.833 L
149.419 316.833 L
149.799 316.833 L
150.201 316.833 L
150.696 316.833 L
151.26 316.833 L
151.664 316.833 L
152.069 316.833 L
152.56 316.833 L
153.116 316.833 L
153.622 316.833 L
154.032 316.833 L
154.413 316.833 L
154.857 316.833 L
155.395 316.833 L
155.943 316.833 L
156.396 316.833 L
156.776 316.833 L
157.178 316.833 L
157.673 316.833 L
158.237 316.833 L
158.641 316.833 L
159.046 316.833 L
159.537 316.833 L
160.093 316.833 L
160.599 316.833 L
S
GR
GS
[0.75 0 0 0.75 0 0] CT
0.851 0.325 0.098 RC
1 LJ
0.667 LW
N
160.093 316.833 M
160.599 316.833 L
161.009 316.833 L
161.39 316.833 L
161.834 316.833 L
162.372 316.833 L
162.92 316.833 L
163.373 316.833 L
163.753 316.833 L
164.155 316.833 L
164.65 316.833 L
165.214 316.833 L
165.618 316.833 L
166.023 316.833 L
166.514 316.833 L
167.07 316.833 L
167.576 316.833 L
167.986 316.833 L
168.367 316.833 L
168.811 316.833 L
169.349 316.833 L
169.897 316.833 L
170.35 316.833 L
170.73 316.833 L
171.132 316.833 L
171.627 316.833 L
172.191 316.833 L
172.595 316.833 L
173 316.833 L
173.491 316.833 L
174.047 316.833 L
174.553 316.833 L
174.963 316.833 L
175.344 316.833 L
175.788 316.833 L
176.326 316.833 L
176.874 316.833 L
177.327 316.833 L
177.707 316.833 L
178.109 316.833 L
178.604 316.833 L
179.168 316.833 L
179.572 316.833 L
179.977 316.833 L
180.468 316.833 L
181.024 316.833 L
181.5 316.833 L
181.5 31 L
181.5 31 L
181.524 31 L
181.549 31 L
181.584 31 L
S
GR
GS
[0.75 0 0 0.75 0 0] CT
0.851 0.325 0.098 RC
1 LJ
0.667 LW
N
181.549 31 M
181.584 31 L
181.624 31 L
181.677 31 L
181.75 31 L
181.843 31 L
181.947 31 L
182.066 31 L
182.204 31 L
182.372 31 L
182.587 31 L
182.852 31 L
183.131 31 L
183.462 31 L
183.864 31 L
184.368 31 L
184.906 31 L
185.511 31 L
185.963 31 L
186.414 31 L
186.904 31 L
187.398 31 L
187.855 31 L
188.279 31 L
188.711 31 L
189.186 31 L
189.689 31 L
190.168 31 L
190.6 31 L
191.019 31 L
191.472 31 L
191.972 31 L
192.472 31 L
192.923 31 L
193.338 31 L
193.767 31 L
194.25 31 L
194.763 31 L
195.242 31 L
195.665 31 L
196.076 31 L
196.532 31 L
197.043 31 L
197.549 31 L
197.994 31 L
198.398 31 L
198.825 31 L
199.317 31 L
199.841 31 L
200.318 31 L
200.73 31 L
201.135 31 L
S
GR
GS
[0.75 0 0 0.75 0 0] CT
0.851 0.325 0.098 RC
1 LJ
0.667 LW
N
200.73 31 M
201.135 31 L
201.595 31 L
202.118 31 L
202.629 31 L
203.066 31 L
203.461 31 L
203.886 31 L
204.388 31 L
204.922 31 L
205.397 31 L
205.799 31 L
206.197 31 L
206.662 31 L
207.197 31 L
207.712 31 L
208.141 31 L
208.526 31 L
208.951 31 L
209.462 31 L
210.005 31 L
210.477 31 L
210.87 31 L
211.263 31 L
211.732 31 L
212.278 31 L
212.796 31 L
213.218 31 L
213.596 31 L
214.02 31 L
214.538 31 L
215.089 31 L
215.559 31 L
215.944 31 L
216.333 31 L
216.805 31 L
217.359 31 L
217.88 31 L
218.297 31 L
218.669 31 L
219.093 31 L
219.617 31 L
220.173 31 L
220.641 31 L
221.021 31 L
221.406 31 L
221.881 31 L
222.44 31 L
222.854 31 L
223.269 31 L
223.756 31 L
224.292 31 L
S
GR
GS
[0.75 0 0 0.75 0 0] CT
0.851 0.325 0.098 RC
1 LJ
0.667 LW
N
223.756 31 M
224.292 31 L
224.783 31 L
225.195 31 L
225.586 31 L
226.035 31 L
226.562 31 L
227.09 31 L
227.535 31 L
227.922 31 L
228.333 31 L
228.828 31 L
229.374 31 L
229.865 31 L
230.268 31 L
230.653 31 L
231.104 31 L
231.641 31 L
232.174 31 L
232.614 31 L
232.993 31 L
233.401 31 L
233.902 31 L
234.457 31 L
234.948 31 L
235.344 31 L
235.723 31 L
236.176 31 L
236.721 31 L
237.258 31 L
237.694 31 L
238.067 31 L
238.474 31 L
238.979 31 L
239.54 31 L
239.932 31 L
240.323 31 L
240.811 31 L
241.375 31 L
241.778 31 L
242.181 31 L
242.67 31 L
243.221 31 L
243.721 31 L
244.128 31 L
244.507 31 L
244.949 31 L
245.484 31 L
246.026 31 L
246.474 31 L
246.851 31 L
247.252 31 L
S
GR
GS
[0.75 0 0 0.75 0 0] CT
0.851 0.325 0.098 RC
1 LJ
0.667 LW
N
246.851 31 M
247.252 31 L
247.745 31 L
248.304 31 L
248.704 31 L
249.105 31 L
249.592 31 L
250.145 31 L
250.648 31 L
251.055 31 L
251.432 31 L
251.872 31 L
252.407 31 L
252.951 31 L
253.401 31 L
253.778 31 L
254.176 31 L
254.668 31 L
255.228 31 L
255.629 31 L
256.031 31 L
256.518 31 L
257.07 31 L
257.572 31 L
257.979 31 L
258.357 31 L
258.798 31 L
259.332 31 L
259.876 31 L
260.325 31 L
260.703 31 L
261.102 31 L
261.594 31 L
262.153 31 L
262.554 31 L
262.956 31 L
263.443 31 L
263.995 31 L
264.498 31 L
264.904 31 L
265.282 31 L
265.723 31 L
266.257 31 L
266.801 31 L
267.251 31 L
267.628 31 L
268.027 31 L
268.518 31 L
269.078 31 L
269.479 31 L
269.881 31 L
270.368 31 L
S
GR
GS
[0.75 0 0 0.75 0 0] CT
0.851 0.325 0.098 RC
1 LJ
0.667 LW
N
269.881 31 M
270.368 31 L
270.92 31 L
271.423 31 L
271.829 31 L
272.207 31 L
272.648 31 L
273.182 31 L
273.726 31 L
274.176 31 L
274.553 31 L
274.952 31 L
275.443 31 L
276.003 31 L
276.404 31 L
276.806 31 L
277.293 31 L
277.845 31 L
278.348 31 L
278.754 31 L
279.132 31 L
279.573 31 L
280.107 31 L
280.651 31 L
281.101 31 L
281.478 31 L
281.877 31 L
282.368 31 L
282.928 31 L
283.329 31 L
283.731 31 L
284.218 31 L
284.77 31 L
285.273 31 L
285.679 31 L
286.057 31 L
286.498 31 L
287.032 31 L
287.576 31 L
288.025 31 L
288.403 31 L
288.802 31 L
289.293 31 L
289.853 31 L
290.254 31 L
290.656 31 L
291.143 31 L
291.695 31 L
292.198 31 L
292.604 31 L
292.982 31 L
293.423 31 L
S
GR
GS
[0.75 0 0 0.75 0 0] CT
0.851 0.325 0.098 RC
1 LJ
0.667 LW
N
292.982 31 M
293.423 31 L
293.957 31 L
294.501 31 L
294.95 31 L
295.328 31 L
295.727 31 L
296.218 31 L
296.778 31 L
297.179 31 L
297.581 31 L
298.068 31 L
298.62 31 L
299.122 31 L
299.529 31 L
299.907 31 L
300.348 31 L
300.882 31 L
301.426 31 L
301.875 31 L
302.253 31 L
302.652 31 L
303.143 31 L
303.703 31 L
304.104 31 L
304.506 31 L
304.993 31 L
305.545 31 L
306.047 31 L
306.454 31 L
306.832 31 L
307.273 31 L
307.807 31 L
308.351 31 L
308.8 31 L
309.178 31 L
309.577 31 L
310.068 31 L
310.628 31 L
311.029 31 L
311.431 31 L
311.918 31 L
312.47 31 L
312.972 31 L
313.379 31 L
313.757 31 L
314.198 31 L
314.732 31 L
315.276 31 L
315.725 31 L
316.103 31 L
316.502 31 L
S
GR
GS
[0.75 0 0 0.75 0 0] CT
0.851 0.325 0.098 RC
1 LJ
0.667 LW
N
316.103 31 M
316.502 31 L
316.993 31 L
317.553 31 L
317.954 31 L
318.356 31 L
318.843 31 L
319.395 31 L
319.897 31 L
320.304 31 L
320.682 31 L
321.123 31 L
321.657 31 L
322.201 31 L
322.65 31 L
323.028 31 L
323.427 31 L
323.918 31 L
324.478 31 L
324.879 31 L
325.281 31 L
325.768 31 L
326.32 31 L
326.822 31 L
327.229 31 L
327.607 31 L
328.048 31 L
328.582 31 L
329.126 31 L
329.575 31 L
329.953 31 L
330.352 31 L
330.843 31 L
331.403 31 L
331.804 31 L
332.206 31 L
332.693 31 L
333.245 31 L
333.747 31 L
334.154 31 L
334.532 31 L
334.973 31 L
335.507 31 L
336.051 31 L
336.5 31 L
336.878 31 L
337.277 31 L
337.768 31 L
338.328 31 L
338.729 31 L
339.131 31 L
339.618 31 L
S
GR
GS
[0.75 0 0 0.75 0 0] CT
0.851 0.325 0.098 RC
1 LJ
0.667 LW
N
339.131 31 M
339.618 31 L
340.17 31 L
340.672 31 L
341.079 31 L
341.457 31 L
341.898 31 L
342.432 31 L
342.976 31 L
343.425 31 L
343.803 31 L
344.202 31 L
344.693 31 L
345.253 31 L
345.654 31 L
346.056 31 L
346.543 31 L
347.095 31 L
347.597 31 L
348.004 31 L
348.382 31 L
348.823 31 L
349.357 31 L
349.901 31 L
350.35 31 L
350.728 31 L
351.127 31 L
351.618 31 L
352.178 31 L
352.579 31 L
352.981 31 L
353.468 31 L
354.02 31 L
354.522 31 L
354.929 31 L
355.307 31 L
355.748 31 L
356.282 31 L
356.826 31 L
357.275 31 L
357.653 31 L
358.052 31 L
358.543 31 L
359.103 31 L
359.504 31 L
359.906 31 L
360.393 31 L
360.945 31 L
361.447 31 L
361.854 31 L
362.232 31 L
362.673 31 L
S
GR
GS
[0.75 0 0 0.75 0 0] CT
0.851 0.325 0.098 RC
1 LJ
0.667 LW
N
362.232 31 M
362.673 31 L
363.207 31 L
363.751 31 L
364.2 31 L
364.578 31 L
364.977 31 L
365.468 31 L
366.028 31 L
366.429 31 L
366.831 31 L
367.318 31 L
367.87 31 L
368.372 31 L
368.779 31 L
369.157 31 L
369.598 31 L
370.132 31 L
370.676 31 L
371.125 31 L
371.503 31 L
371.902 31 L
372.393 31 L
372.953 31 L
373.354 31 L
373.756 31 L
374.243 31 L
374.795 31 L
375.297 31 L
375.704 31 L
376.082 31 L
376.523 31 L
377.057 31 L
377.601 31 L
378.05 31 L
378.428 31 L
378.827 31 L
379.318 31 L
379.878 31 L
380.279 31 L
380.681 31 L
381.168 31 L
381.72 31 L
382.222 31 L
382.629 31 L
383.007 31 L
383.448 31 L
383.982 31 L
384.526 31 L
384.975 31 L
385.353 31 L
385.752 31 L
S
GR
GS
[0.75 0 0 0.75 0 0] CT
0.851 0.325 0.098 RC
1 LJ
0.667 LW
N
385.353 31 M
385.752 31 L
386.243 31 L
386.803 31 L
387.204 31 L
387.606 31 L
388.093 31 L
388.645 31 L
389.147 31 L
389.554 31 L
389.932 31 L
390.373 31 L
390.907 31 L
391.451 31 L
391.9 31 L
392.278 31 L
392.677 31 L
393.168 31 L
393.728 31 L
394.129 31 L
394.531 31 L
395.018 31 L
395.57 31 L
396.072 31 L
396.479 31 L
396.857 31 L
397.298 31 L
397.832 31 L
398.376 31 L
398.825 31 L
399.203 31 L
399.602 31 L
400.093 31 L
400.653 31 L
401.054 31 L
401.456 31 L
401.943 31 L
402.495 31 L
402.997 31 L
403.404 31 L
403.782 31 L
404.223 31 L
404.757 31 L
405.301 31 L
405.75 31 L
406.128 31 L
406.526 31 L
407.018 31 L
407.578 31 L
407.979 31 L
408.381 31 L
408.868 31 L
S
GR
GS
[0.75 0 0 0.75 0 0] CT
0.851 0.325 0.098 RC
1 LJ
0.667 LW
N
408.381 31 M
408.868 31 L
409.42 31 L
409.922 31 L
410.329 31 L
410.707 31 L
411.148 31 L
411.682 31 L
412.226 31 L
412.675 31 L
413.053 31 L
413.451 31 L
413.943 31 L
414.503 31 L
414.904 31 L
415.306 31 L
415.793 31 L
416.345 31 L
416.847 31 L
417.254 31 L
417.632 31 L
418.073 31 L
418.607 31 L
419.151 31 L
419.6 31 L
419.978 31 L
420.376 31 L
420.868 31 L
421.428 31 L
421.829 31 L
422.231 31 L
422.718 31 L
423.27 31 L
423.772 31 L
424.179 31 L
424.557 31 L
424.998 31 L
425.532 31 L
426.076 31 L
426.525 31 L
426.903 31 L
427.301 31 L
427.793 31 L
428.353 31 L
428.754 31 L
429.156 31 L
429.643 31 L
430.195 31 L
430.697 31 L
431.104 31 L
431.482 31 L
431.923 31 L
S
GR
GS
[0.75 0 0 0.75 0 0] CT
0.851 0.325 0.098 RC
1 LJ
0.667 LW
N
431.482 31 M
431.923 31 L
432.457 31 L
433.001 31 L
433.45 31 L
433.828 31 L
434.226 31 L
434.718 31 L
435.278 31 L
435.679 31 L
436.081 31 L
436.568 31 L
437.12 31 L
437.622 31 L
438.029 31 L
438.407 31 L
438.848 31 L
439.382 31 L
439.926 31 L
440.375 31 L
440.753 31 L
441.151 31 L
441.643 31 L
442.203 31 L
442.604 31 L
443.006 31 L
443.493 31 L
444.045 31 L
444.547 31 L
444.954 31 L
445.332 31 L
445.773 31 L
446.307 31 L
446.851 31 L
447.3 31 L
447.678 31 L
448.076 31 L
448.568 31 L
449.128 31 L
449.529 31 L
449.931 31 L
450.418 31 L
450.97 31 L
451.472 31 L
451.879 31 L
452.257 31 L
452.698 31 L
453.232 31 L
453.776 31 L
454.225 31 L
454.603 31 L
455.001 31 L
S
GR
GS
[0.75 0 0 0.75 0 0] CT
0.851 0.325 0.098 RC
1 LJ
0.667 LW
N
454.603 31 M
455.001 31 L
455.493 31 L
456.053 31 L
456.454 31 L
456.856 31 L
457.343 31 L
457.895 31 L
458.397 31 L
458.804 31 L
459.182 31 L
459.623 31 L
460.157 31 L
460.701 31 L
461.15 31 L
461.528 31 L
461.926 31 L
462.418 31 L
462.978 31 L
463.379 31 L
463.781 31 L
464.268 31 L
464.82 31 L
465.322 31 L
465.729 31 L
466.107 31 L
466.548 31 L
467.082 31 L
467.626 31 L
468.075 31 L
468.453 31 L
468.851 31 L
469.343 31 L
469.902 31 L
470.304 31 L
470.705 31 L
471.193 31 L
471.745 31 L
472.247 31 L
472.654 31 L
473.032 31 L
473.473 31 L
474.007 31 L
474.551 31 L
475 31 L
475.378 31 L
475.776 31 L
476.268 31 L
476.827 31 L
477.229 31 L
477.63 31 L
478.118 31 L
S
GR
GS
[0.75 0 0 0.75 0 0] CT
0.851 0.325 0.098 RC
1 LJ
0.667 LW
N
477.63 31 M
478.118 31 L
478.67 31 L
479.172 31 L
479.579 31 L
479.957 31 L
480.398 31 L
480.932 31 L
481.476 31 L
481.925 31 L
482.303 31 L
482.701 31 L
483.193 31 L
483.753 31 L
484.154 31 L
484.555 31 L
485.043 31 L
485.595 31 L
486.097 31 L
486.504 31 L
486.882 31 L
487.323 31 L
487.857 31 L
488.401 31 L
488.85 31 L
489.228 31 L
489.626 31 L
490.118 31 L
490.677 31 L
491.079 31 L
491.48 31 L
491.968 31 L
492.52 31 L
493.022 31 L
493.429 31 L
493.807 31 L
494.248 31 L
494.782 31 L
495.326 31 L
495.775 31 L
496.153 31 L
496.551 31 L
497.043 31 L
497.603 31 L
498.004 31 L
498.405 31 L
498.893 31 L
499.445 31 L
499.947 31 L
500.354 31 L
500.732 31 L
501.173 31 L
S
GR
GS
[0.75 0 0 0.75 0 0] CT
0.851 0.325 0.098 RC
1 LJ
0.667 LW
N
500.732 31 M
501.173 31 L
501.707 31 L
502.251 31 L
502.7 31 L
503.078 31 L
503.476 31 L
503.968 31 L
504.527 31 L
504.929 31 L
505.33 31 L
505.818 31 L
506.37 31 L
506.872 31 L
507 31 L
S
GR
GS
[0.75 0 0 0.75 0 0] CT
0.929 0.694 0.125 RC
1 LJ
0.667 LW
N
73 316.833 M
73 316.833 L
73.362 316.833 L
73.362 316.833 L
73.362 316.833 L
73.409 316.722 L
73.452 316.473 L
73.509 315.974 L
73.578 315.221 L
73.669 314.046 L
73.791 312.344 L
73.928 310.352 L
74.09 307.965 L
74.285 305.089 L
74.531 301.514 L
74.858 296.807 L
75.382 289.454 L
75.944 281.785 L
76.311 276.907 L
76.678 272.123 L
77.167 265.877 L
77.769 258.434 L
78.164 253.665 L
78.56 248.996 L
79.058 243.25 L
79.633 236.819 L
80.032 232.466 L
80.431 228.205 L
80.924 223.062 L
81.489 217.337 L
81.895 213.331 L
82.3 209.411 L
82.792 204.775 L
83.346 199.686 L
83.851 195.184 L
84.261 191.617 L
84.643 188.364 L
85.088 184.657 L
85.626 180.293 L
86.172 175.987 L
86.625 172.516 L
87.006 169.658 L
87.409 166.697 L
87.905 163.138 L
88.467 159.215 L
88.872 156.467 L
89.276 153.779 L
89.767 150.591 L
90.323 147.081 L
90.829 143.974 L
S
GR
GS
[0.75 0 0 0.75 0 0] CT
0.929 0.694 0.125 RC
1 LJ
0.667 LW
N
90.323 147.081 M
90.829 143.974 L
91.239 141.52 L
91.62 139.289 L
92.064 136.745 L
92.602 133.74 L
93.15 130.768 L
93.603 128.375 L
93.983 126.412 L
94.385 124.381 L
94.88 121.936 L
95.444 119.231 L
95.848 117.339 L
96.253 115.488 L
96.744 113.294 L
97.3 110.879 L
97.806 108.743 L
98.216 107.054 L
98.597 105.518 L
99.041 103.766 L
99.579 101.698 L
100.127 99.654 L
100.58 98.008 L
100.96 96.657 L
101.362 95.259 L
101.858 93.575 L
102.421 91.714 L
102.825 90.413 L
103.23 89.14 L
103.721 87.63 L
104.277 85.967 L
104.783 84.497 L
105.193 83.335 L
105.574 82.278 L
106.018 81.073 L
106.556 79.65 L
107.104 78.243 L
107.557 77.11 L
107.937 76.181 L
108.339 75.219 L
108.834 74.06 L
109.398 72.78 L
109.802 71.884 L
110.207 71.008 L
110.698 69.969 L
111.254 68.825 L
111.76 67.813 L
112.17 67.014 L
112.551 66.287 L
112.995 65.457 L
113.533 64.478 L
114.081 63.509 L
S
GR
GS
[0.75 0 0 0.75 0 0] CT
0.929 0.694 0.125 RC
1 LJ
0.667 LW
N
113.533 64.478 M
114.081 63.509 L
114.534 62.73 L
114.914 62.09 L
115.316 61.428 L
115.811 60.631 L
116.375 59.75 L
116.779 59.134 L
117.184 58.531 L
117.675 57.816 L
118.231 57.028 L
118.737 56.332 L
119.147 55.782 L
119.528 55.282 L
119.972 54.711 L
120.51 54.037 L
121.058 53.371 L
121.511 52.834 L
121.891 52.394 L
122.293 51.939 L
122.788 51.39 L
123.352 50.784 L
123.756 50.36 L
124.161 49.945 L
124.652 49.453 L
125.208 48.911 L
125.714 48.432 L
126.124 48.053 L
126.505 47.709 L
126.949 47.316 L
127.487 46.853 L
128.035 46.394 L
128.488 46.025 L
128.868 45.722 L
129.27 45.409 L
129.765 45.031 L
130.329 44.614 L
130.733 44.322 L
131.138 44.037 L
131.629 43.698 L
132.185 43.325 L
132.691 42.995 L
133.101 42.735 L
133.482 42.498 L
133.926 42.228 L
134.464 41.909 L
135.012 41.593 L
135.465 41.339 L
135.845 41.131 L
136.247 40.915 L
136.742 40.655 L
137.306 40.368 L
S
GR
GS
[0.75 0 0 0.75 0 0] CT
0.929 0.694 0.125 RC
1 LJ
0.667 LW
N
136.742 40.655 M
137.306 40.368 L
137.71 40.167 L
138.115 39.971 L
138.606 39.738 L
139.162 39.481 L
139.668 39.254 L
140.078 39.075 L
140.459 38.912 L
140.903 38.726 L
141.441 38.507 L
141.989 38.289 L
142.442 38.114 L
142.822 37.971 L
143.224 37.823 L
143.719 37.644 L
144.283 37.446 L
144.687 37.308 L
145.092 37.173 L
145.583 37.013 L
146.139 36.836 L
146.645 36.68 L
147.055 36.557 L
147.436 36.445 L
147.88 36.317 L
148.418 36.165 L
148.966 36.016 L
149.419 35.895 L
149.799 35.797 L
150.201 35.695 L
150.696 35.572 L
151.26 35.436 L
151.664 35.341 L
152.069 35.248 L
152.56 35.138 L
153.116 35.016 L
153.622 34.908 L
154.032 34.824 L
154.413 34.747 L
154.857 34.659 L
155.395 34.554 L
155.943 34.451 L
156.396 34.369 L
156.776 34.301 L
157.178 34.231 L
157.673 34.146 L
158.237 34.052 L
158.641 33.987 L
159.046 33.923 L
159.537 33.847 L
160.093 33.763 L
160.599 33.689 L
S
GR
GS
[0.75 0 0 0.75 0 0] CT
0.929 0.694 0.125 RC
1 LJ
0.667 LW
N
160.093 33.763 M
160.599 33.689 L
161.009 33.631 L
161.39 33.578 L
161.834 33.518 L
162.372 33.446 L
162.92 33.375 L
163.373 33.318 L
163.753 33.271 L
164.155 33.223 L
164.65 33.165 L
165.214 33.1 L
165.618 33.055 L
166.023 33.011 L
166.514 32.959 L
167.07 32.901 L
167.576 32.85 L
167.986 32.81 L
168.367 32.774 L
168.811 32.732 L
169.349 32.683 L
169.897 32.634 L
170.35 32.595 L
170.73 32.563 L
171.132 32.53 L
171.627 32.49 L
172.191 32.445 L
172.595 32.414 L
173 32.384 L
173.491 32.348 L
174.047 32.308 L
174.553 32.273 L
174.963 32.246 L
175.344 32.221 L
175.788 32.192 L
176.326 32.158 L
176.874 32.124 L
177.327 32.097 L
177.707 32.076 L
178.109 32.053 L
178.604 32.025 L
179.168 31.994 L
179.572 31.973 L
179.977 31.952 L
180.468 31.928 L
181.024 31.9 L
181.5 31.877 L
181.5 31.877 L
181.5 31.877 L
181.524 31.876 L
181.549 31.875 L
181.584 31.874 L
S
GR
GS
[0.75 0 0 0.75 0 0] CT
0.929 0.694 0.125 RC
1 LJ
0.667 LW
N
181.549 31.875 M
181.584 31.874 L
181.624 31.872 L
181.677 31.869 L
181.75 31.866 L
181.843 31.862 L
181.947 31.857 L
182.066 31.852 L
182.204 31.845 L
182.372 31.838 L
182.587 31.828 L
182.852 31.817 L
183.131 31.804 L
183.462 31.79 L
183.864 31.773 L
184.368 31.753 L
184.906 31.731 L
185.511 31.708 L
185.963 31.691 L
186.414 31.675 L
186.904 31.657 L
187.398 31.64 L
187.855 31.625 L
188.279 31.611 L
188.711 31.597 L
189.186 31.582 L
189.689 31.566 L
190.168 31.552 L
190.6 31.539 L
191.019 31.527 L
191.472 31.515 L
191.972 31.501 L
192.472 31.488 L
192.923 31.476 L
193.338 31.466 L
193.767 31.455 L
194.25 31.443 L
194.763 31.431 L
195.242 31.42 L
195.665 31.411 L
196.076 31.402 L
196.532 31.392 L
197.043 31.382 L
197.549 31.372 L
197.994 31.363 L
198.398 31.355 L
198.825 31.347 L
199.317 31.338 L
199.841 31.329 L
200.318 31.32 L
200.73 31.313 L
201.135 31.307 L
S
GR
GS
[0.75 0 0 0.75 0 0] CT
0.929 0.694 0.125 RC
1 LJ
0.667 LW
N
200.73 31.313 M
201.135 31.307 L
201.595 31.299 L
202.118 31.291 L
202.629 31.283 L
203.066 31.276 L
203.461 31.271 L
203.886 31.265 L
204.388 31.258 L
204.922 31.25 L
205.397 31.244 L
205.799 31.239 L
206.197 31.234 L
206.662 31.228 L
207.197 31.222 L
207.712 31.216 L
208.141 31.211 L
208.526 31.206 L
208.951 31.202 L
209.462 31.196 L
210.005 31.191 L
210.477 31.186 L
210.87 31.182 L
211.263 31.178 L
211.732 31.174 L
212.278 31.169 L
212.796 31.164 L
213.218 31.161 L
213.596 31.157 L
214.02 31.154 L
214.538 31.15 L
215.089 31.145 L
215.559 31.142 L
215.944 31.139 L
216.333 31.136 L
216.805 31.132 L
217.359 31.129 L
217.88 31.125 L
218.297 31.122 L
218.669 31.12 L
219.093 31.117 L
219.617 31.114 L
220.173 31.111 L
220.641 31.108 L
221.021 31.106 L
221.406 31.104 L
221.881 31.101 L
222.44 31.098 L
222.854 31.096 L
223.269 31.094 L
223.756 31.091 L
224.292 31.089 L
S
GR
GS
[0.75 0 0 0.75 0 0] CT
0.929 0.694 0.125 RC
1 LJ
0.667 LW
N
223.756 31.091 M
224.292 31.089 L
224.783 31.086 L
225.195 31.084 L
225.586 31.083 L
226.035 31.081 L
226.562 31.079 L
227.09 31.076 L
227.535 31.075 L
227.922 31.073 L
228.333 31.071 L
228.828 31.07 L
229.374 31.068 L
229.865 31.066 L
230.268 31.064 L
230.653 31.063 L
231.104 31.062 L
231.641 31.06 L
232.174 31.058 L
232.614 31.057 L
232.993 31.056 L
233.401 31.054 L
233.902 31.053 L
234.457 31.051 L
234.948 31.05 L
235.344 31.049 L
235.723 31.048 L
236.176 31.047 L
236.721 31.046 L
237.258 31.044 L
237.694 31.043 L
238.067 31.042 L
238.474 31.041 L
238.979 31.04 L
239.54 31.039 L
239.932 31.038 L
240.323 31.038 L
240.811 31.037 L
241.375 31.036 L
241.778 31.035 L
242.181 31.034 L
242.67 31.033 L
243.221 31.032 L
243.721 31.031 L
244.128 31.031 L
244.507 31.03 L
244.949 31.029 L
245.484 31.028 L
246.026 31.028 L
246.474 31.027 L
246.851 31.026 L
247.252 31.026 L
S
GR
GS
[0.75 0 0 0.75 0 0] CT
0.929 0.694 0.125 RC
1 LJ
0.667 LW
N
246.851 31.026 M
247.252 31.026 L
247.745 31.025 L
248.304 31.025 L
248.704 31.024 L
249.105 31.023 L
249.592 31.023 L
250.145 31.022 L
250.648 31.022 L
251.055 31.021 L
251.432 31.021 L
251.872 31.02 L
252.407 31.02 L
252.951 31.019 L
253.401 31.019 L
253.778 31.018 L
254.176 31.018 L
254.668 31.017 L
255.228 31.017 L
255.629 31.017 L
256.031 31.016 L
256.518 31.016 L
257.07 31.015 L
257.572 31.015 L
257.979 31.015 L
258.357 31.014 L
258.798 31.014 L
259.332 31.014 L
259.876 31.013 L
260.325 31.013 L
260.703 31.013 L
261.102 31.012 L
261.594 31.012 L
262.153 31.012 L
262.554 31.011 L
262.956 31.011 L
263.443 31.011 L
263.995 31.011 L
264.498 31.01 L
264.904 31.01 L
265.282 31.01 L
265.723 31.01 L
266.257 31.009 L
266.801 31.009 L
267.251 31.009 L
267.628 31.009 L
268.027 31.009 L
268.518 31.008 L
269.078 31.008 L
269.479 31.008 L
269.881 31.008 L
270.368 31.008 L
S
GR
GS
[0.75 0 0 0.75 0 0] CT
0.929 0.694 0.125 RC
1 LJ
0.667 LW
N
269.881 31.008 M
270.368 31.008 L
270.92 31.007 L
271.423 31.007 L
271.829 31.007 L
272.207 31.007 L
272.648 31.007 L
273.182 31.006 L
273.726 31.006 L
274.176 31.006 L
274.553 31.006 L
274.952 31.006 L
275.443 31.006 L
276.003 31.006 L
276.404 31.005 L
276.806 31.005 L
277.293 31.005 L
277.845 31.005 L
278.348 31.005 L
278.754 31.005 L
279.132 31.005 L
279.573 31.005 L
280.107 31.004 L
280.651 31.004 L
281.101 31.004 L
281.478 31.004 L
281.877 31.004 L
282.368 31.004 L
282.928 31.004 L
283.329 31.004 L
283.731 31.004 L
284.218 31.004 L
284.77 31.003 L
285.273 31.003 L
285.679 31.003 L
286.057 31.003 L
286.498 31.003 L
287.032 31.003 L
287.576 31.003 L
288.025 31.003 L
288.403 31.003 L
288.802 31.003 L
289.293 31.003 L
289.853 31.003 L
290.254 31.003 L
290.656 31.003 L
291.143 31.002 L
291.695 31.002 L
292.198 31.002 L
292.604 31.002 L
292.982 31.002 L
293.423 31.002 L
S
GR
GS
[0.75 0 0 0.75 0 0] CT
0.929 0.694 0.125 RC
1 LJ
0.667 LW
N
292.982 31.002 M
293.423 31.002 L
293.957 31.002 L
294.501 31.002 L
294.95 31.002 L
295.328 31.002 L
295.727 31.002 L
296.218 31.002 L
296.778 31.002 L
297.179 31.002 L
297.581 31.002 L
298.068 31.002 L
298.62 31.002 L
299.122 31.002 L
299.529 31.002 L
299.907 31.002 L
300.348 31.002 L
300.882 31.001 L
301.426 31.001 L
301.875 31.001 L
302.253 31.001 L
302.652 31.001 L
303.143 31.001 L
303.703 31.001 L
304.104 31.001 L
304.506 31.001 L
304.993 31.001 L
305.545 31.001 L
306.047 31.001 L
306.454 31.001 L
306.832 31.001 L
307.273 31.001 L
307.807 31.001 L
308.351 31.001 L
308.8 31.001 L
309.178 31.001 L
309.577 31.001 L
310.068 31.001 L
310.628 31.001 L
311.029 31.001 L
311.431 31.001 L
311.918 31.001 L
312.47 31.001 L
312.972 31.001 L
313.379 31.001 L
313.757 31.001 L
314.198 31.001 L
314.732 31.001 L
315.276 31.001 L
315.725 31.001 L
316.103 31.001 L
316.502 31.001 L
S
GR
GS
[0.75 0 0 0.75 0 0] CT
0.929 0.694 0.125 RC
1 LJ
0.667 LW
N
316.103 31.001 M
316.502 31.001 L
316.993 31.001 L
317.553 31.001 L
317.954 31.001 L
318.356 31.001 L
318.843 31.001 L
319.395 31.001 L
319.897 31.001 L
320.304 31.001 L
320.682 31.001 L
321.123 31 L
321.657 31 L
322.201 31 L
322.65 31 L
323.028 31 L
323.427 31 L
323.918 31 L
324.478 31 L
324.879 31 L
325.281 31 L
325.768 31 L
326.32 31 L
326.822 31 L
327.229 31 L
327.607 31 L
328.048 31 L
328.582 31 L
329.126 31 L
329.575 31 L
329.953 31 L
330.352 31 L
330.843 31 L
331.403 31 L
331.804 31 L
332.206 31 L
332.693 31 L
333.245 31 L
333.747 31 L
334.154 31 L
334.532 31 L
334.973 31 L
335.507 31 L
336.051 31 L
336.5 31 L
336.878 31 L
337.277 31 L
337.768 31 L
338.328 31 L
338.729 31 L
339.131 31 L
339.618 31 L
S
GR
GS
[0.75 0 0 0.75 0 0] CT
0.929 0.694 0.125 RC
1 LJ
0.667 LW
N
339.131 31 M
339.618 31 L
340.17 31 L
340.672 31 L
341.079 31 L
341.457 31 L
341.898 31 L
342.432 31 L
342.976 31 L
343.425 31 L
343.803 31 L
344.202 31 L
344.693 31 L
345.253 31 L
345.654 31 L
346.056 31 L
346.543 31 L
347.095 31 L
347.597 31 L
348.004 31 L
348.382 31 L
348.823 31 L
349.357 31 L
349.901 31 L
350.35 31 L
350.728 31 L
351.127 31 L
351.618 31 L
352.178 31 L
352.579 31 L
352.981 31 L
353.468 31 L
354.02 31 L
354.522 31 L
354.929 31 L
355.307 31 L
355.748 31 L
356.282 31 L
356.826 31 L
357.275 31 L
357.653 31 L
358.052 31 L
358.543 31 L
359.103 31 L
359.504 31 L
359.906 31 L
360.393 31 L
360.945 31 L
361.447 31 L
361.854 31 L
362.232 31 L
362.673 31 L
S
GR
GS
[0.75 0 0 0.75 0 0] CT
0.929 0.694 0.125 RC
1 LJ
0.667 LW
N
362.232 31 M
362.673 31 L
363.207 31 L
363.751 31 L
364.2 31 L
364.578 31 L
364.977 31 L
365.468 31 L
366.028 31 L
366.429 31 L
366.831 31 L
367.318 31 L
367.87 31 L
368.372 31 L
368.779 31 L
369.157 31 L
369.598 31 L
370.132 31 L
370.676 31 L
371.125 31 L
371.503 31 L
371.902 31 L
372.393 31 L
372.953 31 L
373.354 31 L
373.756 31 L
374.243 31 L
374.795 31 L
375.297 31 L
375.704 31 L
376.082 31 L
376.523 31 L
377.057 31 L
377.601 31 L
378.05 31 L
378.428 31 L
378.827 31 L
379.318 31 L
379.878 31 L
380.279 31 L
380.681 31 L
381.168 31 L
381.72 31 L
382.222 31 L
382.629 31 L
383.007 31 L
383.448 31 L
383.982 31 L
384.526 31 L
384.975 31 L
385.353 31 L
385.752 31 L
S
GR
GS
[0.75 0 0 0.75 0 0] CT
0.929 0.694 0.125 RC
1 LJ
0.667 LW
N
385.353 31 M
385.752 31 L
386.243 31 L
386.803 31 L
387.204 31 L
387.606 31 L
388.093 31 L
388.645 31 L
389.147 31 L
389.554 31 L
389.932 31 L
390.373 31 L
390.907 31 L
391.451 31 L
391.9 31 L
392.278 31 L
392.677 31 L
393.168 31 L
393.728 31 L
394.129 31 L
394.531 31 L
395.018 31 L
395.57 31 L
396.072 31 L
396.479 31 L
396.857 31 L
397.298 31 L
397.832 31 L
398.376 31 L
398.825 31 L
399.203 31 L
399.602 31 L
400.093 31 L
400.653 31 L
401.054 31 L
401.456 31 L
401.943 31 L
402.495 31 L
402.997 31 L
403.404 31 L
403.782 31 L
404.223 31 L
404.757 31 L
405.301 31 L
405.75 31 L
406.128 31 L
406.526 31 L
407.018 31 L
407.578 31 L
407.979 31 L
408.381 31 L
408.868 31 L
S
GR
GS
[0.75 0 0 0.75 0 0] CT
0.929 0.694 0.125 RC
1 LJ
0.667 LW
N
408.381 31 M
408.868 31 L
409.42 31 L
409.922 31 L
410.329 31 L
410.707 31 L
411.148 31 L
411.682 31 L
412.226 31 L
412.675 31 L
413.053 31 L
413.451 31 L
413.943 31 L
414.503 31 L
414.904 31 L
415.306 31 L
415.793 31 L
416.345 31 L
416.847 31 L
417.254 31 L
417.632 31 L
418.073 31 L
418.607 31 L
419.151 31 L
419.6 31 L
419.978 31 L
420.376 31 L
420.868 31 L
421.428 31 L
421.829 31 L
422.231 31 L
422.718 31 L
423.27 31 L
423.772 31 L
424.179 31 L
424.557 31 L
424.998 31 L
425.532 31 L
426.076 31 L
426.525 31 L
426.903 31 L
427.301 31 L
427.793 31 L
428.353 31 L
428.754 31 L
429.156 31 L
429.643 31 L
430.195 31 L
430.697 31 L
431.104 31 L
431.482 31 L
431.923 31 L
S
GR
GS
[0.75 0 0 0.75 0 0] CT
0.929 0.694 0.125 RC
1 LJ
0.667 LW
N
431.482 31 M
431.923 31 L
432.457 31 L
433.001 31 L
433.45 31 L
433.828 31 L
434.226 31 L
434.718 31 L
435.278 31 L
435.679 31 L
436.081 31 L
436.568 31 L
437.12 31 L
437.622 31 L
438.029 31 L
438.407 31 L
438.848 31 L
439.382 31 L
439.926 31 L
440.375 31 L
440.753 31 L
441.151 31 L
441.643 31 L
442.203 31 L
442.604 31 L
443.006 31 L
443.493 31 L
444.045 31 L
444.547 31 L
444.954 31 L
445.332 31 L
445.773 31 L
446.307 31 L
446.851 31 L
447.3 31 L
447.678 31 L
448.076 31 L
448.568 31 L
449.128 31 L
449.529 31 L
449.931 31 L
450.418 31 L
450.97 31 L
451.472 31 L
451.879 31 L
452.257 31 L
452.698 31 L
453.232 31 L
453.776 31 L
454.225 31 L
454.603 31 L
455.001 31 L
S
GR
GS
[0.75 0 0 0.75 0 0] CT
0.929 0.694 0.125 RC
1 LJ
0.667 LW
N
454.603 31 M
455.001 31 L
455.493 31 L
456.053 31 L
456.454 31 L
456.856 31 L
457.343 31 L
457.895 31 L
458.397 31 L
458.804 31 L
459.182 31 L
459.623 31 L
460.157 31 L
460.701 31 L
461.15 31 L
461.528 31 L
461.926 31 L
462.418 31 L
462.978 31 L
463.379 31 L
463.781 31 L
464.268 31 L
464.82 31 L
465.322 31 L
465.729 31 L
466.107 31 L
466.548 31 L
467.082 31 L
467.626 31 L
468.075 31 L
468.453 31 L
468.851 31 L
469.343 31 L
469.902 31 L
470.304 31 L
470.705 31 L
471.193 31 L
471.745 31 L
472.247 31 L
472.654 31 L
473.032 31 L
473.473 31 L
474.007 31 L
474.551 31 L
475 31 L
475.378 31 L
475.776 31 L
476.268 31 L
476.827 31 L
477.229 31 L
477.63 31 L
478.118 31 L
S
GR
GS
[0.75 0 0 0.75 0 0] CT
0.929 0.694 0.125 RC
1 LJ
0.667 LW
N
477.63 31 M
478.118 31 L
478.67 31 L
479.172 31 L
479.579 31 L
479.957 31 L
480.398 31 L
480.932 31 L
481.476 31 L
481.925 31 L
482.303 31 L
482.701 31 L
483.193 31 L
483.753 31 L
484.154 31 L
484.555 31 L
485.043 31 L
485.595 31 L
486.097 31 L
486.504 31 L
486.882 31 L
487.323 31 L
487.857 31 L
488.401 31 L
488.85 31 L
489.228 31 L
489.626 31 L
490.118 31 L
490.677 31 L
491.079 31 L
491.48 31 L
491.968 31 L
492.52 31 L
493.022 31 L
493.429 31 L
493.807 31 L
494.248 31 L
494.782 31 L
495.326 31 L
495.775 31 L
496.153 31 L
496.551 31 L
497.043 31 L
497.603 31 L
498.004 31 L
498.405 31 L
498.893 31 L
499.445 31 L
499.947 31 L
500.354 31 L
500.732 31 L
501.173 31 L
S
GR
GS
[0.75 0 0 0.75 0 0] CT
0.929 0.694 0.125 RC
1 LJ
0.667 LW
N
500.732 31 M
501.173 31 L
501.707 31 L
502.251 31 L
502.7 31 L
503.078 31 L
503.476 31 L
503.968 31 L
504.527 31 L
504.929 31 L
505.33 31 L
505.818 31 L
506.37 31 L
506.872 31 L
507 31 L
S
GR
GS
[0.75 0 0 0.75 0 0] CT
0.494 0.184 0.557 RC
1 LJ
0.667 LW
N
73 316.833 M
73 316.833 L
73.362 316.833 L
73.362 316.833 L
73.362 316.833 L
73.409 316.833 L
73.452 316.833 L
73.509 316.833 L
73.578 316.833 L
73.669 316.833 L
73.791 316.833 L
73.928 316.833 L
74.09 316.833 L
74.285 316.833 L
74.531 316.833 L
74.858 316.833 L
75.382 316.833 L
75.944 316.833 L
76.311 316.833 L
76.678 316.833 L
77.167 316.833 L
77.769 316.833 L
78.164 316.833 L
78.56 316.833 L
79.058 316.833 L
79.633 316.833 L
80.032 316.833 L
80.431 316.833 L
80.924 316.833 L
81.489 316.833 L
81.895 316.833 L
82.3 316.833 L
82.792 316.833 L
83.346 316.833 L
83.851 316.833 L
84.261 316.833 L
84.643 316.833 L
85.088 316.833 L
85.626 316.833 L
86.172 316.833 L
86.625 316.833 L
87.006 316.833 L
87.409 316.833 L
87.905 316.833 L
88.467 316.833 L
88.872 316.833 L
89.276 316.833 L
89.767 316.833 L
90.323 316.833 L
90.829 316.833 L
S
GR
GS
[0.75 0 0 0.75 0 0] CT
0.494 0.184 0.557 RC
1 LJ
0.667 LW
N
90.323 316.833 M
90.829 316.833 L
91.239 316.833 L
91.62 316.833 L
92.064 316.833 L
92.602 316.833 L
93.15 316.833 L
93.603 316.833 L
93.983 316.833 L
94.385 316.833 L
94.88 316.833 L
95.444 316.833 L
95.848 316.833 L
96.253 316.833 L
96.744 316.833 L
97.3 316.833 L
97.806 316.833 L
98.216 316.833 L
98.597 316.833 L
99.041 316.833 L
99.579 316.833 L
100.127 316.833 L
100.58 316.833 L
100.96 316.833 L
101.362 316.833 L
101.858 316.833 L
102.421 316.833 L
102.825 316.833 L
103.23 316.833 L
103.721 316.833 L
104.277 316.833 L
104.783 316.833 L
105.193 316.833 L
105.574 316.833 L
106.018 316.833 L
106.556 316.833 L
107.104 316.833 L
107.557 316.833 L
107.937 316.833 L
108.339 316.833 L
108.834 316.833 L
109.398 316.833 L
109.802 316.833 L
110.207 316.833 L
110.698 316.833 L
111.254 316.833 L
111.76 316.833 L
112.17 316.833 L
112.551 316.833 L
112.995 316.833 L
113.533 316.833 L
114.081 316.833 L
S
GR
GS
[0.75 0 0 0.75 0 0] CT
0.494 0.184 0.557 RC
1 LJ
0.667 LW
N
113.533 316.833 M
114.081 316.833 L
114.534 316.833 L
114.914 316.833 L
115.316 316.833 L
115.811 316.833 L
116.375 316.833 L
116.779 316.833 L
117.184 316.833 L
117.675 316.833 L
118.231 316.833 L
118.737 316.833 L
119.147 316.833 L
119.528 316.833 L
119.972 316.833 L
120.51 316.833 L
121.058 316.833 L
121.511 316.833 L
121.891 316.833 L
122.293 316.833 L
122.788 316.833 L
123.352 316.833 L
123.756 316.833 L
124.161 316.833 L
124.652 316.833 L
125.208 316.833 L
125.714 316.833 L
126.124 316.833 L
126.505 316.833 L
126.949 316.833 L
127.487 316.833 L
128.035 316.833 L
128.488 316.833 L
128.868 316.833 L
129.27 316.833 L
129.765 316.833 L
130.329 316.833 L
130.733 316.833 L
131.138 316.833 L
131.629 316.833 L
132.185 316.833 L
132.691 316.833 L
133.101 316.833 L
133.482 316.833 L
133.926 316.833 L
134.464 316.833 L
135.012 316.833 L
135.465 316.833 L
135.845 316.833 L
136.247 316.833 L
136.742 316.833 L
137.306 316.833 L
S
GR
GS
[0.75 0 0 0.75 0 0] CT
0.494 0.184 0.557 RC
1 LJ
0.667 LW
N
136.742 316.833 M
137.306 316.833 L
137.71 316.833 L
138.115 316.833 L
138.606 316.833 L
139.162 316.833 L
139.668 316.833 L
140.078 316.833 L
140.459 316.833 L
140.903 316.833 L
141.441 316.833 L
141.989 316.833 L
142.442 316.833 L
142.822 316.833 L
143.224 316.833 L
143.719 316.833 L
144.283 316.833 L
144.687 316.833 L
145.092 316.833 L
145.583 316.833 L
146.139 316.833 L
146.645 316.833 L
147.055 316.833 L
147.436 316.833 L
147.88 316.833 L
148.418 316.833 L
148.966 316.833 L
149.419 316.833 L
149.799 316.833 L
150.201 316.833 L
150.696 316.833 L
151.26 316.833 L
151.664 316.833 L
152.069 316.833 L
152.56 316.833 L
153.116 316.833 L
153.622 316.833 L
154.032 316.833 L
154.413 316.833 L
154.857 316.833 L
155.395 316.833 L
155.943 316.833 L
156.396 316.833 L
156.776 316.833 L
157.178 316.833 L
157.673 316.833 L
158.237 316.833 L
158.641 316.833 L
159.046 316.833 L
159.537 316.833 L
160.093 316.833 L
160.599 316.833 L
S
GR
GS
[0.75 0 0 0.75 0 0] CT
0.494 0.184 0.557 RC
1 LJ
0.667 LW
N
160.093 316.833 M
160.599 316.833 L
161.009 316.833 L
161.39 316.833 L
161.834 316.833 L
162.372 316.833 L
162.92 316.833 L
163.373 316.833 L
163.753 316.833 L
164.155 316.833 L
164.65 316.833 L
165.214 316.833 L
165.618 316.833 L
166.023 316.833 L
166.514 316.833 L
167.07 316.833 L
167.576 316.833 L
167.986 316.833 L
168.367 316.833 L
168.811 316.833 L
169.349 316.833 L
169.897 316.833 L
170.35 316.833 L
170.73 316.833 L
171.132 316.833 L
171.627 316.833 L
172.191 316.833 L
172.595 316.833 L
173 316.833 L
173.491 316.833 L
174.047 316.833 L
174.553 316.833 L
174.963 316.833 L
175.344 316.833 L
175.788 316.833 L
176.326 316.833 L
176.874 316.833 L
177.327 316.833 L
177.707 316.833 L
178.109 316.833 L
178.604 316.833 L
179.168 316.833 L
179.572 316.833 L
179.977 316.833 L
180.468 316.833 L
181.024 316.833 L
181.5 316.833 L
181.5 316.833 L
181.5 316.833 L
181.524 316.824 L
181.549 316.795 L
181.584 316.722 L
S
GR
GS
[0.75 0 0 0.75 0 0] CT
0.494 0.184 0.557 RC
1 LJ
0.667 LW
N
181.549 316.795 M
181.584 316.722 L
181.624 316.594 L
181.677 316.361 L
181.75 315.921 L
181.843 315.175 L
181.947 314.147 L
182.066 312.738 L
182.204 310.834 L
182.372 308.233 L
182.587 304.517 L
182.852 299.544 L
183.131 294.007 L
183.462 287.212 L
183.864 278.865 L
184.368 268.464 L
184.906 257.632 L
185.511 245.927 L
185.963 237.547 L
186.414 229.474 L
186.904 221.059 L
187.398 212.919 L
187.855 205.702 L
188.279 199.266 L
188.711 192.94 L
189.186 186.266 L
189.689 179.495 L
190.168 173.324 L
190.6 167.974 L
191.019 162.985 L
191.472 157.791 L
191.972 152.299 L
192.472 147.039 L
192.923 142.486 L
193.338 138.466 L
193.767 134.451 L
194.25 130.119 L
194.763 125.712 L
195.242 121.779 L
195.665 118.439 L
196.076 115.309 L
196.532 111.968 L
197.043 108.383 L
197.549 104.99 L
197.994 102.13 L
198.398 99.626 L
198.825 97.075 L
199.317 94.257 L
199.841 91.388 L
200.318 88.888 L
200.73 86.809 L
201.135 84.845 L
S
GR
GS
[0.75 0 0 0.75 0 0] CT
0.494 0.184 0.557 RC
1 LJ
0.667 LW
N
200.73 86.809 M
201.135 84.845 L
201.595 82.692 L
202.118 80.35 L
202.629 78.165 L
203.066 76.373 L
203.461 74.815 L
203.886 73.192 L
204.388 71.358 L
204.922 69.492 L
205.397 67.906 L
205.799 66.613 L
206.197 65.38 L
206.662 63.992 L
207.197 62.463 L
207.712 61.059 L
208.141 59.937 L
208.526 58.966 L
208.951 57.932 L
209.462 56.741 L
210.005 55.53 L
210.477 54.525 L
210.87 53.72 L
211.263 52.943 L
211.732 52.049 L
212.278 51.056 L
212.796 50.155 L
213.218 49.451 L
213.596 48.844 L
214.02 48.185 L
214.538 47.414 L
215.089 46.632 L
215.559 45.995 L
215.944 45.491 L
216.333 45.001 L
216.805 44.426 L
217.359 43.783 L
217.88 43.207 L
218.297 42.763 L
218.669 42.382 L
219.093 41.962 L
219.617 41.465 L
220.173 40.962 L
220.641 40.557 L
221.021 40.24 L
221.406 39.93 L
221.881 39.562 L
222.44 39.148 L
222.854 38.854 L
223.269 38.571 L
223.756 38.251 L
224.292 37.915 L
S
GR
GS
[0.75 0 0 0.75 0 0] CT
0.494 0.184 0.557 RC
1 LJ
0.667 LW
N
223.756 38.251 M
224.292 37.915 L
224.783 37.62 L
225.195 37.383 L
225.586 37.165 L
226.035 36.925 L
226.562 36.655 L
227.09 36.396 L
227.535 36.187 L
227.922 36.013 L
228.333 35.833 L
228.828 35.626 L
229.374 35.407 L
229.865 35.22 L
230.268 35.071 L
230.653 34.935 L
231.104 34.781 L
231.641 34.605 L
232.174 34.439 L
232.614 34.307 L
232.993 34.198 L
233.401 34.084 L
233.902 33.95 L
234.457 33.809 L
234.948 33.689 L
235.344 33.596 L
235.723 33.51 L
236.176 33.412 L
236.721 33.298 L
237.258 33.191 L
237.694 33.108 L
238.067 33.04 L
238.474 32.967 L
238.979 32.881 L
239.54 32.79 L
239.932 32.729 L
240.323 32.67 L
240.811 32.599 L
241.375 32.521 L
241.778 32.468 L
242.181 32.416 L
242.67 32.356 L
243.221 32.292 L
243.721 32.236 L
244.128 32.192 L
244.507 32.153 L
244.949 32.108 L
245.484 32.057 L
246.026 32.007 L
246.474 31.968 L
246.851 31.936 L
247.252 31.904 L
S
GR
GS
[0.75 0 0 0.75 0 0] CT
0.494 0.184 0.557 RC
1 LJ
0.667 LW
N
246.851 31.936 M
247.252 31.904 L
247.745 31.865 L
248.304 31.823 L
248.704 31.794 L
249.105 31.767 L
249.592 31.734 L
250.145 31.699 L
250.648 31.669 L
251.055 31.645 L
251.432 31.624 L
251.872 31.6 L
252.407 31.572 L
252.951 31.545 L
253.401 31.524 L
253.778 31.507 L
254.176 31.489 L
254.668 31.468 L
255.228 31.446 L
255.629 31.43 L
256.031 31.415 L
256.518 31.397 L
257.07 31.378 L
257.572 31.362 L
257.979 31.349 L
258.357 31.338 L
258.798 31.325 L
259.332 31.31 L
259.876 31.295 L
260.325 31.284 L
260.703 31.274 L
261.102 31.265 L
261.594 31.253 L
262.153 31.241 L
262.554 31.233 L
262.956 31.225 L
263.443 31.215 L
263.995 31.205 L
264.498 31.196 L
264.904 31.189 L
265.282 31.183 L
265.723 31.176 L
266.257 31.168 L
266.801 31.16 L
267.251 31.154 L
267.628 31.148 L
268.027 31.143 L
268.518 31.137 L
269.078 31.131 L
269.479 31.126 L
269.881 31.122 L
270.368 31.116 L
S
GR
GS
[0.75 0 0 0.75 0 0] CT
0.494 0.184 0.557 RC
1 LJ
0.667 LW
N
269.881 31.122 M
270.368 31.116 L
270.92 31.111 L
271.423 31.106 L
271.829 31.102 L
272.207 31.099 L
272.648 31.095 L
273.182 31.091 L
273.726 31.086 L
274.176 31.083 L
274.553 31.08 L
274.952 31.078 L
275.443 31.074 L
276.003 31.071 L
276.404 31.068 L
276.806 31.066 L
277.293 31.063 L
277.845 31.06 L
278.348 31.057 L
278.754 31.055 L
279.132 31.054 L
279.573 31.052 L
280.107 31.049 L
280.651 31.047 L
281.101 31.045 L
281.478 31.044 L
281.877 31.042 L
282.368 31.04 L
282.928 31.038 L
283.329 31.037 L
283.731 31.036 L
284.218 31.034 L
284.77 31.032 L
285.273 31.031 L
285.679 31.03 L
286.057 31.029 L
286.498 31.028 L
287.032 31.027 L
287.576 31.025 L
288.025 31.024 L
288.403 31.024 L
288.802 31.023 L
289.293 31.022 L
289.853 31.021 L
290.254 31.02 L
290.656 31.019 L
291.143 31.018 L
291.695 31.018 L
292.198 31.017 L
292.604 31.016 L
292.982 31.016 L
293.423 31.015 L
S
GR
GS
[0.75 0 0 0.75 0 0] CT
0.494 0.184 0.557 RC
1 LJ
0.667 LW
N
292.982 31.016 M
293.423 31.015 L
293.957 31.014 L
294.501 31.014 L
294.95 31.013 L
295.328 31.013 L
295.727 31.012 L
296.218 31.012 L
296.778 31.011 L
297.179 31.011 L
297.581 31.01 L
298.068 31.01 L
298.62 31.01 L
299.122 31.009 L
299.529 31.009 L
299.907 31.008 L
300.348 31.008 L
300.882 31.008 L
301.426 31.007 L
301.875 31.007 L
302.253 31.007 L
302.652 31.007 L
303.143 31.006 L
303.703 31.006 L
304.104 31.006 L
304.506 31.006 L
304.993 31.005 L
305.545 31.005 L
306.047 31.005 L
306.454 31.005 L
306.832 31.005 L
307.273 31.004 L
307.807 31.004 L
308.351 31.004 L
308.8 31.004 L
309.178 31.004 L
309.577 31.004 L
310.068 31.003 L
310.628 31.003 L
311.029 31.003 L
311.431 31.003 L
311.918 31.003 L
312.47 31.003 L
312.972 31.003 L
313.379 31.003 L
313.757 31.002 L
314.198 31.002 L
314.732 31.002 L
315.276 31.002 L
315.725 31.002 L
316.103 31.002 L
316.502 31.002 L
S
GR
GS
[0.75 0 0 0.75 0 0] CT
0.494 0.184 0.557 RC
1 LJ
0.667 LW
N
316.103 31.002 M
316.502 31.002 L
316.993 31.002 L
317.553 31.002 L
317.954 31.002 L
318.356 31.002 L
318.843 31.002 L
319.395 31.002 L
319.897 31.001 L
320.304 31.001 L
320.682 31.001 L
321.123 31.001 L
321.657 31.001 L
322.201 31.001 L
322.65 31.001 L
323.028 31.001 L
323.427 31.001 L
323.918 31.001 L
324.478 31.001 L
324.879 31.001 L
325.281 31.001 L
325.768 31.001 L
326.32 31.001 L
326.822 31.001 L
327.229 31.001 L
327.607 31.001 L
328.048 31.001 L
328.582 31.001 L
329.126 31.001 L
329.575 31.001 L
329.953 31.001 L
330.352 31.001 L
330.843 31.001 L
331.403 31.001 L
331.804 31.001 L
332.206 31 L
332.693 31 L
333.245 31 L
333.747 31 L
334.154 31 L
334.532 31 L
334.973 31 L
335.507 31 L
336.051 31 L
336.5 31 L
336.878 31 L
337.277 31 L
337.768 31 L
338.328 31 L
338.729 31 L
339.131 31 L
339.618 31 L
S
GR
GS
[0.75 0 0 0.75 0 0] CT
0.494 0.184 0.557 RC
1 LJ
0.667 LW
N
339.131 31 M
339.618 31 L
340.17 31 L
340.672 31 L
341.079 31 L
341.457 31 L
341.898 31 L
342.432 31 L
342.976 31 L
343.425 31 L
343.803 31 L
344.202 31 L
344.693 31 L
345.253 31 L
345.654 31 L
346.056 31 L
346.543 31 L
347.095 31 L
347.597 31 L
348.004 31 L
348.382 31 L
348.823 31 L
349.357 31 L
349.901 31 L
350.35 31 L
350.728 31 L
351.127 31 L
351.618 31 L
352.178 31 L
352.579 31 L
352.981 31 L
353.468 31 L
354.02 31 L
354.522 31 L
354.929 31 L
355.307 31 L
355.748 31 L
356.282 31 L
356.826 31 L
357.275 31 L
357.653 31 L
358.052 31 L
358.543 31 L
359.103 31 L
359.504 31 L
359.906 31 L
360.393 31 L
360.945 31 L
361.447 31 L
361.854 31 L
362.232 31 L
362.673 31 L
S
GR
GS
[0.75 0 0 0.75 0 0] CT
0.494 0.184 0.557 RC
1 LJ
0.667 LW
N
362.232 31 M
362.673 31 L
363.207 31 L
363.751 31 L
364.2 31 L
364.578 31 L
364.977 31 L
365.468 31 L
366.028 31 L
366.429 31 L
366.831 31 L
367.318 31 L
367.87 31 L
368.372 31 L
368.779 31 L
369.157 31 L
369.598 31 L
370.132 31 L
370.676 31 L
371.125 31 L
371.503 31 L
371.902 31 L
372.393 31 L
372.953 31 L
373.354 31 L
373.756 31 L
374.243 31 L
374.795 31 L
375.297 31 L
375.704 31 L
376.082 31 L
376.523 31 L
377.057 31 L
377.601 31 L
378.05 31 L
378.428 31 L
378.827 31 L
379.318 31 L
379.878 31 L
380.279 31 L
380.681 31 L
381.168 31 L
381.72 31 L
382.222 31 L
382.629 31 L
383.007 31 L
383.448 31 L
383.982 31 L
384.526 31 L
384.975 31 L
385.353 31 L
385.752 31 L
S
GR
GS
[0.75 0 0 0.75 0 0] CT
0.494 0.184 0.557 RC
1 LJ
0.667 LW
N
385.353 31 M
385.752 31 L
386.243 31 L
386.803 31 L
387.204 31 L
387.606 31 L
388.093 31 L
388.645 31 L
389.147 31 L
389.554 31 L
389.932 31 L
390.373 31 L
390.907 31 L
391.451 31 L
391.9 31 L
392.278 31 L
392.677 31 L
393.168 31 L
393.728 31 L
394.129 31 L
394.531 31 L
395.018 31 L
395.57 31 L
396.072 31 L
396.479 31 L
396.857 31 L
397.298 31 L
397.832 31 L
398.376 31 L
398.825 31 L
399.203 31 L
399.602 31 L
400.093 31 L
400.653 31 L
401.054 31 L
401.456 31 L
401.943 31 L
402.495 31 L
402.997 31 L
403.404 31 L
403.782 31 L
404.223 31 L
404.757 31 L
405.301 31 L
405.75 31 L
406.128 31 L
406.526 31 L
407.018 31 L
407.578 31 L
407.979 31 L
408.381 31 L
408.868 31 L
S
GR
GS
[0.75 0 0 0.75 0 0] CT
0.494 0.184 0.557 RC
1 LJ
0.667 LW
N
408.381 31 M
408.868 31 L
409.42 31 L
409.922 31 L
410.329 31 L
410.707 31 L
411.148 31 L
411.682 31 L
412.226 31 L
412.675 31 L
413.053 31 L
413.451 31 L
413.943 31 L
414.503 31 L
414.904 31 L
415.306 31 L
415.793 31 L
416.345 31 L
416.847 31 L
417.254 31 L
417.632 31 L
418.073 31 L
418.607 31 L
419.151 31 L
419.6 31 L
419.978 31 L
420.376 31 L
420.868 31 L
421.428 31 L
421.829 31 L
422.231 31 L
422.718 31 L
423.27 31 L
423.772 31 L
424.179 31 L
424.557 31 L
424.998 31 L
425.532 31 L
426.076 31 L
426.525 31 L
426.903 31 L
427.301 31 L
427.793 31 L
428.353 31 L
428.754 31 L
429.156 31 L
429.643 31 L
430.195 31 L
430.697 31 L
431.104 31 L
431.482 31 L
431.923 31 L
S
GR
GS
[0.75 0 0 0.75 0 0] CT
0.494 0.184 0.557 RC
1 LJ
0.667 LW
N
431.482 31 M
431.923 31 L
432.457 31 L
433.001 31 L
433.45 31 L
433.828 31 L
434.226 31 L
434.718 31 L
435.278 31 L
435.679 31 L
436.081 31 L
436.568 31 L
437.12 31 L
437.622 31 L
438.029 31 L
438.407 31 L
438.848 31 L
439.382 31 L
439.926 31 L
440.375 31 L
440.753 31 L
441.151 31 L
441.643 31 L
442.203 31 L
442.604 31 L
443.006 31 L
443.493 31 L
444.045 31 L
444.547 31 L
444.954 31 L
445.332 31 L
445.773 31 L
446.307 31 L
446.851 31 L
447.3 31 L
447.678 31 L
448.076 31 L
448.568 31 L
449.128 31 L
449.529 31 L
449.931 31 L
450.418 31 L
450.97 31 L
451.472 31 L
451.879 31 L
452.257 31 L
452.698 31 L
453.232 31 L
453.776 31 L
454.225 31 L
454.603 31 L
455.001 31 L
S
GR
GS
[0.75 0 0 0.75 0 0] CT
0.494 0.184 0.557 RC
1 LJ
0.667 LW
N
454.603 31 M
455.001 31 L
455.493 31 L
456.053 31 L
456.454 31 L
456.856 31 L
457.343 31 L
457.895 31 L
458.397 31 L
458.804 31 L
459.182 31 L
459.623 31 L
460.157 31 L
460.701 31 L
461.15 31 L
461.528 31 L
461.926 31 L
462.418 31 L
462.978 31 L
463.379 31 L
463.781 31 L
464.268 31 L
464.82 31 L
465.322 31 L
465.729 31 L
466.107 31 L
466.548 31 L
467.082 31 L
467.626 31 L
468.075 31 L
468.453 31 L
468.851 31 L
469.343 31 L
469.902 31 L
470.304 31 L
470.705 31 L
471.193 31 L
471.745 31 L
472.247 31 L
472.654 31 L
473.032 31 L
473.473 31 L
474.007 31 L
474.551 31 L
475 31 L
475.378 31 L
475.776 31 L
476.268 31 L
476.827 31 L
477.229 31 L
477.63 31 L
478.118 31 L
S
GR
GS
[0.75 0 0 0.75 0 0] CT
0.494 0.184 0.557 RC
1 LJ
0.667 LW
N
477.63 31 M
478.118 31 L
478.67 31 L
479.172 31 L
479.579 31 L
479.957 31 L
480.398 31 L
480.932 31 L
481.476 31 L
481.925 31 L
482.303 31 L
482.701 31 L
483.193 31 L
483.753 31 L
484.154 31 L
484.555 31 L
485.043 31 L
485.595 31 L
486.097 31 L
486.504 31 L
486.882 31 L
487.323 31 L
487.857 31 L
488.401 31 L
488.85 31 L
489.228 31 L
489.626 31 L
490.118 31 L
490.677 31 L
491.079 31 L
491.48 31 L
491.968 31 L
492.52 31 L
493.022 31 L
493.429 31 L
493.807 31 L
494.248 31 L
494.782 31 L
495.326 31 L
495.775 31 L
496.153 31 L
496.551 31 L
497.043 31 L
497.603 31 L
498.004 31 L
498.405 31 L
498.893 31 L
499.445 31 L
499.947 31 L
500.354 31 L
500.732 31 L
501.173 31 L
S
GR
GS
[0.75 0 0 0.75 0 0] CT
0.494 0.184 0.557 RC
1 LJ
0.667 LW
N
500.732 31 M
501.173 31 L
501.707 31 L
502.251 31 L
502.7 31 L
503.078 31 L
503.476 31 L
503.968 31 L
504.527 31 L
504.929 31 L
505.33 31 L
505.818 31 L
506.37 31 L
506.872 31 L
507 31 L
S
GR
GS
[0.75 0 0 0.75 0 0] CT
1 GC
N
422 112 M
422 44 L
494 44 L
494 112 L
cp
f
GR
GS
[0.75 0 0 0.75 355.5 40.7005] CT
/Helvetica 12 F
GS
[1 0 0 1 0 0] CT
0 4.5 moveto 
1 -1 scale
(w1) t 
GR
GR
GS
[0.75 0 0 0.75 0 0] CT
0 0.447 0.741 RC
1 LJ
0.667 LW
N
430 54.267 M
470 54.267 L
S
GR
GS
[0.75 0 0 0.75 355.5 52.56683] CT
/Helvetica 12 F
GS
[1 0 0 1 0 0] CT
0 4.5 moveto 
1 -1 scale
(w2) t 
GR
GR
GS
[0.75 0 0 0.75 0 0] CT
0.851 0.325 0.098 RC
1 LJ
0.667 LW
N
430 70.089 M
470 70.089 L
S
GR
GS
[0.75 0 0 0.75 355.5 64.43317] CT
/Helvetica 12 F
GS
[1 0 0 1 0 0] CT
0 4.5 moveto 
1 -1 scale
(y1) t 
GR
GR
GS
[0.75 0 0 0.75 0 0] CT
0.929 0.694 0.125 RC
1 LJ
0.667 LW
N
430 85.911 M
470 85.911 L
S
GR
GS
[0.75 0 0 0.75 355.5 76.29951] CT
/Helvetica 12 F
GS
[1 0 0 1 0 0] CT
0 4.5 moveto 
1 -1 scale
(y2) t 
GR
GR
GS
[0.75 0 0 0.75 0 0] CT
0.494 0.184 0.557 RC
1 LJ
0.667 LW
N
430 101.733 M
470 101.733 L
S
GR
GS
[0.75 0 0 0.75 0 0] CT
0.149 GC
10.0 ML
0.667 LW
N
422 112 M
422 44 L
494 44 L
494 112 L
cp
S
GR
%%Trailer
%%Pages: 1
%%EOF
