%!PS-Adobe-3.0 EPSF-3.0
%%Creator: (MATLAB, The Mathworks, Inc. Version 8.6.0.267246 \(R2015b\). Operating System: Windows 8)
%%Title: E:/Projects/skola/rls/pics/SP3/par_1o_y.eps
%%CreationDate: 2017-03-17T12:27:37
%%Pages: (atend)
%%BoundingBox: 0 0 420 315
%%LanguageLevel: 2
%%EndComments
%%BeginProlog
%%BeginResource: procset (Apache XML Graphics Std ProcSet) 1.2 0
%%Version: 1.2 0
%%Copyright: (Copyright 2001-2003,2010 The Apache Software Foundation. License terms: http://www.apache.org/licenses/LICENSE-2.0)
/bd{bind def}bind def
/ld{load def}bd
/GR/grestore ld
/M/moveto ld
/LJ/setlinejoin ld
/C/curveto ld
/f/fill ld
/LW/setlinewidth ld
/GC/setgray ld
/t/show ld
/N/newpath ld
/CT/concat ld
/cp/closepath ld
/S/stroke ld
/L/lineto ld
/CC/setcmykcolor ld
/A/ashow ld
/GS/gsave ld
/RC/setrgbcolor ld
/RM/rmoveto ld
/ML/setmiterlimit ld
/re {4 2 roll M
1 index 0 rlineto
0 exch rlineto
neg 0 rlineto
cp } bd
/_ctm matrix def
/_tm matrix def
/BT { _ctm currentmatrix pop matrix _tm copy pop 0 0 moveto } bd
/ET { _ctm setmatrix } bd
/iTm { _ctm setmatrix _tm concat } bd
/Tm { _tm astore pop iTm 0 0 moveto } bd
/ux 0.0 def
/uy 0.0 def
/F {
  /Tp exch def
  /Tf exch def
  Tf findfont Tp scalefont setfont
  /cf Tf def  /cs Tp def
} bd
/ULS {currentpoint /uy exch def /ux exch def} bd
/ULE {
  /Tcx currentpoint pop def
  gsave
  newpath
  cf findfont cs scalefont dup
  /FontMatrix get 0 get /Ts exch def /FontInfo get dup
  /UnderlinePosition get Ts mul /To exch def
  /UnderlineThickness get Ts mul /Tt exch def
  ux uy To add moveto  Tcx uy To add lineto
  Tt setlinewidth stroke
  grestore
} bd
/OLE {
  /Tcx currentpoint pop def
  gsave
  newpath
  cf findfont cs scalefont dup
  /FontMatrix get 0 get /Ts exch def /FontInfo get dup
  /UnderlinePosition get Ts mul /To exch def
  /UnderlineThickness get Ts mul /Tt exch def
  ux uy To add cs add moveto Tcx uy To add cs add lineto
  Tt setlinewidth stroke
  grestore
} bd
/SOE {
  /Tcx currentpoint pop def
  gsave
  newpath
  cf findfont cs scalefont dup
  /FontMatrix get 0 get /Ts exch def /FontInfo get dup
  /UnderlinePosition get Ts mul /To exch def
  /UnderlineThickness get Ts mul /Tt exch def
  ux uy To add cs 10 mul 26 idiv add moveto Tcx uy To add cs 10 mul 26 idiv add lineto
  Tt setlinewidth stroke
  grestore
} bd
/QT {
/Y22 exch store
/X22 exch store
/Y21 exch store
/X21 exch store
currentpoint
/Y21 load 2 mul add 3 div exch
/X21 load 2 mul add 3 div exch
/X21 load 2 mul /X22 load add 3 div
/Y21 load 2 mul /Y22 load add 3 div
/X22 load /Y22 load curveto
} bd
/SSPD {
dup length /d exch dict def
{
/v exch def
/k exch def
currentpagedevice k known {
/cpdv currentpagedevice k get def
v cpdv ne {
/upd false def
/nullv v type /nulltype eq def
/nullcpdv cpdv type /nulltype eq def
nullv nullcpdv or
{
/upd true def
} {
/sametype v type cpdv type eq def
sametype {
v type /arraytype eq {
/vlen v length def
/cpdvlen cpdv length def
vlen cpdvlen eq {
0 1 vlen 1 sub {
/i exch def
/obj v i get def
/cpdobj cpdv i get def
obj cpdobj ne {
/upd true def
exit
} if
} for
} {
/upd true def
} ifelse
} {
v type /dicttype eq {
v {
/dv exch def
/dk exch def
/cpddv cpdv dk get def
dv cpddv ne {
/upd true def
exit
} if
} forall
} {
/upd true def
} ifelse
} ifelse
} if
} ifelse
upd true eq {
d k v put
} if
} if
} if
} forall
d length 0 gt {
d setpagedevice
} if
} bd
%%EndResource
%%BeginResource: procset (Apache XML Graphics EPS ProcSet) 1.0 0
%%Version: 1.0 0
%%Copyright: (Copyright 2002-2003 The Apache Software Foundation. License terms: http://www.apache.org/licenses/LICENSE-2.0)
/BeginEPSF { %def
/b4_Inc_state save def         % Save state for cleanup
/dict_count countdictstack def % Count objects on dict stack
/op_count count 1 sub def      % Count objects on operand stack
userdict begin                 % Push userdict on dict stack
/showpage { } def              % Redefine showpage, { } = null proc
0 setgray 0 setlinecap         % Prepare graphics state
1 setlinewidth 0 setlinejoin
10 setmiterlimit [ ] 0 setdash newpath
/languagelevel where           % If level not equal to 1 then
{pop languagelevel             % set strokeadjust and
1 ne                           % overprint to their defaults.
{false setstrokeadjust false setoverprint
} if
} if
} bd
/EndEPSF { %def
count op_count sub {pop} repeat            % Clean up stacks
countdictstack dict_count sub {end} repeat
b4_Inc_state restore
} bd
%%EndResource
%FOPBeginFontDict
%%IncludeResource: font Courier-Bold
%%IncludeResource: font Helvetica
%%IncludeResource: font Courier-BoldOblique
%%IncludeResource: font Courier-Oblique
%%IncludeResource: font Times-Roman
%%IncludeResource: font Helvetica-BoldOblique
%%IncludeResource: font Helvetica-Bold
%%IncludeResource: font Helvetica-Oblique
%%IncludeResource: font Times-BoldItalic
%%IncludeResource: font Courier
%%IncludeResource: font Times-Italic
%%IncludeResource: font Times-Bold
%%IncludeResource: font Symbol
%%IncludeResource: font ZapfDingbats
%FOPEndFontDict
%%BeginResource: encoding WinAnsiEncoding
/WinAnsiEncoding [
/.notdef /.notdef /.notdef /.notdef /.notdef
/.notdef /.notdef /.notdef /.notdef /.notdef
/.notdef /.notdef /.notdef /.notdef /.notdef
/.notdef /.notdef /.notdef /.notdef /.notdef
/.notdef /.notdef /.notdef /.notdef /.notdef
/.notdef /.notdef /.notdef /.notdef /.notdef
/.notdef /.notdef /space /exclam /quotedbl
/numbersign /dollar /percent /ampersand /quotesingle
/parenleft /parenright /asterisk /plus /comma
/hyphen /period /slash /zero /one
/two /three /four /five /six
/seven /eight /nine /colon /semicolon
/less /equal /greater /question /at
/A /B /C /D /E
/F /G /H /I /J
/K /L /M /N /O
/P /Q /R /S /T
/U /V /W /X /Y
/Z /bracketleft /backslash /bracketright /asciicircum
/underscore /quoteleft /a /b /c
/d /e /f /g /h
/i /j /k /l /m
/n /o /p /q /r
/s /t /u /v /w
/x /y /z /braceleft /bar
/braceright /asciitilde /bullet /Euro /bullet
/quotesinglbase /florin /quotedblbase /ellipsis /dagger
/daggerdbl /circumflex /perthousand /Scaron /guilsinglleft
/OE /bullet /Zcaron /bullet /bullet
/quoteleft /quoteright /quotedblleft /quotedblright /bullet
/endash /emdash /asciitilde /trademark /scaron
/guilsinglright /oe /bullet /zcaron /Ydieresis
/space /exclamdown /cent /sterling /currency
/yen /brokenbar /section /dieresis /copyright
/ordfeminine /guillemotleft /logicalnot /sfthyphen /registered
/macron /degree /plusminus /twosuperior /threesuperior
/acute /mu /paragraph /middot /cedilla
/onesuperior /ordmasculine /guillemotright /onequarter /onehalf
/threequarters /questiondown /Agrave /Aacute /Acircumflex
/Atilde /Adieresis /Aring /AE /Ccedilla
/Egrave /Eacute /Ecircumflex /Edieresis /Igrave
/Iacute /Icircumflex /Idieresis /Eth /Ntilde
/Ograve /Oacute /Ocircumflex /Otilde /Odieresis
/multiply /Oslash /Ugrave /Uacute /Ucircumflex
/Udieresis /Yacute /Thorn /germandbls /agrave
/aacute /acircumflex /atilde /adieresis /aring
/ae /ccedilla /egrave /eacute /ecircumflex
/edieresis /igrave /iacute /icircumflex /idieresis
/eth /ntilde /ograve /oacute /ocircumflex
/otilde /odieresis /divide /oslash /ugrave
/uacute /ucircumflex /udieresis /yacute /thorn
/ydieresis
] def
%%EndResource
%FOPBeginFontReencode
/Courier-Bold findfont
dup length dict begin
  {1 index /FID ne {def} {pop pop} ifelse} forall
  /Encoding WinAnsiEncoding def
  currentdict
end
/Courier-Bold exch definefont pop
/Helvetica findfont
dup length dict begin
  {1 index /FID ne {def} {pop pop} ifelse} forall
  /Encoding WinAnsiEncoding def
  currentdict
end
/Helvetica exch definefont pop
/Courier-BoldOblique findfont
dup length dict begin
  {1 index /FID ne {def} {pop pop} ifelse} forall
  /Encoding WinAnsiEncoding def
  currentdict
end
/Courier-BoldOblique exch definefont pop
/Courier-Oblique findfont
dup length dict begin
  {1 index /FID ne {def} {pop pop} ifelse} forall
  /Encoding WinAnsiEncoding def
  currentdict
end
/Courier-Oblique exch definefont pop
/Times-Roman findfont
dup length dict begin
  {1 index /FID ne {def} {pop pop} ifelse} forall
  /Encoding WinAnsiEncoding def
  currentdict
end
/Times-Roman exch definefont pop
/Helvetica-BoldOblique findfont
dup length dict begin
  {1 index /FID ne {def} {pop pop} ifelse} forall
  /Encoding WinAnsiEncoding def
  currentdict
end
/Helvetica-BoldOblique exch definefont pop
/Helvetica-Bold findfont
dup length dict begin
  {1 index /FID ne {def} {pop pop} ifelse} forall
  /Encoding WinAnsiEncoding def
  currentdict
end
/Helvetica-Bold exch definefont pop
/Helvetica-Oblique findfont
dup length dict begin
  {1 index /FID ne {def} {pop pop} ifelse} forall
  /Encoding WinAnsiEncoding def
  currentdict
end
/Helvetica-Oblique exch definefont pop
/Times-BoldItalic findfont
dup length dict begin
  {1 index /FID ne {def} {pop pop} ifelse} forall
  /Encoding WinAnsiEncoding def
  currentdict
end
/Times-BoldItalic exch definefont pop
/Courier findfont
dup length dict begin
  {1 index /FID ne {def} {pop pop} ifelse} forall
  /Encoding WinAnsiEncoding def
  currentdict
end
/Courier exch definefont pop
/Times-Italic findfont
dup length dict begin
  {1 index /FID ne {def} {pop pop} ifelse} forall
  /Encoding WinAnsiEncoding def
  currentdict
end
/Times-Italic exch definefont pop
/Times-Bold findfont
dup length dict begin
  {1 index /FID ne {def} {pop pop} ifelse} forall
  /Encoding WinAnsiEncoding def
  currentdict
end
/Times-Bold exch definefont pop
%FOPEndFontReencode
%%EndProlog
%%Page: 1 1
%%PageBoundingBox: 0 0 420 315
%%BeginPageSetup
[1 0 0 -1 0 315] CT
%%EndPageSetup
GS
[0.75 0 0 0.75 0 0] CT
1 GC
N
0 0 560 420 re
f
GR
GS
[0.75 0 0 0.75 0 0] CT
1 GC
N
0 0 560 420 re
f
GR
GS
[0.75 0 0 0.75 0 0] CT
1 GC
N
73 374 M
507 374 L
507 31 L
73 31 L
cp
f
GR
GS
[0.75 0 0 0.75 0 0] CT
0.149 GC
2 setlinecap
1 LJ
0.667 LW
N
73 374 M
507 374 L
S
GR
GS
[0.75 0 0 0.75 0 0] CT
0.149 GC
2 setlinecap
1 LJ
0.667 LW
N
73 31 M
507 31 L
S
GR
GS
[0.75 0 0 0.75 0 0] CT
0.149 GC
2 setlinecap
1 LJ
0.667 LW
N
73 374 M
73 369.66 L
S
GR
GS
[0.75 0 0 0.75 0 0] CT
0.149 GC
2 setlinecap
1 LJ
0.667 LW
N
145.333 374 M
145.333 369.66 L
S
GR
GS
[0.75 0 0 0.75 0 0] CT
0.149 GC
2 setlinecap
1 LJ
0.667 LW
N
217.667 374 M
217.667 369.66 L
S
GR
GS
[0.75 0 0 0.75 0 0] CT
0.149 GC
2 setlinecap
1 LJ
0.667 LW
N
290 374 M
290 369.66 L
S
GR
GS
[0.75 0 0 0.75 0 0] CT
0.149 GC
2 setlinecap
1 LJ
0.667 LW
N
362.333 374 M
362.333 369.66 L
S
GR
GS
[0.75 0 0 0.75 0 0] CT
0.149 GC
2 setlinecap
1 LJ
0.667 LW
N
434.667 374 M
434.667 369.66 L
S
GR
GS
[0.75 0 0 0.75 0 0] CT
0.149 GC
2 setlinecap
1 LJ
0.667 LW
N
507 374 M
507 369.66 L
S
GR
GS
[0.75 0 0 0.75 0 0] CT
0.149 GC
2 setlinecap
1 LJ
0.667 LW
N
73 31 M
73 35.34 L
S
GR
GS
[0.75 0 0 0.75 0 0] CT
0.149 GC
2 setlinecap
1 LJ
0.667 LW
N
145.333 31 M
145.333 35.34 L
S
GR
GS
[0.75 0 0 0.75 0 0] CT
0.149 GC
2 setlinecap
1 LJ
0.667 LW
N
217.667 31 M
217.667 35.34 L
S
GR
GS
[0.75 0 0 0.75 0 0] CT
0.149 GC
2 setlinecap
1 LJ
0.667 LW
N
290 31 M
290 35.34 L
S
GR
GS
[0.75 0 0 0.75 0 0] CT
0.149 GC
2 setlinecap
1 LJ
0.667 LW
N
362.333 31 M
362.333 35.34 L
S
GR
GS
[0.75 0 0 0.75 0 0] CT
0.149 GC
2 setlinecap
1 LJ
0.667 LW
N
434.667 31 M
434.667 35.34 L
S
GR
GS
[0.75 0 0 0.75 0 0] CT
0.149 GC
2 setlinecap
1 LJ
0.667 LW
N
507 31 M
507 35.34 L
S
GR
GS
[0.75 0 0 0.75 54.75 284.50001] CT
0.149 GC
/Helvetica 13 F
GS
[1 0 0 1 0 0] CT
-4 13 moveto 
1 -1 scale
(0) t 
GR
GR
GS
[0.75 0 0 0.75 109 284.50001] CT
0.149 GC
/Helvetica 13 F
GS
[1 0 0 1 0 0] CT
-11 13 moveto 
1 -1 scale
(200) t 
GR
GR
GS
[0.75 0 0 0.75 163.25 284.50001] CT
0.149 GC
/Helvetica 13 F
GS
[1 0 0 1 0 0] CT
-11 13 moveto 
1 -1 scale
(400) t 
GR
GR
GS
[0.75 0 0 0.75 217.5 284.50001] CT
0.149 GC
/Helvetica 13 F
GS
[1 0 0 1 0 0] CT
-11 13 moveto 
1 -1 scale
(600) t 
GR
GR
GS
[0.75 0 0 0.75 271.75001 284.50001] CT
0.149 GC
/Helvetica 13 F
GS
[1 0 0 1 0 0] CT
-11 13 moveto 
1 -1 scale
(800) t 
GR
GR
GS
[0.75 0 0 0.75 325.99999 284.50001] CT
0.149 GC
/Helvetica 13 F
GS
[1 0 0 1 0 0] CT
-14.5 13 moveto 
1 -1 scale
(1000) t 
GR
GR
GS
[0.75 0 0 0.75 380.25 284.50001] CT
0.149 GC
/Helvetica 13 F
GS
[1 0 0 1 0 0] CT
-14.5 13 moveto 
1 -1 scale
(1200) t 
GR
GR
GS
[0.75 0 0 0.75 217.50016 297.49999] CT
0.149 GC
/Helvetica 15 F
GS
[1 0 0 1 0 0] CT
-11 14 moveto 
1 -1 scale
(t\(s\)) t 
GR
GR
GS
[0.75 0 0 0.75 0 0] CT
0.149 GC
2 setlinecap
1 LJ
0.667 LW
N
73 374 M
73 31 L
S
GR
GS
[0.75 0 0 0.75 0 0] CT
0.149 GC
2 setlinecap
1 LJ
0.667 LW
N
507 374 M
507 31 L
S
GR
GS
[0.75 0 0 0.75 0 0] CT
0.149 GC
2 setlinecap
1 LJ
0.667 LW
N
73 374 M
77.34 374 L
S
GR
GS
[0.75 0 0 0.75 0 0] CT
0.149 GC
2 setlinecap
1 LJ
0.667 LW
N
73 316.833 M
77.34 316.833 L
S
GR
GS
[0.75 0 0 0.75 0 0] CT
0.149 GC
2 setlinecap
1 LJ
0.667 LW
N
73 259.667 M
77.34 259.667 L
S
GR
GS
[0.75 0 0 0.75 0 0] CT
0.149 GC
2 setlinecap
1 LJ
0.667 LW
N
73 202.5 M
77.34 202.5 L
S
GR
GS
[0.75 0 0 0.75 0 0] CT
0.149 GC
2 setlinecap
1 LJ
0.667 LW
N
73 145.333 M
77.34 145.333 L
S
GR
GS
[0.75 0 0 0.75 0 0] CT
0.149 GC
2 setlinecap
1 LJ
0.667 LW
N
73 88.167 M
77.34 88.167 L
S
GR
GS
[0.75 0 0 0.75 0 0] CT
0.149 GC
2 setlinecap
1 LJ
0.667 LW
N
73 31 M
77.34 31 L
S
GR
GS
[0.75 0 0 0.75 0 0] CT
0.149 GC
2 setlinecap
1 LJ
0.667 LW
N
507 374 M
502.66 374 L
S
GR
GS
[0.75 0 0 0.75 0 0] CT
0.149 GC
2 setlinecap
1 LJ
0.667 LW
N
507 316.833 M
502.66 316.833 L
S
GR
GS
[0.75 0 0 0.75 0 0] CT
0.149 GC
2 setlinecap
1 LJ
0.667 LW
N
507 259.667 M
502.66 259.667 L
S
GR
GS
[0.75 0 0 0.75 0 0] CT
0.149 GC
2 setlinecap
1 LJ
0.667 LW
N
507 202.5 M
502.66 202.5 L
S
GR
GS
[0.75 0 0 0.75 0 0] CT
0.149 GC
2 setlinecap
1 LJ
0.667 LW
N
507 145.333 M
502.66 145.333 L
S
GR
GS
[0.75 0 0 0.75 0 0] CT
0.149 GC
2 setlinecap
1 LJ
0.667 LW
N
507 88.167 M
502.66 88.167 L
S
GR
GS
[0.75 0 0 0.75 0 0] CT
0.149 GC
2 setlinecap
1 LJ
0.667 LW
N
507 31 M
502.66 31 L
S
GR
GS
[0.75 0 0 0.75 50.75 280.5] CT
0.149 GC
/Helvetica 13 F
GS
[1 0 0 1 0 0] CT
-30 5 moveto 
1 -1 scale
(-0.02) t 
GR
GR
GS
[0.75 0 0 0.75 50.75 237.62501] CT
0.149 GC
/Helvetica 13 F
GS
[1 0 0 1 0 0] CT
-8 5 moveto 
1 -1 scale
(0) t 
GR
GR
GS
[0.75 0 0 0.75 50.75 194.74999] CT
0.149 GC
/Helvetica 13 F
GS
[1 0 0 1 0 0] CT
-26 5 moveto 
1 -1 scale
(0.02) t 
GR
GR
GS
[0.75 0 0 0.75 50.75 151.875] CT
0.149 GC
/Helvetica 13 F
GS
[1 0 0 1 0 0] CT
-26 5 moveto 
1 -1 scale
(0.04) t 
GR
GR
GS
[0.75 0 0 0.75 50.75 109.00001] CT
0.149 GC
/Helvetica 13 F
GS
[1 0 0 1 0 0] CT
-26 5 moveto 
1 -1 scale
(0.06) t 
GR
GR
GS
[0.75 0 0 0.75 50.75 66.125] CT
0.149 GC
/Helvetica 13 F
GS
[1 0 0 1 0 0] CT
-26 5 moveto 
1 -1 scale
(0.08) t 
GR
GR
GS
[0.75 0 0 0.75 50.75 23.25] CT
0.149 GC
/Helvetica 13 F
GS
[1 0 0 1 0 0] CT
-19 5 moveto 
1 -1 scale
(0.1) t 
GR
GR
GS
[0.75 0 0 0.75 217.50021 21.18749] CT
/any-Bold 15 F
GS
[1 0 0 1 0 0] CT
-152.5 -4 moveto 
1 -1 scale
(Response of system with 1 order regulator) t 
GR
GR
GS
[0.75 0 0 0.75 0 0] CT
0 0.447 0.741 RC
1 LJ
0.667 LW
N
73 316.833 M
73 316.833 L
73.362 316.833 L
73.362 31 L
73.362 31 L
73.473 31 L
73.583 31 L
73.743 31 L
73.97 31 L
74.282 31 L
74.671 31 L
75.117 31 L
75.649 31 L
76.3 31 L
77.125 31 L
78.221 31 L
79.744 31 L
81.622 31 L
82.691 31 L
83.76 31 L
85.239 31 L
87.07 31 L
88.215 31 L
89.36 31 L
90.846 31 L
92.593 31 L
93.759 31 L
94.926 31 L
96.397 31 L
98.102 31 L
99.292 31 L
100.482 31 L
101.946 31 L
103.615 31 L
104.82 31 L
106.026 31 L
107.483 31 L
109.126 31 L
110.623 31 L
111.841 31 L
112.977 31 L
114.298 31 L
115.891 31 L
117.51 31 L
118.852 31 L
119.985 31 L
121.182 31 L
122.653 31 L
124.32 31 L
125.819 31 L
S
GR
GS
[0.75 0 0 0.75 0 0] CT
0 0.447 0.741 RC
1 LJ
0.667 LW
N
124.32 31 M
125.819 31 L
127.02 31 L
128.14 31 L
129.463 31 L
131.076 31 L
132.708 31 L
134.041 31 L
135.158 31 L
136.348 31 L
137.829 31 L
139.513 31 L
140.702 31 L
141.891 31 L
143.351 31 L
145.017 31 L
146.527 31 L
147.737 31 L
148.855 31 L
150.166 31 L
151.771 31 L
153.41 31 L
154.756 31 L
155.876 31 L
157.058 31 L
158.526 31 L
160.209 31 L
161.407 31 L
162.606 31 L
164.065 31 L
165.72 31 L
167.222 31 L
168.436 31 L
169.562 31 L
170.88 31 L
172.48 31 L
174.108 31 L
175.451 31 L
176.576 31 L
177.767 31 L
179.238 31 L
180.913 31 L
181.5 31 L
181.5 31 L
181.5 31 L
181.556 31 L
181.612 31 L
181.696 31 L
181.807 31 L
181.935 31 L
182.116 31 L
182.346 31 L
S
GR
GS
[0.75 0 0 0.75 0 0] CT
0 0.447 0.741 RC
1 LJ
0.667 LW
N
182.116 31 M
182.346 31 L
182.601 31 L
182.895 31 L
183.24 31 L
183.664 31 L
184.235 31 L
184.916 31 L
185.681 31 L
186.618 31 L
187.856 31 L
189.582 31 L
190.632 31 L
191.682 31 L
193.086 31 L
194.77 31 L
195.905 31 L
197.041 31 L
198.469 31 L
200.127 31 L
201.302 31 L
202.477 31 L
203.913 31 L
205.544 31 L
207.027 31 L
208.225 31 L
209.337 31 L
210.639 31 L
212.223 31 L
213.836 31 L
215.167 31 L
216.282 31 L
217.462 31 L
218.921 31 L
220.584 31 L
221.774 31 L
222.964 31 L
224.411 31 L
226.053 31 L
227.547 31 L
228.755 31 L
229.876 31 L
231.185 31 L
232.774 31 L
234.393 31 L
235.73 31 L
236.851 31 L
238.036 31 L
239.499 31 L
241.165 31 L
242.36 31 L
243.554 31 L
S
GR
GS
[0.75 0 0 0.75 0 0] CT
0 0.447 0.741 RC
1 LJ
0.667 LW
N
242.36 31 M
243.554 31 L
245.006 31 L
246.649 31 L
248.145 31 L
249.356 31 L
250.481 31 L
251.793 31 L
253.385 31 L
255.004 31 L
256.344 31 L
257.467 31 L
258.655 31 L
260.12 31 L
261.787 31 L
262.984 31 L
264.18 31 L
265.633 31 L
267.278 31 L
268.775 31 L
269.987 31 L
271.114 31 L
272.428 31 L
274.02 31 L
275.641 31 L
276.981 31 L
278.106 31 L
279.295 31 L
280.762 31 L
282.429 31 L
283.627 31 L
284.824 31 L
286.277 31 L
287.923 31 L
289.421 31 L
290.635 31 L
291.762 31 L
293.077 31 L
294.67 31 L
296.291 31 L
297.632 31 L
298.758 31 L
299.948 31 L
301.415 31 L
303.083 31 L
304.281 31 L
305.479 31 L
306.933 31 L
308.58 31 L
310.078 31 L
311.292 31 L
312.42 31 L
S
GR
GS
[0.75 0 0 0.75 0 0] CT
0 0.447 0.741 RC
1 LJ
0.667 LW
N
311.292 31 M
312.42 31 L
313.735 31 L
315.329 31 L
316.951 31 L
318.293 31 L
319.419 31 L
320.609 31 L
322.076 31 L
323.745 31 L
324.943 31 L
326.142 31 L
327.596 31 L
329.243 31 L
330.742 31 L
331.957 31 L
333.085 31 L
334.4 31 L
335.994 31 L
337.617 31 L
338.959 31 L
340.085 31 L
341.276 31 L
342.743 31 L
344.413 31 L
345.611 31 L
346.81 31 L
348.265 31 L
349.912 31 L
351.412 31 L
352.626 31 L
353.755 31 L
355.07 31 L
356.665 31 L
358.287 31 L
359.63 31 L
360.756 31 L
361.947 31 L
363.415 31 L
365.085 31 L
366.283 31 L
367.482 31 L
368.937 31 L
370.585 31 L
372.085 31 L
373.299 31 L
374.428 31 L
375.744 31 L
377.339 31 L
378.962 31 L
380.304 31 L
381.431 31 L
S
GR
GS
[0.75 0 0 0.75 0 0] CT
0 0.447 0.741 RC
1 LJ
0.667 LW
N
380.304 31 M
381.431 31 L
382.622 31 L
384.09 31 L
385.76 31 L
386.959 31 L
388.158 31 L
389.613 31 L
391.261 31 L
392.761 31 L
393.976 31 L
395.105 31 L
396.42 31 L
398.015 31 L
399.639 31 L
400.981 31 L
402.108 31 L
403.299 31 L
404.768 31 L
406.438 31 L
407.637 31 L
408.836 31 L
410.291 31 L
411.94 31 L
413.44 31 L
414.655 31 L
415.783 31 L
417.099 31 L
418.695 31 L
420.318 31 L
421.661 31 L
422.788 31 L
423.979 31 L
425.448 31 L
427.118 31 L
428.317 31 L
429.516 31 L
430.972 31 L
432.62 31 L
434.12 31 L
435.335 31 L
436.464 31 L
437.78 31 L
439.376 31 L
440.999 31 L
442.342 31 L
443.469 31 L
444.66 31 L
446.129 31 L
447.8 31 L
448.999 31 L
450.198 31 L
S
GR
GS
[0.75 0 0 0.75 0 0] CT
0 0.447 0.741 RC
1 LJ
0.667 LW
N
448.999 31 M
450.198 31 L
451.654 31 L
453.302 31 L
454.803 31 L
456.018 31 L
457.147 31 L
458.463 31 L
460.059 31 L
461.682 31 L
463.025 31 L
464.152 31 L
465.344 31 L
466.812 31 L
468.483 31 L
469.682 31 L
470.882 31 L
472.338 31 L
473.986 31 L
475.487 31 L
476.702 31 L
477.831 31 L
479.147 31 L
480.743 31 L
482.366 31 L
483.71 31 L
484.837 31 L
486.028 31 L
487.497 31 L
489.168 31 L
490.367 31 L
491.566 31 L
493.022 31 L
494.671 31 L
496.172 31 L
497.387 31 L
498.516 31 L
499.832 31 L
501.428 31 L
503.052 31 L
504.395 31 L
505.522 31 L
506.714 31 L
507 31 L
S
GR
GS
[0.75 0 0 0.75 0 0] CT
0.851 0.325 0.098 RC
1 LJ
0.667 LW
N
73 316.833 M
73 316.833 L
73.362 316.833 L
73.362 316.833 L
73.362 316.833 L
73.473 316.833 L
73.583 316.833 L
73.743 316.833 L
73.97 316.833 L
74.282 316.833 L
74.671 316.833 L
75.117 316.833 L
75.649 316.833 L
76.3 316.833 L
77.125 316.833 L
78.221 316.833 L
79.744 316.833 L
81.622 316.833 L
82.691 316.833 L
83.76 316.833 L
85.239 316.833 L
87.07 316.833 L
88.215 316.833 L
89.36 316.833 L
90.846 316.833 L
92.593 316.833 L
93.759 316.833 L
94.926 316.833 L
96.397 316.833 L
98.102 316.833 L
99.292 316.833 L
100.482 316.833 L
101.946 316.833 L
103.615 316.833 L
104.82 316.833 L
106.026 316.833 L
107.483 316.833 L
109.126 316.833 L
110.623 316.833 L
111.841 316.833 L
112.977 316.833 L
114.298 316.833 L
115.891 316.833 L
117.51 316.833 L
118.852 316.833 L
119.985 316.833 L
121.182 316.833 L
122.653 316.833 L
124.32 316.833 L
125.819 316.833 L
S
GR
GS
[0.75 0 0 0.75 0 0] CT
0.851 0.325 0.098 RC
1 LJ
0.667 LW
N
124.32 316.833 M
125.819 316.833 L
127.02 316.833 L
128.14 316.833 L
129.463 316.833 L
131.076 316.833 L
132.708 316.833 L
134.041 316.833 L
135.158 316.833 L
136.348 316.833 L
137.829 316.833 L
139.513 316.833 L
140.702 316.833 L
141.891 316.833 L
143.351 316.833 L
145.017 316.833 L
146.527 316.833 L
147.737 316.833 L
148.855 316.833 L
150.166 316.833 L
151.771 316.833 L
153.41 316.833 L
154.756 316.833 L
155.876 316.833 L
157.058 316.833 L
158.526 316.833 L
160.209 316.833 L
161.407 316.833 L
162.606 316.833 L
164.065 316.833 L
165.72 316.833 L
167.222 316.833 L
168.436 316.833 L
169.562 316.833 L
170.88 316.833 L
172.48 316.833 L
174.108 316.833 L
175.451 316.833 L
176.576 316.833 L
177.767 316.833 L
179.238 316.833 L
180.913 316.833 L
181.5 316.833 L
181.5 31 L
181.5 31 L
181.556 31 L
181.612 31 L
181.696 31 L
181.807 31 L
181.935 31 L
182.116 31 L
182.346 31 L
S
GR
GS
[0.75 0 0 0.75 0 0] CT
0.851 0.325 0.098 RC
1 LJ
0.667 LW
N
182.116 31 M
182.346 31 L
182.601 31 L
182.895 31 L
183.24 31 L
183.664 31 L
184.235 31 L
184.916 31 L
185.681 31 L
186.618 31 L
187.856 31 L
189.582 31 L
190.632 31 L
191.682 31 L
193.086 31 L
194.77 31 L
195.905 31 L
197.041 31 L
198.469 31 L
200.127 31 L
201.302 31 L
202.477 31 L
203.913 31 L
205.544 31 L
207.027 31 L
208.225 31 L
209.337 31 L
210.639 31 L
212.223 31 L
213.836 31 L
215.167 31 L
216.282 31 L
217.462 31 L
218.921 31 L
220.584 31 L
221.774 31 L
222.964 31 L
224.411 31 L
226.053 31 L
227.547 31 L
228.755 31 L
229.876 31 L
231.185 31 L
232.774 31 L
234.393 31 L
235.73 31 L
236.851 31 L
238.036 31 L
239.499 31 L
241.165 31 L
242.36 31 L
243.554 31 L
S
GR
GS
[0.75 0 0 0.75 0 0] CT
0.851 0.325 0.098 RC
1 LJ
0.667 LW
N
242.36 31 M
243.554 31 L
245.006 31 L
246.649 31 L
248.145 31 L
249.356 31 L
250.481 31 L
251.793 31 L
253.385 31 L
255.004 31 L
256.344 31 L
257.467 31 L
258.655 31 L
260.12 31 L
261.787 31 L
262.984 31 L
264.18 31 L
265.633 31 L
267.278 31 L
268.775 31 L
269.987 31 L
271.114 31 L
272.428 31 L
274.02 31 L
275.641 31 L
276.981 31 L
278.106 31 L
279.295 31 L
280.762 31 L
282.429 31 L
283.627 31 L
284.824 31 L
286.277 31 L
287.923 31 L
289.421 31 L
290.635 31 L
291.762 31 L
293.077 31 L
294.67 31 L
296.291 31 L
297.632 31 L
298.758 31 L
299.948 31 L
301.415 31 L
303.083 31 L
304.281 31 L
305.479 31 L
306.933 31 L
308.58 31 L
310.078 31 L
311.292 31 L
312.42 31 L
S
GR
GS
[0.75 0 0 0.75 0 0] CT
0.851 0.325 0.098 RC
1 LJ
0.667 LW
N
311.292 31 M
312.42 31 L
313.735 31 L
315.329 31 L
316.951 31 L
318.293 31 L
319.419 31 L
320.609 31 L
322.076 31 L
323.745 31 L
324.943 31 L
326.142 31 L
327.596 31 L
329.243 31 L
330.742 31 L
331.957 31 L
333.085 31 L
334.4 31 L
335.994 31 L
337.617 31 L
338.959 31 L
340.085 31 L
341.276 31 L
342.743 31 L
344.413 31 L
345.611 31 L
346.81 31 L
348.265 31 L
349.912 31 L
351.412 31 L
352.626 31 L
353.755 31 L
355.07 31 L
356.665 31 L
358.287 31 L
359.63 31 L
360.756 31 L
361.947 31 L
363.415 31 L
365.085 31 L
366.283 31 L
367.482 31 L
368.937 31 L
370.585 31 L
372.085 31 L
373.299 31 L
374.428 31 L
375.744 31 L
377.339 31 L
378.962 31 L
380.304 31 L
381.431 31 L
S
GR
GS
[0.75 0 0 0.75 0 0] CT
0.851 0.325 0.098 RC
1 LJ
0.667 LW
N
380.304 31 M
381.431 31 L
382.622 31 L
384.09 31 L
385.76 31 L
386.959 31 L
388.158 31 L
389.613 31 L
391.261 31 L
392.761 31 L
393.976 31 L
395.105 31 L
396.42 31 L
398.015 31 L
399.639 31 L
400.981 31 L
402.108 31 L
403.299 31 L
404.768 31 L
406.438 31 L
407.637 31 L
408.836 31 L
410.291 31 L
411.94 31 L
413.44 31 L
414.655 31 L
415.783 31 L
417.099 31 L
418.695 31 L
420.318 31 L
421.661 31 L
422.788 31 L
423.979 31 L
425.448 31 L
427.118 31 L
428.317 31 L
429.516 31 L
430.972 31 L
432.62 31 L
434.12 31 L
435.335 31 L
436.464 31 L
437.78 31 L
439.376 31 L
440.999 31 L
442.342 31 L
443.469 31 L
444.66 31 L
446.129 31 L
447.8 31 L
448.999 31 L
450.198 31 L
S
GR
GS
[0.75 0 0 0.75 0 0] CT
0.851 0.325 0.098 RC
1 LJ
0.667 LW
N
448.999 31 M
450.198 31 L
451.654 31 L
453.302 31 L
454.803 31 L
456.018 31 L
457.147 31 L
458.463 31 L
460.059 31 L
461.682 31 L
463.025 31 L
464.152 31 L
465.344 31 L
466.812 31 L
468.483 31 L
469.682 31 L
470.882 31 L
472.338 31 L
473.986 31 L
475.487 31 L
476.702 31 L
477.831 31 L
479.147 31 L
480.743 31 L
482.366 31 L
483.71 31 L
484.837 31 L
486.028 31 L
487.497 31 L
489.168 31 L
490.367 31 L
491.566 31 L
493.022 31 L
494.671 31 L
496.172 31 L
497.387 31 L
498.516 31 L
499.832 31 L
501.428 31 L
503.052 31 L
504.395 31 L
505.522 31 L
506.714 31 L
507 31 L
S
GR
GS
[0.75 0 0 0.75 0 0] CT
0.929 0.694 0.125 RC
1 LJ
0.667 LW
N
73 316.833 M
73 316.833 L
73.362 316.833 L
73.362 316.833 L
73.362 316.833 L
73.473 315.129 L
73.583 313.435 L
73.743 311.009 L
73.97 307.605 L
74.282 302.999 L
74.671 297.353 L
75.117 291.025 L
75.649 283.663 L
76.3 274.951 L
77.125 264.337 L
78.221 250.95 L
79.744 233.613 L
81.622 214.103 L
82.691 203.848 L
83.76 194.167 L
85.239 181.662 L
87.07 167.495 L
88.215 159.325 L
89.36 151.645 L
90.846 142.354 L
92.593 132.345 L
93.759 126.166 L
94.926 120.364 L
96.397 113.548 L
98.102 106.299 L
99.292 101.621 L
100.482 97.233 L
101.946 92.206 L
103.615 86.938 L
104.82 83.418 L
106.026 80.119 L
107.483 76.409 L
109.126 72.559 L
110.623 69.337 L
111.841 66.899 L
112.977 64.766 L
114.298 62.445 L
115.891 59.857 L
117.51 57.445 L
118.852 55.598 L
119.985 54.142 L
121.182 52.695 L
122.653 51.041 L
124.32 49.318 L
125.819 47.896 L
S
GR
GS
[0.75 0 0 0.75 0 0] CT
0.929 0.694 0.125 RC
1 LJ
0.667 LW
N
124.32 49.318 M
125.819 47.896 L
127.02 46.837 L
128.14 45.908 L
129.463 44.882 L
131.076 43.726 L
132.708 42.654 L
134.041 41.845 L
135.158 41.212 L
136.348 40.577 L
137.829 39.842 L
139.513 39.075 L
140.702 38.573 L
141.891 38.103 L
143.351 37.565 L
145.017 37.001 L
146.527 36.532 L
147.737 36.183 L
148.855 35.879 L
150.166 35.546 L
151.771 35.17 L
153.41 34.817 L
154.756 34.55 L
155.876 34.342 L
157.058 34.135 L
158.526 33.897 L
160.209 33.645 L
161.407 33.48 L
162.606 33.325 L
164.065 33.149 L
165.72 32.965 L
167.222 32.813 L
168.436 32.698 L
169.562 32.598 L
170.88 32.488 L
172.48 32.365 L
174.108 32.25 L
175.451 32.163 L
176.576 32.095 L
177.767 32.027 L
179.238 31.948 L
180.913 31.866 L
181.5 31.839 L
181.5 31.839 L
181.5 31.839 L
181.556 31.837 L
181.612 31.834 L
181.696 31.831 L
181.807 31.826 L
181.935 31.82 L
182.116 31.812 L
182.346 31.802 L
S
GR
GS
[0.75 0 0 0.75 0 0] CT
0.929 0.694 0.125 RC
1 LJ
0.667 LW
N
182.116 31.812 M
182.346 31.802 L
182.601 31.791 L
182.895 31.779 L
183.24 31.764 L
183.664 31.747 L
184.235 31.724 L
184.916 31.698 L
185.681 31.67 L
186.618 31.637 L
187.856 31.596 L
189.582 31.543 L
190.632 31.513 L
191.682 31.485 L
193.086 31.449 L
194.77 31.41 L
195.905 31.386 L
197.041 31.363 L
198.469 31.336 L
200.127 31.307 L
201.302 31.289 L
202.477 31.271 L
203.913 31.251 L
205.544 31.23 L
207.027 31.212 L
208.225 31.199 L
209.337 31.187 L
210.639 31.174 L
212.223 31.16 L
213.836 31.147 L
215.167 31.137 L
216.282 31.129 L
217.462 31.121 L
218.921 31.112 L
220.584 31.102 L
221.774 31.096 L
222.964 31.09 L
224.411 31.083 L
226.053 31.076 L
227.547 31.07 L
228.755 31.066 L
229.876 31.062 L
231.185 31.058 L
232.774 31.053 L
234.393 31.048 L
235.73 31.045 L
236.851 31.042 L
238.036 31.04 L
239.499 31.037 L
241.165 31.034 L
242.36 31.032 L
243.554 31.03 L
S
GR
GS
[0.75 0 0 0.75 0 0] CT
0.929 0.694 0.125 RC
1 LJ
0.667 LW
N
242.36 31.032 M
243.554 31.03 L
245.006 31.027 L
246.649 31.025 L
248.145 31.023 L
249.356 31.022 L
250.481 31.02 L
251.793 31.019 L
253.385 31.017 L
255.004 31.016 L
256.344 31.015 L
257.467 31.014 L
258.655 31.013 L
260.12 31.012 L
261.787 31.011 L
262.984 31.01 L
264.18 31.01 L
265.633 31.009 L
267.278 31.008 L
268.775 31.008 L
269.987 31.007 L
271.114 31.007 L
272.428 31.006 L
274.02 31.006 L
275.641 31.005 L
276.981 31.005 L
278.106 31.005 L
279.295 31.004 L
280.762 31.004 L
282.429 31.004 L
283.627 31.003 L
284.824 31.003 L
286.277 31.003 L
287.923 31.003 L
289.421 31.002 L
290.635 31.002 L
291.762 31.002 L
293.077 31.002 L
294.67 31.002 L
296.291 31.002 L
297.632 31.002 L
298.758 31.002 L
299.948 31.001 L
301.415 31.001 L
303.083 31.001 L
304.281 31.001 L
305.479 31.001 L
306.933 31.001 L
308.58 31.001 L
310.078 31.001 L
311.292 31.001 L
312.42 31.001 L
S
GR
GS
[0.75 0 0 0.75 0 0] CT
0.929 0.694 0.125 RC
1 LJ
0.667 LW
N
311.292 31.001 M
312.42 31.001 L
313.735 31.001 L
315.329 31.001 L
316.951 31.001 L
318.293 31.001 L
319.419 31 L
320.609 31 L
322.076 31 L
323.745 31 L
324.943 31 L
326.142 31 L
327.596 31 L
329.243 31 L
330.742 31 L
331.957 31 L
333.085 31 L
334.4 31 L
335.994 31 L
337.617 31 L
338.959 31 L
340.085 31 L
341.276 31 L
342.743 31 L
344.413 31 L
345.611 31 L
346.81 31 L
348.265 31 L
349.912 31 L
351.412 31 L
352.626 31 L
353.755 31 L
355.07 31 L
356.665 31 L
358.287 31 L
359.63 31 L
360.756 31 L
361.947 31 L
363.415 31 L
365.085 31 L
366.283 31 L
367.482 31 L
368.937 31 L
370.585 31 L
372.085 31 L
373.299 31 L
374.428 31 L
375.744 31 L
377.339 31 L
378.962 31 L
380.304 31 L
381.431 31 L
S
GR
GS
[0.75 0 0 0.75 0 0] CT
0.929 0.694 0.125 RC
1 LJ
0.667 LW
N
380.304 31 M
381.431 31 L
382.622 31 L
384.09 31 L
385.76 31 L
386.959 31 L
388.158 31 L
389.613 31 L
391.261 31 L
392.761 31 L
393.976 31 L
395.105 31 L
396.42 31 L
398.015 31 L
399.639 31 L
400.981 31 L
402.108 31 L
403.299 31 L
404.768 31 L
406.438 31 L
407.637 31 L
408.836 31 L
410.291 31 L
411.94 31 L
413.44 31 L
414.655 31 L
415.783 31 L
417.099 31 L
418.695 31 L
420.318 31 L
421.661 31 L
422.788 31 L
423.979 31 L
425.448 31 L
427.118 31 L
428.317 31 L
429.516 31 L
430.972 31 L
432.62 31 L
434.12 31 L
435.335 31 L
436.464 31 L
437.78 31 L
439.376 31 L
440.999 31 L
442.342 31 L
443.469 31 L
444.66 31 L
446.129 31 L
447.8 31 L
448.999 31 L
450.198 31 L
S
GR
GS
[0.75 0 0 0.75 0 0] CT
0.929 0.694 0.125 RC
1 LJ
0.667 LW
N
448.999 31 M
450.198 31 L
451.654 31 L
453.302 31 L
454.803 31 L
456.018 31 L
457.147 31 L
458.463 31 L
460.059 31 L
461.682 31 L
463.025 31 L
464.152 31 L
465.344 31 L
466.812 31 L
468.483 31 L
469.682 31 L
470.882 31 L
472.338 31 L
473.986 31 L
475.487 31 L
476.702 31 L
477.831 31 L
479.147 31 L
480.743 31 L
482.366 31 L
483.71 31 L
484.837 31 L
486.028 31 L
487.497 31 L
489.168 31 L
490.367 31 L
491.566 31 L
493.022 31 L
494.671 31 L
496.172 31 L
497.387 31 L
498.516 31 L
499.832 31 L
501.428 31 L
503.052 31 L
504.395 31 L
505.522 31 L
506.714 31 L
507 31 L
S
GR
GS
[0.75 0 0 0.75 0 0] CT
0.494 0.184 0.557 RC
1 LJ
0.667 LW
N
73 316.833 M
73 316.833 L
73.362 316.833 L
73.362 316.833 L
73.362 316.833 L
73.473 316.833 L
73.583 316.833 L
73.743 316.833 L
73.97 316.833 L
74.282 316.833 L
74.671 316.833 L
75.117 316.833 L
75.649 316.833 L
76.3 316.833 L
77.125 316.833 L
78.221 316.833 L
79.744 316.833 L
81.622 316.833 L
82.691 316.833 L
83.76 316.833 L
85.239 316.833 L
87.07 316.833 L
88.215 316.833 L
89.36 316.833 L
90.846 316.833 L
92.593 316.833 L
93.759 316.833 L
94.926 316.833 L
96.397 316.833 L
98.102 316.833 L
99.292 316.833 L
100.482 316.833 L
101.946 316.833 L
103.615 316.833 L
104.82 316.833 L
106.026 316.833 L
107.483 316.833 L
109.126 316.833 L
110.623 316.833 L
111.841 316.833 L
112.977 316.833 L
114.298 316.833 L
115.891 316.833 L
117.51 316.833 L
118.852 316.833 L
119.985 316.833 L
121.182 316.833 L
122.653 316.833 L
124.32 316.833 L
125.819 316.833 L
S
GR
GS
[0.75 0 0 0.75 0 0] CT
0.494 0.184 0.557 RC
1 LJ
0.667 LW
N
124.32 316.833 M
125.819 316.833 L
127.02 316.833 L
128.14 316.833 L
129.463 316.833 L
131.076 316.833 L
132.708 316.833 L
134.041 316.833 L
135.158 316.833 L
136.348 316.833 L
137.829 316.833 L
139.513 316.833 L
140.702 316.833 L
141.891 316.833 L
143.351 316.833 L
145.017 316.833 L
146.527 316.833 L
147.737 316.833 L
148.855 316.833 L
150.166 316.833 L
151.771 316.833 L
153.41 316.833 L
154.756 316.833 L
155.876 316.833 L
157.058 316.833 L
158.526 316.833 L
160.209 316.833 L
161.407 316.833 L
162.606 316.833 L
164.065 316.833 L
165.72 316.833 L
167.222 316.833 L
168.436 316.833 L
169.562 316.833 L
170.88 316.833 L
172.48 316.833 L
174.108 316.833 L
175.451 316.833 L
176.576 316.833 L
177.767 316.833 L
179.238 316.833 L
180.913 316.833 L
181.5 316.833 L
181.5 316.833 L
181.5 316.833 L
181.556 315.595 L
181.612 314.362 L
181.696 312.532 L
181.807 310.128 L
181.935 307.37 L
182.116 303.516 L
182.346 298.703 L
S
GR
GS
[0.75 0 0 0.75 0 0] CT
0.494 0.184 0.557 RC
1 LJ
0.667 LW
N
182.116 303.516 M
182.346 298.703 L
182.601 293.476 L
182.895 287.579 L
183.24 280.806 L
183.664 272.734 L
184.235 262.289 L
184.916 250.413 L
185.681 237.788 L
186.618 223.322 L
187.856 205.744 L
189.582 183.889 L
190.632 171.951 L
191.682 160.946 L
193.086 147.565 L
194.77 133.317 L
195.905 124.706 L
197.041 116.82 L
198.469 107.835 L
200.127 98.582 L
201.302 92.704 L
202.477 87.338 L
203.913 81.413 L
205.544 75.431 L
207.027 70.611 L
208.225 67.103 L
209.337 64.124 L
210.639 60.948 L
212.223 57.492 L
213.836 54.382 L
215.167 52.093 L
216.282 50.348 L
217.462 48.66 L
218.921 46.773 L
220.584 44.868 L
221.774 43.647 L
222.964 42.534 L
224.411 41.311 L
226.053 40.081 L
227.547 39.089 L
228.755 38.367 L
229.876 37.754 L
231.185 37.103 L
232.774 36.397 L
234.393 35.761 L
235.73 35.293 L
236.851 34.936 L
238.036 34.591 L
239.499 34.206 L
241.165 33.818 L
242.36 33.569 L
243.554 33.342 L
S
GR
GS
[0.75 0 0 0.75 0 0] CT
0.494 0.184 0.557 RC
1 LJ
0.667 LW
N
242.36 33.569 M
243.554 33.342 L
245.006 33.094 L
246.649 32.843 L
248.145 32.642 L
249.356 32.495 L
250.481 32.37 L
251.793 32.238 L
253.385 32.094 L
255.004 31.965 L
256.344 31.87 L
257.467 31.798 L
258.655 31.728 L
260.12 31.65 L
261.787 31.571 L
262.984 31.52 L
264.18 31.474 L
265.633 31.424 L
267.278 31.373 L
268.775 31.332 L
269.987 31.303 L
271.114 31.277 L
272.428 31.251 L
274.02 31.221 L
275.641 31.195 L
276.981 31.176 L
278.106 31.161 L
279.295 31.147 L
280.762 31.131 L
282.429 31.116 L
283.627 31.105 L
284.824 31.096 L
286.277 31.086 L
287.923 31.075 L
289.421 31.067 L
290.635 31.061 L
291.762 31.056 L
293.077 31.051 L
294.67 31.045 L
296.291 31.04 L
297.632 31.036 L
298.758 31.033 L
299.948 31.03 L
301.415 31.027 L
303.083 31.023 L
304.281 31.021 L
305.479 31.019 L
306.933 31.017 L
308.58 31.015 L
310.078 31.014 L
311.292 31.012 L
312.42 31.011 L
S
GR
GS
[0.75 0 0 0.75 0 0] CT
0.494 0.184 0.557 RC
1 LJ
0.667 LW
N
311.292 31.012 M
312.42 31.011 L
313.735 31.01 L
315.329 31.009 L
316.951 31.008 L
318.293 31.007 L
319.419 31.007 L
320.609 31.006 L
322.076 31.005 L
323.745 31.005 L
324.943 31.004 L
326.142 31.004 L
327.596 31.004 L
329.243 31.003 L
330.742 31.003 L
331.957 31.002 L
333.085 31.002 L
334.4 31.002 L
335.994 31.002 L
337.617 31.002 L
338.959 31.001 L
340.085 31.001 L
341.276 31.001 L
342.743 31.001 L
344.413 31.001 L
345.611 31.001 L
346.81 31.001 L
348.265 31.001 L
349.912 31.001 L
351.412 31.001 L
352.626 31.001 L
353.755 31 L
355.07 31 L
356.665 31 L
358.287 31 L
359.63 31 L
360.756 31 L
361.947 31 L
363.415 31 L
365.085 31 L
366.283 31 L
367.482 31 L
368.937 31 L
370.585 31 L
372.085 31 L
373.299 31 L
374.428 31 L
375.744 31 L
377.339 31 L
378.962 31 L
380.304 31 L
381.431 31 L
S
GR
GS
[0.75 0 0 0.75 0 0] CT
0.494 0.184 0.557 RC
1 LJ
0.667 LW
N
380.304 31 M
381.431 31 L
382.622 31 L
384.09 31 L
385.76 31 L
386.959 31 L
388.158 31 L
389.613 31 L
391.261 31 L
392.761 31 L
393.976 31 L
395.105 31 L
396.42 31 L
398.015 31 L
399.639 31 L
400.981 31 L
402.108 31 L
403.299 31 L
404.768 31 L
406.438 31 L
407.637 31 L
408.836 31 L
410.291 31 L
411.94 31 L
413.44 31 L
414.655 31 L
415.783 31 L
417.099 31 L
418.695 31 L
420.318 31 L
421.661 31 L
422.788 31 L
423.979 31 L
425.448 31 L
427.118 31 L
428.317 31 L
429.516 31 L
430.972 31 L
432.62 31 L
434.12 31 L
435.335 31 L
436.464 31 L
437.78 31 L
439.376 31 L
440.999 31 L
442.342 31 L
443.469 31 L
444.66 31 L
446.129 31 L
447.8 31 L
448.999 31 L
450.198 31 L
S
GR
GS
[0.75 0 0 0.75 0 0] CT
0.494 0.184 0.557 RC
1 LJ
0.667 LW
N
448.999 31 M
450.198 31 L
451.654 31 L
453.302 31 L
454.803 31 L
456.018 31 L
457.147 31 L
458.463 31 L
460.059 31 L
461.682 31 L
463.025 31 L
464.152 31 L
465.344 31 L
466.812 31 L
468.483 31 L
469.682 31 L
470.882 31 L
472.338 31 L
473.986 31 L
475.487 31 L
476.702 31 L
477.831 31 L
479.147 31 L
480.743 31 L
482.366 31 L
483.71 31 L
484.837 31 L
486.028 31 L
487.497 31 L
489.168 31 L
490.367 31 L
491.566 31 L
493.022 31 L
494.671 31 L
496.172 31 L
497.387 31 L
498.516 31 L
499.832 31 L
501.428 31 L
503.052 31 L
504.395 31 L
505.522 31 L
506.714 31 L
507 31 L
S
GR
GS
[0.75 0 0 0.75 0 0] CT
1 GC
N
422 112 M
422 44 L
494 44 L
494 112 L
cp
f
GR
GS
[0.75 0 0 0.75 355.5 40.7005] CT
/Helvetica 12 F
GS
[1 0 0 1 0 0] CT
0 4.5 moveto 
1 -1 scale
(w1) t 
GR
GR
GS
[0.75 0 0 0.75 0 0] CT
0 0.447 0.741 RC
1 LJ
0.667 LW
N
430 54.267 M
470 54.267 L
S
GR
GS
[0.75 0 0 0.75 355.5 52.56683] CT
/Helvetica 12 F
GS
[1 0 0 1 0 0] CT
0 4.5 moveto 
1 -1 scale
(w2) t 
GR
GR
GS
[0.75 0 0 0.75 0 0] CT
0.851 0.325 0.098 RC
1 LJ
0.667 LW
N
430 70.089 M
470 70.089 L
S
GR
GS
[0.75 0 0 0.75 355.5 64.43317] CT
/Helvetica 12 F
GS
[1 0 0 1 0 0] CT
0 4.5 moveto 
1 -1 scale
(y1) t 
GR
GR
GS
[0.75 0 0 0.75 0 0] CT
0.929 0.694 0.125 RC
1 LJ
0.667 LW
N
430 85.911 M
470 85.911 L
S
GR
GS
[0.75 0 0 0.75 355.5 76.29951] CT
/Helvetica 12 F
GS
[1 0 0 1 0 0] CT
0 4.5 moveto 
1 -1 scale
(y2) t 
GR
GR
GS
[0.75 0 0 0.75 0 0] CT
0.494 0.184 0.557 RC
1 LJ
0.667 LW
N
430 101.733 M
470 101.733 L
S
GR
GS
[0.75 0 0 0.75 0 0] CT
0.149 GC
10.0 ML
0.667 LW
N
422 112 M
422 44 L
494 44 L
494 112 L
cp
S
GR
%%Trailer
%%Pages: 1
%%EOF
