%!PS-Adobe-3.0 EPSF-3.0
%%Creator: (MATLAB, The Mathworks, Inc. Version 8.6.0.267246 \(R2015b\). Operating System: Windows 8)
%%Title: E:/Projects/skola/rls/pics/SP3/par_1o_e_y.eps
%%CreationDate: 2017-03-17T12:42:08
%%Pages: (atend)
%%BoundingBox: 0 0 420 315
%%LanguageLevel: 2
%%EndComments
%%BeginProlog
%%BeginResource: procset (Apache XML Graphics Std ProcSet) 1.2 0
%%Version: 1.2 0
%%Copyright: (Copyright 2001-2003,2010 The Apache Software Foundation. License terms: http://www.apache.org/licenses/LICENSE-2.0)
/bd{bind def}bind def
/ld{load def}bd
/GR/grestore ld
/M/moveto ld
/LJ/setlinejoin ld
/C/curveto ld
/f/fill ld
/LW/setlinewidth ld
/GC/setgray ld
/t/show ld
/N/newpath ld
/CT/concat ld
/cp/closepath ld
/S/stroke ld
/L/lineto ld
/CC/setcmykcolor ld
/A/ashow ld
/GS/gsave ld
/RC/setrgbcolor ld
/RM/rmoveto ld
/ML/setmiterlimit ld
/re {4 2 roll M
1 index 0 rlineto
0 exch rlineto
neg 0 rlineto
cp } bd
/_ctm matrix def
/_tm matrix def
/BT { _ctm currentmatrix pop matrix _tm copy pop 0 0 moveto } bd
/ET { _ctm setmatrix } bd
/iTm { _ctm setmatrix _tm concat } bd
/Tm { _tm astore pop iTm 0 0 moveto } bd
/ux 0.0 def
/uy 0.0 def
/F {
  /Tp exch def
  /Tf exch def
  Tf findfont Tp scalefont setfont
  /cf Tf def  /cs Tp def
} bd
/ULS {currentpoint /uy exch def /ux exch def} bd
/ULE {
  /Tcx currentpoint pop def
  gsave
  newpath
  cf findfont cs scalefont dup
  /FontMatrix get 0 get /Ts exch def /FontInfo get dup
  /UnderlinePosition get Ts mul /To exch def
  /UnderlineThickness get Ts mul /Tt exch def
  ux uy To add moveto  Tcx uy To add lineto
  Tt setlinewidth stroke
  grestore
} bd
/OLE {
  /Tcx currentpoint pop def
  gsave
  newpath
  cf findfont cs scalefont dup
  /FontMatrix get 0 get /Ts exch def /FontInfo get dup
  /UnderlinePosition get Ts mul /To exch def
  /UnderlineThickness get Ts mul /Tt exch def
  ux uy To add cs add moveto Tcx uy To add cs add lineto
  Tt setlinewidth stroke
  grestore
} bd
/SOE {
  /Tcx currentpoint pop def
  gsave
  newpath
  cf findfont cs scalefont dup
  /FontMatrix get 0 get /Ts exch def /FontInfo get dup
  /UnderlinePosition get Ts mul /To exch def
  /UnderlineThickness get Ts mul /Tt exch def
  ux uy To add cs 10 mul 26 idiv add moveto Tcx uy To add cs 10 mul 26 idiv add lineto
  Tt setlinewidth stroke
  grestore
} bd
/QT {
/Y22 exch store
/X22 exch store
/Y21 exch store
/X21 exch store
currentpoint
/Y21 load 2 mul add 3 div exch
/X21 load 2 mul add 3 div exch
/X21 load 2 mul /X22 load add 3 div
/Y21 load 2 mul /Y22 load add 3 div
/X22 load /Y22 load curveto
} bd
/SSPD {
dup length /d exch dict def
{
/v exch def
/k exch def
currentpagedevice k known {
/cpdv currentpagedevice k get def
v cpdv ne {
/upd false def
/nullv v type /nulltype eq def
/nullcpdv cpdv type /nulltype eq def
nullv nullcpdv or
{
/upd true def
} {
/sametype v type cpdv type eq def
sametype {
v type /arraytype eq {
/vlen v length def
/cpdvlen cpdv length def
vlen cpdvlen eq {
0 1 vlen 1 sub {
/i exch def
/obj v i get def
/cpdobj cpdv i get def
obj cpdobj ne {
/upd true def
exit
} if
} for
} {
/upd true def
} ifelse
} {
v type /dicttype eq {
v {
/dv exch def
/dk exch def
/cpddv cpdv dk get def
dv cpddv ne {
/upd true def
exit
} if
} forall
} {
/upd true def
} ifelse
} ifelse
} if
} ifelse
upd true eq {
d k v put
} if
} if
} if
} forall
d length 0 gt {
d setpagedevice
} if
} bd
%%EndResource
%%BeginResource: procset (Apache XML Graphics EPS ProcSet) 1.0 0
%%Version: 1.0 0
%%Copyright: (Copyright 2002-2003 The Apache Software Foundation. License terms: http://www.apache.org/licenses/LICENSE-2.0)
/BeginEPSF { %def
/b4_Inc_state save def         % Save state for cleanup
/dict_count countdictstack def % Count objects on dict stack
/op_count count 1 sub def      % Count objects on operand stack
userdict begin                 % Push userdict on dict stack
/showpage { } def              % Redefine showpage, { } = null proc
0 setgray 0 setlinecap         % Prepare graphics state
1 setlinewidth 0 setlinejoin
10 setmiterlimit [ ] 0 setdash newpath
/languagelevel where           % If level not equal to 1 then
{pop languagelevel             % set strokeadjust and
1 ne                           % overprint to their defaults.
{false setstrokeadjust false setoverprint
} if
} if
} bd
/EndEPSF { %def
count op_count sub {pop} repeat            % Clean up stacks
countdictstack dict_count sub {end} repeat
b4_Inc_state restore
} bd
%%EndResource
%FOPBeginFontDict
%%IncludeResource: font Courier-Bold
%%IncludeResource: font Helvetica
%%IncludeResource: font Courier-BoldOblique
%%IncludeResource: font Courier-Oblique
%%IncludeResource: font Times-Roman
%%IncludeResource: font Helvetica-BoldOblique
%%IncludeResource: font Helvetica-Bold
%%IncludeResource: font Helvetica-Oblique
%%IncludeResource: font Times-BoldItalic
%%IncludeResource: font Courier
%%IncludeResource: font Times-Italic
%%IncludeResource: font Times-Bold
%%IncludeResource: font Symbol
%%IncludeResource: font ZapfDingbats
%FOPEndFontDict
%%BeginResource: encoding WinAnsiEncoding
/WinAnsiEncoding [
/.notdef /.notdef /.notdef /.notdef /.notdef
/.notdef /.notdef /.notdef /.notdef /.notdef
/.notdef /.notdef /.notdef /.notdef /.notdef
/.notdef /.notdef /.notdef /.notdef /.notdef
/.notdef /.notdef /.notdef /.notdef /.notdef
/.notdef /.notdef /.notdef /.notdef /.notdef
/.notdef /.notdef /space /exclam /quotedbl
/numbersign /dollar /percent /ampersand /quotesingle
/parenleft /parenright /asterisk /plus /comma
/hyphen /period /slash /zero /one
/two /three /four /five /six
/seven /eight /nine /colon /semicolon
/less /equal /greater /question /at
/A /B /C /D /E
/F /G /H /I /J
/K /L /M /N /O
/P /Q /R /S /T
/U /V /W /X /Y
/Z /bracketleft /backslash /bracketright /asciicircum
/underscore /quoteleft /a /b /c
/d /e /f /g /h
/i /j /k /l /m
/n /o /p /q /r
/s /t /u /v /w
/x /y /z /braceleft /bar
/braceright /asciitilde /bullet /Euro /bullet
/quotesinglbase /florin /quotedblbase /ellipsis /dagger
/daggerdbl /circumflex /perthousand /Scaron /guilsinglleft
/OE /bullet /Zcaron /bullet /bullet
/quoteleft /quoteright /quotedblleft /quotedblright /bullet
/endash /emdash /asciitilde /trademark /scaron
/guilsinglright /oe /bullet /zcaron /Ydieresis
/space /exclamdown /cent /sterling /currency
/yen /brokenbar /section /dieresis /copyright
/ordfeminine /guillemotleft /logicalnot /sfthyphen /registered
/macron /degree /plusminus /twosuperior /threesuperior
/acute /mu /paragraph /middot /cedilla
/onesuperior /ordmasculine /guillemotright /onequarter /onehalf
/threequarters /questiondown /Agrave /Aacute /Acircumflex
/Atilde /Adieresis /Aring /AE /Ccedilla
/Egrave /Eacute /Ecircumflex /Edieresis /Igrave
/Iacute /Icircumflex /Idieresis /Eth /Ntilde
/Ograve /Oacute /Ocircumflex /Otilde /Odieresis
/multiply /Oslash /Ugrave /Uacute /Ucircumflex
/Udieresis /Yacute /Thorn /germandbls /agrave
/aacute /acircumflex /atilde /adieresis /aring
/ae /ccedilla /egrave /eacute /ecircumflex
/edieresis /igrave /iacute /icircumflex /idieresis
/eth /ntilde /ograve /oacute /ocircumflex
/otilde /odieresis /divide /oslash /ugrave
/uacute /ucircumflex /udieresis /yacute /thorn
/ydieresis
] def
%%EndResource
%FOPBeginFontReencode
/Courier-Bold findfont
dup length dict begin
  {1 index /FID ne {def} {pop pop} ifelse} forall
  /Encoding WinAnsiEncoding def
  currentdict
end
/Courier-Bold exch definefont pop
/Helvetica findfont
dup length dict begin
  {1 index /FID ne {def} {pop pop} ifelse} forall
  /Encoding WinAnsiEncoding def
  currentdict
end
/Helvetica exch definefont pop
/Courier-BoldOblique findfont
dup length dict begin
  {1 index /FID ne {def} {pop pop} ifelse} forall
  /Encoding WinAnsiEncoding def
  currentdict
end
/Courier-BoldOblique exch definefont pop
/Courier-Oblique findfont
dup length dict begin
  {1 index /FID ne {def} {pop pop} ifelse} forall
  /Encoding WinAnsiEncoding def
  currentdict
end
/Courier-Oblique exch definefont pop
/Times-Roman findfont
dup length dict begin
  {1 index /FID ne {def} {pop pop} ifelse} forall
  /Encoding WinAnsiEncoding def
  currentdict
end
/Times-Roman exch definefont pop
/Helvetica-BoldOblique findfont
dup length dict begin
  {1 index /FID ne {def} {pop pop} ifelse} forall
  /Encoding WinAnsiEncoding def
  currentdict
end
/Helvetica-BoldOblique exch definefont pop
/Helvetica-Bold findfont
dup length dict begin
  {1 index /FID ne {def} {pop pop} ifelse} forall
  /Encoding WinAnsiEncoding def
  currentdict
end
/Helvetica-Bold exch definefont pop
/Helvetica-Oblique findfont
dup length dict begin
  {1 index /FID ne {def} {pop pop} ifelse} forall
  /Encoding WinAnsiEncoding def
  currentdict
end
/Helvetica-Oblique exch definefont pop
/Times-BoldItalic findfont
dup length dict begin
  {1 index /FID ne {def} {pop pop} ifelse} forall
  /Encoding WinAnsiEncoding def
  currentdict
end
/Times-BoldItalic exch definefont pop
/Courier findfont
dup length dict begin
  {1 index /FID ne {def} {pop pop} ifelse} forall
  /Encoding WinAnsiEncoding def
  currentdict
end
/Courier exch definefont pop
/Times-Italic findfont
dup length dict begin
  {1 index /FID ne {def} {pop pop} ifelse} forall
  /Encoding WinAnsiEncoding def
  currentdict
end
/Times-Italic exch definefont pop
/Times-Bold findfont
dup length dict begin
  {1 index /FID ne {def} {pop pop} ifelse} forall
  /Encoding WinAnsiEncoding def
  currentdict
end
/Times-Bold exch definefont pop
%FOPEndFontReencode
%%EndProlog
%%Page: 1 1
%%PageBoundingBox: 0 0 420 315
%%BeginPageSetup
[1 0 0 -1 0 315] CT
%%EndPageSetup
GS
[0.75 0 0 0.75 0 0] CT
1 GC
N
0 0 560 420 re
f
GR
GS
[0.75 0 0 0.75 0 0] CT
1 GC
N
0 0 560 420 re
f
GR
GS
[0.75 0 0 0.75 0 0] CT
1 GC
N
73 374 M
507 374 L
507 31 L
73 31 L
cp
f
GR
GS
[0.75 0 0 0.75 0 0] CT
0.149 GC
2 setlinecap
1 LJ
0.667 LW
N
73 374 M
507 374 L
S
GR
GS
[0.75 0 0 0.75 0 0] CT
0.149 GC
2 setlinecap
1 LJ
0.667 LW
N
73 31 M
507 31 L
S
GR
GS
[0.75 0 0 0.75 0 0] CT
0.149 GC
2 setlinecap
1 LJ
0.667 LW
N
73 374 M
73 369.66 L
S
GR
GS
[0.75 0 0 0.75 0 0] CT
0.149 GC
2 setlinecap
1 LJ
0.667 LW
N
145.333 374 M
145.333 369.66 L
S
GR
GS
[0.75 0 0 0.75 0 0] CT
0.149 GC
2 setlinecap
1 LJ
0.667 LW
N
217.667 374 M
217.667 369.66 L
S
GR
GS
[0.75 0 0 0.75 0 0] CT
0.149 GC
2 setlinecap
1 LJ
0.667 LW
N
290 374 M
290 369.66 L
S
GR
GS
[0.75 0 0 0.75 0 0] CT
0.149 GC
2 setlinecap
1 LJ
0.667 LW
N
362.333 374 M
362.333 369.66 L
S
GR
GS
[0.75 0 0 0.75 0 0] CT
0.149 GC
2 setlinecap
1 LJ
0.667 LW
N
434.667 374 M
434.667 369.66 L
S
GR
GS
[0.75 0 0 0.75 0 0] CT
0.149 GC
2 setlinecap
1 LJ
0.667 LW
N
507 374 M
507 369.66 L
S
GR
GS
[0.75 0 0 0.75 0 0] CT
0.149 GC
2 setlinecap
1 LJ
0.667 LW
N
73 31 M
73 35.34 L
S
GR
GS
[0.75 0 0 0.75 0 0] CT
0.149 GC
2 setlinecap
1 LJ
0.667 LW
N
145.333 31 M
145.333 35.34 L
S
GR
GS
[0.75 0 0 0.75 0 0] CT
0.149 GC
2 setlinecap
1 LJ
0.667 LW
N
217.667 31 M
217.667 35.34 L
S
GR
GS
[0.75 0 0 0.75 0 0] CT
0.149 GC
2 setlinecap
1 LJ
0.667 LW
N
290 31 M
290 35.34 L
S
GR
GS
[0.75 0 0 0.75 0 0] CT
0.149 GC
2 setlinecap
1 LJ
0.667 LW
N
362.333 31 M
362.333 35.34 L
S
GR
GS
[0.75 0 0 0.75 0 0] CT
0.149 GC
2 setlinecap
1 LJ
0.667 LW
N
434.667 31 M
434.667 35.34 L
S
GR
GS
[0.75 0 0 0.75 0 0] CT
0.149 GC
2 setlinecap
1 LJ
0.667 LW
N
507 31 M
507 35.34 L
S
GR
GS
[0.75 0 0 0.75 54.75 284.50001] CT
0.149 GC
/Helvetica 13 F
GS
[1 0 0 1 0 0] CT
-4 13 moveto 
1 -1 scale
(0) t 
GR
GR
GS
[0.75 0 0 0.75 109 284.50001] CT
0.149 GC
/Helvetica 13 F
GS
[1 0 0 1 0 0] CT
-11 13 moveto 
1 -1 scale
(200) t 
GR
GR
GS
[0.75 0 0 0.75 163.25 284.50001] CT
0.149 GC
/Helvetica 13 F
GS
[1 0 0 1 0 0] CT
-11 13 moveto 
1 -1 scale
(400) t 
GR
GR
GS
[0.75 0 0 0.75 217.5 284.50001] CT
0.149 GC
/Helvetica 13 F
GS
[1 0 0 1 0 0] CT
-11 13 moveto 
1 -1 scale
(600) t 
GR
GR
GS
[0.75 0 0 0.75 271.75001 284.50001] CT
0.149 GC
/Helvetica 13 F
GS
[1 0 0 1 0 0] CT
-11 13 moveto 
1 -1 scale
(800) t 
GR
GR
GS
[0.75 0 0 0.75 325.99999 284.50001] CT
0.149 GC
/Helvetica 13 F
GS
[1 0 0 1 0 0] CT
-14.5 13 moveto 
1 -1 scale
(1000) t 
GR
GR
GS
[0.75 0 0 0.75 380.25 284.50001] CT
0.149 GC
/Helvetica 13 F
GS
[1 0 0 1 0 0] CT
-14.5 13 moveto 
1 -1 scale
(1200) t 
GR
GR
GS
[0.75 0 0 0.75 217.50016 297.49999] CT
0.149 GC
/Helvetica 15 F
GS
[1 0 0 1 0 0] CT
-11 14 moveto 
1 -1 scale
(t\(s\)) t 
GR
GR
GS
[0.75 0 0 0.75 0 0] CT
0.149 GC
2 setlinecap
1 LJ
0.667 LW
N
73 374 M
73 31 L
S
GR
GS
[0.75 0 0 0.75 0 0] CT
0.149 GC
2 setlinecap
1 LJ
0.667 LW
N
507 374 M
507 31 L
S
GR
GS
[0.75 0 0 0.75 0 0] CT
0.149 GC
2 setlinecap
1 LJ
0.667 LW
N
73 374 M
77.34 374 L
S
GR
GS
[0.75 0 0 0.75 0 0] CT
0.149 GC
2 setlinecap
1 LJ
0.667 LW
N
73 335.889 M
77.34 335.889 L
S
GR
GS
[0.75 0 0 0.75 0 0] CT
0.149 GC
2 setlinecap
1 LJ
0.667 LW
N
73 297.778 M
77.34 297.778 L
S
GR
GS
[0.75 0 0 0.75 0 0] CT
0.149 GC
2 setlinecap
1 LJ
0.667 LW
N
73 259.667 M
77.34 259.667 L
S
GR
GS
[0.75 0 0 0.75 0 0] CT
0.149 GC
2 setlinecap
1 LJ
0.667 LW
N
73 221.556 M
77.34 221.556 L
S
GR
GS
[0.75 0 0 0.75 0 0] CT
0.149 GC
2 setlinecap
1 LJ
0.667 LW
N
73 183.444 M
77.34 183.444 L
S
GR
GS
[0.75 0 0 0.75 0 0] CT
0.149 GC
2 setlinecap
1 LJ
0.667 LW
N
73 145.333 M
77.34 145.333 L
S
GR
GS
[0.75 0 0 0.75 0 0] CT
0.149 GC
2 setlinecap
1 LJ
0.667 LW
N
73 107.222 M
77.34 107.222 L
S
GR
GS
[0.75 0 0 0.75 0 0] CT
0.149 GC
2 setlinecap
1 LJ
0.667 LW
N
73 69.111 M
77.34 69.111 L
S
GR
GS
[0.75 0 0 0.75 0 0] CT
0.149 GC
2 setlinecap
1 LJ
0.667 LW
N
73 31 M
77.34 31 L
S
GR
GS
[0.75 0 0 0.75 0 0] CT
0.149 GC
2 setlinecap
1 LJ
0.667 LW
N
507 374 M
502.66 374 L
S
GR
GS
[0.75 0 0 0.75 0 0] CT
0.149 GC
2 setlinecap
1 LJ
0.667 LW
N
507 335.889 M
502.66 335.889 L
S
GR
GS
[0.75 0 0 0.75 0 0] CT
0.149 GC
2 setlinecap
1 LJ
0.667 LW
N
507 297.778 M
502.66 297.778 L
S
GR
GS
[0.75 0 0 0.75 0 0] CT
0.149 GC
2 setlinecap
1 LJ
0.667 LW
N
507 259.667 M
502.66 259.667 L
S
GR
GS
[0.75 0 0 0.75 0 0] CT
0.149 GC
2 setlinecap
1 LJ
0.667 LW
N
507 221.556 M
502.66 221.556 L
S
GR
GS
[0.75 0 0 0.75 0 0] CT
0.149 GC
2 setlinecap
1 LJ
0.667 LW
N
507 183.444 M
502.66 183.444 L
S
GR
GS
[0.75 0 0 0.75 0 0] CT
0.149 GC
2 setlinecap
1 LJ
0.667 LW
N
507 145.333 M
502.66 145.333 L
S
GR
GS
[0.75 0 0 0.75 0 0] CT
0.149 GC
2 setlinecap
1 LJ
0.667 LW
N
507 107.222 M
502.66 107.222 L
S
GR
GS
[0.75 0 0 0.75 0 0] CT
0.149 GC
2 setlinecap
1 LJ
0.667 LW
N
507 69.111 M
502.66 69.111 L
S
GR
GS
[0.75 0 0 0.75 0 0] CT
0.149 GC
2 setlinecap
1 LJ
0.667 LW
N
507 31 M
502.66 31 L
S
GR
GS
[0.75 0 0 0.75 50.75 280.5] CT
0.149 GC
/Helvetica 13 F
GS
[1 0 0 1 0 0] CT
-30 5 moveto 
1 -1 scale
(-0.02) t 
GR
GR
GS
[0.75 0 0 0.75 50.75 251.91666] CT
0.149 GC
/Helvetica 13 F
GS
[1 0 0 1 0 0] CT
-8 5 moveto 
1 -1 scale
(0) t 
GR
GR
GS
[0.75 0 0 0.75 50.75 223.33333] CT
0.149 GC
/Helvetica 13 F
GS
[1 0 0 1 0 0] CT
-26 5 moveto 
1 -1 scale
(0.02) t 
GR
GR
GS
[0.75 0 0 0.75 50.75 194.74999] CT
0.149 GC
/Helvetica 13 F
GS
[1 0 0 1 0 0] CT
-26 5 moveto 
1 -1 scale
(0.04) t 
GR
GR
GS
[0.75 0 0 0.75 50.75 166.16667] CT
0.149 GC
/Helvetica 13 F
GS
[1 0 0 1 0 0] CT
-26 5 moveto 
1 -1 scale
(0.06) t 
GR
GR
GS
[0.75 0 0 0.75 50.75 137.58333] CT
0.149 GC
/Helvetica 13 F
GS
[1 0 0 1 0 0] CT
-26 5 moveto 
1 -1 scale
(0.08) t 
GR
GR
GS
[0.75 0 0 0.75 50.75 109] CT
0.149 GC
/Helvetica 13 F
GS
[1 0 0 1 0 0] CT
-19 5 moveto 
1 -1 scale
(0.1) t 
GR
GR
GS
[0.75 0 0 0.75 50.75 80.41667] CT
0.149 GC
/Helvetica 13 F
GS
[1 0 0 1 0 0] CT
-26 5 moveto 
1 -1 scale
(0.12) t 
GR
GR
GS
[0.75 0 0 0.75 50.75 51.83333] CT
0.149 GC
/Helvetica 13 F
GS
[1 0 0 1 0 0] CT
-26 5 moveto 
1 -1 scale
(0.14) t 
GR
GR
GS
[0.75 0 0 0.75 50.75 23.25001] CT
0.149 GC
/Helvetica 13 F
GS
[1 0 0 1 0 0] CT
-26 5 moveto 
1 -1 scale
(0.16) t 
GR
GR
GS
[0.75 0 0 0.75 217.50021 21.18751] CT
/any-Bold 15 F
GS
[1 0 0 1 0 0] CT
-152.5 -4 moveto 
1 -1 scale
(Response of system with 1 order regulator) t 
GR
GR
GS
[0.75 0 0 0.75 0 0] CT
0 0.447 0.741 RC
1 LJ
0.667 LW
N
73 335.889 M
73.362 335.889 L
73.362 145.333 L
73.362 145.333 L
73.473 145.333 L
73.583 145.333 L
73.743 145.333 L
73.97 145.333 L
74.282 145.333 L
74.671 145.333 L
75.117 145.333 L
75.649 145.333 L
76.3 145.333 L
77.125 145.333 L
78.221 145.333 L
79.744 145.333 L
81.622 145.333 L
82.691 145.333 L
83.76 145.333 L
85.239 145.333 L
87.07 145.333 L
88.215 145.333 L
89.36 145.333 L
90.846 145.333 L
92.593 145.333 L
93.759 145.333 L
94.926 145.333 L
96.397 145.333 L
98.102 145.333 L
99.292 145.333 L
100.482 145.333 L
101.946 145.333 L
103.615 145.333 L
104.82 145.333 L
106.026 145.333 L
107.483 145.333 L
109.126 145.333 L
110.623 145.333 L
111.841 145.333 L
112.977 145.333 L
114.298 145.333 L
115.891 145.333 L
117.51 145.333 L
118.852 145.333 L
119.985 145.333 L
121.182 145.333 L
122.653 145.333 L
124.32 145.333 L
125.819 145.333 L
127.02 145.333 L
S
GR
GS
[0.75 0 0 0.75 0 0] CT
0 0.447 0.741 RC
1 LJ
0.667 LW
N
125.819 145.333 M
127.02 145.333 L
128.14 145.333 L
129.463 145.333 L
131.076 145.333 L
132.708 145.333 L
134.041 145.333 L
135.158 145.333 L
136.348 145.333 L
137.829 145.333 L
139.513 145.333 L
140.702 145.333 L
141.891 145.333 L
143.351 145.333 L
145.017 145.333 L
146.527 145.333 L
147.737 145.333 L
148.855 145.333 L
150.166 145.333 L
151.771 145.333 L
153.41 145.333 L
154.756 145.333 L
155.876 145.333 L
157.058 145.333 L
158.526 145.333 L
160.209 145.333 L
161.407 145.333 L
162.606 145.333 L
164.065 145.333 L
165.72 145.333 L
167.222 145.333 L
168.436 145.333 L
169.562 145.333 L
170.88 145.333 L
172.48 145.333 L
174.108 145.333 L
175.451 145.333 L
176.576 145.333 L
177.767 145.333 L
179.238 145.333 L
180.913 145.333 L
181.5 145.333 L
181.5 145.333 L
181.5 145.333 L
181.556 145.333 L
181.612 145.333 L
181.696 145.333 L
181.807 145.333 L
181.935 145.333 L
182.116 145.333 L
182.346 145.333 L
182.601 145.333 L
S
GR
GS
[0.75 0 0 0.75 0 0] CT
0 0.447 0.741 RC
1 LJ
0.667 LW
N
182.346 145.333 M
182.601 145.333 L
182.895 145.333 L
183.24 145.333 L
183.664 145.333 L
184.235 145.333 L
184.916 145.333 L
185.681 145.333 L
186.618 145.333 L
187.856 145.333 L
189.582 145.333 L
190.632 145.333 L
191.682 145.333 L
193.086 145.333 L
194.77 145.333 L
195.905 145.333 L
197.041 145.333 L
198.469 145.333 L
200.127 145.333 L
201.302 145.333 L
202.477 145.333 L
203.913 145.333 L
205.544 145.333 L
207.027 145.333 L
208.225 145.333 L
209.337 145.333 L
210.639 145.333 L
212.223 145.333 L
213.836 145.333 L
215.167 145.333 L
216.282 145.333 L
217.462 145.333 L
218.921 145.333 L
220.584 145.333 L
221.774 145.333 L
222.964 145.333 L
224.411 145.333 L
226.053 145.333 L
227.547 145.333 L
228.755 145.333 L
229.876 145.333 L
231.185 145.333 L
232.774 145.333 L
234.393 145.333 L
235.73 145.333 L
236.851 145.333 L
238.036 145.333 L
239.499 145.333 L
241.165 145.333 L
242.36 145.333 L
243.554 145.333 L
245.006 145.333 L
S
GR
GS
[0.75 0 0 0.75 0 0] CT
0 0.447 0.741 RC
1 LJ
0.667 LW
N
243.554 145.333 M
245.006 145.333 L
246.649 145.333 L
248.145 145.333 L
249.356 145.333 L
250.481 145.333 L
251.793 145.333 L
253.385 145.333 L
253.833 145.333 L
253.833 145.333 L
254.256 145.333 L
254.679 145.333 L
255.38 145.333 L
256.21 145.333 L
257.337 145.333 L
258.882 145.333 L
259.957 145.333 L
261.033 145.333 L
262.403 145.333 L
264.03 145.333 L
265.208 145.333 L
266.386 145.333 L
267.805 145.333 L
269.402 145.333 L
270.864 145.333 L
272.067 145.333 L
273.194 145.333 L
274.5 145.333 L
276.066 145.333 L
277.654 145.333 L
278.98 145.333 L
280.106 145.333 L
281.299 145.333 L
282.757 145.333 L
284.4 145.333 L
285.878 145.333 L
287.071 145.333 L
288.19 145.333 L
289.509 145.333 L
291.108 145.333 L
292.718 145.333 L
294.039 145.333 L
295.152 145.333 L
296.343 145.333 L
297.819 145.333 L
299.487 145.333 L
300.669 145.333 L
301.85 145.333 L
303.301 145.333 L
304.957 145.333 L
306.462 145.333 L
307.667 145.333 L
S
GR
GS
[0.75 0 0 0.75 0 0] CT
0 0.447 0.741 RC
1 LJ
0.667 LW
N
306.462 145.333 M
307.667 145.333 L
308.779 145.333 L
310.084 145.333 L
311.68 145.333 L
313.312 145.333 L
314.654 145.333 L
315.77 145.333 L
316.946 145.333 L
318.408 145.333 L
320.083 145.333 L
321.278 145.333 L
322.473 145.333 L
323.927 145.333 L
325.574 145.333 L
327.07 145.333 L
328.28 145.333 L
329.405 145.333 L
330.718 145.333 L
332.313 145.333 L
333.934 145.333 L
335.272 145.333 L
336.395 145.333 L
337.583 145.333 L
339.051 145.333 L
340.72 145.333 L
341.915 145.333 L
343.11 145.333 L
344.564 145.333 L
346.212 145.333 L
347.711 145.333 L
348.923 145.333 L
350.048 145.333 L
351.361 145.333 L
352.955 145.333 L
354.578 145.333 L
355.919 145.333 L
357.043 145.333 L
358.231 145.333 L
359.698 145.333 L
361.368 145.333 L
362.333 145.333 L
362.333 145.333 L
362.333 145.333 L
362.637 145.333 L
362.941 145.333 L
363.351 145.333 L
363.811 145.333 L
364.357 145.333 L
365.015 145.333 L
365.837 145.333 L
366.904 145.333 L
S
GR
GS
[0.75 0 0 0.75 0 0] CT
0 0.447 0.741 RC
1 LJ
0.667 LW
N
365.837 145.333 M
366.904 145.333 L
368.351 145.333 L
369.876 145.333 L
371.401 145.333 L
372.658 145.333 L
373.724 145.333 L
374.881 145.333 L
376.332 145.333 L
377.979 145.333 L
379.135 145.333 L
380.291 145.333 L
381.722 145.333 L
383.371 145.333 L
384.563 145.333 L
385.756 145.333 L
387.194 145.333 L
388.813 145.333 L
390.29 145.333 L
391.498 145.333 L
392.627 145.333 L
393.938 145.333 L
395.515 145.333 L
397.115 145.333 L
398.446 145.333 L
399.573 145.333 L
400.764 145.333 L
402.226 145.333 L
403.878 145.333 L
405.364 145.333 L
406.558 145.333 L
407.675 145.333 L
408.993 145.333 L
410.596 145.333 L
412.214 145.333 L
413.539 145.333 L
414.651 145.333 L
415.839 145.333 L
417.315 145.333 L
418.988 145.333 L
420.171 145.333 L
421.354 145.333 L
422.807 145.333 L
424.466 145.333 L
425.971 145.333 L
427.176 145.333 L
428.289 145.333 L
429.595 145.333 L
431.193 145.333 L
432.826 145.333 L
434.168 145.333 L
435.284 145.333 L
S
GR
GS
[0.75 0 0 0.75 0 0] CT
0 0.447 0.741 RC
1 LJ
0.667 LW
N
434.168 145.333 M
435.284 145.333 L
436.462 145.333 L
437.924 145.333 L
439.601 145.333 L
440.796 145.333 L
441.991 145.333 L
443.446 145.333 L
445.095 145.333 L
446.592 145.333 L
447.802 145.333 L
448.926 145.333 L
450.24 145.333 L
451.835 145.333 L
453.458 145.333 L
454.797 145.333 L
455.92 145.333 L
457.108 145.333 L
458.575 145.333 L
460.246 145.333 L
461.441 145.333 L
462.636 145.333 L
464.091 145.333 L
465.739 145.333 L
467.239 145.333 L
468.451 145.333 L
469.576 145.333 L
470.889 145.333 L
472.484 145.333 L
474.108 145.333 L
475.449 145.333 L
476.573 145.333 L
477.761 145.333 L
479.228 145.333 L
480.898 145.333 L
482.096 145.333 L
483.293 145.333 L
484.748 145.333 L
486.395 145.333 L
487.894 145.333 L
489.107 145.333 L
490.234 145.333 L
491.549 145.333 L
493.144 145.333 L
494.766 145.333 L
496.108 145.333 L
497.233 145.333 L
498.423 145.333 L
499.891 145.333 L
501.56 145.333 L
502.758 145.333 L
503.956 145.333 L
S
GR
GS
[0.75 0 0 0.75 0 0] CT
0 0.447 0.741 RC
1 LJ
0.667 LW
N
502.758 145.333 M
503.956 145.333 L
505.411 145.333 L
507 145.333 L
S
GR
GS
[0.75 0 0 0.75 0 0] CT
0.851 0.325 0.098 RC
1 LJ
0.667 LW
N
73 335.889 M
73.362 335.889 L
73.362 335.889 L
73.362 335.889 L
73.473 335.889 L
73.583 335.889 L
73.743 335.889 L
73.97 335.889 L
74.282 335.889 L
74.671 335.889 L
75.117 335.889 L
75.649 335.889 L
76.3 335.889 L
77.125 335.889 L
78.221 335.889 L
79.744 335.889 L
81.622 335.889 L
82.691 335.889 L
83.76 335.889 L
85.239 335.889 L
87.07 335.889 L
88.215 335.889 L
89.36 335.889 L
90.846 335.889 L
92.593 335.889 L
93.759 335.889 L
94.926 335.889 L
96.397 335.889 L
98.102 335.889 L
99.292 335.889 L
100.482 335.889 L
101.946 335.889 L
103.615 335.889 L
104.82 335.889 L
106.026 335.889 L
107.483 335.889 L
109.126 335.889 L
110.623 335.889 L
111.841 335.889 L
112.977 335.889 L
114.298 335.889 L
115.891 335.889 L
117.51 335.889 L
118.852 335.889 L
119.985 335.889 L
121.182 335.889 L
122.653 335.889 L
124.32 335.889 L
125.819 335.889 L
127.02 335.889 L
S
GR
GS
[0.75 0 0 0.75 0 0] CT
0.851 0.325 0.098 RC
1 LJ
0.667 LW
N
125.819 335.889 M
127.02 335.889 L
128.14 335.889 L
129.463 335.889 L
131.076 335.889 L
132.708 335.889 L
134.041 335.889 L
135.158 335.889 L
136.348 335.889 L
137.829 335.889 L
139.513 335.889 L
140.702 335.889 L
141.891 335.889 L
143.351 335.889 L
145.017 335.889 L
146.527 335.889 L
147.737 335.889 L
148.855 335.889 L
150.166 335.889 L
151.771 335.889 L
153.41 335.889 L
154.756 335.889 L
155.876 335.889 L
157.058 335.889 L
158.526 335.889 L
160.209 335.889 L
161.407 335.889 L
162.606 335.889 L
164.065 335.889 L
165.72 335.889 L
167.222 335.889 L
168.436 335.889 L
169.562 335.889 L
170.88 335.889 L
172.48 335.889 L
174.108 335.889 L
175.451 335.889 L
176.576 335.889 L
177.767 335.889 L
179.238 335.889 L
180.913 335.889 L
181.5 335.889 L
181.5 145.333 L
181.5 145.333 L
181.556 145.333 L
181.612 145.333 L
181.696 145.333 L
181.807 145.333 L
181.935 145.333 L
182.116 145.333 L
182.346 145.333 L
182.601 145.333 L
S
GR
GS
[0.75 0 0 0.75 0 0] CT
0.851 0.325 0.098 RC
1 LJ
0.667 LW
N
182.346 145.333 M
182.601 145.333 L
182.895 145.333 L
183.24 145.333 L
183.664 145.333 L
184.235 145.333 L
184.916 145.333 L
185.681 145.333 L
186.618 145.333 L
187.856 145.333 L
189.582 145.333 L
190.632 145.333 L
191.682 145.333 L
193.086 145.333 L
194.77 145.333 L
195.905 145.333 L
197.041 145.333 L
198.469 145.333 L
200.127 145.333 L
201.302 145.333 L
202.477 145.333 L
203.913 145.333 L
205.544 145.333 L
207.027 145.333 L
208.225 145.333 L
209.337 145.333 L
210.639 145.333 L
212.223 145.333 L
213.836 145.333 L
215.167 145.333 L
216.282 145.333 L
217.462 145.333 L
218.921 145.333 L
220.584 145.333 L
221.774 145.333 L
222.964 145.333 L
224.411 145.333 L
226.053 145.333 L
227.547 145.333 L
228.755 145.333 L
229.876 145.333 L
231.185 145.333 L
232.774 145.333 L
234.393 145.333 L
235.73 145.333 L
236.851 145.333 L
238.036 145.333 L
239.499 145.333 L
241.165 145.333 L
242.36 145.333 L
243.554 145.333 L
245.006 145.333 L
S
GR
GS
[0.75 0 0 0.75 0 0] CT
0.851 0.325 0.098 RC
1 LJ
0.667 LW
N
243.554 145.333 M
245.006 145.333 L
246.649 145.333 L
248.145 145.333 L
249.356 145.333 L
250.481 145.333 L
251.793 145.333 L
253.385 145.333 L
253.833 145.333 L
253.833 145.333 L
254.256 145.333 L
254.679 145.333 L
255.38 145.333 L
256.21 145.333 L
257.337 145.333 L
258.882 145.333 L
259.957 145.333 L
261.033 145.333 L
262.403 145.333 L
264.03 145.333 L
265.208 145.333 L
266.386 145.333 L
267.805 145.333 L
269.402 145.333 L
270.864 145.333 L
272.067 145.333 L
273.194 145.333 L
274.5 145.333 L
276.066 145.333 L
277.654 145.333 L
278.98 145.333 L
280.106 145.333 L
281.299 145.333 L
282.757 145.333 L
284.4 145.333 L
285.878 145.333 L
287.071 145.333 L
288.19 145.333 L
289.509 145.333 L
291.108 145.333 L
292.718 145.333 L
294.039 145.333 L
295.152 145.333 L
296.343 145.333 L
297.819 145.333 L
299.487 145.333 L
300.669 145.333 L
301.85 145.333 L
303.301 145.333 L
304.957 145.333 L
306.462 145.333 L
307.667 145.333 L
S
GR
GS
[0.75 0 0 0.75 0 0] CT
0.851 0.325 0.098 RC
1 LJ
0.667 LW
N
306.462 145.333 M
307.667 145.333 L
308.779 145.333 L
310.084 145.333 L
311.68 145.333 L
313.312 145.333 L
314.654 145.333 L
315.77 145.333 L
316.946 145.333 L
318.408 145.333 L
320.083 145.333 L
321.278 145.333 L
322.473 145.333 L
323.927 145.333 L
325.574 145.333 L
327.07 145.333 L
328.28 145.333 L
329.405 145.333 L
330.718 145.333 L
332.313 145.333 L
333.934 145.333 L
335.272 145.333 L
336.395 145.333 L
337.583 145.333 L
339.051 145.333 L
340.72 145.333 L
341.915 145.333 L
343.11 145.333 L
344.564 145.333 L
346.212 145.333 L
347.711 145.333 L
348.923 145.333 L
350.048 145.333 L
351.361 145.333 L
352.955 145.333 L
354.578 145.333 L
355.919 145.333 L
357.043 145.333 L
358.231 145.333 L
359.698 145.333 L
361.368 145.333 L
362.333 145.333 L
362.333 145.333 L
362.333 145.333 L
362.637 145.333 L
362.941 145.333 L
363.351 145.333 L
363.811 145.333 L
364.357 145.333 L
365.015 145.333 L
365.837 145.333 L
366.904 145.333 L
S
GR
GS
[0.75 0 0 0.75 0 0] CT
0.851 0.325 0.098 RC
1 LJ
0.667 LW
N
365.837 145.333 M
366.904 145.333 L
368.351 145.333 L
369.876 145.333 L
371.401 145.333 L
372.658 145.333 L
373.724 145.333 L
374.881 145.333 L
376.332 145.333 L
377.979 145.333 L
379.135 145.333 L
380.291 145.333 L
381.722 145.333 L
383.371 145.333 L
384.563 145.333 L
385.756 145.333 L
387.194 145.333 L
388.813 145.333 L
390.29 145.333 L
391.498 145.333 L
392.627 145.333 L
393.938 145.333 L
395.515 145.333 L
397.115 145.333 L
398.446 145.333 L
399.573 145.333 L
400.764 145.333 L
402.226 145.333 L
403.878 145.333 L
405.364 145.333 L
406.558 145.333 L
407.675 145.333 L
408.993 145.333 L
410.596 145.333 L
412.214 145.333 L
413.539 145.333 L
414.651 145.333 L
415.839 145.333 L
417.315 145.333 L
418.988 145.333 L
420.171 145.333 L
421.354 145.333 L
422.807 145.333 L
424.466 145.333 L
425.971 145.333 L
427.176 145.333 L
428.289 145.333 L
429.595 145.333 L
431.193 145.333 L
432.826 145.333 L
434.168 145.333 L
435.284 145.333 L
S
GR
GS
[0.75 0 0 0.75 0 0] CT
0.851 0.325 0.098 RC
1 LJ
0.667 LW
N
434.168 145.333 M
435.284 145.333 L
436.462 145.333 L
437.924 145.333 L
439.601 145.333 L
440.796 145.333 L
441.991 145.333 L
443.446 145.333 L
445.095 145.333 L
446.592 145.333 L
447.802 145.333 L
448.926 145.333 L
450.24 145.333 L
451.835 145.333 L
453.458 145.333 L
454.797 145.333 L
455.92 145.333 L
457.108 145.333 L
458.575 145.333 L
460.246 145.333 L
461.441 145.333 L
462.636 145.333 L
464.091 145.333 L
465.739 145.333 L
467.239 145.333 L
468.451 145.333 L
469.576 145.333 L
470.889 145.333 L
472.484 145.333 L
474.108 145.333 L
475.449 145.333 L
476.573 145.333 L
477.761 145.333 L
479.228 145.333 L
480.898 145.333 L
482.096 145.333 L
483.293 145.333 L
484.748 145.333 L
486.395 145.333 L
487.894 145.333 L
489.107 145.333 L
490.234 145.333 L
491.549 145.333 L
493.144 145.333 L
494.766 145.333 L
496.108 145.333 L
497.233 145.333 L
498.423 145.333 L
499.891 145.333 L
501.56 145.333 L
502.758 145.333 L
503.956 145.333 L
S
GR
GS
[0.75 0 0 0.75 0 0] CT
0.851 0.325 0.098 RC
1 LJ
0.667 LW
N
502.758 145.333 M
503.956 145.333 L
505.411 145.333 L
507 145.333 L
S
GR
GS
[0.75 0 0 0.75 0 0] CT
0.929 0.694 0.125 RC
1 LJ
0.667 LW
N
73 335.889 M
73.362 335.889 L
73.362 335.889 L
73.362 335.889 L
73.473 334.753 L
73.583 333.624 L
73.743 332.006 L
73.97 329.736 L
74.282 326.666 L
74.671 322.902 L
75.117 318.683 L
75.649 313.775 L
76.3 307.967 L
77.125 300.891 L
78.221 291.967 L
79.744 280.409 L
81.622 267.402 L
82.691 260.565 L
83.76 254.111 L
85.239 245.774 L
87.07 236.33 L
88.215 230.883 L
89.36 225.763 L
90.846 219.569 L
92.593 212.897 L
93.759 208.777 L
94.926 204.909 L
96.397 200.366 L
98.102 195.533 L
99.292 192.414 L
100.482 189.489 L
101.946 186.138 L
103.615 182.625 L
104.82 180.279 L
106.026 178.079 L
107.483 175.606 L
109.126 173.04 L
110.623 170.891 L
111.841 169.266 L
112.977 167.844 L
114.298 166.297 L
115.891 164.571 L
117.51 162.963 L
118.852 161.732 L
119.985 160.761 L
121.182 159.797 L
122.653 158.694 L
124.32 157.545 L
125.819 156.597 L
127.02 155.891 L
S
GR
GS
[0.75 0 0 0.75 0 0] CT
0.929 0.694 0.125 RC
1 LJ
0.667 LW
N
125.819 156.597 M
127.02 155.891 L
128.14 155.272 L
129.463 154.588 L
131.076 153.817 L
132.708 153.103 L
134.041 152.564 L
135.158 152.141 L
136.348 151.718 L
137.829 151.228 L
139.513 150.716 L
140.702 150.382 L
141.891 150.069 L
143.351 149.71 L
145.017 149.334 L
146.527 149.021 L
147.737 148.788 L
148.855 148.586 L
150.166 148.364 L
151.771 148.113 L
153.41 147.878 L
154.756 147.7 L
155.876 147.561 L
157.058 147.424 L
158.526 147.264 L
160.209 147.097 L
161.407 146.987 L
162.606 146.883 L
164.065 146.766 L
165.72 146.644 L
167.222 146.542 L
168.436 146.465 L
169.562 146.398 L
170.88 146.325 L
172.48 146.243 L
174.108 146.167 L
175.451 146.109 L
176.576 146.063 L
177.767 146.018 L
179.238 145.965 L
180.913 145.911 L
181.5 145.893 L
181.5 145.893 L
181.5 145.893 L
181.556 145.891 L
181.612 145.89 L
181.696 145.887 L
181.807 145.884 L
181.935 145.88 L
182.116 145.875 L
182.346 145.868 L
182.601 145.861 L
S
GR
GS
[0.75 0 0 0.75 0 0] CT
0.929 0.694 0.125 RC
1 LJ
0.667 LW
N
182.346 145.868 M
182.601 145.861 L
182.895 145.852 L
183.24 145.843 L
183.664 145.831 L
184.235 145.816 L
184.916 145.799 L
185.681 145.78 L
186.618 145.758 L
187.856 145.731 L
189.582 145.695 L
190.632 145.675 L
191.682 145.657 L
193.086 145.633 L
194.77 145.607 L
195.905 145.591 L
197.041 145.575 L
198.469 145.557 L
200.127 145.538 L
201.302 145.526 L
202.477 145.514 L
203.913 145.5 L
205.544 145.486 L
207.027 145.475 L
208.225 145.466 L
209.337 145.458 L
210.639 145.45 L
212.223 145.44 L
213.836 145.431 L
215.167 145.424 L
216.282 145.419 L
217.462 145.414 L
218.921 145.408 L
220.584 145.401 L
221.774 145.397 L
222.964 145.393 L
224.411 145.389 L
226.053 145.384 L
227.547 145.38 L
228.755 145.377 L
229.876 145.375 L
231.185 145.372 L
232.774 145.369 L
234.393 145.366 L
235.73 145.363 L
236.851 145.362 L
238.036 145.36 L
239.499 145.358 L
241.165 145.356 L
242.36 145.354 L
243.554 145.353 L
245.006 145.352 L
S
GR
GS
[0.75 0 0 0.75 0 0] CT
0.929 0.694 0.125 RC
1 LJ
0.667 LW
N
243.554 145.353 M
245.006 145.352 L
246.649 145.35 L
248.145 145.349 L
249.356 145.348 L
250.481 145.347 L
251.793 145.346 L
253.385 145.345 L
253.833 145.345 L
253.833 145.345 L
254.256 139.883 L
254.679 134.637 L
255.38 126.404 L
256.21 117.357 L
257.337 106.214 L
258.882 92.914 L
259.957 84.883 L
261.033 77.771 L
262.403 69.928 L
264.03 62.213 L
265.208 57.599 L
266.386 53.72 L
267.805 49.932 L
269.402 46.7 L
270.864 44.584 L
272.067 43.379 L
273.194 42.644 L
274.5 42.219 L
276.066 42.245 L
277.654 42.788 L
278.98 43.587 L
280.106 44.481 L
281.299 45.617 L
282.757 47.235 L
284.4 49.315 L
285.878 51.379 L
287.071 53.154 L
288.19 54.893 L
289.509 57.019 L
291.108 59.682 L
292.718 62.435 L
294.039 64.727 L
295.152 66.675 L
296.343 68.767 L
297.819 71.36 L
299.487 74.278 L
300.669 76.33 L
301.85 78.364 L
303.301 80.83 L
304.957 83.599 L
306.462 86.062 L
307.667 87.997 L
S
GR
GS
[0.75 0 0 0.75 0 0] CT
0.929 0.694 0.125 RC
1 LJ
0.667 LW
N
306.462 86.062 M
307.667 87.997 L
308.779 89.749 L
310.084 91.763 L
311.68 94.164 L
313.312 96.545 L
314.654 98.445 L
315.77 99.983 L
316.946 101.566 L
318.408 103.474 L
320.083 105.583 L
321.278 107.035 L
322.473 108.446 L
323.927 110.106 L
325.574 111.912 L
327.07 113.486 L
328.28 114.713 L
329.405 115.817 L
330.718 117.064 L
332.313 118.516 L
333.934 119.927 L
335.272 121.042 L
336.395 121.944 L
337.583 122.866 L
339.051 123.96 L
340.72 125.147 L
341.915 125.959 L
343.11 126.743 L
344.564 127.656 L
346.212 128.642 L
347.711 129.496 L
348.923 130.156 L
350.048 130.746 L
351.361 131.408 L
352.955 132.174 L
354.578 132.913 L
355.919 133.495 L
357.043 133.963 L
358.231 134.438 L
359.698 134.999 L
361.368 135.605 L
362.333 135.94 L
362.333 135.94 L
362.333 135.94 L
362.637 135.509 L
362.941 134.394 L
363.351 132.414 L
363.811 129.969 L
364.357 127.052 L
365.015 123.672 L
365.837 119.74 L
366.904 115.115 L
S
GR
GS
[0.75 0 0 0.75 0 0] CT
0.929 0.694 0.125 RC
1 LJ
0.667 LW
N
365.837 119.74 M
366.904 115.115 L
368.351 109.654 L
369.876 104.816 L
371.401 100.817 L
372.658 98.083 L
373.724 96.127 L
374.881 94.345 L
376.332 92.566 L
377.979 91.093 L
379.135 90.367 L
380.291 89.867 L
381.722 89.529 L
383.371 89.478 L
384.563 89.639 L
385.756 89.946 L
387.194 90.487 L
388.813 91.288 L
390.29 92.171 L
391.498 92.983 L
392.627 93.805 L
393.938 94.825 L
395.515 96.13 L
397.115 97.522 L
398.446 98.72 L
399.573 99.756 L
400.764 100.868 L
402.226 102.248 L
403.878 103.818 L
405.364 105.231 L
406.558 106.364 L
407.675 107.418 L
408.993 108.652 L
410.596 110.134 L
412.214 111.604 L
413.539 112.785 L
414.651 113.76 L
415.839 114.783 L
417.315 116.027 L
418.988 117.398 L
420.171 118.342 L
421.354 119.264 L
422.807 120.365 L
424.466 121.582 L
425.971 122.647 L
427.176 123.474 L
428.289 124.216 L
429.595 125.062 L
431.193 126.059 L
432.826 127.038 L
434.168 127.811 L
435.284 128.433 L
S
GR
GS
[0.75 0 0 0.75 0 0] CT
0.929 0.694 0.125 RC
1 LJ
0.667 LW
N
434.168 127.811 M
435.284 128.433 L
436.462 129.069 L
437.924 129.83 L
439.601 130.666 L
440.796 131.237 L
441.991 131.789 L
443.446 132.435 L
445.095 133.135 L
446.592 133.74 L
447.802 134.21 L
448.926 134.631 L
450.24 135.105 L
451.835 135.655 L
453.458 136.186 L
454.797 136.604 L
455.92 136.941 L
457.108 137.285 L
458.575 137.692 L
460.246 138.131 L
461.441 138.431 L
462.636 138.719 L
464.091 139.055 L
465.739 139.416 L
467.239 139.727 L
468.451 139.968 L
469.576 140.182 L
470.889 140.422 L
472.484 140.699 L
474.108 140.966 L
475.449 141.176 L
476.573 141.344 L
477.761 141.514 L
479.228 141.715 L
480.898 141.932 L
482.096 142.079 L
483.293 142.221 L
484.748 142.385 L
486.395 142.56 L
487.894 142.711 L
489.107 142.827 L
490.234 142.931 L
491.549 143.047 L
493.144 143.18 L
494.766 143.307 L
496.108 143.407 L
497.233 143.487 L
498.423 143.569 L
499.891 143.664 L
501.56 143.766 L
502.758 143.836 L
503.956 143.903 L
S
GR
GS
[0.75 0 0 0.75 0 0] CT
0.929 0.694 0.125 RC
1 LJ
0.667 LW
N
502.758 143.836 M
503.956 143.903 L
505.411 143.98 L
507 144.059 L
S
GR
GS
[0.75 0 0 0.75 0 0] CT
0.494 0.184 0.557 RC
1 LJ
0.667 LW
N
73 335.889 M
73.362 335.889 L
73.362 335.889 L
73.362 335.889 L
73.473 335.889 L
73.583 335.889 L
73.743 335.889 L
73.97 335.889 L
74.282 335.889 L
74.671 335.889 L
75.117 335.889 L
75.649 335.889 L
76.3 335.889 L
77.125 335.889 L
78.221 335.889 L
79.744 335.889 L
81.622 335.889 L
82.691 335.889 L
83.76 335.889 L
85.239 335.889 L
87.07 335.889 L
88.215 335.889 L
89.36 335.889 L
90.846 335.889 L
92.593 335.889 L
93.759 335.889 L
94.926 335.889 L
96.397 335.889 L
98.102 335.889 L
99.292 335.889 L
100.482 335.889 L
101.946 335.889 L
103.615 335.889 L
104.82 335.889 L
106.026 335.889 L
107.483 335.889 L
109.126 335.889 L
110.623 335.889 L
111.841 335.889 L
112.977 335.889 L
114.298 335.889 L
115.891 335.889 L
117.51 335.889 L
118.852 335.889 L
119.985 335.889 L
121.182 335.889 L
122.653 335.889 L
124.32 335.889 L
125.819 335.889 L
127.02 335.889 L
S
GR
GS
[0.75 0 0 0.75 0 0] CT
0.494 0.184 0.557 RC
1 LJ
0.667 LW
N
125.819 335.889 M
127.02 335.889 L
128.14 335.889 L
129.463 335.889 L
131.076 335.889 L
132.708 335.889 L
134.041 335.889 L
135.158 335.889 L
136.348 335.889 L
137.829 335.889 L
139.513 335.889 L
140.702 335.889 L
141.891 335.889 L
143.351 335.889 L
145.017 335.889 L
146.527 335.889 L
147.737 335.889 L
148.855 335.889 L
150.166 335.889 L
151.771 335.889 L
153.41 335.889 L
154.756 335.889 L
155.876 335.889 L
157.058 335.889 L
158.526 335.889 L
160.209 335.889 L
161.407 335.889 L
162.606 335.889 L
164.065 335.889 L
165.72 335.889 L
167.222 335.889 L
168.436 335.889 L
169.562 335.889 L
170.88 335.889 L
172.48 335.889 L
174.108 335.889 L
175.451 335.889 L
176.576 335.889 L
177.767 335.889 L
179.238 335.889 L
180.913 335.889 L
181.5 335.889 L
181.5 335.889 L
181.5 335.889 L
181.556 335.063 L
181.612 334.241 L
181.696 333.022 L
181.807 331.419 L
181.935 329.58 L
182.116 327.011 L
182.346 323.802 L
182.601 320.317 L
S
GR
GS
[0.75 0 0 0.75 0 0] CT
0.494 0.184 0.557 RC
1 LJ
0.667 LW
N
182.346 323.802 M
182.601 320.317 L
182.895 316.386 L
183.24 311.871 L
183.664 306.489 L
184.235 299.526 L
184.916 291.609 L
185.681 283.192 L
186.618 273.548 L
187.856 261.83 L
189.582 247.259 L
190.632 239.301 L
191.682 231.964 L
193.086 223.043 L
194.77 213.545 L
195.905 207.804 L
197.041 202.547 L
198.469 196.557 L
200.127 190.388 L
201.302 186.47 L
202.477 182.892 L
203.913 178.942 L
205.544 174.954 L
207.027 171.741 L
208.225 169.402 L
209.337 167.416 L
210.639 165.299 L
212.223 162.995 L
213.836 160.921 L
215.167 159.395 L
216.282 158.232 L
217.462 157.106 L
218.921 155.849 L
220.584 154.578 L
221.774 153.765 L
222.964 153.023 L
224.411 152.208 L
226.053 151.387 L
227.547 150.726 L
228.755 150.245 L
229.876 149.836 L
231.185 149.402 L
232.774 148.931 L
234.393 148.507 L
235.73 148.195 L
236.851 147.957 L
238.036 147.727 L
239.499 147.471 L
241.165 147.212 L
242.36 147.046 L
243.554 146.895 L
245.006 146.729 L
S
GR
GS
[0.75 0 0 0.75 0 0] CT
0.494 0.184 0.557 RC
1 LJ
0.667 LW
N
243.554 146.895 M
245.006 146.729 L
246.649 146.562 L
248.145 146.428 L
249.356 146.33 L
250.481 146.247 L
251.793 146.159 L
253.385 146.063 L
253.833 146.038 L
253.833 146.038 L
254.256 145.57 L
254.679 144.382 L
255.38 141.372 L
256.21 136.88 L
257.337 130.248 L
258.882 121.496 L
259.957 116.051 L
261.033 111.243 L
262.403 106.043 L
264.03 101.123 L
265.208 98.324 L
266.386 96.093 L
267.805 94.072 L
269.402 92.55 L
270.864 91.75 L
272.067 91.455 L
273.194 91.435 L
274.5 91.68 L
276.066 92.297 L
277.654 93.217 L
278.98 94.17 L
280.106 95.089 L
281.299 96.15 L
282.757 97.549 L
284.4 99.226 L
285.878 100.801 L
287.071 102.102 L
288.19 103.338 L
289.509 104.805 L
291.108 106.584 L
292.718 108.366 L
294.039 109.809 L
295.152 111.01 L
296.343 112.275 L
297.819 113.809 L
299.487 115.494 L
300.669 116.654 L
301.85 117.786 L
303.301 119.132 L
304.957 120.612 L
306.462 121.902 L
307.667 122.897 L
S
GR
GS
[0.75 0 0 0.75 0 0] CT
0.494 0.184 0.557 RC
1 LJ
0.667 LW
N
306.462 121.902 M
307.667 122.897 L
308.779 123.786 L
310.084 124.793 L
311.68 125.972 L
313.312 127.12 L
314.654 128.02 L
315.77 128.739 L
316.946 129.469 L
318.408 130.337 L
320.083 131.28 L
321.278 131.919 L
322.473 132.533 L
323.927 133.245 L
325.574 134.008 L
327.07 134.663 L
328.28 135.166 L
329.405 135.615 L
330.718 136.115 L
332.313 136.69 L
333.934 137.239 L
335.272 137.668 L
336.395 138.011 L
337.583 138.359 L
339.051 138.766 L
340.72 139.201 L
341.915 139.496 L
343.11 139.777 L
344.564 140.101 L
346.212 140.447 L
347.711 140.742 L
348.923 140.968 L
350.048 141.168 L
351.361 141.39 L
352.955 141.645 L
354.578 141.887 L
355.919 142.076 L
357.043 142.226 L
358.231 142.377 L
359.698 142.554 L
361.368 142.743 L
362.333 142.847 L
362.333 142.847 L
362.333 142.847 L
362.637 138.291 L
362.941 133.902 L
363.351 128.245 L
363.811 122.226 L
364.357 115.523 L
365.015 108.04 L
365.837 99.572 L
366.904 89.905 L
S
GR
GS
[0.75 0 0 0.75 0 0] CT
0.494 0.184 0.557 RC
1 LJ
0.667 LW
N
365.837 99.572 M
366.904 89.905 L
368.351 78.947 L
369.876 69.755 L
371.401 62.642 L
372.658 58.126 L
373.724 55.137 L
374.881 52.661 L
376.332 50.546 L
377.979 49.29 L
379.135 49.026 L
380.291 49.196 L
381.722 49.925 L
383.371 51.359 L
384.563 52.724 L
385.756 54.315 L
387.194 56.483 L
388.813 59.181 L
390.29 61.825 L
391.498 64.082 L
392.627 66.248 L
393.938 68.811 L
395.515 71.935 L
397.115 75.118 L
398.446 77.757 L
399.573 79.974 L
400.764 82.294 L
402.226 85.096 L
403.878 88.191 L
405.364 90.9 L
406.558 93.021 L
407.675 94.959 L
408.993 97.183 L
410.596 99.796 L
412.214 102.328 L
413.539 104.321 L
414.651 105.938 L
415.839 107.61 L
417.315 109.607 L
418.988 111.764 L
420.171 113.223 L
421.354 114.628 L
422.807 116.281 L
424.466 118.073 L
425.971 119.615 L
427.176 120.793 L
428.289 121.837 L
429.595 123.011 L
431.193 124.375 L
432.826 125.691 L
434.168 126.715 L
435.284 127.528 L
S
GR
GS
[0.75 0 0 0.75 0 0] CT
0.494 0.184 0.557 RC
1 LJ
0.667 LW
N
434.168 126.715 M
435.284 127.528 L
436.462 128.35 L
437.924 129.322 L
439.601 130.372 L
440.796 131.081 L
441.991 131.757 L
443.446 132.54 L
445.095 133.375 L
446.592 134.088 L
447.802 134.634 L
448.926 135.119 L
450.24 135.659 L
451.835 136.278 L
453.458 136.868 L
454.797 137.326 L
455.92 137.692 L
457.108 138.062 L
458.575 138.494 L
460.246 138.956 L
461.441 139.268 L
462.636 139.565 L
464.091 139.907 L
465.739 140.27 L
467.239 140.58 L
468.451 140.817 L
469.576 141.027 L
470.889 141.259 L
472.484 141.525 L
474.108 141.778 L
475.449 141.975 L
476.573 142.131 L
477.761 142.289 L
479.228 142.473 L
480.898 142.669 L
482.096 142.801 L
483.293 142.927 L
484.748 143.071 L
486.395 143.225 L
487.894 143.355 L
489.107 143.455 L
490.234 143.543 L
491.549 143.641 L
493.144 143.753 L
494.766 143.859 L
496.108 143.941 L
497.233 144.006 L
498.423 144.072 L
499.891 144.149 L
501.56 144.231 L
502.758 144.286 L
503.956 144.338 L
S
GR
GS
[0.75 0 0 0.75 0 0] CT
0.494 0.184 0.557 RC
1 LJ
0.667 LW
N
502.758 144.286 M
503.956 144.338 L
505.411 144.398 L
507 144.46 L
S
GR
GS
[0.75 0 0 0.75 0 0] CT
1 GC
N
422 112 M
422 44 L
494 44 L
494 112 L
cp
f
GR
GS
[0.75 0 0 0.75 355.5 40.7005] CT
/Helvetica 12 F
GS
[1 0 0 1 0 0] CT
0 4.5 moveto 
1 -1 scale
(w1) t 
GR
GR
GS
[0.75 0 0 0.75 0 0] CT
0 0.447 0.741 RC
1 LJ
0.667 LW
N
430 54.267 M
470 54.267 L
S
GR
GS
[0.75 0 0 0.75 355.5 52.56683] CT
/Helvetica 12 F
GS
[1 0 0 1 0 0] CT
0 4.5 moveto 
1 -1 scale
(w2) t 
GR
GR
GS
[0.75 0 0 0.75 0 0] CT
0.851 0.325 0.098 RC
1 LJ
0.667 LW
N
430 70.089 M
470 70.089 L
S
GR
GS
[0.75 0 0 0.75 355.5 64.43317] CT
/Helvetica 12 F
GS
[1 0 0 1 0 0] CT
0 4.5 moveto 
1 -1 scale
(y1) t 
GR
GR
GS
[0.75 0 0 0.75 0 0] CT
0.929 0.694 0.125 RC
1 LJ
0.667 LW
N
430 85.911 M
470 85.911 L
S
GR
GS
[0.75 0 0 0.75 355.5 76.29951] CT
/Helvetica 12 F
GS
[1 0 0 1 0 0] CT
0 4.5 moveto 
1 -1 scale
(y2) t 
GR
GR
GS
[0.75 0 0 0.75 0 0] CT
0.494 0.184 0.557 RC
1 LJ
0.667 LW
N
430 101.733 M
470 101.733 L
S
GR
GS
[0.75 0 0 0.75 0 0] CT
0.149 GC
10.0 ML
0.667 LW
N
422 112 M
422 44 L
494 44 L
494 112 L
cp
S
GR
%%Trailer
%%Pages: 1
%%EOF
