%!PS-Adobe-3.0 EPSF-3.0
%%Creator: MATLAB, The MathWorks, Inc. Version 8.2.0.701 (R2013b). Operating System: Microsoft Windows 8.
%%Title: C:\Users\Tomas\Documents\Dokumenty\Skola\RLS\SP\pics\SP1\block1.eps
%%CreationDate: 03/02/2017  21:54:08
%%DocumentNeededFonts: Helvetica
%%DocumentProcessColors: Cyan Magenta Yellow Black
%%LanguageLevel: 2
%%Pages: 1
%%BoundingBox:    87   262   507   578
%%EndComments

%%BeginProlog
% MathWorks dictionary
/MathWorks 160 dict begin
% definition operators
/bdef {bind def} bind def
/ldef {load def} bind def
/xdef {exch def} bdef
/xstore {exch store} bdef
% operator abbreviations
/c  /clip ldef
/cc /concat ldef
/cp /closepath ldef
/gr /grestore ldef
/gs /gsave ldef
/mt /moveto ldef
/np /newpath ldef
/cm /currentmatrix ldef
/sm /setmatrix ldef
/rm /rmoveto ldef
/rl /rlineto ldef
/s {show newpath} bdef
/sc {setcmykcolor} bdef
/sr /setrgbcolor ldef
/sg /setgray ldef
/w /setlinewidth ldef
/j /setlinejoin ldef
/cap /setlinecap ldef
/rc {rectclip} bdef
/rf {rectfill} bdef
% page state control
/pgsv () def
/bpage {/pgsv save def} bdef
/epage {pgsv restore} bdef
/bplot /gsave ldef
/eplot {stroke grestore} bdef
% orientation switch
/portraitMode 0 def /landscapeMode 1 def /rotateMode 2 def
% coordinate system mappings
/dpi2point 0 def
% font control
/FontSize 0 def
/FMS {/FontSize xstore findfont [FontSize 0 0 FontSize neg 0 0]
  makefont setfont} bdef
/ISOLatin1Encoding where {pop /WindowsLatin1Encoding 256 array bdef
ISOLatin1Encoding WindowsLatin1Encoding copy pop
/.notdef/.notdef/quotesinglbase/florin/quotedblbase/ellipsis/dagger
/daggerdbl/circumflex/perthousand/Scaron/guilsinglleft/OE/.notdef/.notdef
/.notdef/.notdef/quoteleft/quoteright/quotedblleft/quotedblright/bullet
/endash/emdash/tilde/trademark/scaron/guilsinglright/oe/.notdef/.notdef
/Ydieresis WindowsLatin1Encoding 128 32 getinterval astore pop}
{/WindowsLatin1Encoding StandardEncoding bdef} ifelse
/reencode {exch dup where {pop load} {pop StandardEncoding} ifelse
  exch dup 3 1 roll findfont dup length dict begin
  { 1 index /FID ne {def}{pop pop} ifelse } forall
  /Encoding exch def currentdict end definefont pop} bdef
/isroman {findfont /CharStrings get /Agrave known} bdef
/FMSR {3 1 roll 1 index dup isroman {reencode} {pop pop} ifelse
  exch FMS} bdef
/csm {1 dpi2point div -1 dpi2point div scale neg translate
 dup landscapeMode eq {pop -90 rotate}
  {rotateMode eq {90 rotate} if} ifelse} bdef
% line types: solid, dotted, dashed, dotdash
/SO { [] 0 setdash } bdef
/DO { [.5 dpi2point mul 4 dpi2point mul] 0 setdash } bdef
/DA { [6 dpi2point mul] 0 setdash } bdef
/DD { [.5 dpi2point mul 4 dpi2point mul 6 dpi2point mul 4
  dpi2point mul] 0 setdash } bdef
% macros for lines and objects
/L {lineto stroke} bdef
/MP {3 1 roll moveto 1 sub {rlineto} repeat} bdef
/AP {{rlineto} repeat} bdef
/PDlw -1 def
/W {/PDlw currentlinewidth def setlinewidth} def
/PP {closepath eofill} bdef
/DP {closepath stroke} bdef
/MR {4 -2 roll moveto dup  0 exch rlineto exch 0 rlineto
  neg 0 exch rlineto closepath} bdef
/FR {MR stroke} bdef
/PR {MR fill} bdef
/L1i {{currentfile picstr readhexstring pop} image} bdef
/tMatrix matrix def
/MakeOval {newpath tMatrix currentmatrix pop translate scale
0 0 1 0 360 arc tMatrix setmatrix} bdef
/FO {MakeOval stroke} bdef
/PO {MakeOval fill} bdef
/PD {currentlinewidth 2 div 0 360 arc fill
   PDlw -1 eq not {PDlw w /PDlw -1 def} if} def
/FA {newpath tMatrix currentmatrix pop translate scale
  0 0 1 5 -2 roll arc tMatrix setmatrix stroke} bdef
/PA {newpath tMatrix currentmatrix pop	translate 0 0 moveto scale
  0 0 1 5 -2 roll arc closepath tMatrix setmatrix fill} bdef
/FAn {newpath tMatrix currentmatrix pop translate scale
  0 0 1 5 -2 roll arcn tMatrix setmatrix stroke} bdef
/PAn {newpath tMatrix currentmatrix pop translate 0 0 moveto scale
  0 0 1 5 -2 roll arcn closepath tMatrix setmatrix fill} bdef
/vradius 0 def /hradius 0 def /lry 0 def
/lrx 0 def /uly 0 def /ulx 0 def /rad 0 def
/MRR {/vradius xdef /hradius xdef /lry xdef /lrx xdef /uly xdef
  /ulx xdef newpath tMatrix currentmatrix pop ulx hradius add uly
  vradius add translate hradius vradius scale 0 0 1 180 270 arc 
  tMatrix setmatrix lrx hradius sub uly vradius add translate
  hradius vradius scale 0 0 1 270 360 arc tMatrix setmatrix
  lrx hradius sub lry vradius sub translate hradius vradius scale
  0 0 1 0 90 arc tMatrix setmatrix ulx hradius add lry vradius sub
  translate hradius vradius scale 0 0 1 90 180 arc tMatrix setmatrix
  closepath} bdef
/FRR {MRR stroke } bdef
/PRR {MRR fill } bdef
/MlrRR {/lry xdef /lrx xdef /uly xdef /ulx xdef /rad lry uly sub 2 div def
  newpath tMatrix currentmatrix pop ulx rad add uly rad add translate
  rad rad scale 0 0 1 90 270 arc tMatrix setmatrix lrx rad sub lry rad
  sub translate rad rad scale 0 0 1 270 90 arc tMatrix setmatrix
  closepath} bdef
/FlrRR {MlrRR stroke } bdef
/PlrRR {MlrRR fill } bdef
/MtbRR {/lry xdef /lrx xdef /uly xdef /ulx xdef /rad lrx ulx sub 2 div def
  newpath tMatrix currentmatrix pop ulx rad add uly rad add translate
  rad rad scale 0 0 1 180 360 arc tMatrix setmatrix lrx rad sub lry rad
  sub translate rad rad scale 0 0 1 0 180 arc tMatrix setmatrix
  closepath} bdef
/FtbRR {MtbRR stroke } bdef
/PtbRR {MtbRR fill } bdef
/stri 6 array def /dtri 6 array def
/smat 6 array def /dmat 6 array def
/tmat1 6 array def /tmat2 6 array def /dif 3 array def
/asub {/ind2 exch def /ind1 exch def dup dup
  ind1 get exch ind2 get sub exch } bdef
/tri_to_matrix {
  2 0 asub 3 1 asub 4 0 asub 5 1 asub
  dup 0 get exch 1 get 7 -1 roll astore } bdef
/compute_transform {
  dmat dtri tri_to_matrix tmat1 invertmatrix 
  smat stri tri_to_matrix tmat2 concatmatrix } bdef
/ds {stri astore pop} bdef
/dt {dtri astore pop} bdef
/db {2 copy /cols xdef /rows xdef mul dup 3 mul string
  currentfile 
  3 index 0 eq {/ASCIIHexDecode filter}
  {/ASCII85Decode filter 3 index 2 eq {/RunLengthDecode filter} if }
  ifelse exch readstring pop
  dup 0 3 index getinterval /rbmap xdef
  dup 2 index dup getinterval /gbmap xdef
  1 index dup 2 mul exch getinterval /bbmap xdef pop pop}bdef
/it {gs np dtri aload pop moveto lineto lineto cp c
  cols rows 8 compute_transform 
  rbmap gbmap bbmap true 3 colorimage gr}bdef
/il {newpath moveto lineto stroke}bdef
currentdict end def
%%EndProlog

%%BeginSetup
MathWorks begin

0 cap

end
%%EndSetup

%%Page: 1 1
%%BeginPageSetup
%%PageBoundingBox:    87   262   507   578
MathWorks begin
bpage
%%EndPageSetup

%%BeginObject: obj1
bplot

/dpi2point 12 def
portraitMode 1044 6936 csm

    0     0  5045  3782 rc
87 dict begin %Colortable dictionary
/c0 { 0.000000 0.000000 0.000000 sr} bdef
/c1 { 1.000000 1.000000 1.000000 sr} bdef
/c2 { 0.900000 0.000000 0.000000 sr} bdef
/c3 { 0.000000 0.820000 0.000000 sr} bdef
/c4 { 0.000000 0.000000 0.800000 sr} bdef
/c5 { 0.910000 0.820000 0.320000 sr} bdef
/c6 { 1.000000 0.260000 0.820000 sr} bdef
/c7 { 0.000000 0.820000 0.820000 sr} bdef
c0
1 j
1 sg
   0    0 5046 3783 rf
6 w
0 3082 3910 0 0 -3082 656 3366 4 MP
PP
-3910 0 0 3082 3910 0 0 -3082 656 3366 5 MP stroke
4 w
DO
SO
6 w
0 sg
 656 3366 mt 4566 3366 L
 656 3366 mt  656  284 L
 656 3366 mt  656 3326 L
%%IncludeResource: font Helvetica
/Helvetica /WindowsLatin1Encoding 120 FMSR

 623 3511 mt 
(0) s
1214 3366 mt 1214 3326 L
1148 3511 mt 
(10) s
1773 3366 mt 1773 3326 L
1707 3511 mt 
(20) s
2331 3366 mt 2331 3326 L
2265 3511 mt 
(30) s
2890 3366 mt 2890 3326 L
2824 3511 mt 
(40) s
3448 3366 mt 3448 3326 L
3382 3511 mt 
(50) s
4007 3366 mt 4007 3326 L
3941 3511 mt 
(60) s
4566 3366 mt 4566 3326 L
4500 3511 mt 
(70) s
 656 3366 mt  695 3366 L
 385 3410 mt 
(-2.5) s
 656 3057 mt  695 3057 L
 485 3101 mt 
(-2) s
 656 2749 mt  695 2749 L
 385 2793 mt 
(-1.5) s
 656 2441 mt  695 2441 L
 485 2485 mt 
(-1) s
 656 2133 mt  695 2133 L
 385 2177 mt 
(-0.5) s
 656 1825 mt  695 1825 L
 555 1869 mt 
(0) s
 656 1516 mt  695 1516 L
 455 1560 mt 
(0.5) s
 656 1208 mt  695 1208 L
 555 1252 mt 
(1) s
 656  900 mt  695  900 L
 455  944 mt 
(1.5) s
 656  592 mt  695  592 L
 555  636 mt 
(2) s
 656  284 mt  695  284 L
 455  328 mt 
(2.5) s
 656  230 mt 
(x 10) s
%%IncludeResource: font Helvetica
/Helvetica /WindowsLatin1Encoding 80 FMSR

 882  156 mt 
(5) s
%%IncludeResource: font Helvetica
/Helvetica /WindowsLatin1Encoding 120 FMSR

2110  189 mt 
(Transfer block - z1) s
gs 656 284 3911 3083 rc
/c8 { 0.000000 0.000000 1.000000 sr} bdef
c8
56 218 56 181 56 152 56 127 56 105 56 89 55 73 56 62 
56 51 56 43 56 36 56 30 56 25 55 21 56 17 56 15 
56 12 56 10 56 9 56 7 55 6 56 5 56 4 56 3 
56 3 56 2 56 2 55 2 56 1 56 2 56 1 56 0 
56 1 56 1 55 0 56 0 56 1 56 0 56 0 56 1 
56 0 55 0 56 0 56 0 56 0 56 0 56 0 56 0 
55 0 56 0 56 0 56 0 56 0 56 0 56 0 55 0 
56 0 56 0 56 0 56 0 56 0 56 0 55 0 56 0 
56 0 56 0 56 0 56 0 56 0 55 0 656 1825 71 MP stroke
/c9 { 0.000000 1.000000 1.000000 sr} bdef
c9
56 -217 56 -181 56 -152 56 -126 56 -105 56 -89 55 -73 56 -62 
56 -51 56 -43 56 -35 56 -30 56 -25 55 -21 56 -17 56 -15 
56 -12 56 -10 56 -9 56 -7 55 -6 56 -5 56 -4 56 -3 
56 -3 56 -2 56 -2 55 -2 56 -1 56 -2 56 -1 56 0 
56 -1 56 -1 55 0 56 -1 56 0 56 0 56 0 56 -1 
56 0 55 0 56 0 56 0 56 0 56 0 56 0 56 0 
55 0 56 0 56 0 56 0 56 0 56 0 56 0 55 0 
56 0 56 0 56 0 56 0 56 0 56 0 55 0 56 0 
56 0 56 0 56 0 56 0 56 0 55 0 656 1824 71 MP stroke
/c10 { 1.000000 0.000000 0.000000 sr} bdef
c10
56 0 56 0 56 0 56 0 56 0 56 0 55 0 56 0 
56 0 56 0 56 -1 56 0 56 0 55 0 56 0 56 0 
56 0 56 0 56 0 56 0 55 0 56 0 56 0 56 0 
56 0 56 0 56 0 55 0 56 0 56 0 56 0 56 0 
56 0 56 0 55 0 56 0 56 0 56 0 56 0 56 0 
56 0 55 0 56 0 56 0 56 0 56 0 56 0 56 0 
55 0 56 0 56 0 56 0 56 0 56 0 56 0 55 0 
56 0 56 0 56 0 56 0 56 0 56 0 55 0 56 0 
56 0 56 0 56 0 56 0 56 0 55 0 656 1825 71 MP stroke
/c11 { 1.000000 0.000000 1.000000 sr} bdef
c11
56 0 56 0 56 0 56 0 56 0 56 0 55 0 56 0 
56 0 56 1 56 0 56 0 56 0 55 0 56 0 56 0 
56 0 56 0 56 0 56 0 55 0 56 0 56 0 56 0 
56 0 56 0 56 0 55 0 56 0 56 0 56 0 56 0 
56 0 56 0 55 0 56 0 56 0 56 0 56 0 56 0 
56 0 55 0 56 0 56 0 56 0 56 0 56 0 56 0 
55 0 56 0 56 0 56 0 56 0 56 0 56 0 55 0 
56 0 56 0 56 0 56 0 56 0 56 0 55 0 56 0 
56 0 56 0 56 0 56 0 56 0 55 -1 656 1825 71 MP stroke
gr

c11
0 sg
2523 3654 mt 
(t\(s\)) s
 639 3409 mt 
( ) s
4550  326 mt 
( ) s
1 sg
0 626 640 0 0 -626 3867 970 4 MP
PP
-640 0 0 626 640 0 0 -626 3867 970 5 MP stroke
4 w
DO
SO
6 w
0 sg
3867  344 mt 4507  344 L
3867  970 mt 4507  970 L
4507  970 mt 4507  344 L
3867  970 mt 3867  344 L
3867  970 mt 4507  970 L
3867  970 mt 3867  344 L
3867  344 mt 4507  344 L
3867  970 mt 4507  970 L
4507  970 mt 4507  344 L
3867  970 mt 3867  344 L
4330  478 mt 
(u1) s
gs 3867 344 641 627 rc
c8
355 0 3938 436 2 MP stroke
gr

c8
0 sg
4330  626 mt 
(u2) s
gs 3867 344 641 627 rc
c9
355 0 3938 583 2 MP stroke
gr

c9
0 sg
4330  773 mt 
(y1) s
gs 3867 344 641 627 rc
c10
355 0 3938 730 2 MP stroke
gr

c10
0 sg
4330  921 mt 
(y2) s
gs 3867 344 641 627 rc
c11
355 0 3938 877 2 MP stroke
gr

c11

end %%Color Dict

eplot
%%EndObject

epage
end

showpage

%%Trailer
%%EOF
