%!PS-Adobe-3.0 EPSF-3.0
%%Creator: (MATLAB, The Mathworks, Inc. Version 8.6.0.267246 \(R2015b\). Operating System: Windows 8)
%%Title: E:/Projects/skola/rls/pics/SP1/compare_ns_u2.eps
%%CreationDate: 2017-03-03T09:26:36
%%Pages: (atend)
%%BoundingBox: 0 0 420 315
%%LanguageLevel: 2
%%EndComments
%%BeginProlog
%%BeginResource: procset (Apache XML Graphics Std ProcSet) 1.2 0
%%Version: 1.2 0
%%Copyright: (Copyright 2001-2003,2010 The Apache Software Foundation. License terms: http://www.apache.org/licenses/LICENSE-2.0)
/bd{bind def}bind def
/ld{load def}bd
/GR/grestore ld
/M/moveto ld
/LJ/setlinejoin ld
/C/curveto ld
/f/fill ld
/LW/setlinewidth ld
/GC/setgray ld
/t/show ld
/N/newpath ld
/CT/concat ld
/cp/closepath ld
/S/stroke ld
/L/lineto ld
/CC/setcmykcolor ld
/A/ashow ld
/GS/gsave ld
/RC/setrgbcolor ld
/RM/rmoveto ld
/ML/setmiterlimit ld
/re {4 2 roll M
1 index 0 rlineto
0 exch rlineto
neg 0 rlineto
cp } bd
/_ctm matrix def
/_tm matrix def
/BT { _ctm currentmatrix pop matrix _tm copy pop 0 0 moveto } bd
/ET { _ctm setmatrix } bd
/iTm { _ctm setmatrix _tm concat } bd
/Tm { _tm astore pop iTm 0 0 moveto } bd
/ux 0.0 def
/uy 0.0 def
/F {
  /Tp exch def
  /Tf exch def
  Tf findfont Tp scalefont setfont
  /cf Tf def  /cs Tp def
} bd
/ULS {currentpoint /uy exch def /ux exch def} bd
/ULE {
  /Tcx currentpoint pop def
  gsave
  newpath
  cf findfont cs scalefont dup
  /FontMatrix get 0 get /Ts exch def /FontInfo get dup
  /UnderlinePosition get Ts mul /To exch def
  /UnderlineThickness get Ts mul /Tt exch def
  ux uy To add moveto  Tcx uy To add lineto
  Tt setlinewidth stroke
  grestore
} bd
/OLE {
  /Tcx currentpoint pop def
  gsave
  newpath
  cf findfont cs scalefont dup
  /FontMatrix get 0 get /Ts exch def /FontInfo get dup
  /UnderlinePosition get Ts mul /To exch def
  /UnderlineThickness get Ts mul /Tt exch def
  ux uy To add cs add moveto Tcx uy To add cs add lineto
  Tt setlinewidth stroke
  grestore
} bd
/SOE {
  /Tcx currentpoint pop def
  gsave
  newpath
  cf findfont cs scalefont dup
  /FontMatrix get 0 get /Ts exch def /FontInfo get dup
  /UnderlinePosition get Ts mul /To exch def
  /UnderlineThickness get Ts mul /Tt exch def
  ux uy To add cs 10 mul 26 idiv add moveto Tcx uy To add cs 10 mul 26 idiv add lineto
  Tt setlinewidth stroke
  grestore
} bd
/QT {
/Y22 exch store
/X22 exch store
/Y21 exch store
/X21 exch store
currentpoint
/Y21 load 2 mul add 3 div exch
/X21 load 2 mul add 3 div exch
/X21 load 2 mul /X22 load add 3 div
/Y21 load 2 mul /Y22 load add 3 div
/X22 load /Y22 load curveto
} bd
/SSPD {
dup length /d exch dict def
{
/v exch def
/k exch def
currentpagedevice k known {
/cpdv currentpagedevice k get def
v cpdv ne {
/upd false def
/nullv v type /nulltype eq def
/nullcpdv cpdv type /nulltype eq def
nullv nullcpdv or
{
/upd true def
} {
/sametype v type cpdv type eq def
sametype {
v type /arraytype eq {
/vlen v length def
/cpdvlen cpdv length def
vlen cpdvlen eq {
0 1 vlen 1 sub {
/i exch def
/obj v i get def
/cpdobj cpdv i get def
obj cpdobj ne {
/upd true def
exit
} if
} for
} {
/upd true def
} ifelse
} {
v type /dicttype eq {
v {
/dv exch def
/dk exch def
/cpddv cpdv dk get def
dv cpddv ne {
/upd true def
exit
} if
} forall
} {
/upd true def
} ifelse
} ifelse
} if
} ifelse
upd true eq {
d k v put
} if
} if
} if
} forall
d length 0 gt {
d setpagedevice
} if
} bd
%%EndResource
%%BeginResource: procset (Apache XML Graphics EPS ProcSet) 1.0 0
%%Version: 1.0 0
%%Copyright: (Copyright 2002-2003 The Apache Software Foundation. License terms: http://www.apache.org/licenses/LICENSE-2.0)
/BeginEPSF { %def
/b4_Inc_state save def         % Save state for cleanup
/dict_count countdictstack def % Count objects on dict stack
/op_count count 1 sub def      % Count objects on operand stack
userdict begin                 % Push userdict on dict stack
/showpage { } def              % Redefine showpage, { } = null proc
0 setgray 0 setlinecap         % Prepare graphics state
1 setlinewidth 0 setlinejoin
10 setmiterlimit [ ] 0 setdash newpath
/languagelevel where           % If level not equal to 1 then
{pop languagelevel             % set strokeadjust and
1 ne                           % overprint to their defaults.
{false setstrokeadjust false setoverprint
} if
} if
} bd
/EndEPSF { %def
count op_count sub {pop} repeat            % Clean up stacks
countdictstack dict_count sub {end} repeat
b4_Inc_state restore
} bd
%%EndResource
%FOPBeginFontDict
%%IncludeResource: font Courier-Bold
%%IncludeResource: font Helvetica
%%IncludeResource: font Courier-BoldOblique
%%IncludeResource: font Courier-Oblique
%%IncludeResource: font Times-Roman
%%IncludeResource: font Helvetica-BoldOblique
%%IncludeResource: font Helvetica-Bold
%%IncludeResource: font Helvetica-Oblique
%%IncludeResource: font Times-BoldItalic
%%IncludeResource: font Courier
%%IncludeResource: font Times-Italic
%%IncludeResource: font Times-Bold
%%IncludeResource: font Symbol
%%IncludeResource: font ZapfDingbats
%FOPEndFontDict
%%BeginResource: encoding WinAnsiEncoding
/WinAnsiEncoding [
/.notdef /.notdef /.notdef /.notdef /.notdef
/.notdef /.notdef /.notdef /.notdef /.notdef
/.notdef /.notdef /.notdef /.notdef /.notdef
/.notdef /.notdef /.notdef /.notdef /.notdef
/.notdef /.notdef /.notdef /.notdef /.notdef
/.notdef /.notdef /.notdef /.notdef /.notdef
/.notdef /.notdef /space /exclam /quotedbl
/numbersign /dollar /percent /ampersand /quotesingle
/parenleft /parenright /asterisk /plus /comma
/hyphen /period /slash /zero /one
/two /three /four /five /six
/seven /eight /nine /colon /semicolon
/less /equal /greater /question /at
/A /B /C /D /E
/F /G /H /I /J
/K /L /M /N /O
/P /Q /R /S /T
/U /V /W /X /Y
/Z /bracketleft /backslash /bracketright /asciicircum
/underscore /quoteleft /a /b /c
/d /e /f /g /h
/i /j /k /l /m
/n /o /p /q /r
/s /t /u /v /w
/x /y /z /braceleft /bar
/braceright /asciitilde /bullet /Euro /bullet
/quotesinglbase /florin /quotedblbase /ellipsis /dagger
/daggerdbl /circumflex /perthousand /Scaron /guilsinglleft
/OE /bullet /Zcaron /bullet /bullet
/quoteleft /quoteright /quotedblleft /quotedblright /bullet
/endash /emdash /asciitilde /trademark /scaron
/guilsinglright /oe /bullet /zcaron /Ydieresis
/space /exclamdown /cent /sterling /currency
/yen /brokenbar /section /dieresis /copyright
/ordfeminine /guillemotleft /logicalnot /sfthyphen /registered
/macron /degree /plusminus /twosuperior /threesuperior
/acute /mu /paragraph /middot /cedilla
/onesuperior /ordmasculine /guillemotright /onequarter /onehalf
/threequarters /questiondown /Agrave /Aacute /Acircumflex
/Atilde /Adieresis /Aring /AE /Ccedilla
/Egrave /Eacute /Ecircumflex /Edieresis /Igrave
/Iacute /Icircumflex /Idieresis /Eth /Ntilde
/Ograve /Oacute /Ocircumflex /Otilde /Odieresis
/multiply /Oslash /Ugrave /Uacute /Ucircumflex
/Udieresis /Yacute /Thorn /germandbls /agrave
/aacute /acircumflex /atilde /adieresis /aring
/ae /ccedilla /egrave /eacute /ecircumflex
/edieresis /igrave /iacute /icircumflex /idieresis
/eth /ntilde /ograve /oacute /ocircumflex
/otilde /odieresis /divide /oslash /ugrave
/uacute /ucircumflex /udieresis /yacute /thorn
/ydieresis
] def
%%EndResource
%FOPBeginFontReencode
/Courier-Bold findfont
dup length dict begin
  {1 index /FID ne {def} {pop pop} ifelse} forall
  /Encoding WinAnsiEncoding def
  currentdict
end
/Courier-Bold exch definefont pop
/Helvetica findfont
dup length dict begin
  {1 index /FID ne {def} {pop pop} ifelse} forall
  /Encoding WinAnsiEncoding def
  currentdict
end
/Helvetica exch definefont pop
/Courier-BoldOblique findfont
dup length dict begin
  {1 index /FID ne {def} {pop pop} ifelse} forall
  /Encoding WinAnsiEncoding def
  currentdict
end
/Courier-BoldOblique exch definefont pop
/Courier-Oblique findfont
dup length dict begin
  {1 index /FID ne {def} {pop pop} ifelse} forall
  /Encoding WinAnsiEncoding def
  currentdict
end
/Courier-Oblique exch definefont pop
/Times-Roman findfont
dup length dict begin
  {1 index /FID ne {def} {pop pop} ifelse} forall
  /Encoding WinAnsiEncoding def
  currentdict
end
/Times-Roman exch definefont pop
/Helvetica-BoldOblique findfont
dup length dict begin
  {1 index /FID ne {def} {pop pop} ifelse} forall
  /Encoding WinAnsiEncoding def
  currentdict
end
/Helvetica-BoldOblique exch definefont pop
/Helvetica-Bold findfont
dup length dict begin
  {1 index /FID ne {def} {pop pop} ifelse} forall
  /Encoding WinAnsiEncoding def
  currentdict
end
/Helvetica-Bold exch definefont pop
/Helvetica-Oblique findfont
dup length dict begin
  {1 index /FID ne {def} {pop pop} ifelse} forall
  /Encoding WinAnsiEncoding def
  currentdict
end
/Helvetica-Oblique exch definefont pop
/Times-BoldItalic findfont
dup length dict begin
  {1 index /FID ne {def} {pop pop} ifelse} forall
  /Encoding WinAnsiEncoding def
  currentdict
end
/Times-BoldItalic exch definefont pop
/Courier findfont
dup length dict begin
  {1 index /FID ne {def} {pop pop} ifelse} forall
  /Encoding WinAnsiEncoding def
  currentdict
end
/Courier exch definefont pop
/Times-Italic findfont
dup length dict begin
  {1 index /FID ne {def} {pop pop} ifelse} forall
  /Encoding WinAnsiEncoding def
  currentdict
end
/Times-Italic exch definefont pop
/Times-Bold findfont
dup length dict begin
  {1 index /FID ne {def} {pop pop} ifelse} forall
  /Encoding WinAnsiEncoding def
  currentdict
end
/Times-Bold exch definefont pop
%FOPEndFontReencode
%%EndProlog
%%Page: 1 1
%%PageBoundingBox: 0 0 420 315
%%BeginPageSetup
[1 0 0 -1 0 315] CT
%%EndPageSetup
GS
[0.75 0 0 0.75 0 0] CT
1 GC
N
0 0 560 420 re
f
GR
GS
[0.75 0 0 0.75 0 0] CT
1 GC
N
0 0 560 420 re
f
GR
GS
[0.75 0 0 0.75 0 0] CT
1 GC
N
73 374 M
507 374 L
507 31 L
73 31 L
cp
f
GR
GS
[0.75 0 0 0.75 0 0] CT
0.149 GC
2 setlinecap
1 LJ
0.667 LW
N
73 374 M
507 374 L
S
GR
GS
[0.75 0 0 0.75 0 0] CT
0.149 GC
2 setlinecap
1 LJ
0.667 LW
N
73 374 M
73 369.66 L
S
GR
GS
[0.75 0 0 0.75 0 0] CT
0.149 GC
2 setlinecap
1 LJ
0.667 LW
N
116.4 374 M
116.4 369.66 L
S
GR
GS
[0.75 0 0 0.75 0 0] CT
0.149 GC
2 setlinecap
1 LJ
0.667 LW
N
159.8 374 M
159.8 369.66 L
S
GR
GS
[0.75 0 0 0.75 0 0] CT
0.149 GC
2 setlinecap
1 LJ
0.667 LW
N
203.2 374 M
203.2 369.66 L
S
GR
GS
[0.75 0 0 0.75 0 0] CT
0.149 GC
2 setlinecap
1 LJ
0.667 LW
N
246.6 374 M
246.6 369.66 L
S
GR
GS
[0.75 0 0 0.75 0 0] CT
0.149 GC
2 setlinecap
1 LJ
0.667 LW
N
290 374 M
290 369.66 L
S
GR
GS
[0.75 0 0 0.75 0 0] CT
0.149 GC
2 setlinecap
1 LJ
0.667 LW
N
333.4 374 M
333.4 369.66 L
S
GR
GS
[0.75 0 0 0.75 0 0] CT
0.149 GC
2 setlinecap
1 LJ
0.667 LW
N
376.8 374 M
376.8 369.66 L
S
GR
GS
[0.75 0 0 0.75 0 0] CT
0.149 GC
2 setlinecap
1 LJ
0.667 LW
N
420.2 374 M
420.2 369.66 L
S
GR
GS
[0.75 0 0 0.75 0 0] CT
0.149 GC
2 setlinecap
1 LJ
0.667 LW
N
463.6 374 M
463.6 369.66 L
S
GR
GS
[0.75 0 0 0.75 0 0] CT
0.149 GC
2 setlinecap
1 LJ
0.667 LW
N
507 374 M
507 369.66 L
S
GR
GS
[0.75 0 0 0.75 54.75 284.50001] CT
0.149 GC
/Helvetica 13 F
GS
[1 0 0 1 0 0] CT
-4 13 moveto 
1 -1 scale
(0) t 
GR
GR
GS
[0.75 0 0 0.75 87.3 284.50001] CT
0.149 GC
/Helvetica 13 F
GS
[1 0 0 1 0 0] CT
-7.5 13 moveto 
1 -1 scale
(20) t 
GR
GR
GS
[0.75 0 0 0.75 119.85 284.50001] CT
0.149 GC
/Helvetica 13 F
GS
[1 0 0 1 0 0] CT
-7.5 13 moveto 
1 -1 scale
(40) t 
GR
GR
GS
[0.75 0 0 0.75 152.4 284.50001] CT
0.149 GC
/Helvetica 13 F
GS
[1 0 0 1 0 0] CT
-7.5 13 moveto 
1 -1 scale
(60) t 
GR
GR
GS
[0.75 0 0 0.75 184.95 284.50001] CT
0.149 GC
/Helvetica 13 F
GS
[1 0 0 1 0 0] CT
-7.5 13 moveto 
1 -1 scale
(80) t 
GR
GR
GS
[0.75 0 0 0.75 217.5 284.50001] CT
0.149 GC
/Helvetica 13 F
GS
[1 0 0 1 0 0] CT
-11 13 moveto 
1 -1 scale
(100) t 
GR
GR
GS
[0.75 0 0 0.75 250.05 284.50001] CT
0.149 GC
/Helvetica 13 F
GS
[1 0 0 1 0 0] CT
-11 13 moveto 
1 -1 scale
(120) t 
GR
GR
GS
[0.75 0 0 0.75 282.59999 284.50001] CT
0.149 GC
/Helvetica 13 F
GS
[1 0 0 1 0 0] CT
-11 13 moveto 
1 -1 scale
(140) t 
GR
GR
GS
[0.75 0 0 0.75 315.15001 284.50001] CT
0.149 GC
/Helvetica 13 F
GS
[1 0 0 1 0 0] CT
-11 13 moveto 
1 -1 scale
(160) t 
GR
GR
GS
[0.75 0 0 0.75 347.7 284.50001] CT
0.149 GC
/Helvetica 13 F
GS
[1 0 0 1 0 0] CT
-11 13 moveto 
1 -1 scale
(180) t 
GR
GR
GS
[0.75 0 0 0.75 380.25 284.50001] CT
0.149 GC
/Helvetica 13 F
GS
[1 0 0 1 0 0] CT
-11 13 moveto 
1 -1 scale
(200) t 
GR
GR
GS
[0.75 0 0 0.75 217.50016 297.49999] CT
0.149 GC
/Helvetica 15 F
GS
[1 0 0 1 0 0] CT
-11 14 moveto 
1 -1 scale
(t\(s\)) t 
GR
GR
GS
[0.75 0 0 0.75 0 0] CT
0.149 GC
2 setlinecap
1 LJ
0.667 LW
N
73 374 M
73 31 L
S
GR
GS
[0.75 0 0 0.75 0 0] CT
0.149 GC
2 setlinecap
1 LJ
0.667 LW
N
73 374 M
77.34 374 L
S
GR
GS
[0.75 0 0 0.75 0 0] CT
0.149 GC
2 setlinecap
1 LJ
0.667 LW
N
73 316.833 M
77.34 316.833 L
S
GR
GS
[0.75 0 0 0.75 0 0] CT
0.149 GC
2 setlinecap
1 LJ
0.667 LW
N
73 259.667 M
77.34 259.667 L
S
GR
GS
[0.75 0 0 0.75 0 0] CT
0.149 GC
2 setlinecap
1 LJ
0.667 LW
N
73 202.5 M
77.34 202.5 L
S
GR
GS
[0.75 0 0 0.75 0 0] CT
0.149 GC
2 setlinecap
1 LJ
0.667 LW
N
73 145.333 M
77.34 145.333 L
S
GR
GS
[0.75 0 0 0.75 0 0] CT
0.149 GC
2 setlinecap
1 LJ
0.667 LW
N
73 88.167 M
77.34 88.167 L
S
GR
GS
[0.75 0 0 0.75 0 0] CT
0.149 GC
2 setlinecap
1 LJ
0.667 LW
N
73 31 M
77.34 31 L
S
GR
GS
[0.75 0 0 0.75 50.75 280.5] CT
0.149 GC
/Helvetica 13 F
GS
[1 0 0 1 0 0] CT
-23 5 moveto 
1 -1 scale
(-0.2) t 
GR
GR
GS
[0.75 0 0 0.75 50.75 237.62501] CT
0.149 GC
/Helvetica 13 F
GS
[1 0 0 1 0 0] CT
-8 5 moveto 
1 -1 scale
(0) t 
GR
GR
GS
[0.75 0 0 0.75 50.75 194.74999] CT
0.149 GC
/Helvetica 13 F
GS
[1 0 0 1 0 0] CT
-19 5 moveto 
1 -1 scale
(0.2) t 
GR
GR
GS
[0.75 0 0 0.75 50.75 151.875] CT
0.149 GC
/Helvetica 13 F
GS
[1 0 0 1 0 0] CT
-19 5 moveto 
1 -1 scale
(0.4) t 
GR
GR
GS
[0.75 0 0 0.75 50.75 109] CT
0.149 GC
/Helvetica 13 F
GS
[1 0 0 1 0 0] CT
-19 5 moveto 
1 -1 scale
(0.6) t 
GR
GR
GS
[0.75 0 0 0.75 50.75 66.125] CT
0.149 GC
/Helvetica 13 F
GS
[1 0 0 1 0 0] CT
-19 5 moveto 
1 -1 scale
(0.8) t 
GR
GR
GS
[0.75 0 0 0.75 50.75 23.25] CT
0.149 GC
/Helvetica 13 F
GS
[1 0 0 1 0 0] CT
-8 5 moveto 
1 -1 scale
(1) t 
GR
GR
GS
[0.75 0 0 0.75 217.50021 21.18749] CT
/any-Bold 15 F
GS
[1 0 0 1 0 0] CT
-95.5 -4 moveto 
1 -1 scale
(Nonlinear system - step u2) t 
GR
GR
GS
[0.75 0 0 0.75 0 0] CT
0 0 1 RC
1 LJ
0.667 LW
N
73 316.833 M
75.17 316.833 L
77.34 316.833 L
79.51 316.833 L
81.68 316.833 L
83.85 316.833 L
86.02 316.833 L
88.19 316.833 L
90.36 316.833 L
92.53 316.833 L
94.7 316.833 L
96.87 316.833 L
99.04 316.833 L
101.21 316.833 L
103.38 316.833 L
105.55 316.833 L
107.72 316.833 L
109.89 316.833 L
112.06 316.833 L
114.23 316.833 L
116.4 316.833 L
118.57 316.833 L
120.74 316.833 L
122.91 316.833 L
125.08 316.833 L
127.25 316.833 L
129.42 316.833 L
131.59 316.833 L
133.76 316.833 L
135.93 316.833 L
138.1 316.833 L
140.27 316.833 L
142.44 316.833 L
144.61 316.833 L
146.78 316.833 L
148.95 316.833 L
151.12 316.833 L
153.29 316.833 L
155.46 316.833 L
157.63 316.833 L
159.8 316.833 L
161.97 316.833 L
164.14 316.833 L
166.31 316.833 L
168.48 316.833 L
170.65 316.833 L
172.82 316.833 L
174.99 316.833 L
177.16 316.833 L
179.33 316.833 L
S
GR
GS
[0.75 0 0 0.75 0 0] CT
0 0 1 RC
1 LJ
0.667 LW
N
177.16 316.833 M
179.33 316.833 L
181.5 316.833 L
183.67 316.833 L
185.84 316.833 L
188.01 316.833 L
190.18 316.833 L
192.35 316.833 L
194.52 316.833 L
196.69 316.833 L
198.86 316.833 L
201.03 316.833 L
203.2 316.833 L
205.37 316.833 L
207.54 316.833 L
209.71 316.833 L
211.88 316.833 L
214.05 316.833 L
216.22 316.833 L
218.39 316.833 L
220.56 316.833 L
222.73 316.833 L
224.9 316.833 L
227.07 316.833 L
229.24 316.833 L
231.41 316.833 L
233.58 316.833 L
235.75 316.833 L
237.92 316.833 L
240.09 316.833 L
242.26 316.833 L
244.43 316.833 L
246.6 316.833 L
248.77 316.833 L
250.94 316.833 L
253.11 316.833 L
255.28 316.833 L
257.45 316.833 L
259.62 316.833 L
261.79 316.833 L
263.96 316.833 L
266.13 316.833 L
268.3 316.833 L
270.47 316.833 L
272.64 316.833 L
274.81 316.833 L
276.98 316.833 L
279.15 316.833 L
281.32 316.833 L
283.49 316.833 L
285.66 316.833 L
287.83 316.833 L
S
GR
GS
[0.75 0 0 0.75 0 0] CT
0 0 1 RC
1 LJ
0.667 LW
N
285.66 316.833 M
287.83 316.833 L
290 316.833 L
292.17 316.833 L
294.34 316.833 L
296.51 316.833 L
298.68 316.833 L
300.85 316.833 L
303.02 316.833 L
305.19 316.833 L
307.36 316.833 L
309.53 316.833 L
311.7 316.833 L
313.87 316.833 L
316.04 316.833 L
318.21 316.833 L
320.38 316.833 L
322.55 316.833 L
324.72 316.833 L
326.89 316.833 L
329.06 316.833 L
331.23 316.833 L
333.4 316.833 L
335.57 316.833 L
337.74 316.833 L
339.91 316.833 L
342.08 316.833 L
344.25 316.833 L
346.42 316.833 L
348.59 316.833 L
350.76 316.833 L
352.93 316.833 L
355.1 316.833 L
357.27 316.833 L
359.44 316.833 L
361.61 316.833 L
363.78 316.833 L
365.95 316.833 L
368.12 316.833 L
370.29 316.833 L
372.46 316.833 L
374.63 316.833 L
376.8 316.833 L
378.97 316.833 L
381.14 316.833 L
383.31 316.833 L
385.48 316.833 L
387.65 316.833 L
389.82 316.833 L
391.99 316.833 L
394.16 316.833 L
396.33 316.833 L
S
GR
GS
[0.75 0 0 0.75 0 0] CT
0 0 1 RC
1 LJ
0.667 LW
N
394.16 316.833 M
396.33 316.833 L
398.5 316.833 L
400.67 316.833 L
402.84 316.833 L
405.01 316.833 L
407.18 316.833 L
409.35 316.833 L
411.52 316.833 L
413.69 316.833 L
415.86 316.833 L
418.03 316.833 L
420.2 316.833 L
422.37 316.833 L
424.54 316.833 L
426.71 316.833 L
428.88 316.833 L
431.05 316.833 L
433.22 316.833 L
435.39 316.833 L
437.56 316.833 L
439.73 316.833 L
441.9 316.833 L
444.07 316.833 L
446.24 316.833 L
448.41 316.833 L
450.58 316.833 L
452.75 316.833 L
454.92 316.833 L
457.09 316.833 L
459.26 316.833 L
461.43 316.833 L
463.6 316.833 L
465.77 316.833 L
467.94 316.833 L
470.11 316.833 L
472.28 316.833 L
474.45 316.833 L
476.62 316.833 L
478.79 316.833 L
480.96 316.833 L
483.13 316.833 L
485.3 316.833 L
487.47 316.833 L
489.64 316.833 L
491.81 316.833 L
493.98 316.833 L
496.15 316.833 L
498.32 316.833 L
500.49 316.833 L
502.66 316.833 L
504.83 316.833 L
S
GR
GS
[0.75 0 0 0.75 0 0] CT
0 0 1 RC
1 LJ
0.667 LW
N
502.66 316.833 M
504.83 316.833 L
507 316.833 L
S
GR
GS
[0.75 0 0 0.75 0 0] CT
0 1 1 RC
1 LJ
0.667 LW
N
73 316.833 M
75.17 316.833 L
77.34 316.833 L
79.51 316.833 L
81.68 316.833 L
83.85 316.833 L
86.02 316.833 L
88.19 316.833 L
90.36 316.833 L
92.53 31 L
94.7 31 L
96.87 31 L
99.04 31 L
101.21 31 L
103.38 31 L
105.55 31 L
107.72 31 L
109.89 31 L
112.06 31 L
114.23 31 L
116.4 31 L
118.57 31 L
120.74 31 L
122.91 31 L
125.08 31 L
127.25 31 L
129.42 31 L
131.59 31 L
133.76 31 L
135.93 31 L
138.1 31 L
140.27 31 L
142.44 31 L
144.61 31 L
146.78 31 L
148.95 31 L
151.12 31 L
153.29 31 L
155.46 31 L
157.63 31 L
159.8 31 L
161.97 31 L
164.14 31 L
166.31 31 L
168.48 31 L
170.65 31 L
172.82 31 L
174.99 31 L
177.16 31 L
179.33 31 L
S
GR
GS
[0.75 0 0 0.75 0 0] CT
0 1 1 RC
1 LJ
0.667 LW
N
177.16 31 M
179.33 31 L
181.5 31 L
183.67 31 L
185.84 31 L
188.01 31 L
190.18 31 L
192.35 31 L
194.52 31 L
196.69 31 L
198.86 31 L
201.03 31 L
203.2 31 L
205.37 31 L
207.54 31 L
209.71 31 L
211.88 31 L
214.05 31 L
216.22 31 L
218.39 31 L
220.56 31 L
222.73 31 L
224.9 31 L
227.07 31 L
229.24 31 L
231.41 31 L
233.58 31 L
235.75 31 L
237.92 31 L
240.09 31 L
242.26 31 L
244.43 31 L
246.6 31 L
248.77 31 L
250.94 31 L
253.11 31 L
255.28 31 L
257.45 31 L
259.62 31 L
261.79 31 L
263.96 31 L
266.13 31 L
268.3 31 L
270.47 31 L
272.64 31 L
274.81 31 L
276.98 31 L
279.15 31 L
281.32 31 L
283.49 31 L
285.66 31 L
287.83 31 L
S
GR
GS
[0.75 0 0 0.75 0 0] CT
0 1 1 RC
1 LJ
0.667 LW
N
285.66 31 M
287.83 31 L
290 31 L
292.17 31 L
294.34 31 L
296.51 31 L
298.68 31 L
300.85 31 L
303.02 31 L
305.19 31 L
307.36 31 L
309.53 31 L
311.7 31 L
313.87 31 L
316.04 31 L
318.21 31 L
320.38 31 L
322.55 31 L
324.72 31 L
326.89 31 L
329.06 31 L
331.23 31 L
333.4 31 L
335.57 31 L
337.74 31 L
339.91 31 L
342.08 31 L
344.25 31 L
346.42 31 L
348.59 31 L
350.76 31 L
352.93 31 L
355.1 31 L
357.27 31 L
359.44 31 L
361.61 31 L
363.78 31 L
365.95 31 L
368.12 31 L
370.29 31 L
372.46 31 L
374.63 31 L
376.8 31 L
378.97 31 L
381.14 31 L
383.31 31 L
385.48 31 L
387.65 31 L
389.82 31 L
391.99 31 L
394.16 31 L
396.33 31 L
S
GR
GS
[0.75 0 0 0.75 0 0] CT
0 1 1 RC
1 LJ
0.667 LW
N
394.16 31 M
396.33 31 L
398.5 31 L
400.67 31 L
402.84 31 L
405.01 31 L
407.18 31 L
409.35 31 L
411.52 31 L
413.69 31 L
415.86 31 L
418.03 31 L
420.2 31 L
422.37 31 L
424.54 31 L
426.71 31 L
428.88 31 L
431.05 31 L
433.22 31 L
435.39 31 L
437.56 31 L
439.73 31 L
441.9 31 L
444.07 31 L
446.24 31 L
448.41 31 L
450.58 31 L
452.75 31 L
454.92 31 L
457.09 31 L
459.26 31 L
461.43 31 L
463.6 31 L
465.77 31 L
467.94 31 L
470.11 31 L
472.28 31 L
474.45 31 L
476.62 31 L
478.79 31 L
480.96 31 L
483.13 31 L
485.3 31 L
487.47 31 L
489.64 31 L
491.81 31 L
493.98 31 L
496.15 31 L
498.32 31 L
500.49 31 L
502.66 31 L
504.83 31 L
S
GR
GS
[0.75 0 0 0.75 0 0] CT
0 1 1 RC
1 LJ
0.667 LW
N
502.66 31 M
504.83 31 L
507 31 L
S
GR
GS
[0.75 0 0 0.75 0 0] CT
1 0 0 RC
1 LJ
0.667 LW
N
73 316.833 M
75.17 316.832 L
77.34 316.832 L
79.51 316.831 L
81.68 316.831 L
83.85 316.831 L
86.02 316.83 L
88.19 316.83 L
90.36 316.83 L
92.53 316.83 L
94.7 316.807 L
96.87 316.754 L
99.04 316.677 L
101.21 316.583 L
103.38 316.476 L
105.55 316.359 L
107.72 316.234 L
109.89 316.104 L
112.06 315.97 L
114.23 315.834 L
116.4 315.696 L
118.57 315.558 L
120.74 315.419 L
122.91 315.28 L
125.08 315.142 L
127.25 315.005 L
129.42 314.869 L
131.59 314.735 L
133.76 314.602 L
135.93 314.47 L
138.1 314.34 L
140.27 314.211 L
142.44 314.085 L
144.61 313.959 L
146.78 313.836 L
148.95 313.714 L
151.12 313.594 L
153.29 313.476 L
155.46 313.359 L
157.63 313.244 L
159.8 313.13 L
161.97 313.018 L
164.14 312.908 L
166.31 312.799 L
168.48 312.692 L
170.65 312.586 L
172.82 312.482 L
174.99 312.38 L
177.16 312.278 L
179.33 312.179 L
S
GR
GS
[0.75 0 0 0.75 0 0] CT
1 0 0 RC
1 LJ
0.667 LW
N
177.16 312.278 M
179.33 312.179 L
181.5 312.08 L
183.67 311.984 L
185.84 311.888 L
188.01 311.794 L
190.18 311.701 L
192.35 311.61 L
194.52 311.52 L
196.69 311.431 L
198.86 311.344 L
201.03 311.257 L
203.2 311.172 L
205.37 311.089 L
207.54 311.006 L
209.71 310.925 L
211.88 310.844 L
214.05 310.765 L
216.22 310.687 L
218.39 310.611 L
220.56 310.535 L
222.73 310.46 L
224.9 310.387 L
227.07 310.314 L
229.24 310.243 L
231.41 310.172 L
233.58 310.103 L
235.75 310.035 L
237.92 309.967 L
240.09 309.901 L
242.26 309.835 L
244.43 309.771 L
246.6 309.707 L
248.77 309.644 L
250.94 309.583 L
253.11 309.522 L
255.28 309.462 L
257.45 309.402 L
259.62 309.344 L
261.79 309.287 L
263.96 309.23 L
266.13 309.174 L
268.3 309.119 L
270.47 309.065 L
272.64 309.011 L
274.81 308.959 L
276.98 308.907 L
279.15 308.855 L
281.32 308.805 L
283.49 308.755 L
285.66 308.706 L
287.83 308.658 L
S
GR
GS
[0.75 0 0 0.75 0 0] CT
1 0 0 RC
1 LJ
0.667 LW
N
285.66 308.706 M
287.83 308.658 L
290 308.61 L
292.17 308.563 L
294.34 308.517 L
296.51 308.471 L
298.68 308.426 L
300.85 308.382 L
303.02 308.339 L
305.19 308.295 L
307.36 308.253 L
309.53 308.211 L
311.7 308.17 L
313.87 308.129 L
316.04 308.089 L
318.21 308.05 L
320.38 308.011 L
322.55 307.973 L
324.72 307.935 L
326.89 307.898 L
329.06 307.861 L
331.23 307.825 L
333.4 307.789 L
335.57 307.754 L
337.74 307.719 L
339.91 307.685 L
342.08 307.651 L
344.25 307.618 L
346.42 307.585 L
348.59 307.553 L
350.76 307.521 L
352.93 307.49 L
355.1 307.459 L
357.27 307.429 L
359.44 307.399 L
361.61 307.369 L
363.78 307.34 L
365.95 307.311 L
368.12 307.283 L
370.29 307.255 L
372.46 307.228 L
374.63 307.201 L
376.8 307.174 L
378.97 307.147 L
381.14 307.121 L
383.31 307.096 L
385.48 307.071 L
387.65 307.046 L
389.82 307.021 L
391.99 306.997 L
394.16 306.973 L
396.33 306.95 L
S
GR
GS
[0.75 0 0 0.75 0 0] CT
1 0 0 RC
1 LJ
0.667 LW
N
394.16 306.973 M
396.33 306.95 L
398.5 306.927 L
400.67 306.904 L
402.84 306.881 L
405.01 306.859 L
407.18 306.837 L
409.35 306.816 L
411.52 306.795 L
413.69 306.774 L
415.86 306.753 L
418.03 306.733 L
420.2 306.713 L
422.37 306.693 L
424.54 306.674 L
426.71 306.655 L
428.88 306.636 L
431.05 306.617 L
433.22 306.599 L
435.39 306.581 L
437.56 306.563 L
439.73 306.545 L
441.9 306.528 L
444.07 306.511 L
446.24 306.494 L
448.41 306.477 L
450.58 306.461 L
452.75 306.445 L
454.92 306.429 L
457.09 306.413 L
459.26 306.398 L
461.43 306.383 L
463.6 306.368 L
465.77 306.353 L
467.94 306.338 L
470.11 306.324 L
472.28 306.31 L
474.45 306.296 L
476.62 306.282 L
478.79 306.268 L
480.96 306.255 L
483.13 306.242 L
485.3 306.229 L
487.47 306.216 L
489.64 306.203 L
491.81 306.191 L
493.98 306.179 L
496.15 306.167 L
498.32 306.155 L
500.49 306.143 L
502.66 306.131 L
504.83 306.12 L
S
GR
GS
[0.75 0 0 0.75 0 0] CT
1 0 0 RC
1 LJ
0.667 LW
N
502.66 306.131 M
504.83 306.12 L
507 306.109 L
S
GR
GS
[0.75 0 0 0.75 0 0] CT
1 0 1 RC
1 LJ
0.667 LW
N
73 316.833 M
75.17 316.833 L
77.34 316.833 L
79.51 316.833 L
81.68 316.833 L
83.85 316.833 L
86.02 316.833 L
88.19 316.833 L
90.36 316.833 L
92.53 316.824 L
94.7 316.753 L
96.87 316.684 L
99.04 316.615 L
101.21 316.548 L
103.38 316.481 L
105.55 316.416 L
107.72 316.351 L
109.89 316.288 L
112.06 316.225 L
114.23 316.164 L
116.4 316.103 L
118.57 316.044 L
120.74 315.985 L
122.91 315.927 L
125.08 315.87 L
127.25 315.814 L
129.42 315.759 L
131.59 315.705 L
133.76 315.651 L
135.93 315.599 L
138.1 315.547 L
140.27 315.496 L
142.44 315.446 L
144.61 315.396 L
146.78 315.348 L
148.95 315.3 L
151.12 315.252 L
153.29 315.206 L
155.46 315.16 L
157.63 315.115 L
159.8 315.071 L
161.97 315.027 L
164.14 314.984 L
166.31 314.942 L
168.48 314.9 L
170.65 314.859 L
172.82 314.819 L
174.99 314.779 L
177.16 314.74 L
179.33 314.701 L
S
GR
GS
[0.75 0 0 0.75 0 0] CT
1 0 1 RC
1 LJ
0.667 LW
N
177.16 314.74 M
179.33 314.701 L
181.5 314.663 L
183.67 314.626 L
185.84 314.589 L
188.01 314.553 L
190.18 314.517 L
192.35 314.482 L
194.52 314.448 L
196.69 314.414 L
198.86 314.38 L
201.03 314.347 L
203.2 314.315 L
205.37 314.283 L
207.54 314.251 L
209.71 314.22 L
211.88 314.19 L
214.05 314.159 L
216.22 314.13 L
218.39 314.101 L
220.56 314.072 L
222.73 314.044 L
224.9 314.016 L
227.07 313.989 L
229.24 313.962 L
231.41 313.935 L
233.58 313.909 L
235.75 313.883 L
237.92 313.858 L
240.09 313.833 L
242.26 313.808 L
244.43 313.784 L
246.6 313.76 L
248.77 313.737 L
250.94 313.714 L
253.11 313.691 L
255.28 313.669 L
257.45 313.647 L
259.62 313.625 L
261.79 313.604 L
263.96 313.583 L
266.13 313.562 L
268.3 313.542 L
270.47 313.522 L
272.64 313.502 L
274.81 313.482 L
276.98 313.463 L
279.15 313.444 L
281.32 313.426 L
283.49 313.408 L
285.66 313.39 L
287.83 313.372 L
S
GR
GS
[0.75 0 0 0.75 0 0] CT
1 0 1 RC
1 LJ
0.667 LW
N
285.66 313.39 M
287.83 313.372 L
290 313.354 L
292.17 313.337 L
294.34 313.32 L
296.51 313.304 L
298.68 313.287 L
300.85 313.271 L
303.02 313.255 L
305.19 313.24 L
307.36 313.224 L
309.53 313.209 L
311.7 313.194 L
313.87 313.179 L
316.04 313.165 L
318.21 313.151 L
320.38 313.136 L
322.55 313.123 L
324.72 313.109 L
326.89 313.096 L
329.06 313.082 L
331.23 313.069 L
333.4 313.057 L
335.57 313.044 L
337.74 313.032 L
339.91 313.019 L
342.08 313.007 L
344.25 312.996 L
346.42 312.984 L
348.59 312.973 L
350.76 312.961 L
352.93 312.95 L
355.1 312.939 L
357.27 312.928 L
359.44 312.918 L
361.61 312.907 L
363.78 312.897 L
365.95 312.887 L
368.12 312.877 L
370.29 312.867 L
372.46 312.857 L
374.63 312.848 L
376.8 312.838 L
378.97 312.829 L
381.14 312.82 L
383.31 312.811 L
385.48 312.802 L
387.65 312.794 L
389.82 312.785 L
391.99 312.777 L
394.16 312.768 L
396.33 312.76 L
S
GR
GS
[0.75 0 0 0.75 0 0] CT
1 0 1 RC
1 LJ
0.667 LW
N
394.16 312.768 M
396.33 312.76 L
398.5 312.752 L
400.67 312.744 L
402.84 312.737 L
405.01 312.729 L
407.18 312.721 L
409.35 312.714 L
411.52 312.707 L
413.69 312.699 L
415.86 312.692 L
418.03 312.685 L
420.2 312.678 L
422.37 312.672 L
424.54 312.665 L
426.71 312.658 L
428.88 312.652 L
431.05 312.646 L
433.22 312.639 L
435.39 312.633 L
437.56 312.627 L
439.73 312.621 L
441.9 312.615 L
444.07 312.609 L
446.24 312.604 L
448.41 312.598 L
450.58 312.593 L
452.75 312.587 L
454.92 312.582 L
457.09 312.577 L
459.26 312.571 L
461.43 312.566 L
463.6 312.561 L
465.77 312.556 L
467.94 312.551 L
470.11 312.547 L
472.28 312.542 L
474.45 312.537 L
476.62 312.533 L
478.79 312.528 L
480.96 312.524 L
483.13 312.519 L
485.3 312.515 L
487.47 312.511 L
489.64 312.506 L
491.81 312.502 L
493.98 312.498 L
496.15 312.494 L
498.32 312.49 L
500.49 312.486 L
502.66 312.483 L
504.83 312.479 L
S
GR
GS
[0.75 0 0 0.75 0 0] CT
1 0 1 RC
1 LJ
0.667 LW
N
502.66 312.483 M
504.83 312.479 L
507 312.475 L
S
GR
GS
[0.75 0 0 0.75 0 0] CT
1 GC
N
424 112 M
424 44 L
494 44 L
494 112 L
cp
f
GR
GS
[0.75 0 0 0.75 357 40.7005] CT
/Helvetica 12 F
GS
[1 0 0 1 0 0] CT
0 4.5 moveto 
1 -1 scale
(u1) t 
GR
GR
GS
[0.75 0 0 0.75 0 0] CT
0 0 1 RC
1 LJ
0.667 LW
N
432 54.267 M
472 54.267 L
S
GR
GS
[0.75 0 0 0.75 357 52.56683] CT
/Helvetica 12 F
GS
[1 0 0 1 0 0] CT
0 4.5 moveto 
1 -1 scale
(u2) t 
GR
GR
GS
[0.75 0 0 0.75 0 0] CT
0 1 1 RC
1 LJ
0.667 LW
N
432 70.089 M
472 70.089 L
S
GR
GS
[0.75 0 0 0.75 357 64.43317] CT
/Helvetica 12 F
GS
[1 0 0 1 0 0] CT
0 4.5 moveto 
1 -1 scale
(y1) t 
GR
GR
GS
[0.75 0 0 0.75 0 0] CT
1 0 0 RC
1 LJ
0.667 LW
N
432 85.911 M
472 85.911 L
S
GR
GS
[0.75 0 0 0.75 357 76.29951] CT
/Helvetica 12 F
GS
[1 0 0 1 0 0] CT
0 4.5 moveto 
1 -1 scale
(y2) t 
GR
GR
GS
[0.75 0 0 0.75 0 0] CT
1 0 1 RC
1 LJ
0.667 LW
N
432 101.733 M
472 101.733 L
S
GR
GS
[0.75 0 0 0.75 0 0] CT
0.149 GC
10.0 ML
0.667 LW
N
424 112 M
424 44 L
494 44 L
494 112 L
cp
S
GR
%%Trailer
%%Pages: 1
%%EOF
