%!PS-Adobe-3.0 EPSF-3.0
%%Creator: (MATLAB, The Mathworks, Inc. Version 8.6.0.267246 \(R2015b\). Operating System: Windows 8)
%%Title: E:/Projects/skola/rls/pics/SP1/compare_ns_u1.eps
%%CreationDate: 2017-03-03T09:27:20
%%Pages: (atend)
%%BoundingBox: 0 0 420 315
%%LanguageLevel: 2
%%EndComments
%%BeginProlog
%%BeginResource: procset (Apache XML Graphics Std ProcSet) 1.2 0
%%Version: 1.2 0
%%Copyright: (Copyright 2001-2003,2010 The Apache Software Foundation. License terms: http://www.apache.org/licenses/LICENSE-2.0)
/bd{bind def}bind def
/ld{load def}bd
/GR/grestore ld
/M/moveto ld
/LJ/setlinejoin ld
/C/curveto ld
/f/fill ld
/LW/setlinewidth ld
/GC/setgray ld
/t/show ld
/N/newpath ld
/CT/concat ld
/cp/closepath ld
/S/stroke ld
/L/lineto ld
/CC/setcmykcolor ld
/A/ashow ld
/GS/gsave ld
/RC/setrgbcolor ld
/RM/rmoveto ld
/ML/setmiterlimit ld
/re {4 2 roll M
1 index 0 rlineto
0 exch rlineto
neg 0 rlineto
cp } bd
/_ctm matrix def
/_tm matrix def
/BT { _ctm currentmatrix pop matrix _tm copy pop 0 0 moveto } bd
/ET { _ctm setmatrix } bd
/iTm { _ctm setmatrix _tm concat } bd
/Tm { _tm astore pop iTm 0 0 moveto } bd
/ux 0.0 def
/uy 0.0 def
/F {
  /Tp exch def
  /Tf exch def
  Tf findfont Tp scalefont setfont
  /cf Tf def  /cs Tp def
} bd
/ULS {currentpoint /uy exch def /ux exch def} bd
/ULE {
  /Tcx currentpoint pop def
  gsave
  newpath
  cf findfont cs scalefont dup
  /FontMatrix get 0 get /Ts exch def /FontInfo get dup
  /UnderlinePosition get Ts mul /To exch def
  /UnderlineThickness get Ts mul /Tt exch def
  ux uy To add moveto  Tcx uy To add lineto
  Tt setlinewidth stroke
  grestore
} bd
/OLE {
  /Tcx currentpoint pop def
  gsave
  newpath
  cf findfont cs scalefont dup
  /FontMatrix get 0 get /Ts exch def /FontInfo get dup
  /UnderlinePosition get Ts mul /To exch def
  /UnderlineThickness get Ts mul /Tt exch def
  ux uy To add cs add moveto Tcx uy To add cs add lineto
  Tt setlinewidth stroke
  grestore
} bd
/SOE {
  /Tcx currentpoint pop def
  gsave
  newpath
  cf findfont cs scalefont dup
  /FontMatrix get 0 get /Ts exch def /FontInfo get dup
  /UnderlinePosition get Ts mul /To exch def
  /UnderlineThickness get Ts mul /Tt exch def
  ux uy To add cs 10 mul 26 idiv add moveto Tcx uy To add cs 10 mul 26 idiv add lineto
  Tt setlinewidth stroke
  grestore
} bd
/QT {
/Y22 exch store
/X22 exch store
/Y21 exch store
/X21 exch store
currentpoint
/Y21 load 2 mul add 3 div exch
/X21 load 2 mul add 3 div exch
/X21 load 2 mul /X22 load add 3 div
/Y21 load 2 mul /Y22 load add 3 div
/X22 load /Y22 load curveto
} bd
/SSPD {
dup length /d exch dict def
{
/v exch def
/k exch def
currentpagedevice k known {
/cpdv currentpagedevice k get def
v cpdv ne {
/upd false def
/nullv v type /nulltype eq def
/nullcpdv cpdv type /nulltype eq def
nullv nullcpdv or
{
/upd true def
} {
/sametype v type cpdv type eq def
sametype {
v type /arraytype eq {
/vlen v length def
/cpdvlen cpdv length def
vlen cpdvlen eq {
0 1 vlen 1 sub {
/i exch def
/obj v i get def
/cpdobj cpdv i get def
obj cpdobj ne {
/upd true def
exit
} if
} for
} {
/upd true def
} ifelse
} {
v type /dicttype eq {
v {
/dv exch def
/dk exch def
/cpddv cpdv dk get def
dv cpddv ne {
/upd true def
exit
} if
} forall
} {
/upd true def
} ifelse
} ifelse
} if
} ifelse
upd true eq {
d k v put
} if
} if
} if
} forall
d length 0 gt {
d setpagedevice
} if
} bd
%%EndResource
%%BeginResource: procset (Apache XML Graphics EPS ProcSet) 1.0 0
%%Version: 1.0 0
%%Copyright: (Copyright 2002-2003 The Apache Software Foundation. License terms: http://www.apache.org/licenses/LICENSE-2.0)
/BeginEPSF { %def
/b4_Inc_state save def         % Save state for cleanup
/dict_count countdictstack def % Count objects on dict stack
/op_count count 1 sub def      % Count objects on operand stack
userdict begin                 % Push userdict on dict stack
/showpage { } def              % Redefine showpage, { } = null proc
0 setgray 0 setlinecap         % Prepare graphics state
1 setlinewidth 0 setlinejoin
10 setmiterlimit [ ] 0 setdash newpath
/languagelevel where           % If level not equal to 1 then
{pop languagelevel             % set strokeadjust and
1 ne                           % overprint to their defaults.
{false setstrokeadjust false setoverprint
} if
} if
} bd
/EndEPSF { %def
count op_count sub {pop} repeat            % Clean up stacks
countdictstack dict_count sub {end} repeat
b4_Inc_state restore
} bd
%%EndResource
%FOPBeginFontDict
%%IncludeResource: font Courier-Bold
%%IncludeResource: font Helvetica
%%IncludeResource: font Courier-BoldOblique
%%IncludeResource: font Courier-Oblique
%%IncludeResource: font Times-Roman
%%IncludeResource: font Helvetica-BoldOblique
%%IncludeResource: font Helvetica-Bold
%%IncludeResource: font Helvetica-Oblique
%%IncludeResource: font Times-BoldItalic
%%IncludeResource: font Courier
%%IncludeResource: font Times-Italic
%%IncludeResource: font Times-Bold
%%IncludeResource: font Symbol
%%IncludeResource: font ZapfDingbats
%FOPEndFontDict
%%BeginResource: encoding WinAnsiEncoding
/WinAnsiEncoding [
/.notdef /.notdef /.notdef /.notdef /.notdef
/.notdef /.notdef /.notdef /.notdef /.notdef
/.notdef /.notdef /.notdef /.notdef /.notdef
/.notdef /.notdef /.notdef /.notdef /.notdef
/.notdef /.notdef /.notdef /.notdef /.notdef
/.notdef /.notdef /.notdef /.notdef /.notdef
/.notdef /.notdef /space /exclam /quotedbl
/numbersign /dollar /percent /ampersand /quotesingle
/parenleft /parenright /asterisk /plus /comma
/hyphen /period /slash /zero /one
/two /three /four /five /six
/seven /eight /nine /colon /semicolon
/less /equal /greater /question /at
/A /B /C /D /E
/F /G /H /I /J
/K /L /M /N /O
/P /Q /R /S /T
/U /V /W /X /Y
/Z /bracketleft /backslash /bracketright /asciicircum
/underscore /quoteleft /a /b /c
/d /e /f /g /h
/i /j /k /l /m
/n /o /p /q /r
/s /t /u /v /w
/x /y /z /braceleft /bar
/braceright /asciitilde /bullet /Euro /bullet
/quotesinglbase /florin /quotedblbase /ellipsis /dagger
/daggerdbl /circumflex /perthousand /Scaron /guilsinglleft
/OE /bullet /Zcaron /bullet /bullet
/quoteleft /quoteright /quotedblleft /quotedblright /bullet
/endash /emdash /asciitilde /trademark /scaron
/guilsinglright /oe /bullet /zcaron /Ydieresis
/space /exclamdown /cent /sterling /currency
/yen /brokenbar /section /dieresis /copyright
/ordfeminine /guillemotleft /logicalnot /sfthyphen /registered
/macron /degree /plusminus /twosuperior /threesuperior
/acute /mu /paragraph /middot /cedilla
/onesuperior /ordmasculine /guillemotright /onequarter /onehalf
/threequarters /questiondown /Agrave /Aacute /Acircumflex
/Atilde /Adieresis /Aring /AE /Ccedilla
/Egrave /Eacute /Ecircumflex /Edieresis /Igrave
/Iacute /Icircumflex /Idieresis /Eth /Ntilde
/Ograve /Oacute /Ocircumflex /Otilde /Odieresis
/multiply /Oslash /Ugrave /Uacute /Ucircumflex
/Udieresis /Yacute /Thorn /germandbls /agrave
/aacute /acircumflex /atilde /adieresis /aring
/ae /ccedilla /egrave /eacute /ecircumflex
/edieresis /igrave /iacute /icircumflex /idieresis
/eth /ntilde /ograve /oacute /ocircumflex
/otilde /odieresis /divide /oslash /ugrave
/uacute /ucircumflex /udieresis /yacute /thorn
/ydieresis
] def
%%EndResource
%FOPBeginFontReencode
/Courier-Bold findfont
dup length dict begin
  {1 index /FID ne {def} {pop pop} ifelse} forall
  /Encoding WinAnsiEncoding def
  currentdict
end
/Courier-Bold exch definefont pop
/Helvetica findfont
dup length dict begin
  {1 index /FID ne {def} {pop pop} ifelse} forall
  /Encoding WinAnsiEncoding def
  currentdict
end
/Helvetica exch definefont pop
/Courier-BoldOblique findfont
dup length dict begin
  {1 index /FID ne {def} {pop pop} ifelse} forall
  /Encoding WinAnsiEncoding def
  currentdict
end
/Courier-BoldOblique exch definefont pop
/Courier-Oblique findfont
dup length dict begin
  {1 index /FID ne {def} {pop pop} ifelse} forall
  /Encoding WinAnsiEncoding def
  currentdict
end
/Courier-Oblique exch definefont pop
/Times-Roman findfont
dup length dict begin
  {1 index /FID ne {def} {pop pop} ifelse} forall
  /Encoding WinAnsiEncoding def
  currentdict
end
/Times-Roman exch definefont pop
/Helvetica-BoldOblique findfont
dup length dict begin
  {1 index /FID ne {def} {pop pop} ifelse} forall
  /Encoding WinAnsiEncoding def
  currentdict
end
/Helvetica-BoldOblique exch definefont pop
/Helvetica-Bold findfont
dup length dict begin
  {1 index /FID ne {def} {pop pop} ifelse} forall
  /Encoding WinAnsiEncoding def
  currentdict
end
/Helvetica-Bold exch definefont pop
/Helvetica-Oblique findfont
dup length dict begin
  {1 index /FID ne {def} {pop pop} ifelse} forall
  /Encoding WinAnsiEncoding def
  currentdict
end
/Helvetica-Oblique exch definefont pop
/Times-BoldItalic findfont
dup length dict begin
  {1 index /FID ne {def} {pop pop} ifelse} forall
  /Encoding WinAnsiEncoding def
  currentdict
end
/Times-BoldItalic exch definefont pop
/Courier findfont
dup length dict begin
  {1 index /FID ne {def} {pop pop} ifelse} forall
  /Encoding WinAnsiEncoding def
  currentdict
end
/Courier exch definefont pop
/Times-Italic findfont
dup length dict begin
  {1 index /FID ne {def} {pop pop} ifelse} forall
  /Encoding WinAnsiEncoding def
  currentdict
end
/Times-Italic exch definefont pop
/Times-Bold findfont
dup length dict begin
  {1 index /FID ne {def} {pop pop} ifelse} forall
  /Encoding WinAnsiEncoding def
  currentdict
end
/Times-Bold exch definefont pop
%FOPEndFontReencode
%%EndProlog
%%Page: 1 1
%%PageBoundingBox: 0 0 420 315
%%BeginPageSetup
[1 0 0 -1 0 315] CT
%%EndPageSetup
GS
[0.75 0 0 0.75 0 0] CT
1 GC
N
0 0 560 420 re
f
GR
GS
[0.75 0 0 0.75 0 0] CT
1 GC
N
0 0 560 420 re
f
GR
GS
[0.75 0 0 0.75 0 0] CT
1 GC
N
73 374 M
507 374 L
507 31 L
73 31 L
cp
f
GR
GS
[0.75 0 0 0.75 0 0] CT
0.149 GC
2 setlinecap
1 LJ
0.667 LW
N
73 374 M
507 374 L
S
GR
GS
[0.75 0 0 0.75 0 0] CT
0.149 GC
2 setlinecap
1 LJ
0.667 LW
N
73 374 M
73 369.66 L
S
GR
GS
[0.75 0 0 0.75 0 0] CT
0.149 GC
2 setlinecap
1 LJ
0.667 LW
N
116.4 374 M
116.4 369.66 L
S
GR
GS
[0.75 0 0 0.75 0 0] CT
0.149 GC
2 setlinecap
1 LJ
0.667 LW
N
159.8 374 M
159.8 369.66 L
S
GR
GS
[0.75 0 0 0.75 0 0] CT
0.149 GC
2 setlinecap
1 LJ
0.667 LW
N
203.2 374 M
203.2 369.66 L
S
GR
GS
[0.75 0 0 0.75 0 0] CT
0.149 GC
2 setlinecap
1 LJ
0.667 LW
N
246.6 374 M
246.6 369.66 L
S
GR
GS
[0.75 0 0 0.75 0 0] CT
0.149 GC
2 setlinecap
1 LJ
0.667 LW
N
290 374 M
290 369.66 L
S
GR
GS
[0.75 0 0 0.75 0 0] CT
0.149 GC
2 setlinecap
1 LJ
0.667 LW
N
333.4 374 M
333.4 369.66 L
S
GR
GS
[0.75 0 0 0.75 0 0] CT
0.149 GC
2 setlinecap
1 LJ
0.667 LW
N
376.8 374 M
376.8 369.66 L
S
GR
GS
[0.75 0 0 0.75 0 0] CT
0.149 GC
2 setlinecap
1 LJ
0.667 LW
N
420.2 374 M
420.2 369.66 L
S
GR
GS
[0.75 0 0 0.75 0 0] CT
0.149 GC
2 setlinecap
1 LJ
0.667 LW
N
463.6 374 M
463.6 369.66 L
S
GR
GS
[0.75 0 0 0.75 0 0] CT
0.149 GC
2 setlinecap
1 LJ
0.667 LW
N
507 374 M
507 369.66 L
S
GR
GS
[0.75 0 0 0.75 54.75 284.50001] CT
0.149 GC
/Helvetica 13 F
GS
[1 0 0 1 0 0] CT
-4 13 moveto 
1 -1 scale
(0) t 
GR
GR
GS
[0.75 0 0 0.75 87.3 284.50001] CT
0.149 GC
/Helvetica 13 F
GS
[1 0 0 1 0 0] CT
-7.5 13 moveto 
1 -1 scale
(20) t 
GR
GR
GS
[0.75 0 0 0.75 119.85 284.50001] CT
0.149 GC
/Helvetica 13 F
GS
[1 0 0 1 0 0] CT
-7.5 13 moveto 
1 -1 scale
(40) t 
GR
GR
GS
[0.75 0 0 0.75 152.4 284.50001] CT
0.149 GC
/Helvetica 13 F
GS
[1 0 0 1 0 0] CT
-7.5 13 moveto 
1 -1 scale
(60) t 
GR
GR
GS
[0.75 0 0 0.75 184.95 284.50001] CT
0.149 GC
/Helvetica 13 F
GS
[1 0 0 1 0 0] CT
-7.5 13 moveto 
1 -1 scale
(80) t 
GR
GR
GS
[0.75 0 0 0.75 217.5 284.50001] CT
0.149 GC
/Helvetica 13 F
GS
[1 0 0 1 0 0] CT
-11 13 moveto 
1 -1 scale
(100) t 
GR
GR
GS
[0.75 0 0 0.75 250.05 284.50001] CT
0.149 GC
/Helvetica 13 F
GS
[1 0 0 1 0 0] CT
-11 13 moveto 
1 -1 scale
(120) t 
GR
GR
GS
[0.75 0 0 0.75 282.59999 284.50001] CT
0.149 GC
/Helvetica 13 F
GS
[1 0 0 1 0 0] CT
-11 13 moveto 
1 -1 scale
(140) t 
GR
GR
GS
[0.75 0 0 0.75 315.15001 284.50001] CT
0.149 GC
/Helvetica 13 F
GS
[1 0 0 1 0 0] CT
-11 13 moveto 
1 -1 scale
(160) t 
GR
GR
GS
[0.75 0 0 0.75 347.7 284.50001] CT
0.149 GC
/Helvetica 13 F
GS
[1 0 0 1 0 0] CT
-11 13 moveto 
1 -1 scale
(180) t 
GR
GR
GS
[0.75 0 0 0.75 380.25 284.50001] CT
0.149 GC
/Helvetica 13 F
GS
[1 0 0 1 0 0] CT
-11 13 moveto 
1 -1 scale
(200) t 
GR
GR
GS
[0.75 0 0 0.75 217.50016 297.49999] CT
0.149 GC
/Helvetica 15 F
GS
[1 0 0 1 0 0] CT
-11 14 moveto 
1 -1 scale
(t\(s\)) t 
GR
GR
GS
[0.75 0 0 0.75 0 0] CT
0.149 GC
2 setlinecap
1 LJ
0.667 LW
N
73 374 M
73 31 L
S
GR
GS
[0.75 0 0 0.75 0 0] CT
0.149 GC
2 setlinecap
1 LJ
0.667 LW
N
73 374 M
77.34 374 L
S
GR
GS
[0.75 0 0 0.75 0 0] CT
0.149 GC
2 setlinecap
1 LJ
0.667 LW
N
73 316.833 M
77.34 316.833 L
S
GR
GS
[0.75 0 0 0.75 0 0] CT
0.149 GC
2 setlinecap
1 LJ
0.667 LW
N
73 259.667 M
77.34 259.667 L
S
GR
GS
[0.75 0 0 0.75 0 0] CT
0.149 GC
2 setlinecap
1 LJ
0.667 LW
N
73 202.5 M
77.34 202.5 L
S
GR
GS
[0.75 0 0 0.75 0 0] CT
0.149 GC
2 setlinecap
1 LJ
0.667 LW
N
73 145.333 M
77.34 145.333 L
S
GR
GS
[0.75 0 0 0.75 0 0] CT
0.149 GC
2 setlinecap
1 LJ
0.667 LW
N
73 88.167 M
77.34 88.167 L
S
GR
GS
[0.75 0 0 0.75 0 0] CT
0.149 GC
2 setlinecap
1 LJ
0.667 LW
N
73 31 M
77.34 31 L
S
GR
GS
[0.75 0 0 0.75 50.75 280.5] CT
0.149 GC
/Helvetica 13 F
GS
[1 0 0 1 0 0] CT
-23 5 moveto 
1 -1 scale
(-0.2) t 
GR
GR
GS
[0.75 0 0 0.75 50.75 237.62501] CT
0.149 GC
/Helvetica 13 F
GS
[1 0 0 1 0 0] CT
-8 5 moveto 
1 -1 scale
(0) t 
GR
GR
GS
[0.75 0 0 0.75 50.75 194.74999] CT
0.149 GC
/Helvetica 13 F
GS
[1 0 0 1 0 0] CT
-19 5 moveto 
1 -1 scale
(0.2) t 
GR
GR
GS
[0.75 0 0 0.75 50.75 151.875] CT
0.149 GC
/Helvetica 13 F
GS
[1 0 0 1 0 0] CT
-19 5 moveto 
1 -1 scale
(0.4) t 
GR
GR
GS
[0.75 0 0 0.75 50.75 109] CT
0.149 GC
/Helvetica 13 F
GS
[1 0 0 1 0 0] CT
-19 5 moveto 
1 -1 scale
(0.6) t 
GR
GR
GS
[0.75 0 0 0.75 50.75 66.125] CT
0.149 GC
/Helvetica 13 F
GS
[1 0 0 1 0 0] CT
-19 5 moveto 
1 -1 scale
(0.8) t 
GR
GR
GS
[0.75 0 0 0.75 50.75 23.25] CT
0.149 GC
/Helvetica 13 F
GS
[1 0 0 1 0 0] CT
-8 5 moveto 
1 -1 scale
(1) t 
GR
GR
GS
[0.75 0 0 0.75 217.50021 21.18749] CT
/any-Bold 15 F
GS
[1 0 0 1 0 0] CT
-95.5 -4 moveto 
1 -1 scale
(Nonlinear system - step u1) t 
GR
GR
GS
[0.75 0 0 0.75 0 0] CT
0 0 1 RC
1 LJ
0.667 LW
N
73 316.833 M
75.17 316.833 L
77.34 316.833 L
79.51 316.833 L
81.68 316.833 L
83.85 316.833 L
86.02 316.833 L
88.19 316.833 L
90.36 316.833 L
92.53 31 L
94.7 31 L
96.87 31 L
99.04 31 L
101.21 31 L
103.38 31 L
105.55 31 L
107.72 31 L
109.89 31 L
112.06 31 L
114.23 31 L
116.4 31 L
118.57 31 L
120.74 31 L
122.91 31 L
125.08 31 L
127.25 31 L
129.42 31 L
131.59 31 L
133.76 31 L
135.93 31 L
138.1 31 L
140.27 31 L
142.44 31 L
144.61 31 L
146.78 31 L
148.95 31 L
151.12 31 L
153.29 31 L
155.46 31 L
157.63 31 L
159.8 31 L
161.97 31 L
164.14 31 L
166.31 31 L
168.48 31 L
170.65 31 L
172.82 31 L
174.99 31 L
177.16 31 L
179.33 31 L
S
GR
GS
[0.75 0 0 0.75 0 0] CT
0 0 1 RC
1 LJ
0.667 LW
N
177.16 31 M
179.33 31 L
181.5 31 L
183.67 31 L
185.84 31 L
188.01 31 L
190.18 31 L
192.35 31 L
194.52 31 L
196.69 31 L
198.86 31 L
201.03 31 L
203.2 31 L
205.37 31 L
207.54 31 L
209.71 31 L
211.88 31 L
214.05 31 L
216.22 31 L
218.39 31 L
220.56 31 L
222.73 31 L
224.9 31 L
227.07 31 L
229.24 31 L
231.41 31 L
233.58 31 L
235.75 31 L
237.92 31 L
240.09 31 L
242.26 31 L
244.43 31 L
246.6 31 L
248.77 31 L
250.94 31 L
253.11 31 L
255.28 31 L
257.45 31 L
259.62 31 L
261.79 31 L
263.96 31 L
266.13 31 L
268.3 31 L
270.47 31 L
272.64 31 L
274.81 31 L
276.98 31 L
279.15 31 L
281.32 31 L
283.49 31 L
285.66 31 L
287.83 31 L
S
GR
GS
[0.75 0 0 0.75 0 0] CT
0 0 1 RC
1 LJ
0.667 LW
N
285.66 31 M
287.83 31 L
290 31 L
292.17 31 L
294.34 31 L
296.51 31 L
298.68 31 L
300.85 31 L
303.02 31 L
305.19 31 L
307.36 31 L
309.53 31 L
311.7 31 L
313.87 31 L
316.04 31 L
318.21 31 L
320.38 31 L
322.55 31 L
324.72 31 L
326.89 31 L
329.06 31 L
331.23 31 L
333.4 31 L
335.57 31 L
337.74 31 L
339.91 31 L
342.08 31 L
344.25 31 L
346.42 31 L
348.59 31 L
350.76 31 L
352.93 31 L
355.1 31 L
357.27 31 L
359.44 31 L
361.61 31 L
363.78 31 L
365.95 31 L
368.12 31 L
370.29 31 L
372.46 31 L
374.63 31 L
376.8 31 L
378.97 31 L
381.14 31 L
383.31 31 L
385.48 31 L
387.65 31 L
389.82 31 L
391.99 31 L
394.16 31 L
396.33 31 L
S
GR
GS
[0.75 0 0 0.75 0 0] CT
0 0 1 RC
1 LJ
0.667 LW
N
394.16 31 M
396.33 31 L
398.5 31 L
400.67 31 L
402.84 31 L
405.01 31 L
407.18 31 L
409.35 31 L
411.52 31 L
413.69 31 L
415.86 31 L
418.03 31 L
420.2 31 L
422.37 31 L
424.54 31 L
426.71 31 L
428.88 31 L
431.05 31 L
433.22 31 L
435.39 31 L
437.56 31 L
439.73 31 L
441.9 31 L
444.07 31 L
446.24 31 L
448.41 31 L
450.58 31 L
452.75 31 L
454.92 31 L
457.09 31 L
459.26 31 L
461.43 31 L
463.6 31 L
465.77 31 L
467.94 31 L
470.11 31 L
472.28 31 L
474.45 31 L
476.62 31 L
478.79 31 L
480.96 31 L
483.13 31 L
485.3 31 L
487.47 31 L
489.64 31 L
491.81 31 L
493.98 31 L
496.15 31 L
498.32 31 L
500.49 31 L
502.66 31 L
504.83 31 L
S
GR
GS
[0.75 0 0 0.75 0 0] CT
0 0 1 RC
1 LJ
0.667 LW
N
502.66 31 M
504.83 31 L
507 31 L
S
GR
GS
[0.75 0 0 0.75 0 0] CT
0 1 1 RC
1 LJ
0.667 LW
N
73 316.833 M
75.17 316.833 L
77.34 316.833 L
79.51 316.833 L
81.68 316.833 L
83.85 316.833 L
86.02 316.833 L
88.19 316.833 L
90.36 316.833 L
92.53 316.833 L
94.7 316.833 L
96.87 316.833 L
99.04 316.833 L
101.21 316.833 L
103.38 316.833 L
105.55 316.833 L
107.72 316.833 L
109.89 316.833 L
112.06 316.833 L
114.23 316.833 L
116.4 316.833 L
118.57 316.833 L
120.74 316.833 L
122.91 316.833 L
125.08 316.833 L
127.25 316.833 L
129.42 316.833 L
131.59 316.833 L
133.76 316.833 L
135.93 316.833 L
138.1 316.833 L
140.27 316.833 L
142.44 316.833 L
144.61 316.833 L
146.78 316.833 L
148.95 316.833 L
151.12 316.833 L
153.29 316.833 L
155.46 316.833 L
157.63 316.833 L
159.8 316.833 L
161.97 316.833 L
164.14 316.833 L
166.31 316.833 L
168.48 316.833 L
170.65 316.833 L
172.82 316.833 L
174.99 316.833 L
177.16 316.833 L
179.33 316.833 L
S
GR
GS
[0.75 0 0 0.75 0 0] CT
0 1 1 RC
1 LJ
0.667 LW
N
177.16 316.833 M
179.33 316.833 L
181.5 316.833 L
183.67 316.833 L
185.84 316.833 L
188.01 316.833 L
190.18 316.833 L
192.35 316.833 L
194.52 316.833 L
196.69 316.833 L
198.86 316.833 L
201.03 316.833 L
203.2 316.833 L
205.37 316.833 L
207.54 316.833 L
209.71 316.833 L
211.88 316.833 L
214.05 316.833 L
216.22 316.833 L
218.39 316.833 L
220.56 316.833 L
222.73 316.833 L
224.9 316.833 L
227.07 316.833 L
229.24 316.833 L
231.41 316.833 L
233.58 316.833 L
235.75 316.833 L
237.92 316.833 L
240.09 316.833 L
242.26 316.833 L
244.43 316.833 L
246.6 316.833 L
248.77 316.833 L
250.94 316.833 L
253.11 316.833 L
255.28 316.833 L
257.45 316.833 L
259.62 316.833 L
261.79 316.833 L
263.96 316.833 L
266.13 316.833 L
268.3 316.833 L
270.47 316.833 L
272.64 316.833 L
274.81 316.833 L
276.98 316.833 L
279.15 316.833 L
281.32 316.833 L
283.49 316.833 L
285.66 316.833 L
287.83 316.833 L
S
GR
GS
[0.75 0 0 0.75 0 0] CT
0 1 1 RC
1 LJ
0.667 LW
N
285.66 316.833 M
287.83 316.833 L
290 316.833 L
292.17 316.833 L
294.34 316.833 L
296.51 316.833 L
298.68 316.833 L
300.85 316.833 L
303.02 316.833 L
305.19 316.833 L
307.36 316.833 L
309.53 316.833 L
311.7 316.833 L
313.87 316.833 L
316.04 316.833 L
318.21 316.833 L
320.38 316.833 L
322.55 316.833 L
324.72 316.833 L
326.89 316.833 L
329.06 316.833 L
331.23 316.833 L
333.4 316.833 L
335.57 316.833 L
337.74 316.833 L
339.91 316.833 L
342.08 316.833 L
344.25 316.833 L
346.42 316.833 L
348.59 316.833 L
350.76 316.833 L
352.93 316.833 L
355.1 316.833 L
357.27 316.833 L
359.44 316.833 L
361.61 316.833 L
363.78 316.833 L
365.95 316.833 L
368.12 316.833 L
370.29 316.833 L
372.46 316.833 L
374.63 316.833 L
376.8 316.833 L
378.97 316.833 L
381.14 316.833 L
383.31 316.833 L
385.48 316.833 L
387.65 316.833 L
389.82 316.833 L
391.99 316.833 L
394.16 316.833 L
396.33 316.833 L
S
GR
GS
[0.75 0 0 0.75 0 0] CT
0 1 1 RC
1 LJ
0.667 LW
N
394.16 316.833 M
396.33 316.833 L
398.5 316.833 L
400.67 316.833 L
402.84 316.833 L
405.01 316.833 L
407.18 316.833 L
409.35 316.833 L
411.52 316.833 L
413.69 316.833 L
415.86 316.833 L
418.03 316.833 L
420.2 316.833 L
422.37 316.833 L
424.54 316.833 L
426.71 316.833 L
428.88 316.833 L
431.05 316.833 L
433.22 316.833 L
435.39 316.833 L
437.56 316.833 L
439.73 316.833 L
441.9 316.833 L
444.07 316.833 L
446.24 316.833 L
448.41 316.833 L
450.58 316.833 L
452.75 316.833 L
454.92 316.833 L
457.09 316.833 L
459.26 316.833 L
461.43 316.833 L
463.6 316.833 L
465.77 316.833 L
467.94 316.833 L
470.11 316.833 L
472.28 316.833 L
474.45 316.833 L
476.62 316.833 L
478.79 316.833 L
480.96 316.833 L
483.13 316.833 L
485.3 316.833 L
487.47 316.833 L
489.64 316.833 L
491.81 316.833 L
493.98 316.833 L
496.15 316.833 L
498.32 316.833 L
500.49 316.833 L
502.66 316.833 L
504.83 316.833 L
S
GR
GS
[0.75 0 0 0.75 0 0] CT
0 1 1 RC
1 LJ
0.667 LW
N
502.66 316.833 M
504.83 316.833 L
507 316.833 L
S
GR
GS
[0.75 0 0 0.75 0 0] CT
1 0 0 RC
1 LJ
0.667 LW
N
73 316.833 M
75.17 316.832 L
77.34 316.832 L
79.51 316.831 L
81.68 316.831 L
83.85 316.831 L
86.02 316.83 L
88.19 316.83 L
90.36 316.83 L
92.53 316.818 L
94.7 316.723 L
96.87 316.63 L
99.04 316.538 L
101.21 316.448 L
103.38 316.359 L
105.55 316.271 L
107.72 316.185 L
109.89 316.1 L
112.06 316.016 L
114.23 315.933 L
116.4 315.851 L
118.57 315.771 L
120.74 315.692 L
122.91 315.614 L
125.08 315.537 L
127.25 315.461 L
129.42 315.386 L
131.59 315.312 L
133.76 315.24 L
135.93 315.168 L
138.1 315.098 L
140.27 315.028 L
142.44 314.96 L
144.61 314.892 L
146.78 314.826 L
148.95 314.76 L
151.12 314.696 L
153.29 314.632 L
155.46 314.569 L
157.63 314.508 L
159.8 314.447 L
161.97 314.387 L
164.14 314.327 L
166.31 314.269 L
168.48 314.212 L
170.65 314.155 L
172.82 314.099 L
174.99 314.044 L
177.16 313.99 L
179.33 313.936 L
S
GR
GS
[0.75 0 0 0.75 0 0] CT
1 0 0 RC
1 LJ
0.667 LW
N
177.16 313.99 M
179.33 313.936 L
181.5 313.884 L
183.67 313.832 L
185.84 313.78 L
188.01 313.73 L
190.18 313.68 L
192.35 313.631 L
194.52 313.583 L
196.69 313.535 L
198.86 313.489 L
201.03 313.442 L
203.2 313.397 L
205.37 313.352 L
207.54 313.308 L
209.71 313.264 L
211.88 313.221 L
214.05 313.179 L
216.22 313.137 L
218.39 313.096 L
220.56 313.055 L
222.73 313.015 L
224.9 312.976 L
227.07 312.937 L
229.24 312.899 L
231.41 312.861 L
233.58 312.824 L
235.75 312.787 L
237.92 312.751 L
240.09 312.716 L
242.26 312.68 L
244.43 312.646 L
246.6 312.612 L
248.77 312.578 L
250.94 312.545 L
253.11 312.513 L
255.28 312.48 L
257.45 312.449 L
259.62 312.417 L
261.79 312.387 L
263.96 312.356 L
266.13 312.326 L
268.3 312.297 L
270.47 312.268 L
272.64 312.239 L
274.81 312.211 L
276.98 312.183 L
279.15 312.156 L
281.32 312.129 L
283.49 312.102 L
285.66 312.076 L
287.83 312.05 L
S
GR
GS
[0.75 0 0 0.75 0 0] CT
1 0 0 RC
1 LJ
0.667 LW
N
285.66 312.076 M
287.83 312.05 L
290 312.025 L
292.17 312 L
294.34 311.975 L
296.51 311.95 L
298.68 311.926 L
300.85 311.903 L
303.02 311.879 L
305.19 311.856 L
307.36 311.834 L
309.53 311.811 L
311.7 311.789 L
313.87 311.768 L
316.04 311.746 L
318.21 311.725 L
320.38 311.704 L
322.55 311.684 L
324.72 311.663 L
326.89 311.644 L
329.06 311.624 L
331.23 311.605 L
333.4 311.586 L
335.57 311.567 L
337.74 311.548 L
339.91 311.53 L
342.08 311.512 L
344.25 311.494 L
346.42 311.477 L
348.59 311.46 L
350.76 311.443 L
352.93 311.426 L
355.1 311.409 L
357.27 311.393 L
359.44 311.377 L
361.61 311.361 L
363.78 311.346 L
365.95 311.33 L
368.12 311.315 L
370.29 311.3 L
372.46 311.286 L
374.63 311.271 L
376.8 311.257 L
378.97 311.243 L
381.14 311.229 L
383.31 311.215 L
385.48 311.202 L
387.65 311.189 L
389.82 311.176 L
391.99 311.163 L
394.16 311.15 L
396.33 311.138 L
S
GR
GS
[0.75 0 0 0.75 0 0] CT
1 0 0 RC
1 LJ
0.667 LW
N
394.16 311.15 M
396.33 311.138 L
398.5 311.125 L
400.67 311.113 L
402.84 311.101 L
405.01 311.089 L
407.18 311.078 L
409.35 311.066 L
411.52 311.055 L
413.69 311.044 L
415.86 311.033 L
418.03 311.022 L
420.2 311.011 L
422.37 311.001 L
424.54 310.99 L
426.71 310.98 L
428.88 310.97 L
431.05 310.96 L
433.22 310.95 L
435.39 310.941 L
437.56 310.931 L
439.73 310.922 L
441.9 310.913 L
444.07 310.903 L
446.24 310.894 L
448.41 310.886 L
450.58 310.877 L
452.75 310.868 L
454.92 310.86 L
457.09 310.852 L
459.26 310.843 L
461.43 310.835 L
463.6 310.827 L
465.77 310.819 L
467.94 310.812 L
470.11 310.804 L
472.28 310.796 L
474.45 310.789 L
476.62 310.782 L
478.79 310.774 L
480.96 310.767 L
483.13 310.76 L
485.3 310.753 L
487.47 310.747 L
489.64 310.74 L
491.81 310.733 L
493.98 310.727 L
496.15 310.72 L
498.32 310.714 L
500.49 310.708 L
502.66 310.702 L
504.83 310.696 L
S
GR
GS
[0.75 0 0 0.75 0 0] CT
1 0 0 RC
1 LJ
0.667 LW
N
502.66 310.702 M
504.83 310.696 L
507 310.69 L
S
GR
GS
[0.75 0 0 0.75 0 0] CT
1 0 1 RC
1 LJ
0.667 LW
N
73 316.833 M
75.17 316.833 L
77.34 316.833 L
79.51 316.833 L
81.68 316.833 L
83.85 316.833 L
86.02 316.833 L
88.19 316.833 L
90.36 316.833 L
92.53 316.833 L
94.7 316.818 L
96.87 316.783 L
99.04 316.73 L
101.21 316.664 L
103.38 316.587 L
105.55 316.501 L
107.72 316.408 L
109.89 316.309 L
112.06 316.206 L
114.23 316.099 L
116.4 315.99 L
118.57 315.88 L
120.74 315.768 L
122.91 315.655 L
125.08 315.542 L
127.25 315.429 L
129.42 315.316 L
131.59 315.204 L
133.76 315.092 L
135.93 314.982 L
138.1 314.872 L
140.27 314.764 L
142.44 314.657 L
144.61 314.551 L
146.78 314.446 L
148.95 314.342 L
151.12 314.24 L
153.29 314.14 L
155.46 314.04 L
157.63 313.942 L
159.8 313.846 L
161.97 313.751 L
164.14 313.657 L
166.31 313.565 L
168.48 313.474 L
170.65 313.384 L
172.82 313.296 L
174.99 313.209 L
177.16 313.123 L
179.33 313.039 L
S
GR
GS
[0.75 0 0 0.75 0 0] CT
1 0 1 RC
1 LJ
0.667 LW
N
177.16 313.123 M
179.33 313.039 L
181.5 312.955 L
183.67 312.874 L
185.84 312.793 L
188.01 312.714 L
190.18 312.635 L
192.35 312.558 L
194.52 312.483 L
196.69 312.408 L
198.86 312.335 L
201.03 312.262 L
203.2 312.191 L
205.37 312.121 L
207.54 312.052 L
209.71 311.984 L
211.88 311.917 L
214.05 311.851 L
216.22 311.786 L
218.39 311.722 L
220.56 311.659 L
222.73 311.597 L
224.9 311.536 L
227.07 311.476 L
229.24 311.417 L
231.41 311.358 L
233.58 311.301 L
235.75 311.245 L
237.92 311.189 L
240.09 311.134 L
242.26 311.08 L
244.43 311.027 L
246.6 310.975 L
248.77 310.923 L
250.94 310.873 L
253.11 310.823 L
255.28 310.774 L
257.45 310.725 L
259.62 310.678 L
261.79 310.631 L
263.96 310.585 L
266.13 310.539 L
268.3 310.494 L
270.47 310.45 L
272.64 310.407 L
274.81 310.364 L
276.98 310.322 L
279.15 310.281 L
281.32 310.24 L
283.49 310.2 L
285.66 310.16 L
287.83 310.121 L
S
GR
GS
[0.75 0 0 0.75 0 0] CT
1 0 1 RC
1 LJ
0.667 LW
N
285.66 310.16 M
287.83 310.121 L
290 310.083 L
292.17 310.045 L
294.34 310.008 L
296.51 309.971 L
298.68 309.935 L
300.85 309.9 L
303.02 309.865 L
305.19 309.83 L
307.36 309.796 L
309.53 309.763 L
311.7 309.73 L
313.87 309.698 L
316.04 309.666 L
318.21 309.634 L
320.38 309.604 L
322.55 309.573 L
324.72 309.543 L
326.89 309.514 L
329.06 309.485 L
331.23 309.456 L
333.4 309.428 L
335.57 309.4 L
337.74 309.373 L
339.91 309.346 L
342.08 309.32 L
344.25 309.293 L
346.42 309.268 L
348.59 309.243 L
350.76 309.218 L
352.93 309.193 L
355.1 309.169 L
357.27 309.145 L
359.44 309.122 L
361.61 309.099 L
363.78 309.076 L
365.95 309.054 L
368.12 309.032 L
370.29 309.01 L
372.46 308.989 L
374.63 308.968 L
376.8 308.947 L
378.97 308.927 L
381.14 308.907 L
383.31 308.887 L
385.48 308.868 L
387.65 308.849 L
389.82 308.83 L
391.99 308.811 L
394.16 308.793 L
396.33 308.775 L
S
GR
GS
[0.75 0 0 0.75 0 0] CT
1 0 1 RC
1 LJ
0.667 LW
N
394.16 308.793 M
396.33 308.775 L
398.5 308.757 L
400.67 308.74 L
402.84 308.723 L
405.01 308.706 L
407.18 308.689 L
409.35 308.673 L
411.52 308.656 L
413.69 308.641 L
415.86 308.625 L
418.03 308.609 L
420.2 308.594 L
422.37 308.579 L
424.54 308.565 L
426.71 308.55 L
428.88 308.536 L
431.05 308.522 L
433.22 308.508 L
435.39 308.494 L
437.56 308.481 L
439.73 308.468 L
441.9 308.455 L
444.07 308.442 L
446.24 308.429 L
448.41 308.417 L
450.58 308.405 L
452.75 308.393 L
454.92 308.381 L
457.09 308.369 L
459.26 308.358 L
461.43 308.346 L
463.6 308.335 L
465.77 308.324 L
467.94 308.313 L
470.11 308.303 L
472.28 308.292 L
474.45 308.282 L
476.62 308.272 L
478.79 308.262 L
480.96 308.252 L
483.13 308.242 L
485.3 308.233 L
487.47 308.223 L
489.64 308.214 L
491.81 308.205 L
493.98 308.196 L
496.15 308.187 L
498.32 308.178 L
500.49 308.17 L
502.66 308.161 L
504.83 308.153 L
S
GR
GS
[0.75 0 0 0.75 0 0] CT
1 0 1 RC
1 LJ
0.667 LW
N
502.66 308.161 M
504.83 308.153 L
507 308.145 L
S
GR
GS
[0.75 0 0 0.75 0 0] CT
1 GC
N
424 112 M
424 44 L
494 44 L
494 112 L
cp
f
GR
GS
[0.75 0 0 0.75 357 40.7005] CT
/Helvetica 12 F
GS
[1 0 0 1 0 0] CT
0 4.5 moveto 
1 -1 scale
(u1) t 
GR
GR
GS
[0.75 0 0 0.75 0 0] CT
0 0 1 RC
1 LJ
0.667 LW
N
432 54.267 M
472 54.267 L
S
GR
GS
[0.75 0 0 0.75 357 52.56683] CT
/Helvetica 12 F
GS
[1 0 0 1 0 0] CT
0 4.5 moveto 
1 -1 scale
(u2) t 
GR
GR
GS
[0.75 0 0 0.75 0 0] CT
0 1 1 RC
1 LJ
0.667 LW
N
432 70.089 M
472 70.089 L
S
GR
GS
[0.75 0 0 0.75 357 64.43317] CT
/Helvetica 12 F
GS
[1 0 0 1 0 0] CT
0 4.5 moveto 
1 -1 scale
(y1) t 
GR
GR
GS
[0.75 0 0 0.75 0 0] CT
1 0 0 RC
1 LJ
0.667 LW
N
432 85.911 M
472 85.911 L
S
GR
GS
[0.75 0 0 0.75 357 76.29951] CT
/Helvetica 12 F
GS
[1 0 0 1 0 0] CT
0 4.5 moveto 
1 -1 scale
(y2) t 
GR
GR
GS
[0.75 0 0 0.75 0 0] CT
1 0 1 RC
1 LJ
0.667 LW
N
432 101.733 M
472 101.733 L
S
GR
GS
[0.75 0 0 0.75 0 0] CT
0.149 GC
10.0 ML
0.667 LW
N
424 112 M
424 44 L
494 44 L
494 112 L
cp
S
GR
%%Trailer
%%Pages: 1
%%EOF
