%!PS-Adobe-3.0 EPSF-3.0
%%Creator: (MATLAB, The Mathworks, Inc. Version 8.6.0.267246 \(R2015b\). Operating System: Windows 8)
%%Title: E:/Projects/skola/rls/pics/SP1/compare_tf_u1.eps
%%CreationDate: 2017-03-03T09:26:50
%%Pages: (atend)
%%BoundingBox: 0 0 420 315
%%LanguageLevel: 2
%%EndComments
%%BeginProlog
%%BeginResource: procset (Apache XML Graphics Std ProcSet) 1.2 0
%%Version: 1.2 0
%%Copyright: (Copyright 2001-2003,2010 The Apache Software Foundation. License terms: http://www.apache.org/licenses/LICENSE-2.0)
/bd{bind def}bind def
/ld{load def}bd
/GR/grestore ld
/M/moveto ld
/LJ/setlinejoin ld
/C/curveto ld
/f/fill ld
/LW/setlinewidth ld
/GC/setgray ld
/t/show ld
/N/newpath ld
/CT/concat ld
/cp/closepath ld
/S/stroke ld
/L/lineto ld
/CC/setcmykcolor ld
/A/ashow ld
/GS/gsave ld
/RC/setrgbcolor ld
/RM/rmoveto ld
/ML/setmiterlimit ld
/re {4 2 roll M
1 index 0 rlineto
0 exch rlineto
neg 0 rlineto
cp } bd
/_ctm matrix def
/_tm matrix def
/BT { _ctm currentmatrix pop matrix _tm copy pop 0 0 moveto } bd
/ET { _ctm setmatrix } bd
/iTm { _ctm setmatrix _tm concat } bd
/Tm { _tm astore pop iTm 0 0 moveto } bd
/ux 0.0 def
/uy 0.0 def
/F {
  /Tp exch def
  /Tf exch def
  Tf findfont Tp scalefont setfont
  /cf Tf def  /cs Tp def
} bd
/ULS {currentpoint /uy exch def /ux exch def} bd
/ULE {
  /Tcx currentpoint pop def
  gsave
  newpath
  cf findfont cs scalefont dup
  /FontMatrix get 0 get /Ts exch def /FontInfo get dup
  /UnderlinePosition get Ts mul /To exch def
  /UnderlineThickness get Ts mul /Tt exch def
  ux uy To add moveto  Tcx uy To add lineto
  Tt setlinewidth stroke
  grestore
} bd
/OLE {
  /Tcx currentpoint pop def
  gsave
  newpath
  cf findfont cs scalefont dup
  /FontMatrix get 0 get /Ts exch def /FontInfo get dup
  /UnderlinePosition get Ts mul /To exch def
  /UnderlineThickness get Ts mul /Tt exch def
  ux uy To add cs add moveto Tcx uy To add cs add lineto
  Tt setlinewidth stroke
  grestore
} bd
/SOE {
  /Tcx currentpoint pop def
  gsave
  newpath
  cf findfont cs scalefont dup
  /FontMatrix get 0 get /Ts exch def /FontInfo get dup
  /UnderlinePosition get Ts mul /To exch def
  /UnderlineThickness get Ts mul /Tt exch def
  ux uy To add cs 10 mul 26 idiv add moveto Tcx uy To add cs 10 mul 26 idiv add lineto
  Tt setlinewidth stroke
  grestore
} bd
/QT {
/Y22 exch store
/X22 exch store
/Y21 exch store
/X21 exch store
currentpoint
/Y21 load 2 mul add 3 div exch
/X21 load 2 mul add 3 div exch
/X21 load 2 mul /X22 load add 3 div
/Y21 load 2 mul /Y22 load add 3 div
/X22 load /Y22 load curveto
} bd
/SSPD {
dup length /d exch dict def
{
/v exch def
/k exch def
currentpagedevice k known {
/cpdv currentpagedevice k get def
v cpdv ne {
/upd false def
/nullv v type /nulltype eq def
/nullcpdv cpdv type /nulltype eq def
nullv nullcpdv or
{
/upd true def
} {
/sametype v type cpdv type eq def
sametype {
v type /arraytype eq {
/vlen v length def
/cpdvlen cpdv length def
vlen cpdvlen eq {
0 1 vlen 1 sub {
/i exch def
/obj v i get def
/cpdobj cpdv i get def
obj cpdobj ne {
/upd true def
exit
} if
} for
} {
/upd true def
} ifelse
} {
v type /dicttype eq {
v {
/dv exch def
/dk exch def
/cpddv cpdv dk get def
dv cpddv ne {
/upd true def
exit
} if
} forall
} {
/upd true def
} ifelse
} ifelse
} if
} ifelse
upd true eq {
d k v put
} if
} if
} if
} forall
d length 0 gt {
d setpagedevice
} if
} bd
%%EndResource
%%BeginResource: procset (Apache XML Graphics EPS ProcSet) 1.0 0
%%Version: 1.0 0
%%Copyright: (Copyright 2002-2003 The Apache Software Foundation. License terms: http://www.apache.org/licenses/LICENSE-2.0)
/BeginEPSF { %def
/b4_Inc_state save def         % Save state for cleanup
/dict_count countdictstack def % Count objects on dict stack
/op_count count 1 sub def      % Count objects on operand stack
userdict begin                 % Push userdict on dict stack
/showpage { } def              % Redefine showpage, { } = null proc
0 setgray 0 setlinecap         % Prepare graphics state
1 setlinewidth 0 setlinejoin
10 setmiterlimit [ ] 0 setdash newpath
/languagelevel where           % If level not equal to 1 then
{pop languagelevel             % set strokeadjust and
1 ne                           % overprint to their defaults.
{false setstrokeadjust false setoverprint
} if
} if
} bd
/EndEPSF { %def
count op_count sub {pop} repeat            % Clean up stacks
countdictstack dict_count sub {end} repeat
b4_Inc_state restore
} bd
%%EndResource
%FOPBeginFontDict
%%IncludeResource: font Courier-Bold
%%IncludeResource: font Helvetica
%%IncludeResource: font Courier-BoldOblique
%%IncludeResource: font Courier-Oblique
%%IncludeResource: font Times-Roman
%%IncludeResource: font Helvetica-BoldOblique
%%IncludeResource: font Helvetica-Bold
%%IncludeResource: font Helvetica-Oblique
%%IncludeResource: font Times-BoldItalic
%%IncludeResource: font Courier
%%IncludeResource: font Times-Italic
%%IncludeResource: font Times-Bold
%%IncludeResource: font Symbol
%%IncludeResource: font ZapfDingbats
%FOPEndFontDict
%%BeginResource: encoding WinAnsiEncoding
/WinAnsiEncoding [
/.notdef /.notdef /.notdef /.notdef /.notdef
/.notdef /.notdef /.notdef /.notdef /.notdef
/.notdef /.notdef /.notdef /.notdef /.notdef
/.notdef /.notdef /.notdef /.notdef /.notdef
/.notdef /.notdef /.notdef /.notdef /.notdef
/.notdef /.notdef /.notdef /.notdef /.notdef
/.notdef /.notdef /space /exclam /quotedbl
/numbersign /dollar /percent /ampersand /quotesingle
/parenleft /parenright /asterisk /plus /comma
/hyphen /period /slash /zero /one
/two /three /four /five /six
/seven /eight /nine /colon /semicolon
/less /equal /greater /question /at
/A /B /C /D /E
/F /G /H /I /J
/K /L /M /N /O
/P /Q /R /S /T
/U /V /W /X /Y
/Z /bracketleft /backslash /bracketright /asciicircum
/underscore /quoteleft /a /b /c
/d /e /f /g /h
/i /j /k /l /m
/n /o /p /q /r
/s /t /u /v /w
/x /y /z /braceleft /bar
/braceright /asciitilde /bullet /Euro /bullet
/quotesinglbase /florin /quotedblbase /ellipsis /dagger
/daggerdbl /circumflex /perthousand /Scaron /guilsinglleft
/OE /bullet /Zcaron /bullet /bullet
/quoteleft /quoteright /quotedblleft /quotedblright /bullet
/endash /emdash /asciitilde /trademark /scaron
/guilsinglright /oe /bullet /zcaron /Ydieresis
/space /exclamdown /cent /sterling /currency
/yen /brokenbar /section /dieresis /copyright
/ordfeminine /guillemotleft /logicalnot /sfthyphen /registered
/macron /degree /plusminus /twosuperior /threesuperior
/acute /mu /paragraph /middot /cedilla
/onesuperior /ordmasculine /guillemotright /onequarter /onehalf
/threequarters /questiondown /Agrave /Aacute /Acircumflex
/Atilde /Adieresis /Aring /AE /Ccedilla
/Egrave /Eacute /Ecircumflex /Edieresis /Igrave
/Iacute /Icircumflex /Idieresis /Eth /Ntilde
/Ograve /Oacute /Ocircumflex /Otilde /Odieresis
/multiply /Oslash /Ugrave /Uacute /Ucircumflex
/Udieresis /Yacute /Thorn /germandbls /agrave
/aacute /acircumflex /atilde /adieresis /aring
/ae /ccedilla /egrave /eacute /ecircumflex
/edieresis /igrave /iacute /icircumflex /idieresis
/eth /ntilde /ograve /oacute /ocircumflex
/otilde /odieresis /divide /oslash /ugrave
/uacute /ucircumflex /udieresis /yacute /thorn
/ydieresis
] def
%%EndResource
%FOPBeginFontReencode
/Courier-Bold findfont
dup length dict begin
  {1 index /FID ne {def} {pop pop} ifelse} forall
  /Encoding WinAnsiEncoding def
  currentdict
end
/Courier-Bold exch definefont pop
/Helvetica findfont
dup length dict begin
  {1 index /FID ne {def} {pop pop} ifelse} forall
  /Encoding WinAnsiEncoding def
  currentdict
end
/Helvetica exch definefont pop
/Courier-BoldOblique findfont
dup length dict begin
  {1 index /FID ne {def} {pop pop} ifelse} forall
  /Encoding WinAnsiEncoding def
  currentdict
end
/Courier-BoldOblique exch definefont pop
/Courier-Oblique findfont
dup length dict begin
  {1 index /FID ne {def} {pop pop} ifelse} forall
  /Encoding WinAnsiEncoding def
  currentdict
end
/Courier-Oblique exch definefont pop
/Times-Roman findfont
dup length dict begin
  {1 index /FID ne {def} {pop pop} ifelse} forall
  /Encoding WinAnsiEncoding def
  currentdict
end
/Times-Roman exch definefont pop
/Helvetica-BoldOblique findfont
dup length dict begin
  {1 index /FID ne {def} {pop pop} ifelse} forall
  /Encoding WinAnsiEncoding def
  currentdict
end
/Helvetica-BoldOblique exch definefont pop
/Helvetica-Bold findfont
dup length dict begin
  {1 index /FID ne {def} {pop pop} ifelse} forall
  /Encoding WinAnsiEncoding def
  currentdict
end
/Helvetica-Bold exch definefont pop
/Helvetica-Oblique findfont
dup length dict begin
  {1 index /FID ne {def} {pop pop} ifelse} forall
  /Encoding WinAnsiEncoding def
  currentdict
end
/Helvetica-Oblique exch definefont pop
/Times-BoldItalic findfont
dup length dict begin
  {1 index /FID ne {def} {pop pop} ifelse} forall
  /Encoding WinAnsiEncoding def
  currentdict
end
/Times-BoldItalic exch definefont pop
/Courier findfont
dup length dict begin
  {1 index /FID ne {def} {pop pop} ifelse} forall
  /Encoding WinAnsiEncoding def
  currentdict
end
/Courier exch definefont pop
/Times-Italic findfont
dup length dict begin
  {1 index /FID ne {def} {pop pop} ifelse} forall
  /Encoding WinAnsiEncoding def
  currentdict
end
/Times-Italic exch definefont pop
/Times-Bold findfont
dup length dict begin
  {1 index /FID ne {def} {pop pop} ifelse} forall
  /Encoding WinAnsiEncoding def
  currentdict
end
/Times-Bold exch definefont pop
%FOPEndFontReencode
%%EndProlog
%%Page: 1 1
%%PageBoundingBox: 0 0 420 315
%%BeginPageSetup
[1 0 0 -1 0 315] CT
%%EndPageSetup
GS
[0.75 0 0 0.75 0 0] CT
1 GC
N
0 0 560 420 re
f
GR
GS
[0.75 0 0 0.75 0 0] CT
1 GC
N
0 0 560 420 re
f
GR
GS
[0.75 0 0 0.75 0 0] CT
1 GC
N
73 374 M
507 374 L
507 31 L
73 31 L
cp
f
GR
GS
[0.75 0 0 0.75 0 0] CT
0.149 GC
2 setlinecap
1 LJ
0.667 LW
N
73 374 M
507 374 L
S
GR
GS
[0.75 0 0 0.75 0 0] CT
0.149 GC
2 setlinecap
1 LJ
0.667 LW
N
73 374 M
73 369.66 L
S
GR
GS
[0.75 0 0 0.75 0 0] CT
0.149 GC
2 setlinecap
1 LJ
0.667 LW
N
116.4 374 M
116.4 369.66 L
S
GR
GS
[0.75 0 0 0.75 0 0] CT
0.149 GC
2 setlinecap
1 LJ
0.667 LW
N
159.8 374 M
159.8 369.66 L
S
GR
GS
[0.75 0 0 0.75 0 0] CT
0.149 GC
2 setlinecap
1 LJ
0.667 LW
N
203.2 374 M
203.2 369.66 L
S
GR
GS
[0.75 0 0 0.75 0 0] CT
0.149 GC
2 setlinecap
1 LJ
0.667 LW
N
246.6 374 M
246.6 369.66 L
S
GR
GS
[0.75 0 0 0.75 0 0] CT
0.149 GC
2 setlinecap
1 LJ
0.667 LW
N
290 374 M
290 369.66 L
S
GR
GS
[0.75 0 0 0.75 0 0] CT
0.149 GC
2 setlinecap
1 LJ
0.667 LW
N
333.4 374 M
333.4 369.66 L
S
GR
GS
[0.75 0 0 0.75 0 0] CT
0.149 GC
2 setlinecap
1 LJ
0.667 LW
N
376.8 374 M
376.8 369.66 L
S
GR
GS
[0.75 0 0 0.75 0 0] CT
0.149 GC
2 setlinecap
1 LJ
0.667 LW
N
420.2 374 M
420.2 369.66 L
S
GR
GS
[0.75 0 0 0.75 0 0] CT
0.149 GC
2 setlinecap
1 LJ
0.667 LW
N
463.6 374 M
463.6 369.66 L
S
GR
GS
[0.75 0 0 0.75 0 0] CT
0.149 GC
2 setlinecap
1 LJ
0.667 LW
N
507 374 M
507 369.66 L
S
GR
GS
[0.75 0 0 0.75 54.75 284.50001] CT
0.149 GC
/Helvetica 13 F
GS
[1 0 0 1 0 0] CT
-4 13 moveto 
1 -1 scale
(0) t 
GR
GR
GS
[0.75 0 0 0.75 87.3 284.50001] CT
0.149 GC
/Helvetica 13 F
GS
[1 0 0 1 0 0] CT
-7.5 13 moveto 
1 -1 scale
(20) t 
GR
GR
GS
[0.75 0 0 0.75 119.85 284.50001] CT
0.149 GC
/Helvetica 13 F
GS
[1 0 0 1 0 0] CT
-7.5 13 moveto 
1 -1 scale
(40) t 
GR
GR
GS
[0.75 0 0 0.75 152.4 284.50001] CT
0.149 GC
/Helvetica 13 F
GS
[1 0 0 1 0 0] CT
-7.5 13 moveto 
1 -1 scale
(60) t 
GR
GR
GS
[0.75 0 0 0.75 184.95 284.50001] CT
0.149 GC
/Helvetica 13 F
GS
[1 0 0 1 0 0] CT
-7.5 13 moveto 
1 -1 scale
(80) t 
GR
GR
GS
[0.75 0 0 0.75 217.5 284.50001] CT
0.149 GC
/Helvetica 13 F
GS
[1 0 0 1 0 0] CT
-11 13 moveto 
1 -1 scale
(100) t 
GR
GR
GS
[0.75 0 0 0.75 250.05 284.50001] CT
0.149 GC
/Helvetica 13 F
GS
[1 0 0 1 0 0] CT
-11 13 moveto 
1 -1 scale
(120) t 
GR
GR
GS
[0.75 0 0 0.75 282.59999 284.50001] CT
0.149 GC
/Helvetica 13 F
GS
[1 0 0 1 0 0] CT
-11 13 moveto 
1 -1 scale
(140) t 
GR
GR
GS
[0.75 0 0 0.75 315.15001 284.50001] CT
0.149 GC
/Helvetica 13 F
GS
[1 0 0 1 0 0] CT
-11 13 moveto 
1 -1 scale
(160) t 
GR
GR
GS
[0.75 0 0 0.75 347.7 284.50001] CT
0.149 GC
/Helvetica 13 F
GS
[1 0 0 1 0 0] CT
-11 13 moveto 
1 -1 scale
(180) t 
GR
GR
GS
[0.75 0 0 0.75 380.25 284.50001] CT
0.149 GC
/Helvetica 13 F
GS
[1 0 0 1 0 0] CT
-11 13 moveto 
1 -1 scale
(200) t 
GR
GR
GS
[0.75 0 0 0.75 217.50016 297.49999] CT
0.149 GC
/Helvetica 15 F
GS
[1 0 0 1 0 0] CT
-11 14 moveto 
1 -1 scale
(t\(s\)) t 
GR
GR
GS
[0.75 0 0 0.75 0 0] CT
0.149 GC
2 setlinecap
1 LJ
0.667 LW
N
73 374 M
73 31 L
S
GR
GS
[0.75 0 0 0.75 0 0] CT
0.149 GC
2 setlinecap
1 LJ
0.667 LW
N
73 374 M
77.34 374 L
S
GR
GS
[0.75 0 0 0.75 0 0] CT
0.149 GC
2 setlinecap
1 LJ
0.667 LW
N
73 339.7 M
77.34 339.7 L
S
GR
GS
[0.75 0 0 0.75 0 0] CT
0.149 GC
2 setlinecap
1 LJ
0.667 LW
N
73 305.4 M
77.34 305.4 L
S
GR
GS
[0.75 0 0 0.75 0 0] CT
0.149 GC
2 setlinecap
1 LJ
0.667 LW
N
73 271.1 M
77.34 271.1 L
S
GR
GS
[0.75 0 0 0.75 0 0] CT
0.149 GC
2 setlinecap
1 LJ
0.667 LW
N
73 236.8 M
77.34 236.8 L
S
GR
GS
[0.75 0 0 0.75 0 0] CT
0.149 GC
2 setlinecap
1 LJ
0.667 LW
N
73 202.5 M
77.34 202.5 L
S
GR
GS
[0.75 0 0 0.75 0 0] CT
0.149 GC
2 setlinecap
1 LJ
0.667 LW
N
73 168.2 M
77.34 168.2 L
S
GR
GS
[0.75 0 0 0.75 0 0] CT
0.149 GC
2 setlinecap
1 LJ
0.667 LW
N
73 133.9 M
77.34 133.9 L
S
GR
GS
[0.75 0 0 0.75 0 0] CT
0.149 GC
2 setlinecap
1 LJ
0.667 LW
N
73 99.6 M
77.34 99.6 L
S
GR
GS
[0.75 0 0 0.75 0 0] CT
0.149 GC
2 setlinecap
1 LJ
0.667 LW
N
73 65.3 M
77.34 65.3 L
S
GR
GS
[0.75 0 0 0.75 0 0] CT
0.149 GC
2 setlinecap
1 LJ
0.667 LW
N
73 31 M
77.34 31 L
S
GR
GS
[0.75 0 0 0.75 50.75 280.5] CT
0.149 GC
/Helvetica 13 F
GS
[1 0 0 1 0 0] CT
-8 5 moveto 
1 -1 scale
(0) t 
GR
GR
GS
[0.75 0 0 0.75 50.75 254.77501] CT
0.149 GC
/Helvetica 13 F
GS
[1 0 0 1 0 0] CT
-19 5 moveto 
1 -1 scale
(0.1) t 
GR
GR
GS
[0.75 0 0 0.75 50.75 229.05] CT
0.149 GC
/Helvetica 13 F
GS
[1 0 0 1 0 0] CT
-19 5 moveto 
1 -1 scale
(0.2) t 
GR
GR
GS
[0.75 0 0 0.75 50.75 203.325] CT
0.149 GC
/Helvetica 13 F
GS
[1 0 0 1 0 0] CT
-19 5 moveto 
1 -1 scale
(0.3) t 
GR
GR
GS
[0.75 0 0 0.75 50.75 177.6] CT
0.149 GC
/Helvetica 13 F
GS
[1 0 0 1 0 0] CT
-19 5 moveto 
1 -1 scale
(0.4) t 
GR
GR
GS
[0.75 0 0 0.75 50.75 151.875] CT
0.149 GC
/Helvetica 13 F
GS
[1 0 0 1 0 0] CT
-19 5 moveto 
1 -1 scale
(0.5) t 
GR
GR
GS
[0.75 0 0 0.75 50.75 126.15] CT
0.149 GC
/Helvetica 13 F
GS
[1 0 0 1 0 0] CT
-19 5 moveto 
1 -1 scale
(0.6) t 
GR
GR
GS
[0.75 0 0 0.75 50.75 100.42501] CT
0.149 GC
/Helvetica 13 F
GS
[1 0 0 1 0 0] CT
-19 5 moveto 
1 -1 scale
(0.7) t 
GR
GR
GS
[0.75 0 0 0.75 50.75 74.7] CT
0.149 GC
/Helvetica 13 F
GS
[1 0 0 1 0 0] CT
-19 5 moveto 
1 -1 scale
(0.8) t 
GR
GR
GS
[0.75 0 0 0.75 50.75 48.97501] CT
0.149 GC
/Helvetica 13 F
GS
[1 0 0 1 0 0] CT
-19 5 moveto 
1 -1 scale
(0.9) t 
GR
GR
GS
[0.75 0 0 0.75 50.75 23.25] CT
0.149 GC
/Helvetica 13 F
GS
[1 0 0 1 0 0] CT
-8 5 moveto 
1 -1 scale
(1) t 
GR
GR
GS
[0.75 0 0 0.75 217.50021 21.18749] CT
/any-Bold 15 F
GS
[1 0 0 1 0 0] CT
-95 -4 moveto 
1 -1 scale
(Linear system TF - step u1) t 
GR
GR
GS
[0.75 0 0 0.75 0 0] CT
0 0 1 RC
1 LJ
0.667 LW
N
73 374 M
75.17 374 L
77.34 374 L
79.51 374 L
81.68 374 L
83.85 374 L
86.02 374 L
88.19 374 L
90.36 374 L
92.53 31 L
94.7 31 L
96.87 31 L
99.04 31 L
101.21 31 L
103.38 31 L
105.55 31 L
107.72 31 L
109.89 31 L
112.06 31 L
114.23 31 L
116.4 31 L
118.57 31 L
120.74 31 L
122.91 31 L
125.08 31 L
127.25 31 L
129.42 31 L
131.59 31 L
133.76 31 L
135.93 31 L
138.1 31 L
140.27 31 L
142.44 31 L
144.61 31 L
146.78 31 L
148.95 31 L
151.12 31 L
153.29 31 L
155.46 31 L
157.63 31 L
159.8 31 L
161.97 31 L
164.14 31 L
166.31 31 L
168.48 31 L
170.65 31 L
172.82 31 L
174.99 31 L
177.16 31 L
179.33 31 L
S
GR
GS
[0.75 0 0 0.75 0 0] CT
0 0 1 RC
1 LJ
0.667 LW
N
177.16 31 M
179.33 31 L
181.5 31 L
183.67 31 L
185.84 31 L
188.01 31 L
190.18 31 L
192.35 31 L
194.52 31 L
196.69 31 L
198.86 31 L
201.03 31 L
203.2 31 L
205.37 31 L
207.54 31 L
209.71 31 L
211.88 31 L
214.05 31 L
216.22 31 L
218.39 31 L
220.56 31 L
222.73 31 L
224.9 31 L
227.07 31 L
229.24 31 L
231.41 31 L
233.58 31 L
235.75 31 L
237.92 31 L
240.09 31 L
242.26 31 L
244.43 31 L
246.6 31 L
248.77 31 L
250.94 31 L
253.11 31 L
255.28 31 L
257.45 31 L
259.62 31 L
261.79 31 L
263.96 31 L
266.13 31 L
268.3 31 L
270.47 31 L
272.64 31 L
274.81 31 L
276.98 31 L
279.15 31 L
281.32 31 L
283.49 31 L
285.66 31 L
287.83 31 L
S
GR
GS
[0.75 0 0 0.75 0 0] CT
0 0 1 RC
1 LJ
0.667 LW
N
285.66 31 M
287.83 31 L
290 31 L
292.17 31 L
294.34 31 L
296.51 31 L
298.68 31 L
300.85 31 L
303.02 31 L
305.19 31 L
307.36 31 L
309.53 31 L
311.7 31 L
313.87 31 L
316.04 31 L
318.21 31 L
320.38 31 L
322.55 31 L
324.72 31 L
326.89 31 L
329.06 31 L
331.23 31 L
333.4 31 L
335.57 31 L
337.74 31 L
339.91 31 L
342.08 31 L
344.25 31 L
346.42 31 L
348.59 31 L
350.76 31 L
352.93 31 L
355.1 31 L
357.27 31 L
359.44 31 L
361.61 31 L
363.78 31 L
365.95 31 L
368.12 31 L
370.29 31 L
372.46 31 L
374.63 31 L
376.8 31 L
378.97 31 L
381.14 31 L
383.31 31 L
385.48 31 L
387.65 31 L
389.82 31 L
391.99 31 L
394.16 31 L
396.33 31 L
S
GR
GS
[0.75 0 0 0.75 0 0] CT
0 0 1 RC
1 LJ
0.667 LW
N
394.16 31 M
396.33 31 L
398.5 31 L
400.67 31 L
402.84 31 L
405.01 31 L
407.18 31 L
409.35 31 L
411.52 31 L
413.69 31 L
415.86 31 L
418.03 31 L
420.2 31 L
422.37 31 L
424.54 31 L
426.71 31 L
428.88 31 L
431.05 31 L
433.22 31 L
435.39 31 L
437.56 31 L
439.73 31 L
441.9 31 L
444.07 31 L
446.24 31 L
448.41 31 L
450.58 31 L
452.75 31 L
454.92 31 L
457.09 31 L
459.26 31 L
461.43 31 L
463.6 31 L
465.77 31 L
467.94 31 L
470.11 31 L
472.28 31 L
474.45 31 L
476.62 31 L
478.79 31 L
480.96 31 L
483.13 31 L
485.3 31 L
487.47 31 L
489.64 31 L
491.81 31 L
493.98 31 L
496.15 31 L
498.32 31 L
500.49 31 L
502.66 31 L
504.83 31 L
S
GR
GS
[0.75 0 0 0.75 0 0] CT
0 0 1 RC
1 LJ
0.667 LW
N
502.66 31 M
504.83 31 L
507 31 L
S
GR
GS
[0.75 0 0 0.75 0 0] CT
0 1 1 RC
1 LJ
0.667 LW
N
73 374 M
75.17 374 L
77.34 374 L
79.51 374 L
81.68 374 L
83.85 374 L
86.02 374 L
88.19 374 L
90.36 374 L
92.53 374 L
94.7 374 L
96.87 374 L
99.04 374 L
101.21 374 L
103.38 374 L
105.55 374 L
107.72 374 L
109.89 374 L
112.06 374 L
114.23 374 L
116.4 374 L
118.57 374 L
120.74 374 L
122.91 374 L
125.08 374 L
127.25 374 L
129.42 374 L
131.59 374 L
133.76 374 L
135.93 374 L
138.1 374 L
140.27 374 L
142.44 374 L
144.61 374 L
146.78 374 L
148.95 374 L
151.12 374 L
153.29 374 L
155.46 374 L
157.63 374 L
159.8 374 L
161.97 374 L
164.14 374 L
166.31 374 L
168.48 374 L
170.65 374 L
172.82 374 L
174.99 374 L
177.16 374 L
179.33 374 L
S
GR
GS
[0.75 0 0 0.75 0 0] CT
0 1 1 RC
1 LJ
0.667 LW
N
177.16 374 M
179.33 374 L
181.5 374 L
183.67 374 L
185.84 374 L
188.01 374 L
190.18 374 L
192.35 374 L
194.52 374 L
196.69 374 L
198.86 374 L
201.03 374 L
203.2 374 L
205.37 374 L
207.54 374 L
209.71 374 L
211.88 374 L
214.05 374 L
216.22 374 L
218.39 374 L
220.56 374 L
222.73 374 L
224.9 374 L
227.07 374 L
229.24 374 L
231.41 374 L
233.58 374 L
235.75 374 L
237.92 374 L
240.09 374 L
242.26 374 L
244.43 374 L
246.6 374 L
248.77 374 L
250.94 374 L
253.11 374 L
255.28 374 L
257.45 374 L
259.62 374 L
261.79 374 L
263.96 374 L
266.13 374 L
268.3 374 L
270.47 374 L
272.64 374 L
274.81 374 L
276.98 374 L
279.15 374 L
281.32 374 L
283.49 374 L
285.66 374 L
287.83 374 L
S
GR
GS
[0.75 0 0 0.75 0 0] CT
0 1 1 RC
1 LJ
0.667 LW
N
285.66 374 M
287.83 374 L
290 374 L
292.17 374 L
294.34 374 L
296.51 374 L
298.68 374 L
300.85 374 L
303.02 374 L
305.19 374 L
307.36 374 L
309.53 374 L
311.7 374 L
313.87 374 L
316.04 374 L
318.21 374 L
320.38 374 L
322.55 374 L
324.72 374 L
326.89 374 L
329.06 374 L
331.23 374 L
333.4 374 L
335.57 374 L
337.74 374 L
339.91 374 L
342.08 374 L
344.25 374 L
346.42 374 L
348.59 374 L
350.76 374 L
352.93 374 L
355.1 374 L
357.27 374 L
359.44 374 L
361.61 374 L
363.78 374 L
365.95 374 L
368.12 374 L
370.29 374 L
372.46 374 L
374.63 374 L
376.8 374 L
378.97 374 L
381.14 374 L
383.31 374 L
385.48 374 L
387.65 374 L
389.82 374 L
391.99 374 L
394.16 374 L
396.33 374 L
S
GR
GS
[0.75 0 0 0.75 0 0] CT
0 1 1 RC
1 LJ
0.667 LW
N
394.16 374 M
396.33 374 L
398.5 374 L
400.67 374 L
402.84 374 L
405.01 374 L
407.18 374 L
409.35 374 L
411.52 374 L
413.69 374 L
415.86 374 L
418.03 374 L
420.2 374 L
422.37 374 L
424.54 374 L
426.71 374 L
428.88 374 L
431.05 374 L
433.22 374 L
435.39 374 L
437.56 374 L
439.73 374 L
441.9 374 L
444.07 374 L
446.24 374 L
448.41 374 L
450.58 374 L
452.75 374 L
454.92 374 L
457.09 374 L
459.26 374 L
461.43 374 L
463.6 374 L
465.77 374 L
467.94 374 L
470.11 374 L
472.28 374 L
474.45 374 L
476.62 374 L
478.79 374 L
480.96 374 L
483.13 374 L
485.3 374 L
487.47 374 L
489.64 374 L
491.81 374 L
493.98 374 L
496.15 374 L
498.32 374 L
500.49 374 L
502.66 374 L
504.83 374 L
S
GR
GS
[0.75 0 0 0.75 0 0] CT
0 1 1 RC
1 LJ
0.667 LW
N
502.66 374 M
504.83 374 L
507 374 L
S
GR
GS
[0.75 0 0 0.75 0 0] CT
1 0 0 RC
1 LJ
0.667 LW
N
73 374 M
75.17 374 L
77.34 374 L
79.51 374 L
81.68 374 L
83.85 374 L
86.02 374 L
88.19 374 L
90.36 374 L
92.53 374 L
94.7 373.887 L
96.87 373.775 L
99.04 373.664 L
101.21 373.556 L
103.38 373.449 L
105.55 373.343 L
107.72 373.239 L
109.89 373.137 L
112.06 373.036 L
114.23 372.936 L
116.4 372.838 L
118.57 372.741 L
120.74 372.646 L
122.91 372.552 L
125.08 372.46 L
127.25 372.368 L
129.42 372.279 L
131.59 372.19 L
133.76 372.103 L
135.93 372.017 L
138.1 371.932 L
140.27 371.848 L
142.44 371.766 L
144.61 371.685 L
146.78 371.605 L
148.95 371.526 L
151.12 371.448 L
153.29 371.372 L
155.46 371.297 L
157.63 371.222 L
159.8 371.149 L
161.97 371.077 L
164.14 371.006 L
166.31 370.935 L
168.48 370.866 L
170.65 370.798 L
172.82 370.731 L
174.99 370.665 L
177.16 370.6 L
179.33 370.535 L
S
GR
GS
[0.75 0 0 0.75 0 0] CT
1 0 0 RC
1 LJ
0.667 LW
N
177.16 370.6 M
179.33 370.535 L
181.5 370.472 L
183.67 370.41 L
185.84 370.348 L
188.01 370.288 L
190.18 370.228 L
192.35 370.169 L
194.52 370.111 L
196.69 370.054 L
198.86 369.997 L
201.03 369.942 L
203.2 369.887 L
205.37 369.833 L
207.54 369.78 L
209.71 369.728 L
211.88 369.676 L
214.05 369.625 L
216.22 369.575 L
218.39 369.526 L
220.56 369.477 L
222.73 369.429 L
224.9 369.382 L
227.07 369.335 L
229.24 369.289 L
231.41 369.244 L
233.58 369.199 L
235.75 369.155 L
237.92 369.112 L
240.09 369.069 L
242.26 369.027 L
244.43 368.986 L
246.6 368.945 L
248.77 368.905 L
250.94 368.865 L
253.11 368.826 L
255.28 368.787 L
257.45 368.749 L
259.62 368.712 L
261.79 368.675 L
263.96 368.639 L
266.13 368.603 L
268.3 368.567 L
270.47 368.533 L
272.64 368.498 L
274.81 368.464 L
276.98 368.431 L
279.15 368.398 L
281.32 368.366 L
283.49 368.334 L
285.66 368.303 L
287.83 368.272 L
S
GR
GS
[0.75 0 0 0.75 0 0] CT
1 0 0 RC
1 LJ
0.667 LW
N
285.66 368.303 M
287.83 368.272 L
290 368.241 L
292.17 368.211 L
294.34 368.181 L
296.51 368.152 L
298.68 368.123 L
300.85 368.095 L
303.02 368.067 L
305.19 368.039 L
307.36 368.012 L
309.53 367.985 L
311.7 367.959 L
313.87 367.933 L
316.04 367.907 L
318.21 367.882 L
320.38 367.857 L
322.55 367.833 L
324.72 367.809 L
326.89 367.785 L
329.06 367.761 L
331.23 367.738 L
333.4 367.715 L
335.57 367.693 L
337.74 367.671 L
339.91 367.649 L
342.08 367.627 L
344.25 367.606 L
346.42 367.585 L
348.59 367.565 L
350.76 367.544 L
352.93 367.524 L
355.1 367.505 L
357.27 367.485 L
359.44 367.466 L
361.61 367.447 L
363.78 367.429 L
365.95 367.41 L
368.12 367.392 L
370.29 367.375 L
372.46 367.357 L
374.63 367.34 L
376.8 367.323 L
378.97 367.306 L
381.14 367.289 L
383.31 367.273 L
385.48 367.257 L
387.65 367.241 L
389.82 367.226 L
391.99 367.21 L
394.16 367.195 L
396.33 367.18 L
S
GR
GS
[0.75 0 0 0.75 0 0] CT
1 0 0 RC
1 LJ
0.667 LW
N
394.16 367.195 M
396.33 367.18 L
398.5 367.165 L
400.67 367.151 L
402.84 367.137 L
405.01 367.123 L
407.18 367.109 L
409.35 367.095 L
411.52 367.081 L
413.69 367.068 L
415.86 367.055 L
418.03 367.042 L
420.2 367.029 L
422.37 367.017 L
424.54 367.005 L
426.71 366.992 L
428.88 366.98 L
431.05 366.969 L
433.22 366.957 L
435.39 366.945 L
437.56 366.934 L
439.73 366.923 L
441.9 366.912 L
444.07 366.901 L
446.24 366.89 L
448.41 366.88 L
450.58 366.87 L
452.75 366.859 L
454.92 366.849 L
457.09 366.839 L
459.26 366.83 L
461.43 366.82 L
463.6 366.81 L
465.77 366.801 L
467.94 366.792 L
470.11 366.783 L
472.28 366.774 L
474.45 366.765 L
476.62 366.756 L
478.79 366.748 L
480.96 366.739 L
483.13 366.731 L
485.3 366.723 L
487.47 366.715 L
489.64 366.707 L
491.81 366.699 L
493.98 366.691 L
496.15 366.683 L
498.32 366.676 L
500.49 366.668 L
502.66 366.661 L
504.83 366.654 L
S
GR
GS
[0.75 0 0 0.75 0 0] CT
1 0 0 RC
1 LJ
0.667 LW
N
502.66 366.661 M
504.83 366.654 L
507 366.647 L
S
GR
GS
[0.75 0 0 0.75 0 0] CT
1 0 1 RC
1 LJ
0.667 LW
N
73 374 M
75.17 374 L
77.34 374 L
79.51 374 L
81.68 374 L
83.85 374 L
86.02 374 L
88.19 374 L
90.36 374 L
92.53 374 L
94.7 373.986 L
96.87 373.946 L
99.04 373.885 L
101.21 373.808 L
103.38 373.717 L
105.55 373.614 L
107.72 373.503 L
109.89 373.385 L
112.06 373.261 L
114.23 373.134 L
116.4 373.003 L
118.57 372.87 L
120.74 372.735 L
122.91 372.6 L
125.08 372.464 L
127.25 372.328 L
129.42 372.192 L
131.59 372.058 L
133.76 371.924 L
135.93 371.791 L
138.1 371.659 L
140.27 371.529 L
142.44 371.4 L
144.61 371.272 L
146.78 371.147 L
148.95 371.022 L
151.12 370.9 L
153.29 370.779 L
155.46 370.659 L
157.63 370.542 L
159.8 370.426 L
161.97 370.312 L
164.14 370.199 L
166.31 370.088 L
168.48 369.979 L
170.65 369.871 L
172.82 369.765 L
174.99 369.661 L
177.16 369.558 L
179.33 369.457 L
S
GR
GS
[0.75 0 0 0.75 0 0] CT
1 0 1 RC
1 LJ
0.667 LW
N
177.16 369.558 M
179.33 369.457 L
181.5 369.357 L
183.67 369.259 L
185.84 369.162 L
188.01 369.067 L
190.18 368.973 L
192.35 368.881 L
194.52 368.79 L
196.69 368.7 L
198.86 368.612 L
201.03 368.525 L
203.2 368.44 L
205.37 368.356 L
207.54 368.273 L
209.71 368.192 L
211.88 368.111 L
214.05 368.032 L
216.22 367.954 L
218.39 367.878 L
220.56 367.802 L
222.73 367.728 L
224.9 367.655 L
227.07 367.583 L
229.24 367.512 L
231.41 367.443 L
233.58 367.374 L
235.75 367.306 L
237.92 367.24 L
240.09 367.174 L
242.26 367.11 L
244.43 367.046 L
246.6 366.984 L
248.77 366.922 L
250.94 366.861 L
253.11 366.802 L
255.28 366.743 L
257.45 366.685 L
259.62 366.628 L
261.79 366.572 L
263.96 366.517 L
266.13 366.462 L
268.3 366.409 L
270.47 366.356 L
272.64 366.304 L
274.81 366.253 L
276.98 366.203 L
279.15 366.154 L
281.32 366.105 L
283.49 366.057 L
285.66 366.01 L
287.83 365.963 L
S
GR
GS
[0.75 0 0 0.75 0 0] CT
1 0 1 RC
1 LJ
0.667 LW
N
285.66 366.01 M
287.83 365.963 L
290 365.917 L
292.17 365.872 L
294.34 365.828 L
296.51 365.784 L
298.68 365.741 L
300.85 365.699 L
303.02 365.657 L
305.19 365.616 L
307.36 365.576 L
309.53 365.536 L
311.7 365.497 L
313.87 365.458 L
316.04 365.42 L
318.21 365.383 L
320.38 365.346 L
322.55 365.31 L
324.72 365.274 L
326.89 365.239 L
329.06 365.204 L
331.23 365.17 L
333.4 365.137 L
335.57 365.104 L
337.74 365.071 L
339.91 365.039 L
342.08 365.008 L
344.25 364.977 L
346.42 364.946 L
348.59 364.916 L
350.76 364.887 L
352.93 364.858 L
355.1 364.829 L
357.27 364.801 L
359.44 364.773 L
361.61 364.746 L
363.78 364.719 L
365.95 364.692 L
368.12 364.666 L
370.29 364.64 L
372.46 364.615 L
374.63 364.59 L
376.8 364.566 L
378.97 364.541 L
381.14 364.518 L
383.31 364.494 L
385.48 364.471 L
387.65 364.449 L
389.82 364.426 L
391.99 364.404 L
394.16 364.383 L
396.33 364.361 L
S
GR
GS
[0.75 0 0 0.75 0 0] CT
1 0 1 RC
1 LJ
0.667 LW
N
394.16 364.383 M
396.33 364.361 L
398.5 364.34 L
400.67 364.32 L
402.84 364.299 L
405.01 364.279 L
407.18 364.259 L
409.35 364.24 L
411.52 364.221 L
413.69 364.202 L
415.86 364.184 L
418.03 364.165 L
420.2 364.147 L
422.37 364.13 L
424.54 364.112 L
426.71 364.095 L
428.88 364.078 L
431.05 364.062 L
433.22 364.045 L
435.39 364.029 L
437.56 364.013 L
439.73 363.998 L
441.9 363.982 L
444.07 363.967 L
446.24 363.952 L
448.41 363.938 L
450.58 363.923 L
452.75 363.909 L
454.92 363.895 L
457.09 363.881 L
459.26 363.868 L
461.43 363.854 L
463.6 363.841 L
465.77 363.828 L
467.94 363.816 L
470.11 363.803 L
472.28 363.791 L
474.45 363.779 L
476.62 363.767 L
478.79 363.755 L
480.96 363.743 L
483.13 363.732 L
485.3 363.721 L
487.47 363.709 L
489.64 363.699 L
491.81 363.688 L
493.98 363.677 L
496.15 363.667 L
498.32 363.657 L
500.49 363.647 L
502.66 363.637 L
504.83 363.627 L
S
GR
GS
[0.75 0 0 0.75 0 0] CT
1 0 1 RC
1 LJ
0.667 LW
N
502.66 363.637 M
504.83 363.627 L
507 363.617 L
S
GR
GS
[0.75 0 0 0.75 0 0] CT
1 GC
N
424 112 M
424 44 L
494 44 L
494 112 L
cp
f
GR
GS
[0.75 0 0 0.75 357 40.7005] CT
/Helvetica 12 F
GS
[1 0 0 1 0 0] CT
0 4.5 moveto 
1 -1 scale
(u1) t 
GR
GR
GS
[0.75 0 0 0.75 0 0] CT
0 0 1 RC
1 LJ
0.667 LW
N
432 54.267 M
472 54.267 L
S
GR
GS
[0.75 0 0 0.75 357 52.56683] CT
/Helvetica 12 F
GS
[1 0 0 1 0 0] CT
0 4.5 moveto 
1 -1 scale
(u2) t 
GR
GR
GS
[0.75 0 0 0.75 0 0] CT
0 1 1 RC
1 LJ
0.667 LW
N
432 70.089 M
472 70.089 L
S
GR
GS
[0.75 0 0 0.75 357 64.43317] CT
/Helvetica 12 F
GS
[1 0 0 1 0 0] CT
0 4.5 moveto 
1 -1 scale
(y1) t 
GR
GR
GS
[0.75 0 0 0.75 0 0] CT
1 0 0 RC
1 LJ
0.667 LW
N
432 85.911 M
472 85.911 L
S
GR
GS
[0.75 0 0 0.75 357 76.29951] CT
/Helvetica 12 F
GS
[1 0 0 1 0 0] CT
0 4.5 moveto 
1 -1 scale
(y2) t 
GR
GR
GS
[0.75 0 0 0.75 0 0] CT
1 0 1 RC
1 LJ
0.667 LW
N
432 101.733 M
472 101.733 L
S
GR
GS
[0.75 0 0 0.75 0 0] CT
0.149 GC
10.0 ML
0.667 LW
N
424 112 M
424 44 L
494 44 L
494 112 L
cp
S
GR
%%Trailer
%%Pages: 1
%%EOF
