%!PS-Adobe-3.0 EPSF-3.0
%%Creator: (MATLAB, The Mathworks, Inc. Version 8.6.0.267246 \(R2015b\). Operating System: Windows 8)
%%Title: E:/Projects/skola/rls/pics/SP1/compare_ss_u2.eps
%%CreationDate: 2017-03-03T09:26:21
%%Pages: (atend)
%%BoundingBox: 0 0 420 315
%%LanguageLevel: 2
%%EndComments
%%BeginProlog
%%BeginResource: procset (Apache XML Graphics Std ProcSet) 1.2 0
%%Version: 1.2 0
%%Copyright: (Copyright 2001-2003,2010 The Apache Software Foundation. License terms: http://www.apache.org/licenses/LICENSE-2.0)
/bd{bind def}bind def
/ld{load def}bd
/GR/grestore ld
/M/moveto ld
/LJ/setlinejoin ld
/C/curveto ld
/f/fill ld
/LW/setlinewidth ld
/GC/setgray ld
/t/show ld
/N/newpath ld
/CT/concat ld
/cp/closepath ld
/S/stroke ld
/L/lineto ld
/CC/setcmykcolor ld
/A/ashow ld
/GS/gsave ld
/RC/setrgbcolor ld
/RM/rmoveto ld
/ML/setmiterlimit ld
/re {4 2 roll M
1 index 0 rlineto
0 exch rlineto
neg 0 rlineto
cp } bd
/_ctm matrix def
/_tm matrix def
/BT { _ctm currentmatrix pop matrix _tm copy pop 0 0 moveto } bd
/ET { _ctm setmatrix } bd
/iTm { _ctm setmatrix _tm concat } bd
/Tm { _tm astore pop iTm 0 0 moveto } bd
/ux 0.0 def
/uy 0.0 def
/F {
  /Tp exch def
  /Tf exch def
  Tf findfont Tp scalefont setfont
  /cf Tf def  /cs Tp def
} bd
/ULS {currentpoint /uy exch def /ux exch def} bd
/ULE {
  /Tcx currentpoint pop def
  gsave
  newpath
  cf findfont cs scalefont dup
  /FontMatrix get 0 get /Ts exch def /FontInfo get dup
  /UnderlinePosition get Ts mul /To exch def
  /UnderlineThickness get Ts mul /Tt exch def
  ux uy To add moveto  Tcx uy To add lineto
  Tt setlinewidth stroke
  grestore
} bd
/OLE {
  /Tcx currentpoint pop def
  gsave
  newpath
  cf findfont cs scalefont dup
  /FontMatrix get 0 get /Ts exch def /FontInfo get dup
  /UnderlinePosition get Ts mul /To exch def
  /UnderlineThickness get Ts mul /Tt exch def
  ux uy To add cs add moveto Tcx uy To add cs add lineto
  Tt setlinewidth stroke
  grestore
} bd
/SOE {
  /Tcx currentpoint pop def
  gsave
  newpath
  cf findfont cs scalefont dup
  /FontMatrix get 0 get /Ts exch def /FontInfo get dup
  /UnderlinePosition get Ts mul /To exch def
  /UnderlineThickness get Ts mul /Tt exch def
  ux uy To add cs 10 mul 26 idiv add moveto Tcx uy To add cs 10 mul 26 idiv add lineto
  Tt setlinewidth stroke
  grestore
} bd
/QT {
/Y22 exch store
/X22 exch store
/Y21 exch store
/X21 exch store
currentpoint
/Y21 load 2 mul add 3 div exch
/X21 load 2 mul add 3 div exch
/X21 load 2 mul /X22 load add 3 div
/Y21 load 2 mul /Y22 load add 3 div
/X22 load /Y22 load curveto
} bd
/SSPD {
dup length /d exch dict def
{
/v exch def
/k exch def
currentpagedevice k known {
/cpdv currentpagedevice k get def
v cpdv ne {
/upd false def
/nullv v type /nulltype eq def
/nullcpdv cpdv type /nulltype eq def
nullv nullcpdv or
{
/upd true def
} {
/sametype v type cpdv type eq def
sametype {
v type /arraytype eq {
/vlen v length def
/cpdvlen cpdv length def
vlen cpdvlen eq {
0 1 vlen 1 sub {
/i exch def
/obj v i get def
/cpdobj cpdv i get def
obj cpdobj ne {
/upd true def
exit
} if
} for
} {
/upd true def
} ifelse
} {
v type /dicttype eq {
v {
/dv exch def
/dk exch def
/cpddv cpdv dk get def
dv cpddv ne {
/upd true def
exit
} if
} forall
} {
/upd true def
} ifelse
} ifelse
} if
} ifelse
upd true eq {
d k v put
} if
} if
} if
} forall
d length 0 gt {
d setpagedevice
} if
} bd
%%EndResource
%%BeginResource: procset (Apache XML Graphics EPS ProcSet) 1.0 0
%%Version: 1.0 0
%%Copyright: (Copyright 2002-2003 The Apache Software Foundation. License terms: http://www.apache.org/licenses/LICENSE-2.0)
/BeginEPSF { %def
/b4_Inc_state save def         % Save state for cleanup
/dict_count countdictstack def % Count objects on dict stack
/op_count count 1 sub def      % Count objects on operand stack
userdict begin                 % Push userdict on dict stack
/showpage { } def              % Redefine showpage, { } = null proc
0 setgray 0 setlinecap         % Prepare graphics state
1 setlinewidth 0 setlinejoin
10 setmiterlimit [ ] 0 setdash newpath
/languagelevel where           % If level not equal to 1 then
{pop languagelevel             % set strokeadjust and
1 ne                           % overprint to their defaults.
{false setstrokeadjust false setoverprint
} if
} if
} bd
/EndEPSF { %def
count op_count sub {pop} repeat            % Clean up stacks
countdictstack dict_count sub {end} repeat
b4_Inc_state restore
} bd
%%EndResource
%FOPBeginFontDict
%%IncludeResource: font Courier-Bold
%%IncludeResource: font Helvetica
%%IncludeResource: font Courier-BoldOblique
%%IncludeResource: font Courier-Oblique
%%IncludeResource: font Times-Roman
%%IncludeResource: font Helvetica-BoldOblique
%%IncludeResource: font Helvetica-Bold
%%IncludeResource: font Helvetica-Oblique
%%IncludeResource: font Times-BoldItalic
%%IncludeResource: font Courier
%%IncludeResource: font Times-Italic
%%IncludeResource: font Times-Bold
%%IncludeResource: font Symbol
%%IncludeResource: font ZapfDingbats
%FOPEndFontDict
%%BeginResource: encoding WinAnsiEncoding
/WinAnsiEncoding [
/.notdef /.notdef /.notdef /.notdef /.notdef
/.notdef /.notdef /.notdef /.notdef /.notdef
/.notdef /.notdef /.notdef /.notdef /.notdef
/.notdef /.notdef /.notdef /.notdef /.notdef
/.notdef /.notdef /.notdef /.notdef /.notdef
/.notdef /.notdef /.notdef /.notdef /.notdef
/.notdef /.notdef /space /exclam /quotedbl
/numbersign /dollar /percent /ampersand /quotesingle
/parenleft /parenright /asterisk /plus /comma
/hyphen /period /slash /zero /one
/two /three /four /five /six
/seven /eight /nine /colon /semicolon
/less /equal /greater /question /at
/A /B /C /D /E
/F /G /H /I /J
/K /L /M /N /O
/P /Q /R /S /T
/U /V /W /X /Y
/Z /bracketleft /backslash /bracketright /asciicircum
/underscore /quoteleft /a /b /c
/d /e /f /g /h
/i /j /k /l /m
/n /o /p /q /r
/s /t /u /v /w
/x /y /z /braceleft /bar
/braceright /asciitilde /bullet /Euro /bullet
/quotesinglbase /florin /quotedblbase /ellipsis /dagger
/daggerdbl /circumflex /perthousand /Scaron /guilsinglleft
/OE /bullet /Zcaron /bullet /bullet
/quoteleft /quoteright /quotedblleft /quotedblright /bullet
/endash /emdash /asciitilde /trademark /scaron
/guilsinglright /oe /bullet /zcaron /Ydieresis
/space /exclamdown /cent /sterling /currency
/yen /brokenbar /section /dieresis /copyright
/ordfeminine /guillemotleft /logicalnot /sfthyphen /registered
/macron /degree /plusminus /twosuperior /threesuperior
/acute /mu /paragraph /middot /cedilla
/onesuperior /ordmasculine /guillemotright /onequarter /onehalf
/threequarters /questiondown /Agrave /Aacute /Acircumflex
/Atilde /Adieresis /Aring /AE /Ccedilla
/Egrave /Eacute /Ecircumflex /Edieresis /Igrave
/Iacute /Icircumflex /Idieresis /Eth /Ntilde
/Ograve /Oacute /Ocircumflex /Otilde /Odieresis
/multiply /Oslash /Ugrave /Uacute /Ucircumflex
/Udieresis /Yacute /Thorn /germandbls /agrave
/aacute /acircumflex /atilde /adieresis /aring
/ae /ccedilla /egrave /eacute /ecircumflex
/edieresis /igrave /iacute /icircumflex /idieresis
/eth /ntilde /ograve /oacute /ocircumflex
/otilde /odieresis /divide /oslash /ugrave
/uacute /ucircumflex /udieresis /yacute /thorn
/ydieresis
] def
%%EndResource
%FOPBeginFontReencode
/Courier-Bold findfont
dup length dict begin
  {1 index /FID ne {def} {pop pop} ifelse} forall
  /Encoding WinAnsiEncoding def
  currentdict
end
/Courier-Bold exch definefont pop
/Helvetica findfont
dup length dict begin
  {1 index /FID ne {def} {pop pop} ifelse} forall
  /Encoding WinAnsiEncoding def
  currentdict
end
/Helvetica exch definefont pop
/Courier-BoldOblique findfont
dup length dict begin
  {1 index /FID ne {def} {pop pop} ifelse} forall
  /Encoding WinAnsiEncoding def
  currentdict
end
/Courier-BoldOblique exch definefont pop
/Courier-Oblique findfont
dup length dict begin
  {1 index /FID ne {def} {pop pop} ifelse} forall
  /Encoding WinAnsiEncoding def
  currentdict
end
/Courier-Oblique exch definefont pop
/Times-Roman findfont
dup length dict begin
  {1 index /FID ne {def} {pop pop} ifelse} forall
  /Encoding WinAnsiEncoding def
  currentdict
end
/Times-Roman exch definefont pop
/Helvetica-BoldOblique findfont
dup length dict begin
  {1 index /FID ne {def} {pop pop} ifelse} forall
  /Encoding WinAnsiEncoding def
  currentdict
end
/Helvetica-BoldOblique exch definefont pop
/Helvetica-Bold findfont
dup length dict begin
  {1 index /FID ne {def} {pop pop} ifelse} forall
  /Encoding WinAnsiEncoding def
  currentdict
end
/Helvetica-Bold exch definefont pop
/Helvetica-Oblique findfont
dup length dict begin
  {1 index /FID ne {def} {pop pop} ifelse} forall
  /Encoding WinAnsiEncoding def
  currentdict
end
/Helvetica-Oblique exch definefont pop
/Times-BoldItalic findfont
dup length dict begin
  {1 index /FID ne {def} {pop pop} ifelse} forall
  /Encoding WinAnsiEncoding def
  currentdict
end
/Times-BoldItalic exch definefont pop
/Courier findfont
dup length dict begin
  {1 index /FID ne {def} {pop pop} ifelse} forall
  /Encoding WinAnsiEncoding def
  currentdict
end
/Courier exch definefont pop
/Times-Italic findfont
dup length dict begin
  {1 index /FID ne {def} {pop pop} ifelse} forall
  /Encoding WinAnsiEncoding def
  currentdict
end
/Times-Italic exch definefont pop
/Times-Bold findfont
dup length dict begin
  {1 index /FID ne {def} {pop pop} ifelse} forall
  /Encoding WinAnsiEncoding def
  currentdict
end
/Times-Bold exch definefont pop
%FOPEndFontReencode
%%EndProlog
%%Page: 1 1
%%PageBoundingBox: 0 0 420 315
%%BeginPageSetup
[1 0 0 -1 0 315] CT
%%EndPageSetup
GS
[0.75 0 0 0.75 0 0] CT
1 GC
N
0 0 560 420 re
f
GR
GS
[0.75 0 0 0.75 0 0] CT
1 GC
N
0 0 560 420 re
f
GR
GS
[0.75 0 0 0.75 0 0] CT
1 GC
N
73 374 M
507 374 L
507 31 L
73 31 L
cp
f
GR
GS
[0.75 0 0 0.75 0 0] CT
0.149 GC
2 setlinecap
1 LJ
0.667 LW
N
73 374 M
507 374 L
S
GR
GS
[0.75 0 0 0.75 0 0] CT
0.149 GC
2 setlinecap
1 LJ
0.667 LW
N
73 374 M
73 369.66 L
S
GR
GS
[0.75 0 0 0.75 0 0] CT
0.149 GC
2 setlinecap
1 LJ
0.667 LW
N
116.4 374 M
116.4 369.66 L
S
GR
GS
[0.75 0 0 0.75 0 0] CT
0.149 GC
2 setlinecap
1 LJ
0.667 LW
N
159.8 374 M
159.8 369.66 L
S
GR
GS
[0.75 0 0 0.75 0 0] CT
0.149 GC
2 setlinecap
1 LJ
0.667 LW
N
203.2 374 M
203.2 369.66 L
S
GR
GS
[0.75 0 0 0.75 0 0] CT
0.149 GC
2 setlinecap
1 LJ
0.667 LW
N
246.6 374 M
246.6 369.66 L
S
GR
GS
[0.75 0 0 0.75 0 0] CT
0.149 GC
2 setlinecap
1 LJ
0.667 LW
N
290 374 M
290 369.66 L
S
GR
GS
[0.75 0 0 0.75 0 0] CT
0.149 GC
2 setlinecap
1 LJ
0.667 LW
N
333.4 374 M
333.4 369.66 L
S
GR
GS
[0.75 0 0 0.75 0 0] CT
0.149 GC
2 setlinecap
1 LJ
0.667 LW
N
376.8 374 M
376.8 369.66 L
S
GR
GS
[0.75 0 0 0.75 0 0] CT
0.149 GC
2 setlinecap
1 LJ
0.667 LW
N
420.2 374 M
420.2 369.66 L
S
GR
GS
[0.75 0 0 0.75 0 0] CT
0.149 GC
2 setlinecap
1 LJ
0.667 LW
N
463.6 374 M
463.6 369.66 L
S
GR
GS
[0.75 0 0 0.75 0 0] CT
0.149 GC
2 setlinecap
1 LJ
0.667 LW
N
507 374 M
507 369.66 L
S
GR
GS
[0.75 0 0 0.75 54.75 284.50001] CT
0.149 GC
/Helvetica 13 F
GS
[1 0 0 1 0 0] CT
-4 13 moveto 
1 -1 scale
(0) t 
GR
GR
GS
[0.75 0 0 0.75 87.3 284.50001] CT
0.149 GC
/Helvetica 13 F
GS
[1 0 0 1 0 0] CT
-7.5 13 moveto 
1 -1 scale
(20) t 
GR
GR
GS
[0.75 0 0 0.75 119.85 284.50001] CT
0.149 GC
/Helvetica 13 F
GS
[1 0 0 1 0 0] CT
-7.5 13 moveto 
1 -1 scale
(40) t 
GR
GR
GS
[0.75 0 0 0.75 152.4 284.50001] CT
0.149 GC
/Helvetica 13 F
GS
[1 0 0 1 0 0] CT
-7.5 13 moveto 
1 -1 scale
(60) t 
GR
GR
GS
[0.75 0 0 0.75 184.95 284.50001] CT
0.149 GC
/Helvetica 13 F
GS
[1 0 0 1 0 0] CT
-7.5 13 moveto 
1 -1 scale
(80) t 
GR
GR
GS
[0.75 0 0 0.75 217.5 284.50001] CT
0.149 GC
/Helvetica 13 F
GS
[1 0 0 1 0 0] CT
-11 13 moveto 
1 -1 scale
(100) t 
GR
GR
GS
[0.75 0 0 0.75 250.05 284.50001] CT
0.149 GC
/Helvetica 13 F
GS
[1 0 0 1 0 0] CT
-11 13 moveto 
1 -1 scale
(120) t 
GR
GR
GS
[0.75 0 0 0.75 282.59999 284.50001] CT
0.149 GC
/Helvetica 13 F
GS
[1 0 0 1 0 0] CT
-11 13 moveto 
1 -1 scale
(140) t 
GR
GR
GS
[0.75 0 0 0.75 315.15001 284.50001] CT
0.149 GC
/Helvetica 13 F
GS
[1 0 0 1 0 0] CT
-11 13 moveto 
1 -1 scale
(160) t 
GR
GR
GS
[0.75 0 0 0.75 347.7 284.50001] CT
0.149 GC
/Helvetica 13 F
GS
[1 0 0 1 0 0] CT
-11 13 moveto 
1 -1 scale
(180) t 
GR
GR
GS
[0.75 0 0 0.75 380.25 284.50001] CT
0.149 GC
/Helvetica 13 F
GS
[1 0 0 1 0 0] CT
-11 13 moveto 
1 -1 scale
(200) t 
GR
GR
GS
[0.75 0 0 0.75 217.50016 297.49999] CT
0.149 GC
/Helvetica 15 F
GS
[1 0 0 1 0 0] CT
-11 14 moveto 
1 -1 scale
(t\(s\)) t 
GR
GR
GS
[0.75 0 0 0.75 0 0] CT
0.149 GC
2 setlinecap
1 LJ
0.667 LW
N
73 374 M
73 31 L
S
GR
GS
[0.75 0 0 0.75 0 0] CT
0.149 GC
2 setlinecap
1 LJ
0.667 LW
N
73 374 M
77.34 374 L
S
GR
GS
[0.75 0 0 0.75 0 0] CT
0.149 GC
2 setlinecap
1 LJ
0.667 LW
N
73 339.7 M
77.34 339.7 L
S
GR
GS
[0.75 0 0 0.75 0 0] CT
0.149 GC
2 setlinecap
1 LJ
0.667 LW
N
73 305.4 M
77.34 305.4 L
S
GR
GS
[0.75 0 0 0.75 0 0] CT
0.149 GC
2 setlinecap
1 LJ
0.667 LW
N
73 271.1 M
77.34 271.1 L
S
GR
GS
[0.75 0 0 0.75 0 0] CT
0.149 GC
2 setlinecap
1 LJ
0.667 LW
N
73 236.8 M
77.34 236.8 L
S
GR
GS
[0.75 0 0 0.75 0 0] CT
0.149 GC
2 setlinecap
1 LJ
0.667 LW
N
73 202.5 M
77.34 202.5 L
S
GR
GS
[0.75 0 0 0.75 0 0] CT
0.149 GC
2 setlinecap
1 LJ
0.667 LW
N
73 168.2 M
77.34 168.2 L
S
GR
GS
[0.75 0 0 0.75 0 0] CT
0.149 GC
2 setlinecap
1 LJ
0.667 LW
N
73 133.9 M
77.34 133.9 L
S
GR
GS
[0.75 0 0 0.75 0 0] CT
0.149 GC
2 setlinecap
1 LJ
0.667 LW
N
73 99.6 M
77.34 99.6 L
S
GR
GS
[0.75 0 0 0.75 0 0] CT
0.149 GC
2 setlinecap
1 LJ
0.667 LW
N
73 65.3 M
77.34 65.3 L
S
GR
GS
[0.75 0 0 0.75 0 0] CT
0.149 GC
2 setlinecap
1 LJ
0.667 LW
N
73 31 M
77.34 31 L
S
GR
GS
[0.75 0 0 0.75 50.75 280.5] CT
0.149 GC
/Helvetica 13 F
GS
[1 0 0 1 0 0] CT
-8 5 moveto 
1 -1 scale
(0) t 
GR
GR
GS
[0.75 0 0 0.75 50.75 254.77501] CT
0.149 GC
/Helvetica 13 F
GS
[1 0 0 1 0 0] CT
-19 5 moveto 
1 -1 scale
(0.1) t 
GR
GR
GS
[0.75 0 0 0.75 50.75 229.05] CT
0.149 GC
/Helvetica 13 F
GS
[1 0 0 1 0 0] CT
-19 5 moveto 
1 -1 scale
(0.2) t 
GR
GR
GS
[0.75 0 0 0.75 50.75 203.325] CT
0.149 GC
/Helvetica 13 F
GS
[1 0 0 1 0 0] CT
-19 5 moveto 
1 -1 scale
(0.3) t 
GR
GR
GS
[0.75 0 0 0.75 50.75 177.6] CT
0.149 GC
/Helvetica 13 F
GS
[1 0 0 1 0 0] CT
-19 5 moveto 
1 -1 scale
(0.4) t 
GR
GR
GS
[0.75 0 0 0.75 50.75 151.875] CT
0.149 GC
/Helvetica 13 F
GS
[1 0 0 1 0 0] CT
-19 5 moveto 
1 -1 scale
(0.5) t 
GR
GR
GS
[0.75 0 0 0.75 50.75 126.15] CT
0.149 GC
/Helvetica 13 F
GS
[1 0 0 1 0 0] CT
-19 5 moveto 
1 -1 scale
(0.6) t 
GR
GR
GS
[0.75 0 0 0.75 50.75 100.42501] CT
0.149 GC
/Helvetica 13 F
GS
[1 0 0 1 0 0] CT
-19 5 moveto 
1 -1 scale
(0.7) t 
GR
GR
GS
[0.75 0 0 0.75 50.75 74.7] CT
0.149 GC
/Helvetica 13 F
GS
[1 0 0 1 0 0] CT
-19 5 moveto 
1 -1 scale
(0.8) t 
GR
GR
GS
[0.75 0 0 0.75 50.75 48.97501] CT
0.149 GC
/Helvetica 13 F
GS
[1 0 0 1 0 0] CT
-19 5 moveto 
1 -1 scale
(0.9) t 
GR
GR
GS
[0.75 0 0 0.75 50.75 23.25] CT
0.149 GC
/Helvetica 13 F
GS
[1 0 0 1 0 0] CT
-8 5 moveto 
1 -1 scale
(1) t 
GR
GR
GS
[0.75 0 0 0.75 217.50021 21.18749] CT
/any-Bold 15 F
GS
[1 0 0 1 0 0] CT
-95.5 -4 moveto 
1 -1 scale
(Linear system SS - step u2) t 
GR
GR
GS
[0.75 0 0 0.75 0 0] CT
0 0 1 RC
1 LJ
0.667 LW
N
73 374 M
75.17 374 L
77.34 374 L
79.51 374 L
81.68 374 L
83.85 374 L
86.02 374 L
88.19 374 L
90.36 374 L
92.53 374 L
94.7 374 L
96.87 374 L
99.04 374 L
101.21 374 L
103.38 374 L
105.55 374 L
107.72 374 L
109.89 374 L
112.06 374 L
114.23 374 L
116.4 374 L
118.57 374 L
120.74 374 L
122.91 374 L
125.08 374 L
127.25 374 L
129.42 374 L
131.59 374 L
133.76 374 L
135.93 374 L
138.1 374 L
140.27 374 L
142.44 374 L
144.61 374 L
146.78 374 L
148.95 374 L
151.12 374 L
153.29 374 L
155.46 374 L
157.63 374 L
159.8 374 L
161.97 374 L
164.14 374 L
166.31 374 L
168.48 374 L
170.65 374 L
172.82 374 L
174.99 374 L
177.16 374 L
179.33 374 L
S
GR
GS
[0.75 0 0 0.75 0 0] CT
0 0 1 RC
1 LJ
0.667 LW
N
177.16 374 M
179.33 374 L
181.5 374 L
183.67 374 L
185.84 374 L
188.01 374 L
190.18 374 L
192.35 374 L
194.52 374 L
196.69 374 L
198.86 374 L
201.03 374 L
203.2 374 L
205.37 374 L
207.54 374 L
209.71 374 L
211.88 374 L
214.05 374 L
216.22 374 L
218.39 374 L
220.56 374 L
222.73 374 L
224.9 374 L
227.07 374 L
229.24 374 L
231.41 374 L
233.58 374 L
235.75 374 L
237.92 374 L
240.09 374 L
242.26 374 L
244.43 374 L
246.6 374 L
248.77 374 L
250.94 374 L
253.11 374 L
255.28 374 L
257.45 374 L
259.62 374 L
261.79 374 L
263.96 374 L
266.13 374 L
268.3 374 L
270.47 374 L
272.64 374 L
274.81 374 L
276.98 374 L
279.15 374 L
281.32 374 L
283.49 374 L
285.66 374 L
287.83 374 L
S
GR
GS
[0.75 0 0 0.75 0 0] CT
0 0 1 RC
1 LJ
0.667 LW
N
285.66 374 M
287.83 374 L
290 374 L
292.17 374 L
294.34 374 L
296.51 374 L
298.68 374 L
300.85 374 L
303.02 374 L
305.19 374 L
307.36 374 L
309.53 374 L
311.7 374 L
313.87 374 L
316.04 374 L
318.21 374 L
320.38 374 L
322.55 374 L
324.72 374 L
326.89 374 L
329.06 374 L
331.23 374 L
333.4 374 L
335.57 374 L
337.74 374 L
339.91 374 L
342.08 374 L
344.25 374 L
346.42 374 L
348.59 374 L
350.76 374 L
352.93 374 L
355.1 374 L
357.27 374 L
359.44 374 L
361.61 374 L
363.78 374 L
365.95 374 L
368.12 374 L
370.29 374 L
372.46 374 L
374.63 374 L
376.8 374 L
378.97 374 L
381.14 374 L
383.31 374 L
385.48 374 L
387.65 374 L
389.82 374 L
391.99 374 L
394.16 374 L
396.33 374 L
S
GR
GS
[0.75 0 0 0.75 0 0] CT
0 0 1 RC
1 LJ
0.667 LW
N
394.16 374 M
396.33 374 L
398.5 374 L
400.67 374 L
402.84 374 L
405.01 374 L
407.18 374 L
409.35 374 L
411.52 374 L
413.69 374 L
415.86 374 L
418.03 374 L
420.2 374 L
422.37 374 L
424.54 374 L
426.71 374 L
428.88 374 L
431.05 374 L
433.22 374 L
435.39 374 L
437.56 374 L
439.73 374 L
441.9 374 L
444.07 374 L
446.24 374 L
448.41 374 L
450.58 374 L
452.75 374 L
454.92 374 L
457.09 374 L
459.26 374 L
461.43 374 L
463.6 374 L
465.77 374 L
467.94 374 L
470.11 374 L
472.28 374 L
474.45 374 L
476.62 374 L
478.79 374 L
480.96 374 L
483.13 374 L
485.3 374 L
487.47 374 L
489.64 374 L
491.81 374 L
493.98 374 L
496.15 374 L
498.32 374 L
500.49 374 L
502.66 374 L
504.83 374 L
S
GR
GS
[0.75 0 0 0.75 0 0] CT
0 0 1 RC
1 LJ
0.667 LW
N
502.66 374 M
504.83 374 L
507 374 L
S
GR
GS
[0.75 0 0 0.75 0 0] CT
0 1 1 RC
1 LJ
0.667 LW
N
73 374 M
75.17 374 L
77.34 374 L
79.51 374 L
81.68 374 L
83.85 374 L
86.02 374 L
88.19 374 L
90.36 374 L
92.53 31 L
94.7 31 L
96.87 31 L
99.04 31 L
101.21 31 L
103.38 31 L
105.55 31 L
107.72 31 L
109.89 31 L
112.06 31 L
114.23 31 L
116.4 31 L
118.57 31 L
120.74 31 L
122.91 31 L
125.08 31 L
127.25 31 L
129.42 31 L
131.59 31 L
133.76 31 L
135.93 31 L
138.1 31 L
140.27 31 L
142.44 31 L
144.61 31 L
146.78 31 L
148.95 31 L
151.12 31 L
153.29 31 L
155.46 31 L
157.63 31 L
159.8 31 L
161.97 31 L
164.14 31 L
166.31 31 L
168.48 31 L
170.65 31 L
172.82 31 L
174.99 31 L
177.16 31 L
179.33 31 L
S
GR
GS
[0.75 0 0 0.75 0 0] CT
0 1 1 RC
1 LJ
0.667 LW
N
177.16 31 M
179.33 31 L
181.5 31 L
183.67 31 L
185.84 31 L
188.01 31 L
190.18 31 L
192.35 31 L
194.52 31 L
196.69 31 L
198.86 31 L
201.03 31 L
203.2 31 L
205.37 31 L
207.54 31 L
209.71 31 L
211.88 31 L
214.05 31 L
216.22 31 L
218.39 31 L
220.56 31 L
222.73 31 L
224.9 31 L
227.07 31 L
229.24 31 L
231.41 31 L
233.58 31 L
235.75 31 L
237.92 31 L
240.09 31 L
242.26 31 L
244.43 31 L
246.6 31 L
248.77 31 L
250.94 31 L
253.11 31 L
255.28 31 L
257.45 31 L
259.62 31 L
261.79 31 L
263.96 31 L
266.13 31 L
268.3 31 L
270.47 31 L
272.64 31 L
274.81 31 L
276.98 31 L
279.15 31 L
281.32 31 L
283.49 31 L
285.66 31 L
287.83 31 L
S
GR
GS
[0.75 0 0 0.75 0 0] CT
0 1 1 RC
1 LJ
0.667 LW
N
285.66 31 M
287.83 31 L
290 31 L
292.17 31 L
294.34 31 L
296.51 31 L
298.68 31 L
300.85 31 L
303.02 31 L
305.19 31 L
307.36 31 L
309.53 31 L
311.7 31 L
313.87 31 L
316.04 31 L
318.21 31 L
320.38 31 L
322.55 31 L
324.72 31 L
326.89 31 L
329.06 31 L
331.23 31 L
333.4 31 L
335.57 31 L
337.74 31 L
339.91 31 L
342.08 31 L
344.25 31 L
346.42 31 L
348.59 31 L
350.76 31 L
352.93 31 L
355.1 31 L
357.27 31 L
359.44 31 L
361.61 31 L
363.78 31 L
365.95 31 L
368.12 31 L
370.29 31 L
372.46 31 L
374.63 31 L
376.8 31 L
378.97 31 L
381.14 31 L
383.31 31 L
385.48 31 L
387.65 31 L
389.82 31 L
391.99 31 L
394.16 31 L
396.33 31 L
S
GR
GS
[0.75 0 0 0.75 0 0] CT
0 1 1 RC
1 LJ
0.667 LW
N
394.16 31 M
396.33 31 L
398.5 31 L
400.67 31 L
402.84 31 L
405.01 31 L
407.18 31 L
409.35 31 L
411.52 31 L
413.69 31 L
415.86 31 L
418.03 31 L
420.2 31 L
422.37 31 L
424.54 31 L
426.71 31 L
428.88 31 L
431.05 31 L
433.22 31 L
435.39 31 L
437.56 31 L
439.73 31 L
441.9 31 L
444.07 31 L
446.24 31 L
448.41 31 L
450.58 31 L
452.75 31 L
454.92 31 L
457.09 31 L
459.26 31 L
461.43 31 L
463.6 31 L
465.77 31 L
467.94 31 L
470.11 31 L
472.28 31 L
474.45 31 L
476.62 31 L
478.79 31 L
480.96 31 L
483.13 31 L
485.3 31 L
487.47 31 L
489.64 31 L
491.81 31 L
493.98 31 L
496.15 31 L
498.32 31 L
500.49 31 L
502.66 31 L
504.83 31 L
S
GR
GS
[0.75 0 0 0.75 0 0] CT
0 1 1 RC
1 LJ
0.667 LW
N
502.66 31 M
504.83 31 L
507 31 L
S
GR
GS
[0.75 0 0 0.75 0 0] CT
1 0 0 RC
1 LJ
0.667 LW
N
73 374 M
75.17 374 L
77.34 374 L
79.51 374 L
81.68 374 L
83.85 374 L
86.02 374 L
88.19 374 L
90.36 374 L
92.53 374 L
94.7 373.978 L
96.87 373.918 L
99.04 373.829 L
101.21 373.719 L
103.38 373.591 L
105.55 373.451 L
107.72 373.302 L
109.89 373.146 L
112.06 372.985 L
114.23 372.821 L
116.4 372.655 L
118.57 372.489 L
120.74 372.322 L
122.91 372.155 L
125.08 371.989 L
127.25 371.824 L
129.42 371.661 L
131.59 371.499 L
133.76 371.339 L
135.93 371.181 L
138.1 371.024 L
140.27 370.87 L
142.44 370.717 L
144.61 370.567 L
146.78 370.419 L
148.95 370.272 L
151.12 370.128 L
153.29 369.986 L
155.46 369.845 L
157.63 369.707 L
159.8 369.571 L
161.97 369.436 L
164.14 369.304 L
166.31 369.173 L
168.48 369.045 L
170.65 368.918 L
172.82 368.793 L
174.99 368.67 L
177.16 368.548 L
179.33 368.429 L
S
GR
GS
[0.75 0 0 0.75 0 0] CT
1 0 0 RC
1 LJ
0.667 LW
N
177.16 368.548 M
179.33 368.429 L
181.5 368.311 L
183.67 368.195 L
185.84 368.08 L
188.01 367.967 L
190.18 367.856 L
192.35 367.746 L
194.52 367.638 L
196.69 367.532 L
198.86 367.427 L
201.03 367.323 L
203.2 367.221 L
205.37 367.121 L
207.54 367.022 L
209.71 366.924 L
211.88 366.828 L
214.05 366.734 L
216.22 366.64 L
218.39 366.548 L
220.56 366.457 L
222.73 366.368 L
224.9 366.28 L
227.07 366.193 L
229.24 366.108 L
231.41 366.023 L
233.58 365.94 L
235.75 365.858 L
237.92 365.778 L
240.09 365.698 L
242.26 365.62 L
244.43 365.543 L
246.6 365.466 L
248.77 365.391 L
250.94 365.317 L
253.11 365.245 L
255.28 365.173 L
257.45 365.102 L
259.62 365.032 L
261.79 364.964 L
263.96 364.896 L
266.13 364.829 L
268.3 364.763 L
270.47 364.698 L
272.64 364.634 L
274.81 364.572 L
276.98 364.509 L
279.15 364.448 L
281.32 364.388 L
283.49 364.329 L
285.66 364.27 L
287.83 364.212 L
S
GR
GS
[0.75 0 0 0.75 0 0] CT
1 0 0 RC
1 LJ
0.667 LW
N
285.66 364.27 M
287.83 364.212 L
290 364.156 L
292.17 364.099 L
294.34 364.044 L
296.51 363.99 L
298.68 363.936 L
300.85 363.883 L
303.02 363.831 L
305.19 363.78 L
307.36 363.729 L
309.53 363.679 L
311.7 363.63 L
313.87 363.582 L
316.04 363.534 L
318.21 363.487 L
320.38 363.441 L
322.55 363.395 L
324.72 363.35 L
326.89 363.306 L
329.06 363.262 L
331.23 363.219 L
333.4 363.176 L
335.57 363.135 L
337.74 363.093 L
339.91 363.053 L
342.08 363.013 L
344.25 362.973 L
346.42 362.934 L
348.59 362.896 L
350.76 362.858 L
352.93 362.821 L
355.1 362.784 L
357.27 362.748 L
359.44 362.712 L
361.61 362.677 L
363.78 362.643 L
365.95 362.608 L
368.12 362.575 L
370.29 362.542 L
372.46 362.509 L
374.63 362.477 L
376.8 362.445 L
378.97 362.414 L
381.14 362.383 L
383.31 362.353 L
385.48 362.323 L
387.65 362.293 L
389.82 362.264 L
391.99 362.236 L
394.16 362.207 L
396.33 362.18 L
S
GR
GS
[0.75 0 0 0.75 0 0] CT
1 0 0 RC
1 LJ
0.667 LW
N
394.16 362.207 M
396.33 362.18 L
398.5 362.152 L
400.67 362.125 L
402.84 362.098 L
405.01 362.072 L
407.18 362.046 L
409.35 362.021 L
411.52 361.996 L
413.69 361.971 L
415.86 361.947 L
418.03 361.923 L
420.2 361.899 L
422.37 361.876 L
424.54 361.853 L
426.71 361.83 L
428.88 361.808 L
431.05 361.785 L
433.22 361.764 L
435.39 361.742 L
437.56 361.721 L
439.73 361.701 L
441.9 361.68 L
444.07 361.66 L
446.24 361.64 L
448.41 361.62 L
450.58 361.601 L
452.75 361.582 L
454.92 361.563 L
457.09 361.545 L
459.26 361.527 L
461.43 361.509 L
463.6 361.491 L
465.77 361.474 L
467.94 361.456 L
470.11 361.439 L
472.28 361.423 L
474.45 361.406 L
476.62 361.39 L
478.79 361.374 L
480.96 361.358 L
483.13 361.343 L
485.3 361.327 L
487.47 361.312 L
489.64 361.298 L
491.81 361.283 L
493.98 361.268 L
496.15 361.254 L
498.32 361.24 L
500.49 361.226 L
502.66 361.213 L
504.83 361.199 L
S
GR
GS
[0.75 0 0 0.75 0 0] CT
1 0 0 RC
1 LJ
0.667 LW
N
502.66 361.213 M
504.83 361.199 L
507 361.186 L
S
GR
GS
[0.75 0 0 0.75 0 0] CT
1 0 1 RC
1 LJ
0.667 LW
N
73 374 M
75.17 374 L
77.34 374 L
79.51 374 L
81.68 374 L
83.85 374 L
86.02 374 L
88.19 374 L
90.36 374 L
92.53 374 L
94.7 373.915 L
96.87 373.831 L
99.04 373.749 L
101.21 373.667 L
103.38 373.588 L
105.55 373.509 L
107.72 373.431 L
109.89 373.355 L
112.06 373.28 L
114.23 373.206 L
116.4 373.133 L
118.57 373.062 L
120.74 372.991 L
122.91 372.922 L
125.08 372.853 L
127.25 372.786 L
129.42 372.72 L
131.59 372.654 L
133.76 372.59 L
135.93 372.527 L
138.1 372.464 L
140.27 372.403 L
142.44 372.343 L
144.61 372.283 L
146.78 372.225 L
148.95 372.167 L
151.12 372.11 L
153.29 372.055 L
155.46 372 L
157.63 371.946 L
159.8 371.892 L
161.97 371.84 L
164.14 371.788 L
166.31 371.737 L
168.48 371.687 L
170.65 371.638 L
172.82 371.589 L
174.99 371.542 L
177.16 371.495 L
179.33 371.448 L
S
GR
GS
[0.75 0 0 0.75 0 0] CT
1 0 1 RC
1 LJ
0.667 LW
N
177.16 371.495 M
179.33 371.448 L
181.5 371.403 L
183.67 371.358 L
185.84 371.314 L
188.01 371.27 L
190.18 371.227 L
192.35 371.185 L
194.52 371.144 L
196.69 371.103 L
198.86 371.062 L
201.03 371.023 L
203.2 370.984 L
205.37 370.945 L
207.54 370.908 L
209.71 370.87 L
211.88 370.834 L
214.05 370.798 L
216.22 370.762 L
218.39 370.727 L
220.56 370.693 L
222.73 370.659 L
224.9 370.625 L
227.07 370.593 L
229.24 370.56 L
231.41 370.528 L
233.58 370.497 L
235.75 370.466 L
237.92 370.436 L
240.09 370.406 L
242.26 370.376 L
244.43 370.347 L
246.6 370.319 L
248.77 370.291 L
250.94 370.263 L
253.11 370.236 L
255.28 370.209 L
257.45 370.183 L
259.62 370.157 L
261.79 370.131 L
263.96 370.106 L
266.13 370.081 L
268.3 370.057 L
270.47 370.033 L
272.64 370.009 L
274.81 369.986 L
276.98 369.963 L
279.15 369.94 L
281.32 369.918 L
283.49 369.896 L
285.66 369.874 L
287.83 369.853 L
S
GR
GS
[0.75 0 0 0.75 0 0] CT
1 0 1 RC
1 LJ
0.667 LW
N
285.66 369.874 M
287.83 369.853 L
290 369.832 L
292.17 369.812 L
294.34 369.791 L
296.51 369.771 L
298.68 369.752 L
300.85 369.732 L
303.02 369.713 L
305.19 369.695 L
307.36 369.676 L
309.53 369.658 L
311.7 369.64 L
313.87 369.622 L
316.04 369.605 L
318.21 369.588 L
320.38 369.571 L
322.55 369.555 L
324.72 369.538 L
326.89 369.522 L
329.06 369.507 L
331.23 369.491 L
333.4 369.476 L
335.57 369.461 L
337.74 369.446 L
339.91 369.431 L
342.08 369.417 L
344.25 369.403 L
346.42 369.389 L
348.59 369.375 L
350.76 369.362 L
352.93 369.348 L
355.1 369.335 L
357.27 369.322 L
359.44 369.31 L
361.61 369.297 L
363.78 369.285 L
365.95 369.273 L
368.12 369.261 L
370.29 369.249 L
372.46 369.238 L
374.63 369.226 L
376.8 369.215 L
378.97 369.204 L
381.14 369.193 L
383.31 369.182 L
385.48 369.172 L
387.65 369.162 L
389.82 369.151 L
391.99 369.141 L
394.16 369.131 L
396.33 369.122 L
S
GR
GS
[0.75 0 0 0.75 0 0] CT
1 0 1 RC
1 LJ
0.667 LW
N
394.16 369.131 M
396.33 369.122 L
398.5 369.112 L
400.67 369.103 L
402.84 369.093 L
405.01 369.084 L
407.18 369.075 L
409.35 369.066 L
411.52 369.058 L
413.69 369.049 L
415.86 369.041 L
418.03 369.032 L
420.2 369.024 L
422.37 369.016 L
424.54 369.008 L
426.71 369 L
428.88 368.993 L
431.05 368.985 L
433.22 368.977 L
435.39 368.97 L
437.56 368.963 L
439.73 368.956 L
441.9 368.949 L
444.07 368.942 L
446.24 368.935 L
448.41 368.928 L
450.58 368.922 L
452.75 368.915 L
454.92 368.909 L
457.09 368.903 L
459.26 368.896 L
461.43 368.89 L
463.6 368.884 L
465.77 368.878 L
467.94 368.873 L
470.11 368.867 L
472.28 368.861 L
474.45 368.856 L
476.62 368.85 L
478.79 368.845 L
480.96 368.84 L
483.13 368.834 L
485.3 368.829 L
487.47 368.824 L
489.64 368.819 L
491.81 368.814 L
493.98 368.809 L
496.15 368.805 L
498.32 368.8 L
500.49 368.795 L
502.66 368.791 L
504.83 368.786 L
S
GR
GS
[0.75 0 0 0.75 0 0] CT
1 0 1 RC
1 LJ
0.667 LW
N
502.66 368.791 M
504.83 368.786 L
507 368.782 L
S
GR
GS
[0.75 0 0 0.75 0 0] CT
1 GC
N
424 112 M
424 44 L
494 44 L
494 112 L
cp
f
GR
GS
[0.75 0 0 0.75 357 40.7005] CT
/Helvetica 12 F
GS
[1 0 0 1 0 0] CT
0 4.5 moveto 
1 -1 scale
(u1) t 
GR
GR
GS
[0.75 0 0 0.75 0 0] CT
0 0 1 RC
1 LJ
0.667 LW
N
432 54.267 M
472 54.267 L
S
GR
GS
[0.75 0 0 0.75 357 52.56683] CT
/Helvetica 12 F
GS
[1 0 0 1 0 0] CT
0 4.5 moveto 
1 -1 scale
(u2) t 
GR
GR
GS
[0.75 0 0 0.75 0 0] CT
0 1 1 RC
1 LJ
0.667 LW
N
432 70.089 M
472 70.089 L
S
GR
GS
[0.75 0 0 0.75 357 64.43317] CT
/Helvetica 12 F
GS
[1 0 0 1 0 0] CT
0 4.5 moveto 
1 -1 scale
(y1) t 
GR
GR
GS
[0.75 0 0 0.75 0 0] CT
1 0 0 RC
1 LJ
0.667 LW
N
432 85.911 M
472 85.911 L
S
GR
GS
[0.75 0 0 0.75 357 76.29951] CT
/Helvetica 12 F
GS
[1 0 0 1 0 0] CT
0 4.5 moveto 
1 -1 scale
(y2) t 
GR
GR
GS
[0.75 0 0 0.75 0 0] CT
1 0 1 RC
1 LJ
0.667 LW
N
432 101.733 M
472 101.733 L
S
GR
GS
[0.75 0 0 0.75 0 0] CT
0.149 GC
10.0 ML
0.667 LW
N
424 112 M
424 44 L
494 44 L
494 112 L
cp
S
GR
%%Trailer
%%Pages: 1
%%EOF
