%!PS-Adobe-3.0 EPSF-3.0
%%Creator: (MATLAB, The Mathworks, Inc. Version 8.6.0.267246 \(R2015b\). Operating System: Windows 8)
%%Title: E:/Projects/skola/rls/pics/SP1/loop1.eps
%%CreationDate: 2017-03-02T14:32:19
%%Pages: (atend)
%%BoundingBox: 0 0 420 315
%%LanguageLevel: 2
%%EndComments
%%BeginProlog
%%BeginResource: procset (Apache XML Graphics Std ProcSet) 1.2 0
%%Version: 1.2 0
%%Copyright: (Copyright 2001-2003,2010 The Apache Software Foundation. License terms: http://www.apache.org/licenses/LICENSE-2.0)
/bd{bind def}bind def
/ld{load def}bd
/GR/grestore ld
/M/moveto ld
/LJ/setlinejoin ld
/C/curveto ld
/f/fill ld
/LW/setlinewidth ld
/GC/setgray ld
/t/show ld
/N/newpath ld
/CT/concat ld
/cp/closepath ld
/S/stroke ld
/L/lineto ld
/CC/setcmykcolor ld
/A/ashow ld
/GS/gsave ld
/RC/setrgbcolor ld
/RM/rmoveto ld
/ML/setmiterlimit ld
/re {4 2 roll M
1 index 0 rlineto
0 exch rlineto
neg 0 rlineto
cp } bd
/_ctm matrix def
/_tm matrix def
/BT { _ctm currentmatrix pop matrix _tm copy pop 0 0 moveto } bd
/ET { _ctm setmatrix } bd
/iTm { _ctm setmatrix _tm concat } bd
/Tm { _tm astore pop iTm 0 0 moveto } bd
/ux 0.0 def
/uy 0.0 def
/F {
  /Tp exch def
  /Tf exch def
  Tf findfont Tp scalefont setfont
  /cf Tf def  /cs Tp def
} bd
/ULS {currentpoint /uy exch def /ux exch def} bd
/ULE {
  /Tcx currentpoint pop def
  gsave
  newpath
  cf findfont cs scalefont dup
  /FontMatrix get 0 get /Ts exch def /FontInfo get dup
  /UnderlinePosition get Ts mul /To exch def
  /UnderlineThickness get Ts mul /Tt exch def
  ux uy To add moveto  Tcx uy To add lineto
  Tt setlinewidth stroke
  grestore
} bd
/OLE {
  /Tcx currentpoint pop def
  gsave
  newpath
  cf findfont cs scalefont dup
  /FontMatrix get 0 get /Ts exch def /FontInfo get dup
  /UnderlinePosition get Ts mul /To exch def
  /UnderlineThickness get Ts mul /Tt exch def
  ux uy To add cs add moveto Tcx uy To add cs add lineto
  Tt setlinewidth stroke
  grestore
} bd
/SOE {
  /Tcx currentpoint pop def
  gsave
  newpath
  cf findfont cs scalefont dup
  /FontMatrix get 0 get /Ts exch def /FontInfo get dup
  /UnderlinePosition get Ts mul /To exch def
  /UnderlineThickness get Ts mul /Tt exch def
  ux uy To add cs 10 mul 26 idiv add moveto Tcx uy To add cs 10 mul 26 idiv add lineto
  Tt setlinewidth stroke
  grestore
} bd
/QT {
/Y22 exch store
/X22 exch store
/Y21 exch store
/X21 exch store
currentpoint
/Y21 load 2 mul add 3 div exch
/X21 load 2 mul add 3 div exch
/X21 load 2 mul /X22 load add 3 div
/Y21 load 2 mul /Y22 load add 3 div
/X22 load /Y22 load curveto
} bd
/SSPD {
dup length /d exch dict def
{
/v exch def
/k exch def
currentpagedevice k known {
/cpdv currentpagedevice k get def
v cpdv ne {
/upd false def
/nullv v type /nulltype eq def
/nullcpdv cpdv type /nulltype eq def
nullv nullcpdv or
{
/upd true def
} {
/sametype v type cpdv type eq def
sametype {
v type /arraytype eq {
/vlen v length def
/cpdvlen cpdv length def
vlen cpdvlen eq {
0 1 vlen 1 sub {
/i exch def
/obj v i get def
/cpdobj cpdv i get def
obj cpdobj ne {
/upd true def
exit
} if
} for
} {
/upd true def
} ifelse
} {
v type /dicttype eq {
v {
/dv exch def
/dk exch def
/cpddv cpdv dk get def
dv cpddv ne {
/upd true def
exit
} if
} forall
} {
/upd true def
} ifelse
} ifelse
} if
} ifelse
upd true eq {
d k v put
} if
} if
} if
} forall
d length 0 gt {
d setpagedevice
} if
} bd
%%EndResource
%%BeginResource: procset (Apache XML Graphics EPS ProcSet) 1.0 0
%%Version: 1.0 0
%%Copyright: (Copyright 2002-2003 The Apache Software Foundation. License terms: http://www.apache.org/licenses/LICENSE-2.0)
/BeginEPSF { %def
/b4_Inc_state save def         % Save state for cleanup
/dict_count countdictstack def % Count objects on dict stack
/op_count count 1 sub def      % Count objects on operand stack
userdict begin                 % Push userdict on dict stack
/showpage { } def              % Redefine showpage, { } = null proc
0 setgray 0 setlinecap         % Prepare graphics state
1 setlinewidth 0 setlinejoin
10 setmiterlimit [ ] 0 setdash newpath
/languagelevel where           % If level not equal to 1 then
{pop languagelevel             % set strokeadjust and
1 ne                           % overprint to their defaults.
{false setstrokeadjust false setoverprint
} if
} if
} bd
/EndEPSF { %def
count op_count sub {pop} repeat            % Clean up stacks
countdictstack dict_count sub {end} repeat
b4_Inc_state restore
} bd
%%EndResource
%FOPBeginFontDict
%%IncludeResource: font Courier-Bold
%%IncludeResource: font Helvetica
%%IncludeResource: font Courier-BoldOblique
%%IncludeResource: font Courier-Oblique
%%IncludeResource: font Times-Roman
%%IncludeResource: font Helvetica-BoldOblique
%%IncludeResource: font Helvetica-Bold
%%IncludeResource: font Helvetica-Oblique
%%IncludeResource: font Times-BoldItalic
%%IncludeResource: font Courier
%%IncludeResource: font Times-Italic
%%IncludeResource: font Times-Bold
%%IncludeResource: font Symbol
%%IncludeResource: font ZapfDingbats
%FOPEndFontDict
%%BeginResource: encoding WinAnsiEncoding
/WinAnsiEncoding [
/.notdef /.notdef /.notdef /.notdef /.notdef
/.notdef /.notdef /.notdef /.notdef /.notdef
/.notdef /.notdef /.notdef /.notdef /.notdef
/.notdef /.notdef /.notdef /.notdef /.notdef
/.notdef /.notdef /.notdef /.notdef /.notdef
/.notdef /.notdef /.notdef /.notdef /.notdef
/.notdef /.notdef /space /exclam /quotedbl
/numbersign /dollar /percent /ampersand /quotesingle
/parenleft /parenright /asterisk /plus /comma
/hyphen /period /slash /zero /one
/two /three /four /five /six
/seven /eight /nine /colon /semicolon
/less /equal /greater /question /at
/A /B /C /D /E
/F /G /H /I /J
/K /L /M /N /O
/P /Q /R /S /T
/U /V /W /X /Y
/Z /bracketleft /backslash /bracketright /asciicircum
/underscore /quoteleft /a /b /c
/d /e /f /g /h
/i /j /k /l /m
/n /o /p /q /r
/s /t /u /v /w
/x /y /z /braceleft /bar
/braceright /asciitilde /bullet /Euro /bullet
/quotesinglbase /florin /quotedblbase /ellipsis /dagger
/daggerdbl /circumflex /perthousand /Scaron /guilsinglleft
/OE /bullet /Zcaron /bullet /bullet
/quoteleft /quoteright /quotedblleft /quotedblright /bullet
/endash /emdash /asciitilde /trademark /scaron
/guilsinglright /oe /bullet /zcaron /Ydieresis
/space /exclamdown /cent /sterling /currency
/yen /brokenbar /section /dieresis /copyright
/ordfeminine /guillemotleft /logicalnot /sfthyphen /registered
/macron /degree /plusminus /twosuperior /threesuperior
/acute /mu /paragraph /middot /cedilla
/onesuperior /ordmasculine /guillemotright /onequarter /onehalf
/threequarters /questiondown /Agrave /Aacute /Acircumflex
/Atilde /Adieresis /Aring /AE /Ccedilla
/Egrave /Eacute /Ecircumflex /Edieresis /Igrave
/Iacute /Icircumflex /Idieresis /Eth /Ntilde
/Ograve /Oacute /Ocircumflex /Otilde /Odieresis
/multiply /Oslash /Ugrave /Uacute /Ucircumflex
/Udieresis /Yacute /Thorn /germandbls /agrave
/aacute /acircumflex /atilde /adieresis /aring
/ae /ccedilla /egrave /eacute /ecircumflex
/edieresis /igrave /iacute /icircumflex /idieresis
/eth /ntilde /ograve /oacute /ocircumflex
/otilde /odieresis /divide /oslash /ugrave
/uacute /ucircumflex /udieresis /yacute /thorn
/ydieresis
] def
%%EndResource
%FOPBeginFontReencode
/Courier-Bold findfont
dup length dict begin
  {1 index /FID ne {def} {pop pop} ifelse} forall
  /Encoding WinAnsiEncoding def
  currentdict
end
/Courier-Bold exch definefont pop
/Helvetica findfont
dup length dict begin
  {1 index /FID ne {def} {pop pop} ifelse} forall
  /Encoding WinAnsiEncoding def
  currentdict
end
/Helvetica exch definefont pop
/Courier-BoldOblique findfont
dup length dict begin
  {1 index /FID ne {def} {pop pop} ifelse} forall
  /Encoding WinAnsiEncoding def
  currentdict
end
/Courier-BoldOblique exch definefont pop
/Courier-Oblique findfont
dup length dict begin
  {1 index /FID ne {def} {pop pop} ifelse} forall
  /Encoding WinAnsiEncoding def
  currentdict
end
/Courier-Oblique exch definefont pop
/Times-Roman findfont
dup length dict begin
  {1 index /FID ne {def} {pop pop} ifelse} forall
  /Encoding WinAnsiEncoding def
  currentdict
end
/Times-Roman exch definefont pop
/Helvetica-BoldOblique findfont
dup length dict begin
  {1 index /FID ne {def} {pop pop} ifelse} forall
  /Encoding WinAnsiEncoding def
  currentdict
end
/Helvetica-BoldOblique exch definefont pop
/Helvetica-Bold findfont
dup length dict begin
  {1 index /FID ne {def} {pop pop} ifelse} forall
  /Encoding WinAnsiEncoding def
  currentdict
end
/Helvetica-Bold exch definefont pop
/Helvetica-Oblique findfont
dup length dict begin
  {1 index /FID ne {def} {pop pop} ifelse} forall
  /Encoding WinAnsiEncoding def
  currentdict
end
/Helvetica-Oblique exch definefont pop
/Times-BoldItalic findfont
dup length dict begin
  {1 index /FID ne {def} {pop pop} ifelse} forall
  /Encoding WinAnsiEncoding def
  currentdict
end
/Times-BoldItalic exch definefont pop
/Courier findfont
dup length dict begin
  {1 index /FID ne {def} {pop pop} ifelse} forall
  /Encoding WinAnsiEncoding def
  currentdict
end
/Courier exch definefont pop
/Times-Italic findfont
dup length dict begin
  {1 index /FID ne {def} {pop pop} ifelse} forall
  /Encoding WinAnsiEncoding def
  currentdict
end
/Times-Italic exch definefont pop
/Times-Bold findfont
dup length dict begin
  {1 index /FID ne {def} {pop pop} ifelse} forall
  /Encoding WinAnsiEncoding def
  currentdict
end
/Times-Bold exch definefont pop
%FOPEndFontReencode
%%EndProlog
%%Page: 1 1
%%PageBoundingBox: 0 0 420 315
%%BeginPageSetup
[1 0 0 -1 0 315] CT
%%EndPageSetup
GS
[0.75 0 0 0.75 0 0] CT
1 GC
N
0 0 560 420 re
f
GR
GS
[0.75 0 0 0.75 0 0] CT
1 GC
N
0 0 560 420 re
f
GR
GS
[0.75 0 0 0.75 0 0] CT
1 GC
N
73 374 M
507 374 L
507 31 L
73 31 L
cp
f
GR
GS
[0.75 0 0 0.75 0 0] CT
0.149 GC
2 setlinecap
1 LJ
0.667 LW
N
73 374 M
507 374 L
S
GR
GS
[0.75 0 0 0.75 0 0] CT
0.149 GC
2 setlinecap
1 LJ
0.667 LW
N
73 374 M
73 369.66 L
S
GR
GS
[0.75 0 0 0.75 0 0] CT
0.149 GC
2 setlinecap
1 LJ
0.667 LW
N
145.333 374 M
145.333 369.66 L
S
GR
GS
[0.75 0 0 0.75 0 0] CT
0.149 GC
2 setlinecap
1 LJ
0.667 LW
N
217.667 374 M
217.667 369.66 L
S
GR
GS
[0.75 0 0 0.75 0 0] CT
0.149 GC
2 setlinecap
1 LJ
0.667 LW
N
290 374 M
290 369.66 L
S
GR
GS
[0.75 0 0 0.75 0 0] CT
0.149 GC
2 setlinecap
1 LJ
0.667 LW
N
362.333 374 M
362.333 369.66 L
S
GR
GS
[0.75 0 0 0.75 0 0] CT
0.149 GC
2 setlinecap
1 LJ
0.667 LW
N
434.667 374 M
434.667 369.66 L
S
GR
GS
[0.75 0 0 0.75 0 0] CT
0.149 GC
2 setlinecap
1 LJ
0.667 LW
N
507 374 M
507 369.66 L
S
GR
GS
[0.75 0 0 0.75 54.75 284.50001] CT
0.149 GC
/Helvetica 13 F
GS
[1 0 0 1 0 0] CT
-4 13 moveto 
1 -1 scale
(0) t 
GR
GR
GS
[0.75 0 0 0.75 109 284.50001] CT
0.149 GC
/Helvetica 13 F
GS
[1 0 0 1 0 0] CT
-11 13 moveto 
1 -1 scale
(100) t 
GR
GR
GS
[0.75 0 0 0.75 163.25 284.50001] CT
0.149 GC
/Helvetica 13 F
GS
[1 0 0 1 0 0] CT
-11 13 moveto 
1 -1 scale
(200) t 
GR
GR
GS
[0.75 0 0 0.75 217.5 284.50001] CT
0.149 GC
/Helvetica 13 F
GS
[1 0 0 1 0 0] CT
-11 13 moveto 
1 -1 scale
(300) t 
GR
GR
GS
[0.75 0 0 0.75 271.75001 284.50001] CT
0.149 GC
/Helvetica 13 F
GS
[1 0 0 1 0 0] CT
-11 13 moveto 
1 -1 scale
(400) t 
GR
GR
GS
[0.75 0 0 0.75 325.99999 284.50001] CT
0.149 GC
/Helvetica 13 F
GS
[1 0 0 1 0 0] CT
-11 13 moveto 
1 -1 scale
(500) t 
GR
GR
GS
[0.75 0 0 0.75 380.25 284.50001] CT
0.149 GC
/Helvetica 13 F
GS
[1 0 0 1 0 0] CT
-11 13 moveto 
1 -1 scale
(600) t 
GR
GR
GS
[0.75 0 0 0.75 217.50016 297.49999] CT
0.149 GC
/Helvetica 15 F
GS
[1 0 0 1 0 0] CT
-11 14 moveto 
1 -1 scale
(t\(s\)) t 
GR
GR
GS
[0.75 0 0 0.75 0 0] CT
0.149 GC
2 setlinecap
1 LJ
0.667 LW
N
73 374 M
73 31 L
S
GR
GS
[0.75 0 0 0.75 0 0] CT
0.149 GC
2 setlinecap
1 LJ
0.667 LW
N
73 374 M
77.34 374 L
S
GR
GS
[0.75 0 0 0.75 0 0] CT
0.149 GC
2 setlinecap
1 LJ
0.667 LW
N
73 331.125 M
77.34 331.125 L
S
GR
GS
[0.75 0 0 0.75 0 0] CT
0.149 GC
2 setlinecap
1 LJ
0.667 LW
N
73 288.25 M
77.34 288.25 L
S
GR
GS
[0.75 0 0 0.75 0 0] CT
0.149 GC
2 setlinecap
1 LJ
0.667 LW
N
73 245.375 M
77.34 245.375 L
S
GR
GS
[0.75 0 0 0.75 0 0] CT
0.149 GC
2 setlinecap
1 LJ
0.667 LW
N
73 202.5 M
77.34 202.5 L
S
GR
GS
[0.75 0 0 0.75 0 0] CT
0.149 GC
2 setlinecap
1 LJ
0.667 LW
N
73 159.625 M
77.34 159.625 L
S
GR
GS
[0.75 0 0 0.75 0 0] CT
0.149 GC
2 setlinecap
1 LJ
0.667 LW
N
73 116.75 M
77.34 116.75 L
S
GR
GS
[0.75 0 0 0.75 0 0] CT
0.149 GC
2 setlinecap
1 LJ
0.667 LW
N
73 73.875 M
77.34 73.875 L
S
GR
GS
[0.75 0 0 0.75 0 0] CT
0.149 GC
2 setlinecap
1 LJ
0.667 LW
N
73 31 M
77.34 31 L
S
GR
GS
[0.75 0 0 0.75 50.75 280.5] CT
0.149 GC
/Helvetica 13 F
GS
[1 0 0 1 0 0] CT
-8 5 moveto 
1 -1 scale
(0) t 
GR
GR
GS
[0.75 0 0 0.75 50.75 248.34375] CT
0.149 GC
/Helvetica 13 F
GS
[1 0 0 1 0 0] CT
-19 5 moveto 
1 -1 scale
(0.2) t 
GR
GR
GS
[0.75 0 0 0.75 50.75 216.1875] CT
0.149 GC
/Helvetica 13 F
GS
[1 0 0 1 0 0] CT
-19 5 moveto 
1 -1 scale
(0.4) t 
GR
GR
GS
[0.75 0 0 0.75 50.75 184.03125] CT
0.149 GC
/Helvetica 13 F
GS
[1 0 0 1 0 0] CT
-19 5 moveto 
1 -1 scale
(0.6) t 
GR
GR
GS
[0.75 0 0 0.75 50.75 151.875] CT
0.149 GC
/Helvetica 13 F
GS
[1 0 0 1 0 0] CT
-19 5 moveto 
1 -1 scale
(0.8) t 
GR
GR
GS
[0.75 0 0 0.75 50.75 119.71875] CT
0.149 GC
/Helvetica 13 F
GS
[1 0 0 1 0 0] CT
-8 5 moveto 
1 -1 scale
(1) t 
GR
GR
GS
[0.75 0 0 0.75 50.75 87.56249] CT
0.149 GC
/Helvetica 13 F
GS
[1 0 0 1 0 0] CT
-19 5 moveto 
1 -1 scale
(1.2) t 
GR
GR
GS
[0.75 0 0 0.75 50.75 55.40626] CT
0.149 GC
/Helvetica 13 F
GS
[1 0 0 1 0 0] CT
-19 5 moveto 
1 -1 scale
(1.4) t 
GR
GR
GS
[0.75 0 0 0.75 50.75 23.25] CT
0.149 GC
/Helvetica 13 F
GS
[1 0 0 1 0 0] CT
-19 5 moveto 
1 -1 scale
(1.6) t 
GR
GR
GS
[0.75 0 0 0.75 217.50021 21.1875] CT
/any-Bold 15 F
GS
[1 0 0 1 0 0] CT
-56 -4 moveto 
1 -1 scale
(Step u1 - loop 1) t 
GR
GR
GS
[0.75 0 0 0.75 0 0] CT
0 0 1 RC
1 LJ
0.667 LW
N
73 374 M
73.723 374 L
74.447 374 L
75.17 374 L
75.893 374 L
76.617 374 L
77.34 374 L
78.063 374 L
78.787 374 L
79.51 159.625 L
80.233 159.625 L
80.957 159.625 L
81.68 159.625 L
82.403 159.625 L
83.127 159.625 L
83.85 159.625 L
84.573 159.625 L
85.297 159.625 L
86.02 159.625 L
86.743 159.625 L
87.467 159.625 L
88.19 159.625 L
88.913 159.625 L
89.637 159.625 L
90.36 159.625 L
91.083 159.625 L
91.807 159.625 L
92.53 159.625 L
93.253 159.625 L
93.977 159.625 L
94.7 159.625 L
95.423 159.625 L
96.147 159.625 L
96.87 159.625 L
97.593 159.625 L
98.317 159.625 L
99.04 159.625 L
99.763 159.625 L
100.487 159.625 L
101.21 159.625 L
101.933 159.625 L
102.657 159.625 L
103.38 159.625 L
104.103 159.625 L
104.827 159.625 L
105.55 159.625 L
106.273 159.625 L
106.997 159.625 L
107.72 159.625 L
108.443 159.625 L
S
GR
GS
[0.75 0 0 0.75 0 0] CT
0 0 1 RC
1 LJ
0.667 LW
N
107.72 159.625 M
108.443 159.625 L
109.167 159.625 L
109.89 159.625 L
110.613 159.625 L
111.337 159.625 L
112.06 159.625 L
112.783 159.625 L
113.507 159.625 L
114.23 159.625 L
114.953 159.625 L
115.677 159.625 L
116.4 159.625 L
117.123 159.625 L
117.847 159.625 L
118.57 159.625 L
119.293 159.625 L
120.017 159.625 L
120.74 159.625 L
121.463 159.625 L
122.187 159.625 L
122.91 159.625 L
123.633 159.625 L
124.357 159.625 L
125.08 159.625 L
125.803 159.625 L
126.527 159.625 L
127.25 159.625 L
127.973 159.625 L
128.697 159.625 L
129.42 159.625 L
130.143 159.625 L
130.867 159.625 L
131.59 159.625 L
132.313 159.625 L
133.037 159.625 L
133.76 159.625 L
134.483 159.625 L
135.207 159.625 L
135.93 159.625 L
136.653 159.625 L
137.377 159.625 L
138.1 159.625 L
138.823 159.625 L
139.547 159.625 L
140.27 159.625 L
140.993 159.625 L
141.717 159.625 L
142.44 159.625 L
143.163 159.625 L
143.887 159.625 L
144.61 159.625 L
S
GR
GS
[0.75 0 0 0.75 0 0] CT
0 0 1 RC
1 LJ
0.667 LW
N
143.887 159.625 M
144.61 159.625 L
145.333 159.625 L
146.057 159.625 L
146.78 159.625 L
147.503 159.625 L
148.227 159.625 L
148.95 159.625 L
149.673 159.625 L
150.397 159.625 L
151.12 159.625 L
151.843 159.625 L
152.567 159.625 L
153.29 159.625 L
154.013 159.625 L
154.737 159.625 L
155.46 159.625 L
156.183 159.625 L
156.907 159.625 L
157.63 159.625 L
158.353 159.625 L
159.077 159.625 L
159.8 159.625 L
160.523 159.625 L
161.247 159.625 L
161.97 159.625 L
162.693 159.625 L
163.417 159.625 L
164.14 159.625 L
164.863 159.625 L
165.587 159.625 L
166.31 159.625 L
167.033 159.625 L
167.757 159.625 L
168.48 159.625 L
169.203 159.625 L
169.927 159.625 L
170.65 159.625 L
171.373 159.625 L
172.097 159.625 L
172.82 159.625 L
173.543 159.625 L
174.267 159.625 L
174.99 159.625 L
175.713 159.625 L
176.437 159.625 L
177.16 159.625 L
177.883 159.625 L
178.607 159.625 L
179.33 159.625 L
180.053 159.625 L
180.777 159.625 L
S
GR
GS
[0.75 0 0 0.75 0 0] CT
0 0 1 RC
1 LJ
0.667 LW
N
180.053 159.625 M
180.777 159.625 L
181.5 159.625 L
182.223 159.625 L
182.947 159.625 L
183.67 159.625 L
184.393 159.625 L
185.117 159.625 L
185.84 159.625 L
186.563 159.625 L
187.287 159.625 L
188.01 159.625 L
188.733 159.625 L
189.457 159.625 L
190.18 159.625 L
190.903 159.625 L
191.627 159.625 L
192.35 159.625 L
193.073 159.625 L
193.797 159.625 L
194.52 159.625 L
195.243 159.625 L
195.967 159.625 L
196.69 159.625 L
197.413 159.625 L
198.137 159.625 L
198.86 159.625 L
199.583 159.625 L
200.307 159.625 L
201.03 159.625 L
201.753 159.625 L
202.477 159.625 L
203.2 159.625 L
203.923 159.625 L
204.647 159.625 L
205.37 159.625 L
206.093 159.625 L
206.817 159.625 L
207.54 159.625 L
208.263 159.625 L
208.987 159.625 L
209.71 159.625 L
210.433 159.625 L
211.157 159.625 L
211.88 159.625 L
212.603 159.625 L
213.327 159.625 L
214.05 159.625 L
214.773 159.625 L
215.497 159.625 L
216.22 159.625 L
216.943 159.625 L
S
GR
GS
[0.75 0 0 0.75 0 0] CT
0 0 1 RC
1 LJ
0.667 LW
N
216.22 159.625 M
216.943 159.625 L
217.667 159.625 L
218.39 159.625 L
219.113 159.625 L
219.837 159.625 L
220.56 159.625 L
221.283 159.625 L
222.007 159.625 L
222.73 159.625 L
223.453 159.625 L
224.177 159.625 L
224.9 159.625 L
225.623 159.625 L
226.347 159.625 L
227.07 159.625 L
227.793 159.625 L
228.517 159.625 L
229.24 159.625 L
229.963 159.625 L
230.687 159.625 L
231.41 159.625 L
232.133 159.625 L
232.857 159.625 L
233.58 159.625 L
234.303 159.625 L
235.027 159.625 L
235.75 159.625 L
236.473 159.625 L
237.197 159.625 L
237.92 159.625 L
238.643 159.625 L
239.367 159.625 L
240.09 159.625 L
240.813 159.625 L
241.537 159.625 L
242.26 159.625 L
242.983 159.625 L
243.707 159.625 L
244.43 159.625 L
245.153 159.625 L
245.877 159.625 L
246.6 159.625 L
247.323 159.625 L
248.047 159.625 L
248.77 159.625 L
249.493 159.625 L
250.217 159.625 L
250.94 159.625 L
251.663 159.625 L
252.387 159.625 L
253.11 159.625 L
S
GR
GS
[0.75 0 0 0.75 0 0] CT
0 0 1 RC
1 LJ
0.667 LW
N
252.387 159.625 M
253.11 159.625 L
253.833 159.625 L
254.557 159.625 L
255.28 159.625 L
256.003 159.625 L
256.727 159.625 L
257.45 159.625 L
258.173 159.625 L
258.897 159.625 L
259.62 159.625 L
260.343 159.625 L
261.067 159.625 L
261.79 159.625 L
262.513 159.625 L
263.237 159.625 L
263.96 159.625 L
264.683 159.625 L
265.407 159.625 L
266.13 159.625 L
266.853 159.625 L
267.577 159.625 L
268.3 159.625 L
269.023 159.625 L
269.747 159.625 L
270.47 159.625 L
271.193 159.625 L
271.917 159.625 L
272.64 159.625 L
273.363 159.625 L
274.087 159.625 L
274.81 159.625 L
275.533 159.625 L
276.257 159.625 L
276.98 159.625 L
277.703 159.625 L
278.427 159.625 L
279.15 159.625 L
279.873 159.625 L
280.597 159.625 L
281.32 159.625 L
282.043 159.625 L
282.767 159.625 L
283.49 159.625 L
284.213 159.625 L
284.937 159.625 L
285.66 159.625 L
286.383 159.625 L
287.107 159.625 L
287.83 159.625 L
288.553 159.625 L
289.277 159.625 L
S
GR
GS
[0.75 0 0 0.75 0 0] CT
0 0 1 RC
1 LJ
0.667 LW
N
288.553 159.625 M
289.277 159.625 L
290 159.625 L
290.723 159.625 L
291.447 159.625 L
292.17 159.625 L
292.893 159.625 L
293.617 159.625 L
294.34 159.625 L
295.063 159.625 L
295.787 159.625 L
296.51 159.625 L
297.233 159.625 L
297.957 159.625 L
298.68 159.625 L
299.403 159.625 L
300.127 159.625 L
300.85 159.625 L
301.573 159.625 L
302.297 159.625 L
303.02 159.625 L
303.743 159.625 L
304.467 159.625 L
305.19 159.625 L
305.913 159.625 L
306.637 159.625 L
307.36 159.625 L
308.083 159.625 L
308.807 159.625 L
309.53 159.625 L
310.253 159.625 L
310.977 159.625 L
311.7 159.625 L
312.423 159.625 L
313.147 159.625 L
313.87 159.625 L
314.593 159.625 L
315.317 159.625 L
316.04 159.625 L
316.763 159.625 L
317.487 159.625 L
318.21 159.625 L
318.933 159.625 L
319.657 159.625 L
320.38 159.625 L
321.103 159.625 L
321.827 159.625 L
322.55 159.625 L
323.273 159.625 L
323.997 159.625 L
324.72 159.625 L
325.443 159.625 L
S
GR
GS
[0.75 0 0 0.75 0 0] CT
0 0 1 RC
1 LJ
0.667 LW
N
324.72 159.625 M
325.443 159.625 L
326.167 159.625 L
326.89 159.625 L
327.613 159.625 L
328.337 159.625 L
329.06 159.625 L
329.783 159.625 L
330.507 159.625 L
331.23 159.625 L
331.953 159.625 L
332.677 159.625 L
333.4 159.625 L
334.123 159.625 L
334.847 159.625 L
335.57 159.625 L
336.293 159.625 L
337.017 159.625 L
337.74 159.625 L
338.463 159.625 L
339.187 159.625 L
339.91 159.625 L
340.633 159.625 L
341.357 159.625 L
342.08 159.625 L
342.803 159.625 L
343.527 159.625 L
344.25 159.625 L
344.973 159.625 L
345.697 159.625 L
346.42 159.625 L
347.143 159.625 L
347.867 159.625 L
348.59 159.625 L
349.313 159.625 L
350.037 159.625 L
350.76 159.625 L
351.483 159.625 L
352.207 159.625 L
352.93 159.625 L
353.653 159.625 L
354.377 159.625 L
355.1 159.625 L
355.823 159.625 L
356.547 159.625 L
357.27 159.625 L
357.993 159.625 L
358.717 159.625 L
359.44 159.625 L
360.163 159.625 L
360.887 159.625 L
361.61 159.625 L
S
GR
GS
[0.75 0 0 0.75 0 0] CT
0 0 1 RC
1 LJ
0.667 LW
N
360.887 159.625 M
361.61 159.625 L
362.333 159.625 L
363.057 159.625 L
363.78 159.625 L
364.503 159.625 L
365.227 159.625 L
365.95 159.625 L
366.673 159.625 L
367.397 159.625 L
368.12 159.625 L
368.843 159.625 L
369.567 159.625 L
370.29 159.625 L
371.013 159.625 L
371.737 159.625 L
372.46 159.625 L
373.183 159.625 L
373.907 159.625 L
374.63 159.625 L
375.353 159.625 L
376.077 159.625 L
376.8 159.625 L
377.523 159.625 L
378.247 159.625 L
378.97 159.625 L
379.693 159.625 L
380.417 159.625 L
381.14 159.625 L
381.863 159.625 L
382.587 159.625 L
383.31 159.625 L
384.033 159.625 L
384.757 159.625 L
385.48 159.625 L
386.203 159.625 L
386.927 159.625 L
387.65 159.625 L
388.373 159.625 L
389.097 159.625 L
389.82 159.625 L
390.543 159.625 L
391.267 159.625 L
391.99 159.625 L
392.713 159.625 L
393.437 159.625 L
394.16 159.625 L
394.883 159.625 L
395.607 159.625 L
396.33 159.625 L
397.053 159.625 L
397.777 159.625 L
S
GR
GS
[0.75 0 0 0.75 0 0] CT
0 0 1 RC
1 LJ
0.667 LW
N
397.053 159.625 M
397.777 159.625 L
398.5 159.625 L
399.223 159.625 L
399.947 159.625 L
400.67 159.625 L
401.393 159.625 L
402.117 159.625 L
402.84 159.625 L
403.563 159.625 L
404.287 159.625 L
405.01 159.625 L
405.733 159.625 L
406.457 159.625 L
407.18 159.625 L
407.903 159.625 L
408.627 159.625 L
409.35 159.625 L
410.073 159.625 L
410.797 159.625 L
411.52 159.625 L
412.243 159.625 L
412.967 159.625 L
413.69 159.625 L
414.413 159.625 L
415.137 159.625 L
415.86 159.625 L
416.583 159.625 L
417.307 159.625 L
418.03 159.625 L
418.753 159.625 L
419.477 159.625 L
420.2 159.625 L
420.923 159.625 L
421.647 159.625 L
422.37 159.625 L
423.093 159.625 L
423.817 159.625 L
424.54 159.625 L
425.263 159.625 L
425.987 159.625 L
426.71 159.625 L
427.433 159.625 L
428.157 159.625 L
428.88 159.625 L
429.603 159.625 L
430.327 159.625 L
431.05 159.625 L
431.773 159.625 L
432.497 159.625 L
433.22 159.625 L
433.943 159.625 L
S
GR
GS
[0.75 0 0 0.75 0 0] CT
0 0 1 RC
1 LJ
0.667 LW
N
433.22 159.625 M
433.943 159.625 L
434.667 159.625 L
435.39 159.625 L
436.113 159.625 L
436.837 159.625 L
437.56 159.625 L
438.283 159.625 L
439.007 159.625 L
439.73 159.625 L
440.453 159.625 L
441.177 159.625 L
441.9 159.625 L
442.623 159.625 L
443.347 159.625 L
444.07 159.625 L
444.793 159.625 L
445.517 159.625 L
446.24 159.625 L
446.963 159.625 L
447.687 159.625 L
448.41 159.625 L
449.133 159.625 L
449.857 159.625 L
450.58 159.625 L
451.303 159.625 L
452.027 159.625 L
452.75 159.625 L
453.473 159.625 L
454.197 159.625 L
454.92 159.625 L
455.643 159.625 L
456.367 159.625 L
457.09 159.625 L
457.813 159.625 L
458.537 159.625 L
459.26 159.625 L
459.983 159.625 L
460.707 159.625 L
461.43 159.625 L
462.153 159.625 L
462.877 159.625 L
463.6 159.625 L
464.323 159.625 L
465.047 159.625 L
465.77 159.625 L
466.493 159.625 L
467.217 159.625 L
467.94 159.625 L
468.663 159.625 L
469.387 159.625 L
470.11 159.625 L
S
GR
GS
[0.75 0 0 0.75 0 0] CT
0 0 1 RC
1 LJ
0.667 LW
N
469.387 159.625 M
470.11 159.625 L
470.833 159.625 L
471.557 159.625 L
472.28 159.625 L
473.003 159.625 L
473.727 159.625 L
474.45 159.625 L
475.173 159.625 L
475.897 159.625 L
476.62 159.625 L
477.343 159.625 L
478.067 159.625 L
478.79 159.625 L
479.513 159.625 L
480.237 159.625 L
480.96 159.625 L
481.683 159.625 L
482.407 159.625 L
483.13 159.625 L
483.853 159.625 L
484.577 159.625 L
485.3 159.625 L
486.023 159.625 L
486.747 159.625 L
487.47 159.625 L
488.193 159.625 L
488.917 159.625 L
489.64 159.625 L
490.363 159.625 L
491.087 159.625 L
491.81 159.625 L
492.533 159.625 L
493.257 159.625 L
493.98 159.625 L
494.703 159.625 L
495.427 159.625 L
496.15 159.625 L
496.873 159.625 L
497.597 159.625 L
498.32 159.625 L
499.043 159.625 L
499.767 159.625 L
500.49 159.625 L
501.213 159.625 L
501.937 159.625 L
502.66 159.625 L
503.383 159.625 L
504.107 159.625 L
504.83 159.625 L
505.553 159.625 L
506.277 159.625 L
S
GR
GS
[0.75 0 0 0.75 0 0] CT
0 0 1 RC
1 LJ
0.667 LW
N
505.553 159.625 M
506.277 159.625 L
507 159.625 L
S
GR
GS
[0.75 0 0 0.75 0 0] CT
0 1 1 RC
1 LJ
0.667 LW
N
73 374 M
73.723 374 L
74.447 374 L
75.17 374 L
75.893 374 L
76.617 374 L
77.34 374 L
78.063 374 L
78.787 374 L
79.51 374 L
80.233 374 L
80.957 374 L
81.68 374 L
82.403 374 L
83.127 374 L
83.85 374 L
84.573 374 L
85.297 374 L
86.02 374 L
86.743 374 L
87.467 374 L
88.19 374 L
88.913 374 L
89.637 374 L
90.36 374 L
91.083 374 L
91.807 374 L
92.53 374 L
93.253 374 L
93.977 374 L
94.7 374 L
95.423 374 L
96.147 374 L
96.87 374 L
97.593 374 L
98.317 374 L
99.04 374 L
99.763 374 L
100.487 374 L
101.21 374 L
101.933 374 L
102.657 374 L
103.38 374 L
104.103 374 L
104.827 374 L
105.55 374 L
106.273 374 L
106.997 374 L
107.72 374 L
108.443 374 L
S
GR
GS
[0.75 0 0 0.75 0 0] CT
0 1 1 RC
1 LJ
0.667 LW
N
107.72 374 M
108.443 374 L
109.167 374 L
109.89 374 L
110.613 374 L
111.337 374 L
112.06 374 L
112.783 374 L
113.507 374 L
114.23 374 L
114.953 374 L
115.677 374 L
116.4 374 L
117.123 374 L
117.847 374 L
118.57 374 L
119.293 374 L
120.017 374 L
120.74 374 L
121.463 374 L
122.187 374 L
122.91 374 L
123.633 374 L
124.357 374 L
125.08 374 L
125.803 374 L
126.527 374 L
127.25 374 L
127.973 374 L
128.697 374 L
129.42 374 L
130.143 374 L
130.867 374 L
131.59 374 L
132.313 374 L
133.037 374 L
133.76 374 L
134.483 374 L
135.207 374 L
135.93 374 L
136.653 374 L
137.377 374 L
138.1 374 L
138.823 374 L
139.547 374 L
140.27 374 L
140.993 374 L
141.717 374 L
142.44 374 L
143.163 374 L
143.887 374 L
144.61 374 L
S
GR
GS
[0.75 0 0 0.75 0 0] CT
0 1 1 RC
1 LJ
0.667 LW
N
143.887 374 M
144.61 374 L
145.333 374 L
146.057 374 L
146.78 374 L
147.503 374 L
148.227 374 L
148.95 374 L
149.673 374 L
150.397 374 L
151.12 374 L
151.843 374 L
152.567 374 L
153.29 374 L
154.013 374 L
154.737 374 L
155.46 374 L
156.183 374 L
156.907 374 L
157.63 374 L
158.353 374 L
159.077 374 L
159.8 374 L
160.523 374 L
161.247 374 L
161.97 374 L
162.693 374 L
163.417 374 L
164.14 374 L
164.863 374 L
165.587 374 L
166.31 374 L
167.033 374 L
167.757 374 L
168.48 374 L
169.203 374 L
169.927 374 L
170.65 374 L
171.373 374 L
172.097 374 L
172.82 374 L
173.543 374 L
174.267 374 L
174.99 374 L
175.713 374 L
176.437 374 L
177.16 374 L
177.883 374 L
178.607 374 L
179.33 374 L
180.053 374 L
180.777 374 L
S
GR
GS
[0.75 0 0 0.75 0 0] CT
0 1 1 RC
1 LJ
0.667 LW
N
180.053 374 M
180.777 374 L
181.5 374 L
182.223 374 L
182.947 374 L
183.67 374 L
184.393 374 L
185.117 374 L
185.84 374 L
186.563 374 L
187.287 374 L
188.01 374 L
188.733 374 L
189.457 374 L
190.18 374 L
190.903 374 L
191.627 374 L
192.35 374 L
193.073 374 L
193.797 374 L
194.52 374 L
195.243 374 L
195.967 374 L
196.69 374 L
197.413 374 L
198.137 374 L
198.86 374 L
199.583 374 L
200.307 374 L
201.03 374 L
201.753 374 L
202.477 374 L
203.2 374 L
203.923 374 L
204.647 374 L
205.37 374 L
206.093 374 L
206.817 374 L
207.54 374 L
208.263 374 L
208.987 374 L
209.71 374 L
210.433 374 L
211.157 374 L
211.88 374 L
212.603 374 L
213.327 374 L
214.05 374 L
214.773 374 L
215.497 374 L
216.22 374 L
216.943 374 L
S
GR
GS
[0.75 0 0 0.75 0 0] CT
0 1 1 RC
1 LJ
0.667 LW
N
216.22 374 M
216.943 374 L
217.667 374 L
218.39 374 L
219.113 374 L
219.837 374 L
220.56 374 L
221.283 374 L
222.007 374 L
222.73 374 L
223.453 374 L
224.177 374 L
224.9 374 L
225.623 374 L
226.347 374 L
227.07 374 L
227.793 374 L
228.517 374 L
229.24 374 L
229.963 374 L
230.687 374 L
231.41 374 L
232.133 374 L
232.857 374 L
233.58 374 L
234.303 374 L
235.027 374 L
235.75 374 L
236.473 374 L
237.197 374 L
237.92 374 L
238.643 374 L
239.367 374 L
240.09 374 L
240.813 374 L
241.537 374 L
242.26 374 L
242.983 374 L
243.707 374 L
244.43 374 L
245.153 374 L
245.877 374 L
246.6 374 L
247.323 374 L
248.047 374 L
248.77 374 L
249.493 374 L
250.217 374 L
250.94 374 L
251.663 374 L
252.387 374 L
253.11 374 L
S
GR
GS
[0.75 0 0 0.75 0 0] CT
0 1 1 RC
1 LJ
0.667 LW
N
252.387 374 M
253.11 374 L
253.833 374 L
254.557 374 L
255.28 374 L
256.003 374 L
256.727 374 L
257.45 374 L
258.173 374 L
258.897 374 L
259.62 374 L
260.343 374 L
261.067 374 L
261.79 374 L
262.513 374 L
263.237 374 L
263.96 374 L
264.683 374 L
265.407 374 L
266.13 374 L
266.853 374 L
267.577 374 L
268.3 374 L
269.023 374 L
269.747 374 L
270.47 374 L
271.193 374 L
271.917 374 L
272.64 374 L
273.363 374 L
274.087 374 L
274.81 374 L
275.533 374 L
276.257 374 L
276.98 374 L
277.703 374 L
278.427 374 L
279.15 374 L
279.873 374 L
280.597 374 L
281.32 374 L
282.043 374 L
282.767 374 L
283.49 374 L
284.213 374 L
284.937 374 L
285.66 374 L
286.383 374 L
287.107 374 L
287.83 374 L
288.553 374 L
289.277 374 L
S
GR
GS
[0.75 0 0 0.75 0 0] CT
0 1 1 RC
1 LJ
0.667 LW
N
288.553 374 M
289.277 374 L
290 374 L
290.723 374 L
291.447 374 L
292.17 374 L
292.893 374 L
293.617 374 L
294.34 374 L
295.063 374 L
295.787 374 L
296.51 374 L
297.233 374 L
297.957 374 L
298.68 374 L
299.403 374 L
300.127 374 L
300.85 374 L
301.573 374 L
302.297 374 L
303.02 374 L
303.743 374 L
304.467 374 L
305.19 374 L
305.913 374 L
306.637 374 L
307.36 374 L
308.083 374 L
308.807 374 L
309.53 374 L
310.253 374 L
310.977 374 L
311.7 374 L
312.423 374 L
313.147 374 L
313.87 374 L
314.593 374 L
315.317 374 L
316.04 374 L
316.763 374 L
317.487 374 L
318.21 374 L
318.933 374 L
319.657 374 L
320.38 374 L
321.103 374 L
321.827 374 L
322.55 374 L
323.273 374 L
323.997 374 L
324.72 374 L
325.443 374 L
S
GR
GS
[0.75 0 0 0.75 0 0] CT
0 1 1 RC
1 LJ
0.667 LW
N
324.72 374 M
325.443 374 L
326.167 374 L
326.89 374 L
327.613 374 L
328.337 374 L
329.06 374 L
329.783 374 L
330.507 374 L
331.23 374 L
331.953 374 L
332.677 374 L
333.4 374 L
334.123 374 L
334.847 374 L
335.57 374 L
336.293 374 L
337.017 374 L
337.74 374 L
338.463 374 L
339.187 374 L
339.91 374 L
340.633 374 L
341.357 374 L
342.08 374 L
342.803 374 L
343.527 374 L
344.25 374 L
344.973 374 L
345.697 374 L
346.42 374 L
347.143 374 L
347.867 374 L
348.59 374 L
349.313 374 L
350.037 374 L
350.76 374 L
351.483 374 L
352.207 374 L
352.93 374 L
353.653 374 L
354.377 374 L
355.1 374 L
355.823 374 L
356.547 374 L
357.27 374 L
357.993 374 L
358.717 374 L
359.44 374 L
360.163 374 L
360.887 374 L
361.61 374 L
S
GR
GS
[0.75 0 0 0.75 0 0] CT
0 1 1 RC
1 LJ
0.667 LW
N
360.887 374 M
361.61 374 L
362.333 374 L
363.057 374 L
363.78 374 L
364.503 374 L
365.227 374 L
365.95 374 L
366.673 374 L
367.397 374 L
368.12 374 L
368.843 374 L
369.567 374 L
370.29 374 L
371.013 374 L
371.737 374 L
372.46 374 L
373.183 374 L
373.907 374 L
374.63 374 L
375.353 374 L
376.077 374 L
376.8 374 L
377.523 374 L
378.247 374 L
378.97 374 L
379.693 374 L
380.417 374 L
381.14 374 L
381.863 374 L
382.587 374 L
383.31 374 L
384.033 374 L
384.757 374 L
385.48 374 L
386.203 374 L
386.927 374 L
387.65 374 L
388.373 374 L
389.097 374 L
389.82 374 L
390.543 374 L
391.267 374 L
391.99 374 L
392.713 374 L
393.437 374 L
394.16 374 L
394.883 374 L
395.607 374 L
396.33 374 L
397.053 374 L
397.777 374 L
S
GR
GS
[0.75 0 0 0.75 0 0] CT
0 1 1 RC
1 LJ
0.667 LW
N
397.053 374 M
397.777 374 L
398.5 374 L
399.223 374 L
399.947 374 L
400.67 374 L
401.393 374 L
402.117 374 L
402.84 374 L
403.563 374 L
404.287 374 L
405.01 374 L
405.733 374 L
406.457 374 L
407.18 374 L
407.903 374 L
408.627 374 L
409.35 374 L
410.073 374 L
410.797 374 L
411.52 374 L
412.243 374 L
412.967 374 L
413.69 374 L
414.413 374 L
415.137 374 L
415.86 374 L
416.583 374 L
417.307 374 L
418.03 374 L
418.753 374 L
419.477 374 L
420.2 374 L
420.923 374 L
421.647 374 L
422.37 374 L
423.093 374 L
423.817 374 L
424.54 374 L
425.263 374 L
425.987 374 L
426.71 374 L
427.433 374 L
428.157 374 L
428.88 374 L
429.603 374 L
430.327 374 L
431.05 374 L
431.773 374 L
432.497 374 L
433.22 374 L
433.943 374 L
S
GR
GS
[0.75 0 0 0.75 0 0] CT
0 1 1 RC
1 LJ
0.667 LW
N
433.22 374 M
433.943 374 L
434.667 374 L
435.39 374 L
436.113 374 L
436.837 374 L
437.56 374 L
438.283 374 L
439.007 374 L
439.73 374 L
440.453 374 L
441.177 374 L
441.9 374 L
442.623 374 L
443.347 374 L
444.07 374 L
444.793 374 L
445.517 374 L
446.24 374 L
446.963 374 L
447.687 374 L
448.41 374 L
449.133 374 L
449.857 374 L
450.58 374 L
451.303 374 L
452.027 374 L
452.75 374 L
453.473 374 L
454.197 374 L
454.92 374 L
455.643 374 L
456.367 374 L
457.09 374 L
457.813 374 L
458.537 374 L
459.26 374 L
459.983 374 L
460.707 374 L
461.43 374 L
462.153 374 L
462.877 374 L
463.6 374 L
464.323 374 L
465.047 374 L
465.77 374 L
466.493 374 L
467.217 374 L
467.94 374 L
468.663 374 L
469.387 374 L
470.11 374 L
S
GR
GS
[0.75 0 0 0.75 0 0] CT
0 1 1 RC
1 LJ
0.667 LW
N
469.387 374 M
470.11 374 L
470.833 374 L
471.557 374 L
472.28 374 L
473.003 374 L
473.727 374 L
474.45 374 L
475.173 374 L
475.897 374 L
476.62 374 L
477.343 374 L
478.067 374 L
478.79 374 L
479.513 374 L
480.237 374 L
480.96 374 L
481.683 374 L
482.407 374 L
483.13 374 L
483.853 374 L
484.577 374 L
485.3 374 L
486.023 374 L
486.747 374 L
487.47 374 L
488.193 374 L
488.917 374 L
489.64 374 L
490.363 374 L
491.087 374 L
491.81 374 L
492.533 374 L
493.257 374 L
493.98 374 L
494.703 374 L
495.427 374 L
496.15 374 L
496.873 374 L
497.597 374 L
498.32 374 L
499.043 374 L
499.767 374 L
500.49 374 L
501.213 374 L
501.937 374 L
502.66 374 L
503.383 374 L
504.107 374 L
504.83 374 L
505.553 374 L
506.277 374 L
S
GR
GS
[0.75 0 0 0.75 0 0] CT
0 1 1 RC
1 LJ
0.667 LW
N
505.553 374 M
506.277 374 L
507 374 L
S
GR
GS
[0.75 0 0 0.75 0 0] CT
1 0 0 RC
1 LJ
0.667 LW
N
73 374 M
73.723 374 L
74.447 374 L
75.17 374 L
75.893 374 L
76.617 374 L
77.34 374 L
78.063 374 L
78.787 374 L
79.51 374 L
80.233 373.975 L
80.957 373.915 L
81.68 373.821 L
82.403 373.692 L
83.127 373.53 L
83.85 373.335 L
84.573 373.107 L
85.297 372.847 L
86.02 372.556 L
86.743 372.234 L
87.467 371.881 L
88.19 371.498 L
88.913 371.086 L
89.637 370.645 L
90.36 370.175 L
91.083 369.677 L
91.807 369.152 L
92.53 368.599 L
93.253 368.02 L
93.977 367.415 L
94.7 366.785 L
95.423 366.129 L
96.147 365.449 L
96.87 364.744 L
97.593 364.016 L
98.317 363.265 L
99.04 362.49 L
99.763 361.694 L
100.487 360.875 L
101.21 360.036 L
101.933 359.175 L
102.657 358.293 L
103.38 357.392 L
104.103 356.471 L
104.827 355.531 L
105.55 354.572 L
106.273 353.594 L
106.997 352.599 L
107.72 351.586 L
108.443 350.557 L
S
GR
GS
[0.75 0 0 0.75 0 0] CT
1 0 0 RC
1 LJ
0.667 LW
N
107.72 351.586 M
108.443 350.557 L
109.167 349.51 L
109.89 348.447 L
110.613 347.369 L
111.337 346.275 L
112.06 345.166 L
112.783 344.043 L
113.507 342.905 L
114.23 341.754 L
114.953 340.589 L
115.677 339.411 L
116.4 338.22 L
117.123 337.017 L
117.847 335.803 L
118.57 334.576 L
119.293 333.339 L
120.017 332.091 L
120.74 330.832 L
121.463 329.564 L
122.187 328.285 L
122.91 326.998 L
123.633 325.701 L
124.357 324.396 L
125.08 323.082 L
125.803 321.76 L
126.527 320.431 L
127.25 319.095 L
127.973 317.751 L
128.697 316.401 L
129.42 315.044 L
130.143 313.682 L
130.867 312.314 L
131.59 310.94 L
132.313 309.561 L
133.037 308.178 L
133.76 306.79 L
134.483 305.397 L
135.207 304.001 L
135.93 302.601 L
136.653 301.198 L
137.377 299.792 L
138.1 298.383 L
138.823 296.972 L
139.547 295.558 L
140.27 294.143 L
140.993 292.725 L
141.717 291.306 L
142.44 289.886 L
143.163 288.466 L
143.887 287.044 L
144.61 285.622 L
S
GR
GS
[0.75 0 0 0.75 0 0] CT
1 0 0 RC
1 LJ
0.667 LW
N
143.887 287.044 M
144.61 285.622 L
145.333 284.2 L
146.057 282.777 L
146.78 281.356 L
147.503 279.934 L
148.227 278.513 L
148.95 277.094 L
149.673 275.675 L
150.397 274.258 L
151.12 272.842 L
151.843 271.429 L
152.567 270.017 L
153.29 268.607 L
154.013 267.2 L
154.737 265.796 L
155.46 264.394 L
156.183 262.996 L
156.907 261.6 L
157.63 260.208 L
158.353 258.82 L
159.077 257.435 L
159.8 256.054 L
160.523 254.678 L
161.247 253.305 L
161.97 251.937 L
162.693 250.574 L
163.417 249.215 L
164.14 247.862 L
164.863 246.513 L
165.587 245.169 L
166.31 243.831 L
167.033 242.499 L
167.757 241.171 L
168.48 239.85 L
169.203 238.535 L
169.927 237.226 L
170.65 235.922 L
171.373 234.626 L
172.097 233.335 L
172.82 232.051 L
173.543 230.774 L
174.267 229.504 L
174.99 228.24 L
175.713 226.984 L
176.437 225.734 L
177.16 224.492 L
177.883 223.257 L
178.607 222.029 L
179.33 220.809 L
180.053 219.597 L
180.777 218.392 L
S
GR
GS
[0.75 0 0 0.75 0 0] CT
1 0 0 RC
1 LJ
0.667 LW
N
180.053 219.597 M
180.777 218.392 L
181.5 217.195 L
182.223 216.006 L
182.947 214.824 L
183.67 213.651 L
184.393 212.486 L
185.117 211.329 L
185.84 210.18 L
186.563 209.04 L
187.287 207.908 L
188.01 206.784 L
188.733 205.669 L
189.457 204.563 L
190.18 203.465 L
190.903 202.376 L
191.627 201.295 L
192.35 200.223 L
193.073 199.161 L
193.797 198.107 L
194.52 197.062 L
195.243 196.026 L
195.967 194.999 L
196.69 193.981 L
197.413 192.972 L
198.137 191.972 L
198.86 190.981 L
199.583 190 L
200.307 189.028 L
201.03 188.065 L
201.753 187.111 L
202.477 186.167 L
203.2 185.232 L
203.923 184.306 L
204.647 183.39 L
205.37 182.483 L
206.093 181.586 L
206.817 180.697 L
207.54 179.819 L
208.263 178.949 L
208.987 178.089 L
209.71 177.239 L
210.433 176.398 L
211.157 175.566 L
211.88 174.744 L
212.603 173.931 L
213.327 173.128 L
214.05 172.334 L
214.773 171.55 L
215.497 170.775 L
216.22 170.009 L
216.943 169.253 L
S
GR
GS
[0.75 0 0 0.75 0 0] CT
1 0 0 RC
1 LJ
0.667 LW
N
216.22 170.009 M
216.943 169.253 L
217.667 168.506 L
218.39 167.768 L
219.113 167.04 L
219.837 166.321 L
220.56 165.612 L
221.283 164.912 L
222.007 164.221 L
222.73 163.539 L
223.453 162.867 L
224.177 162.204 L
224.9 161.55 L
225.623 160.905 L
226.347 160.27 L
227.07 159.643 L
227.793 159.026 L
228.517 158.417 L
229.24 157.818 L
229.963 157.228 L
230.687 156.647 L
231.41 156.074 L
232.133 155.511 L
232.857 154.956 L
233.58 154.41 L
234.303 153.873 L
235.027 153.345 L
235.75 152.825 L
236.473 152.314 L
237.197 151.812 L
237.92 151.318 L
238.643 150.833 L
239.367 150.357 L
240.09 149.888 L
240.813 149.429 L
241.537 148.977 L
242.26 148.534 L
242.983 148.099 L
243.707 147.673 L
244.43 147.254 L
245.153 146.844 L
245.877 146.442 L
246.6 146.047 L
247.323 145.661 L
248.047 145.283 L
248.77 144.912 L
249.493 144.55 L
250.217 144.195 L
250.94 143.848 L
251.663 143.508 L
252.387 143.176 L
253.11 142.852 L
S
GR
GS
[0.75 0 0 0.75 0 0] CT
1 0 0 RC
1 LJ
0.667 LW
N
252.387 143.176 M
253.11 142.852 L
253.833 142.535 L
254.557 142.225 L
255.28 141.923 L
256.003 141.628 L
256.727 141.341 L
257.45 141.06 L
258.173 140.787 L
258.897 140.521 L
259.62 140.262 L
260.343 140.01 L
261.067 139.764 L
261.79 139.526 L
262.513 139.294 L
263.237 139.07 L
263.96 138.851 L
264.683 138.64 L
265.407 138.435 L
266.13 138.236 L
266.853 138.044 L
267.577 137.858 L
268.3 137.679 L
269.023 137.505 L
269.747 137.338 L
270.47 137.177 L
271.193 137.022 L
271.917 136.874 L
272.64 136.73 L
273.363 136.593 L
274.087 136.462 L
274.81 136.336 L
275.533 136.216 L
276.257 136.102 L
276.98 135.993 L
277.703 135.89 L
278.427 135.792 L
279.15 135.7 L
279.873 135.613 L
280.597 135.531 L
281.32 135.454 L
282.043 135.382 L
282.767 135.316 L
283.49 135.254 L
284.213 135.197 L
284.937 135.146 L
285.66 135.098 L
286.383 135.056 L
287.107 135.019 L
287.83 134.986 L
288.553 134.957 L
289.277 134.933 L
S
GR
GS
[0.75 0 0 0.75 0 0] CT
1 0 0 RC
1 LJ
0.667 LW
N
288.553 134.957 M
289.277 134.933 L
290 134.914 L
290.723 134.899 L
291.447 134.888 L
292.17 134.881 L
292.893 134.879 L
293.617 134.881 L
294.34 134.886 L
295.063 134.896 L
295.787 134.91 L
296.51 134.928 L
297.233 134.949 L
297.957 134.974 L
298.68 135.003 L
299.403 135.036 L
300.127 135.072 L
300.85 135.112 L
301.573 135.155 L
302.297 135.202 L
303.02 135.252 L
303.743 135.305 L
304.467 135.362 L
305.19 135.422 L
305.913 135.485 L
306.637 135.551 L
307.36 135.62 L
308.083 135.692 L
308.807 135.766 L
309.53 135.844 L
310.253 135.925 L
310.977 136.008 L
311.7 136.094 L
312.423 136.183 L
313.147 136.274 L
313.87 136.368 L
314.593 136.464 L
315.317 136.563 L
316.04 136.664 L
316.763 136.767 L
317.487 136.873 L
318.21 136.981 L
318.933 137.091 L
319.657 137.203 L
320.38 137.318 L
321.103 137.434 L
321.827 137.552 L
322.55 137.673 L
323.273 137.795 L
323.997 137.919 L
324.72 138.045 L
325.443 138.172 L
S
GR
GS
[0.75 0 0 0.75 0 0] CT
1 0 0 RC
1 LJ
0.667 LW
N
324.72 138.045 M
325.443 138.172 L
326.167 138.301 L
326.89 138.432 L
327.613 138.565 L
328.337 138.699 L
329.06 138.834 L
329.783 138.971 L
330.507 139.11 L
331.23 139.25 L
331.953 139.391 L
332.677 139.533 L
333.4 139.677 L
334.123 139.822 L
334.847 139.968 L
335.57 140.115 L
336.293 140.264 L
337.017 140.413 L
337.74 140.564 L
338.463 140.715 L
339.187 140.867 L
339.91 141.02 L
340.633 141.174 L
341.357 141.329 L
342.08 141.485 L
342.803 141.641 L
343.527 141.798 L
344.25 141.956 L
344.973 142.115 L
345.697 142.274 L
346.42 142.433 L
347.143 142.593 L
347.867 142.754 L
348.59 142.915 L
349.313 143.076 L
350.037 143.238 L
350.76 143.4 L
351.483 143.563 L
352.207 143.726 L
352.93 143.889 L
353.653 144.052 L
354.377 144.216 L
355.1 144.38 L
355.823 144.544 L
356.547 144.707 L
357.27 144.872 L
357.993 145.036 L
358.717 145.2 L
359.44 145.364 L
360.163 145.528 L
360.887 145.692 L
361.61 145.856 L
S
GR
GS
[0.75 0 0 0.75 0 0] CT
1 0 0 RC
1 LJ
0.667 LW
N
360.887 145.692 M
361.61 145.856 L
362.333 146.02 L
363.057 146.184 L
363.78 146.348 L
364.503 146.511 L
365.227 146.674 L
365.95 146.837 L
366.673 147 L
367.397 147.163 L
368.12 147.325 L
368.843 147.487 L
369.567 147.648 L
370.29 147.809 L
371.013 147.97 L
371.737 148.131 L
372.46 148.291 L
373.183 148.45 L
373.907 148.609 L
374.63 148.768 L
375.353 148.926 L
376.077 149.083 L
376.8 149.24 L
377.523 149.397 L
378.247 149.553 L
378.97 149.708 L
379.693 149.863 L
380.417 150.016 L
381.14 150.17 L
381.863 150.323 L
382.587 150.475 L
383.31 150.626 L
384.033 150.777 L
384.757 150.926 L
385.48 151.076 L
386.203 151.224 L
386.927 151.372 L
387.65 151.519 L
388.373 151.665 L
389.097 151.81 L
389.82 151.954 L
390.543 152.098 L
391.267 152.241 L
391.99 152.383 L
392.713 152.524 L
393.437 152.664 L
394.16 152.803 L
394.883 152.942 L
395.607 153.079 L
396.33 153.216 L
397.053 153.352 L
397.777 153.486 L
S
GR
GS
[0.75 0 0 0.75 0 0] CT
1 0 0 RC
1 LJ
0.667 LW
N
397.053 153.352 M
397.777 153.486 L
398.5 153.62 L
399.223 153.753 L
399.947 153.885 L
400.67 154.016 L
401.393 154.146 L
402.117 154.275 L
402.84 154.403 L
403.563 154.53 L
404.287 154.656 L
405.01 154.781 L
405.733 154.905 L
406.457 155.028 L
407.18 155.15 L
407.903 155.271 L
408.627 155.39 L
409.35 155.509 L
410.073 155.627 L
410.797 155.744 L
411.52 155.86 L
412.243 155.974 L
412.967 156.088 L
413.69 156.2 L
414.413 156.312 L
415.137 156.422 L
415.86 156.531 L
416.583 156.64 L
417.307 156.747 L
418.03 156.853 L
418.753 156.958 L
419.477 157.062 L
420.2 157.165 L
420.923 157.266 L
421.647 157.367 L
422.37 157.466 L
423.093 157.565 L
423.817 157.662 L
424.54 157.759 L
425.263 157.854 L
425.987 157.948 L
426.71 158.041 L
427.433 158.133 L
428.157 158.224 L
428.88 158.314 L
429.603 158.402 L
430.327 158.49 L
431.05 158.576 L
431.773 158.662 L
432.497 158.746 L
433.22 158.829 L
433.943 158.912 L
S
GR
GS
[0.75 0 0 0.75 0 0] CT
1 0 0 RC
1 LJ
0.667 LW
N
433.22 158.829 M
433.943 158.912 L
434.667 158.993 L
435.39 159.073 L
436.113 159.152 L
436.837 159.23 L
437.56 159.306 L
438.283 159.382 L
439.007 159.457 L
439.73 159.531 L
440.453 159.603 L
441.177 159.675 L
441.9 159.745 L
442.623 159.815 L
443.347 159.883 L
444.07 159.951 L
444.793 160.017 L
445.517 160.082 L
446.24 160.146 L
446.963 160.21 L
447.687 160.272 L
448.41 160.333 L
449.133 160.394 L
449.857 160.453 L
450.58 160.511 L
451.303 160.568 L
452.027 160.625 L
452.75 160.68 L
453.473 160.734 L
454.197 160.788 L
454.92 160.84 L
455.643 160.891 L
456.367 160.942 L
457.09 160.991 L
457.813 161.04 L
458.537 161.087 L
459.26 161.134 L
459.983 161.18 L
460.707 161.225 L
461.43 161.269 L
462.153 161.312 L
462.877 161.354 L
463.6 161.395 L
464.323 161.435 L
465.047 161.475 L
465.77 161.513 L
466.493 161.551 L
467.217 161.588 L
467.94 161.624 L
468.663 161.659 L
469.387 161.693 L
470.11 161.727 L
S
GR
GS
[0.75 0 0 0.75 0 0] CT
1 0 0 RC
1 LJ
0.667 LW
N
469.387 161.693 M
470.11 161.727 L
470.833 161.759 L
471.557 161.791 L
472.28 161.822 L
473.003 161.852 L
473.727 161.881 L
474.45 161.91 L
475.173 161.938 L
475.897 161.965 L
476.62 161.991 L
477.343 162.016 L
478.067 162.041 L
478.79 162.065 L
479.513 162.088 L
480.237 162.11 L
480.96 162.132 L
481.683 162.153 L
482.407 162.173 L
483.13 162.192 L
483.853 162.211 L
484.577 162.229 L
485.3 162.247 L
486.023 162.263 L
486.747 162.279 L
487.47 162.295 L
488.193 162.309 L
488.917 162.323 L
489.64 162.337 L
490.363 162.35 L
491.087 162.362 L
491.81 162.373 L
492.533 162.384 L
493.257 162.394 L
493.98 162.404 L
494.703 162.413 L
495.427 162.421 L
496.15 162.429 L
496.873 162.436 L
497.597 162.443 L
498.32 162.449 L
499.043 162.455 L
499.767 162.46 L
500.49 162.464 L
501.213 162.468 L
501.937 162.472 L
502.66 162.475 L
503.383 162.477 L
504.107 162.479 L
504.83 162.48 L
505.553 162.481 L
506.277 162.482 L
S
GR
GS
[0.75 0 0 0.75 0 0] CT
1 0 0 RC
1 LJ
0.667 LW
N
505.553 162.481 M
506.277 162.482 L
507 162.481 L
S
GR
GS
[0.75 0 0 0.75 0 0] CT
1 0 1 RC
1 LJ
0.667 LW
N
73 374 M
73.723 374 L
74.447 374 L
75.17 374 L
75.893 374 L
76.617 374 L
77.34 374 L
78.063 374 L
78.787 374 L
79.51 374 L
80.233 373.998 L
80.957 373.985 L
81.68 373.955 L
82.403 373.903 L
83.127 373.823 L
83.85 373.713 L
84.573 373.568 L
85.297 373.387 L
86.02 373.168 L
86.743 372.91 L
87.467 372.611 L
88.19 372.272 L
88.913 371.89 L
89.637 371.467 L
90.36 371.001 L
91.083 370.494 L
91.807 369.944 L
92.53 369.354 L
93.253 368.722 L
93.977 368.049 L
94.7 367.336 L
95.423 366.583 L
96.147 365.79 L
96.87 364.96 L
97.593 364.091 L
98.317 363.184 L
99.04 362.241 L
99.763 361.261 L
100.487 360.246 L
101.21 359.196 L
101.933 358.112 L
102.657 356.995 L
103.38 355.844 L
104.103 354.662 L
104.827 353.448 L
105.55 352.203 L
106.273 350.928 L
106.997 349.623 L
107.72 348.29 L
108.443 346.928 L
S
GR
GS
[0.75 0 0 0.75 0 0] CT
1 0 1 RC
1 LJ
0.667 LW
N
107.72 348.29 M
108.443 346.928 L
109.167 345.539 L
109.89 344.124 L
110.613 342.682 L
111.337 341.214 L
112.06 339.722 L
112.783 338.205 L
113.507 336.664 L
114.23 335.101 L
114.953 333.515 L
115.677 331.908 L
116.4 330.279 L
117.123 328.63 L
117.847 326.96 L
118.57 325.272 L
119.293 323.564 L
120.017 321.838 L
120.74 320.095 L
121.463 318.335 L
122.187 316.558 L
122.91 314.765 L
123.633 312.956 L
124.357 311.133 L
125.08 309.296 L
125.803 307.444 L
126.527 305.58 L
127.25 303.703 L
127.973 301.813 L
128.697 299.912 L
129.42 297.999 L
130.143 296.076 L
130.867 294.143 L
131.59 292.2 L
132.313 290.247 L
133.037 288.286 L
133.76 286.317 L
134.483 284.34 L
135.207 282.355 L
135.93 280.364 L
136.653 278.366 L
137.377 276.362 L
138.1 274.352 L
138.823 272.337 L
139.547 270.318 L
140.27 268.294 L
140.993 266.266 L
141.717 264.235 L
142.44 262.2 L
143.163 260.163 L
143.887 258.124 L
144.61 256.083 L
S
GR
GS
[0.75 0 0 0.75 0 0] CT
1 0 1 RC
1 LJ
0.667 LW
N
143.887 258.124 M
144.61 256.083 L
145.333 254.04 L
146.057 251.996 L
146.78 249.951 L
147.503 247.906 L
148.227 245.861 L
148.95 243.816 L
149.673 241.771 L
150.397 239.728 L
151.12 237.686 L
151.843 235.645 L
152.567 233.606 L
153.29 231.57 L
154.013 229.536 L
154.737 227.506 L
155.46 225.478 L
156.183 223.454 L
156.907 221.434 L
157.63 219.418 L
158.353 217.406 L
159.077 215.399 L
159.8 213.397 L
160.523 211.4 L
161.247 209.408 L
161.97 207.422 L
162.693 205.443 L
163.417 203.469 L
164.14 201.502 L
164.863 199.542 L
165.587 197.588 L
166.31 195.642 L
167.033 193.704 L
167.757 191.772 L
168.48 189.849 L
169.203 187.934 L
169.927 186.027 L
170.65 184.129 L
171.373 182.239 L
172.097 180.358 L
172.82 178.486 L
173.543 176.624 L
174.267 174.771 L
174.99 172.927 L
175.713 171.094 L
176.437 169.27 L
177.16 167.456 L
177.883 165.653 L
178.607 163.86 L
179.33 162.078 L
180.053 160.306 L
180.777 158.545 L
S
GR
GS
[0.75 0 0 0.75 0 0] CT
1 0 1 RC
1 LJ
0.667 LW
N
180.053 160.306 M
180.777 158.545 L
181.5 156.796 L
182.223 155.057 L
182.947 153.33 L
183.67 151.614 L
184.393 149.91 L
185.117 148.217 L
185.84 146.536 L
186.563 144.867 L
187.287 143.21 L
188.01 141.566 L
188.733 139.933 L
189.457 138.313 L
190.18 136.705 L
190.903 135.109 L
191.627 133.526 L
192.35 131.956 L
193.073 130.399 L
193.797 128.854 L
194.52 127.322 L
195.243 125.804 L
195.967 124.298 L
196.69 122.805 L
197.413 121.326 L
198.137 119.86 L
198.86 118.407 L
199.583 116.967 L
200.307 115.541 L
201.03 114.128 L
201.753 112.729 L
202.477 111.343 L
203.2 109.97 L
203.923 108.612 L
204.647 107.267 L
205.37 105.935 L
206.093 104.617 L
206.817 103.313 L
207.54 102.023 L
208.263 100.746 L
208.987 99.483 L
209.71 98.234 L
210.433 96.999 L
211.157 95.777 L
211.88 94.569 L
212.603 93.375 L
213.327 92.195 L
214.05 91.028 L
214.773 89.875 L
215.497 88.736 L
216.22 87.611 L
216.943 86.5 L
S
GR
GS
[0.75 0 0 0.75 0 0] CT
1 0 1 RC
1 LJ
0.667 LW
N
216.22 87.611 M
216.943 86.5 L
217.667 85.402 L
218.39 84.318 L
219.113 83.248 L
219.837 82.191 L
220.56 81.149 L
221.283 80.119 L
222.007 79.104 L
222.73 78.102 L
223.453 77.113 L
224.177 76.138 L
224.9 75.177 L
225.623 74.229 L
226.347 73.294 L
227.07 72.373 L
227.793 71.466 L
228.517 70.571 L
229.24 69.69 L
229.963 68.822 L
230.687 67.967 L
231.41 67.126 L
232.133 66.297 L
232.857 65.481 L
233.58 64.679 L
234.303 63.889 L
235.027 63.112 L
235.75 62.349 L
236.473 61.597 L
237.197 60.859 L
237.92 60.133 L
238.643 59.42 L
239.367 58.719 L
240.09 58.031 L
240.813 57.355 L
241.537 56.691 L
242.26 56.04 L
242.983 55.401 L
243.707 54.774 L
244.43 54.159 L
245.153 53.556 L
245.877 52.965 L
246.6 52.385 L
247.323 51.818 L
248.047 51.262 L
248.77 50.718 L
249.493 50.185 L
250.217 49.664 L
250.94 49.154 L
251.663 48.655 L
252.387 48.168 L
253.11 47.691 L
S
GR
GS
[0.75 0 0 0.75 0 0] CT
1 0 1 RC
1 LJ
0.667 LW
N
252.387 48.168 M
253.11 47.691 L
253.833 47.226 L
254.557 46.772 L
255.28 46.328 L
256.003 45.896 L
256.727 45.474 L
257.45 45.063 L
258.173 44.662 L
258.897 44.272 L
259.62 43.892 L
260.343 43.522 L
261.067 43.163 L
261.79 42.813 L
262.513 42.474 L
263.237 42.145 L
263.96 41.825 L
264.683 41.516 L
265.407 41.216 L
266.13 40.925 L
266.853 40.644 L
267.577 40.373 L
268.3 40.11 L
269.023 39.857 L
269.747 39.613 L
270.47 39.379 L
271.193 39.153 L
271.917 38.936 L
272.64 38.727 L
273.363 38.528 L
274.087 38.337 L
274.81 38.154 L
275.533 37.98 L
276.257 37.814 L
276.98 37.656 L
277.703 37.507 L
278.427 37.365 L
279.15 37.232 L
279.873 37.106 L
280.597 36.988 L
281.32 36.878 L
282.043 36.775 L
282.767 36.679 L
283.49 36.592 L
284.213 36.511 L
284.937 36.437 L
285.66 36.371 L
286.383 36.312 L
287.107 36.259 L
287.83 36.214 L
288.553 36.175 L
289.277 36.143 L
S
GR
GS
[0.75 0 0 0.75 0 0] CT
1 0 1 RC
1 LJ
0.667 LW
N
288.553 36.175 M
289.277 36.143 L
290 36.117 L
290.723 36.098 L
291.447 36.085 L
292.17 36.079 L
292.893 36.078 L
293.617 36.084 L
294.34 36.096 L
295.063 36.114 L
295.787 36.138 L
296.51 36.167 L
297.233 36.202 L
297.957 36.243 L
298.68 36.289 L
299.403 36.34 L
300.127 36.397 L
300.85 36.459 L
301.573 36.526 L
302.297 36.599 L
303.02 36.676 L
303.743 36.758 L
304.467 36.845 L
305.19 36.937 L
305.913 37.033 L
306.637 37.134 L
307.36 37.239 L
308.083 37.349 L
308.807 37.463 L
309.53 37.581 L
310.253 37.704 L
310.977 37.83 L
311.7 37.961 L
312.423 38.095 L
313.147 38.233 L
313.87 38.375 L
314.593 38.521 L
315.317 38.67 L
316.04 38.823 L
316.763 38.979 L
317.487 39.139 L
318.21 39.302 L
318.933 39.468 L
319.657 39.637 L
320.38 39.81 L
321.103 39.985 L
321.827 40.163 L
322.55 40.344 L
323.273 40.528 L
323.997 40.715 L
324.72 40.904 L
325.443 41.096 L
S
GR
GS
[0.75 0 0 0.75 0 0] CT
1 0 1 RC
1 LJ
0.667 LW
N
324.72 40.904 M
325.443 41.096 L
326.167 41.291 L
326.89 41.487 L
327.613 41.687 L
328.337 41.888 L
329.06 42.092 L
329.783 42.298 L
330.507 42.506 L
331.23 42.716 L
331.953 42.928 L
332.677 43.142 L
333.4 43.358 L
334.123 43.575 L
334.847 43.795 L
335.57 44.016 L
336.293 44.238 L
337.017 44.462 L
337.74 44.688 L
338.463 44.915 L
339.187 45.144 L
339.91 45.373 L
340.633 45.604 L
341.357 45.836 L
342.08 46.07 L
342.803 46.304 L
343.527 46.54 L
344.25 46.776 L
344.973 47.014 L
345.697 47.252 L
346.42 47.491 L
347.143 47.731 L
347.867 47.971 L
348.59 48.213 L
349.313 48.454 L
350.037 48.697 L
350.76 48.94 L
351.483 49.183 L
352.207 49.427 L
352.93 49.671 L
353.653 49.916 L
354.377 50.161 L
355.1 50.406 L
355.823 50.651 L
356.547 50.897 L
357.27 51.142 L
357.993 51.388 L
358.717 51.634 L
359.44 51.879 L
360.163 52.125 L
360.887 52.371 L
361.61 52.616 L
S
GR
GS
[0.75 0 0 0.75 0 0] CT
1 0 1 RC
1 LJ
0.667 LW
N
360.887 52.371 M
361.61 52.616 L
362.333 52.861 L
363.057 53.107 L
363.78 53.351 L
364.503 53.596 L
365.227 53.84 L
365.95 54.084 L
366.673 54.328 L
367.397 54.571 L
368.12 54.813 L
368.843 55.055 L
369.567 55.297 L
370.29 55.538 L
371.013 55.779 L
371.737 56.019 L
372.46 56.258 L
373.183 56.496 L
373.907 56.734 L
374.63 56.971 L
375.353 57.208 L
376.077 57.443 L
376.8 57.678 L
377.523 57.912 L
378.247 58.145 L
378.97 58.377 L
379.693 58.608 L
380.417 58.839 L
381.14 59.068 L
381.863 59.296 L
382.587 59.523 L
383.31 59.75 L
384.033 59.975 L
384.757 60.199 L
385.48 60.422 L
386.203 60.644 L
386.927 60.864 L
387.65 61.084 L
388.373 61.302 L
389.097 61.52 L
389.82 61.735 L
390.543 61.95 L
391.267 62.164 L
391.99 62.376 L
392.713 62.587 L
393.437 62.796 L
394.16 63.004 L
394.883 63.211 L
395.607 63.417 L
396.33 63.621 L
397.053 63.824 L
397.777 64.025 L
S
GR
GS
[0.75 0 0 0.75 0 0] CT
1 0 1 RC
1 LJ
0.667 LW
N
397.053 63.824 M
397.777 64.025 L
398.5 64.225 L
399.223 64.424 L
399.947 64.621 L
400.67 64.816 L
401.393 65.011 L
402.117 65.203 L
402.84 65.395 L
403.563 65.584 L
404.287 65.773 L
405.01 65.96 L
405.733 66.145 L
406.457 66.329 L
407.18 66.511 L
407.903 66.691 L
408.627 66.871 L
409.35 67.048 L
410.073 67.224 L
410.797 67.399 L
411.52 67.571 L
412.243 67.743 L
412.967 67.912 L
413.69 68.081 L
414.413 68.247 L
415.137 68.412 L
415.86 68.575 L
416.583 68.737 L
417.307 68.897 L
418.03 69.055 L
418.753 69.212 L
419.477 69.368 L
420.2 69.521 L
420.923 69.673 L
421.647 69.824 L
422.37 69.972 L
423.093 70.119 L
423.817 70.265 L
424.54 70.409 L
425.263 70.551 L
425.987 70.692 L
426.71 70.831 L
427.433 70.968 L
428.157 71.104 L
428.88 71.238 L
429.603 71.37 L
430.327 71.501 L
431.05 71.63 L
431.773 71.758 L
432.497 71.884 L
433.22 72.008 L
433.943 72.131 L
S
GR
GS
[0.75 0 0 0.75 0 0] CT
1 0 1 RC
1 LJ
0.667 LW
N
433.22 72.008 M
433.943 72.131 L
434.667 72.252 L
435.39 72.372 L
436.113 72.49 L
436.837 72.606 L
437.56 72.721 L
438.283 72.834 L
439.007 72.946 L
439.73 73.056 L
440.453 73.164 L
441.177 73.271 L
441.9 73.376 L
442.623 73.48 L
443.347 73.582 L
444.07 73.683 L
444.793 73.782 L
445.517 73.88 L
446.24 73.976 L
446.963 74.07 L
447.687 74.163 L
448.41 74.255 L
449.133 74.345 L
449.857 74.433 L
450.58 74.521 L
451.303 74.606 L
452.027 74.69 L
452.75 74.773 L
453.473 74.854 L
454.197 74.934 L
454.92 75.012 L
455.643 75.089 L
456.367 75.164 L
457.09 75.238 L
457.813 75.31 L
458.537 75.382 L
459.26 75.451 L
459.983 75.52 L
460.707 75.587 L
461.43 75.652 L
462.153 75.717 L
462.877 75.78 L
463.6 75.841 L
464.323 75.901 L
465.047 75.96 L
465.77 76.018 L
466.493 76.074 L
467.217 76.129 L
467.94 76.183 L
468.663 76.235 L
469.387 76.287 L
470.11 76.336 L
S
GR
GS
[0.75 0 0 0.75 0 0] CT
1 0 1 RC
1 LJ
0.667 LW
N
469.387 76.287 M
470.11 76.336 L
470.833 76.385 L
471.557 76.433 L
472.28 76.479 L
473.003 76.524 L
473.727 76.568 L
474.45 76.61 L
475.173 76.652 L
475.897 76.692 L
476.62 76.731 L
477.343 76.769 L
478.067 76.806 L
478.79 76.842 L
479.513 76.876 L
480.237 76.91 L
480.96 76.942 L
481.683 76.973 L
482.407 77.003 L
483.13 77.033 L
483.853 77.061 L
484.577 77.088 L
485.3 77.114 L
486.023 77.139 L
486.747 77.163 L
487.47 77.186 L
488.193 77.207 L
488.917 77.228 L
489.64 77.248 L
490.363 77.267 L
491.087 77.286 L
491.81 77.303 L
492.533 77.319 L
493.257 77.334 L
493.98 77.349 L
494.703 77.362 L
495.427 77.375 L
496.15 77.387 L
496.873 77.397 L
497.597 77.407 L
498.32 77.417 L
499.043 77.425 L
499.767 77.433 L
500.49 77.439 L
501.213 77.445 L
501.937 77.45 L
502.66 77.455 L
503.383 77.458 L
504.107 77.461 L
504.83 77.463 L
505.553 77.465 L
506.277 77.465 L
S
GR
GS
[0.75 0 0 0.75 0 0] CT
1 0 1 RC
1 LJ
0.667 LW
N
505.553 77.465 M
506.277 77.465 L
507 77.465 L
S
GR
GS
[0.75 0 0 0.75 0 0] CT
1 GC
N
424 112 M
424 44 L
494 44 L
494 112 L
cp
f
GR
GS
[0.75 0 0 0.75 357 40.7005] CT
/Helvetica 12 F
GS
[1 0 0 1 0 0] CT
0 4.5 moveto 
1 -1 scale
(u1) t 
GR
GR
GS
[0.75 0 0 0.75 0 0] CT
0 0 1 RC
1 LJ
0.667 LW
N
432 54.267 M
472 54.267 L
S
GR
GS
[0.75 0 0 0.75 357 52.56683] CT
/Helvetica 12 F
GS
[1 0 0 1 0 0] CT
0 4.5 moveto 
1 -1 scale
(u2) t 
GR
GR
GS
[0.75 0 0 0.75 0 0] CT
0 1 1 RC
1 LJ
0.667 LW
N
432 70.089 M
472 70.089 L
S
GR
GS
[0.75 0 0 0.75 357 64.43317] CT
/Helvetica 12 F
GS
[1 0 0 1 0 0] CT
0 4.5 moveto 
1 -1 scale
(y1) t 
GR
GR
GS
[0.75 0 0 0.75 0 0] CT
1 0 0 RC
1 LJ
0.667 LW
N
432 85.911 M
472 85.911 L
S
GR
GS
[0.75 0 0 0.75 357 76.29951] CT
/Helvetica 12 F
GS
[1 0 0 1 0 0] CT
0 4.5 moveto 
1 -1 scale
(y2) t 
GR
GR
GS
[0.75 0 0 0.75 0 0] CT
1 0 1 RC
1 LJ
0.667 LW
N
432 101.733 M
472 101.733 L
S
GR
GS
[0.75 0 0 0.75 0 0] CT
0.149 GC
10.0 ML
0.667 LW
N
424 112 M
424 44 L
494 44 L
494 112 L
cp
S
GR
%%Trailer
%%Pages: 1
%%EOF
