%!PS-Adobe-3.0 EPSF-3.0
%%Creator: (MATLAB, The Mathworks, Inc. Version 8.6.0.267246 \(R2015b\). Operating System: Windows 8)
%%Title: E:/Projects/skola/rls/pics/SP1/loop12.eps
%%CreationDate: 2017-03-02T14:32:34
%%Pages: (atend)
%%BoundingBox: 0 0 420 315
%%LanguageLevel: 2
%%EndComments
%%BeginProlog
%%BeginResource: procset (Apache XML Graphics Std ProcSet) 1.2 0
%%Version: 1.2 0
%%Copyright: (Copyright 2001-2003,2010 The Apache Software Foundation. License terms: http://www.apache.org/licenses/LICENSE-2.0)
/bd{bind def}bind def
/ld{load def}bd
/GR/grestore ld
/M/moveto ld
/LJ/setlinejoin ld
/C/curveto ld
/f/fill ld
/LW/setlinewidth ld
/GC/setgray ld
/t/show ld
/N/newpath ld
/CT/concat ld
/cp/closepath ld
/S/stroke ld
/L/lineto ld
/CC/setcmykcolor ld
/A/ashow ld
/GS/gsave ld
/RC/setrgbcolor ld
/RM/rmoveto ld
/ML/setmiterlimit ld
/re {4 2 roll M
1 index 0 rlineto
0 exch rlineto
neg 0 rlineto
cp } bd
/_ctm matrix def
/_tm matrix def
/BT { _ctm currentmatrix pop matrix _tm copy pop 0 0 moveto } bd
/ET { _ctm setmatrix } bd
/iTm { _ctm setmatrix _tm concat } bd
/Tm { _tm astore pop iTm 0 0 moveto } bd
/ux 0.0 def
/uy 0.0 def
/F {
  /Tp exch def
  /Tf exch def
  Tf findfont Tp scalefont setfont
  /cf Tf def  /cs Tp def
} bd
/ULS {currentpoint /uy exch def /ux exch def} bd
/ULE {
  /Tcx currentpoint pop def
  gsave
  newpath
  cf findfont cs scalefont dup
  /FontMatrix get 0 get /Ts exch def /FontInfo get dup
  /UnderlinePosition get Ts mul /To exch def
  /UnderlineThickness get Ts mul /Tt exch def
  ux uy To add moveto  Tcx uy To add lineto
  Tt setlinewidth stroke
  grestore
} bd
/OLE {
  /Tcx currentpoint pop def
  gsave
  newpath
  cf findfont cs scalefont dup
  /FontMatrix get 0 get /Ts exch def /FontInfo get dup
  /UnderlinePosition get Ts mul /To exch def
  /UnderlineThickness get Ts mul /Tt exch def
  ux uy To add cs add moveto Tcx uy To add cs add lineto
  Tt setlinewidth stroke
  grestore
} bd
/SOE {
  /Tcx currentpoint pop def
  gsave
  newpath
  cf findfont cs scalefont dup
  /FontMatrix get 0 get /Ts exch def /FontInfo get dup
  /UnderlinePosition get Ts mul /To exch def
  /UnderlineThickness get Ts mul /Tt exch def
  ux uy To add cs 10 mul 26 idiv add moveto Tcx uy To add cs 10 mul 26 idiv add lineto
  Tt setlinewidth stroke
  grestore
} bd
/QT {
/Y22 exch store
/X22 exch store
/Y21 exch store
/X21 exch store
currentpoint
/Y21 load 2 mul add 3 div exch
/X21 load 2 mul add 3 div exch
/X21 load 2 mul /X22 load add 3 div
/Y21 load 2 mul /Y22 load add 3 div
/X22 load /Y22 load curveto
} bd
/SSPD {
dup length /d exch dict def
{
/v exch def
/k exch def
currentpagedevice k known {
/cpdv currentpagedevice k get def
v cpdv ne {
/upd false def
/nullv v type /nulltype eq def
/nullcpdv cpdv type /nulltype eq def
nullv nullcpdv or
{
/upd true def
} {
/sametype v type cpdv type eq def
sametype {
v type /arraytype eq {
/vlen v length def
/cpdvlen cpdv length def
vlen cpdvlen eq {
0 1 vlen 1 sub {
/i exch def
/obj v i get def
/cpdobj cpdv i get def
obj cpdobj ne {
/upd true def
exit
} if
} for
} {
/upd true def
} ifelse
} {
v type /dicttype eq {
v {
/dv exch def
/dk exch def
/cpddv cpdv dk get def
dv cpddv ne {
/upd true def
exit
} if
} forall
} {
/upd true def
} ifelse
} ifelse
} if
} ifelse
upd true eq {
d k v put
} if
} if
} if
} forall
d length 0 gt {
d setpagedevice
} if
} bd
%%EndResource
%%BeginResource: procset (Apache XML Graphics EPS ProcSet) 1.0 0
%%Version: 1.0 0
%%Copyright: (Copyright 2002-2003 The Apache Software Foundation. License terms: http://www.apache.org/licenses/LICENSE-2.0)
/BeginEPSF { %def
/b4_Inc_state save def         % Save state for cleanup
/dict_count countdictstack def % Count objects on dict stack
/op_count count 1 sub def      % Count objects on operand stack
userdict begin                 % Push userdict on dict stack
/showpage { } def              % Redefine showpage, { } = null proc
0 setgray 0 setlinecap         % Prepare graphics state
1 setlinewidth 0 setlinejoin
10 setmiterlimit [ ] 0 setdash newpath
/languagelevel where           % If level not equal to 1 then
{pop languagelevel             % set strokeadjust and
1 ne                           % overprint to their defaults.
{false setstrokeadjust false setoverprint
} if
} if
} bd
/EndEPSF { %def
count op_count sub {pop} repeat            % Clean up stacks
countdictstack dict_count sub {end} repeat
b4_Inc_state restore
} bd
%%EndResource
%FOPBeginFontDict
%%IncludeResource: font Courier-Bold
%%IncludeResource: font Helvetica
%%IncludeResource: font Courier-BoldOblique
%%IncludeResource: font Courier-Oblique
%%IncludeResource: font Times-Roman
%%IncludeResource: font Helvetica-BoldOblique
%%IncludeResource: font Helvetica-Bold
%%IncludeResource: font Helvetica-Oblique
%%IncludeResource: font Times-BoldItalic
%%IncludeResource: font Courier
%%IncludeResource: font Times-Italic
%%IncludeResource: font Times-Bold
%%IncludeResource: font Symbol
%%IncludeResource: font ZapfDingbats
%FOPEndFontDict
%%BeginResource: encoding WinAnsiEncoding
/WinAnsiEncoding [
/.notdef /.notdef /.notdef /.notdef /.notdef
/.notdef /.notdef /.notdef /.notdef /.notdef
/.notdef /.notdef /.notdef /.notdef /.notdef
/.notdef /.notdef /.notdef /.notdef /.notdef
/.notdef /.notdef /.notdef /.notdef /.notdef
/.notdef /.notdef /.notdef /.notdef /.notdef
/.notdef /.notdef /space /exclam /quotedbl
/numbersign /dollar /percent /ampersand /quotesingle
/parenleft /parenright /asterisk /plus /comma
/hyphen /period /slash /zero /one
/two /three /four /five /six
/seven /eight /nine /colon /semicolon
/less /equal /greater /question /at
/A /B /C /D /E
/F /G /H /I /J
/K /L /M /N /O
/P /Q /R /S /T
/U /V /W /X /Y
/Z /bracketleft /backslash /bracketright /asciicircum
/underscore /quoteleft /a /b /c
/d /e /f /g /h
/i /j /k /l /m
/n /o /p /q /r
/s /t /u /v /w
/x /y /z /braceleft /bar
/braceright /asciitilde /bullet /Euro /bullet
/quotesinglbase /florin /quotedblbase /ellipsis /dagger
/daggerdbl /circumflex /perthousand /Scaron /guilsinglleft
/OE /bullet /Zcaron /bullet /bullet
/quoteleft /quoteright /quotedblleft /quotedblright /bullet
/endash /emdash /asciitilde /trademark /scaron
/guilsinglright /oe /bullet /zcaron /Ydieresis
/space /exclamdown /cent /sterling /currency
/yen /brokenbar /section /dieresis /copyright
/ordfeminine /guillemotleft /logicalnot /sfthyphen /registered
/macron /degree /plusminus /twosuperior /threesuperior
/acute /mu /paragraph /middot /cedilla
/onesuperior /ordmasculine /guillemotright /onequarter /onehalf
/threequarters /questiondown /Agrave /Aacute /Acircumflex
/Atilde /Adieresis /Aring /AE /Ccedilla
/Egrave /Eacute /Ecircumflex /Edieresis /Igrave
/Iacute /Icircumflex /Idieresis /Eth /Ntilde
/Ograve /Oacute /Ocircumflex /Otilde /Odieresis
/multiply /Oslash /Ugrave /Uacute /Ucircumflex
/Udieresis /Yacute /Thorn /germandbls /agrave
/aacute /acircumflex /atilde /adieresis /aring
/ae /ccedilla /egrave /eacute /ecircumflex
/edieresis /igrave /iacute /icircumflex /idieresis
/eth /ntilde /ograve /oacute /ocircumflex
/otilde /odieresis /divide /oslash /ugrave
/uacute /ucircumflex /udieresis /yacute /thorn
/ydieresis
] def
%%EndResource
%FOPBeginFontReencode
/Courier-Bold findfont
dup length dict begin
  {1 index /FID ne {def} {pop pop} ifelse} forall
  /Encoding WinAnsiEncoding def
  currentdict
end
/Courier-Bold exch definefont pop
/Helvetica findfont
dup length dict begin
  {1 index /FID ne {def} {pop pop} ifelse} forall
  /Encoding WinAnsiEncoding def
  currentdict
end
/Helvetica exch definefont pop
/Courier-BoldOblique findfont
dup length dict begin
  {1 index /FID ne {def} {pop pop} ifelse} forall
  /Encoding WinAnsiEncoding def
  currentdict
end
/Courier-BoldOblique exch definefont pop
/Courier-Oblique findfont
dup length dict begin
  {1 index /FID ne {def} {pop pop} ifelse} forall
  /Encoding WinAnsiEncoding def
  currentdict
end
/Courier-Oblique exch definefont pop
/Times-Roman findfont
dup length dict begin
  {1 index /FID ne {def} {pop pop} ifelse} forall
  /Encoding WinAnsiEncoding def
  currentdict
end
/Times-Roman exch definefont pop
/Helvetica-BoldOblique findfont
dup length dict begin
  {1 index /FID ne {def} {pop pop} ifelse} forall
  /Encoding WinAnsiEncoding def
  currentdict
end
/Helvetica-BoldOblique exch definefont pop
/Helvetica-Bold findfont
dup length dict begin
  {1 index /FID ne {def} {pop pop} ifelse} forall
  /Encoding WinAnsiEncoding def
  currentdict
end
/Helvetica-Bold exch definefont pop
/Helvetica-Oblique findfont
dup length dict begin
  {1 index /FID ne {def} {pop pop} ifelse} forall
  /Encoding WinAnsiEncoding def
  currentdict
end
/Helvetica-Oblique exch definefont pop
/Times-BoldItalic findfont
dup length dict begin
  {1 index /FID ne {def} {pop pop} ifelse} forall
  /Encoding WinAnsiEncoding def
  currentdict
end
/Times-BoldItalic exch definefont pop
/Courier findfont
dup length dict begin
  {1 index /FID ne {def} {pop pop} ifelse} forall
  /Encoding WinAnsiEncoding def
  currentdict
end
/Courier exch definefont pop
/Times-Italic findfont
dup length dict begin
  {1 index /FID ne {def} {pop pop} ifelse} forall
  /Encoding WinAnsiEncoding def
  currentdict
end
/Times-Italic exch definefont pop
/Times-Bold findfont
dup length dict begin
  {1 index /FID ne {def} {pop pop} ifelse} forall
  /Encoding WinAnsiEncoding def
  currentdict
end
/Times-Bold exch definefont pop
%FOPEndFontReencode
%%EndProlog
%%Page: 1 1
%%PageBoundingBox: 0 0 420 315
%%BeginPageSetup
[1 0 0 -1 0 315] CT
%%EndPageSetup
GS
[0.75 0 0 0.75 0 0] CT
1 GC
N
0 0 560 420 re
f
GR
GS
[0.75 0 0 0.75 0 0] CT
1 GC
N
0 0 560 420 re
f
GR
GS
[0.75 0 0 0.75 0 0] CT
1 GC
N
73 374 M
507 374 L
507 31 L
73 31 L
cp
f
GR
GS
[0.75 0 0 0.75 0 0] CT
0.149 GC
2 setlinecap
1 LJ
0.667 LW
N
73 374 M
507 374 L
S
GR
GS
[0.75 0 0 0.75 0 0] CT
0.149 GC
2 setlinecap
1 LJ
0.667 LW
N
73 374 M
73 369.66 L
S
GR
GS
[0.75 0 0 0.75 0 0] CT
0.149 GC
2 setlinecap
1 LJ
0.667 LW
N
145.333 374 M
145.333 369.66 L
S
GR
GS
[0.75 0 0 0.75 0 0] CT
0.149 GC
2 setlinecap
1 LJ
0.667 LW
N
217.667 374 M
217.667 369.66 L
S
GR
GS
[0.75 0 0 0.75 0 0] CT
0.149 GC
2 setlinecap
1 LJ
0.667 LW
N
290 374 M
290 369.66 L
S
GR
GS
[0.75 0 0 0.75 0 0] CT
0.149 GC
2 setlinecap
1 LJ
0.667 LW
N
362.333 374 M
362.333 369.66 L
S
GR
GS
[0.75 0 0 0.75 0 0] CT
0.149 GC
2 setlinecap
1 LJ
0.667 LW
N
434.667 374 M
434.667 369.66 L
S
GR
GS
[0.75 0 0 0.75 0 0] CT
0.149 GC
2 setlinecap
1 LJ
0.667 LW
N
507 374 M
507 369.66 L
S
GR
GS
[0.75 0 0 0.75 54.75 284.50001] CT
0.149 GC
/Helvetica 13 F
GS
[1 0 0 1 0 0] CT
-4 13 moveto 
1 -1 scale
(0) t 
GR
GR
GS
[0.75 0 0 0.75 109 284.50001] CT
0.149 GC
/Helvetica 13 F
GS
[1 0 0 1 0 0] CT
-11 13 moveto 
1 -1 scale
(100) t 
GR
GR
GS
[0.75 0 0 0.75 163.25 284.50001] CT
0.149 GC
/Helvetica 13 F
GS
[1 0 0 1 0 0] CT
-11 13 moveto 
1 -1 scale
(200) t 
GR
GR
GS
[0.75 0 0 0.75 217.5 284.50001] CT
0.149 GC
/Helvetica 13 F
GS
[1 0 0 1 0 0] CT
-11 13 moveto 
1 -1 scale
(300) t 
GR
GR
GS
[0.75 0 0 0.75 271.75001 284.50001] CT
0.149 GC
/Helvetica 13 F
GS
[1 0 0 1 0 0] CT
-11 13 moveto 
1 -1 scale
(400) t 
GR
GR
GS
[0.75 0 0 0.75 325.99999 284.50001] CT
0.149 GC
/Helvetica 13 F
GS
[1 0 0 1 0 0] CT
-11 13 moveto 
1 -1 scale
(500) t 
GR
GR
GS
[0.75 0 0 0.75 380.25 284.50001] CT
0.149 GC
/Helvetica 13 F
GS
[1 0 0 1 0 0] CT
-11 13 moveto 
1 -1 scale
(600) t 
GR
GR
GS
[0.75 0 0 0.75 217.50016 297.49999] CT
0.149 GC
/Helvetica 15 F
GS
[1 0 0 1 0 0] CT
-11 14 moveto 
1 -1 scale
(t\(s\)) t 
GR
GR
GS
[0.75 0 0 0.75 0 0] CT
0.149 GC
2 setlinecap
1 LJ
0.667 LW
N
73 374 M
73 31 L
S
GR
GS
[0.75 0 0 0.75 0 0] CT
0.149 GC
2 setlinecap
1 LJ
0.667 LW
N
73 374 M
77.34 374 L
S
GR
GS
[0.75 0 0 0.75 0 0] CT
0.149 GC
2 setlinecap
1 LJ
0.667 LW
N
73 316.833 M
77.34 316.833 L
S
GR
GS
[0.75 0 0 0.75 0 0] CT
0.149 GC
2 setlinecap
1 LJ
0.667 LW
N
73 259.667 M
77.34 259.667 L
S
GR
GS
[0.75 0 0 0.75 0 0] CT
0.149 GC
2 setlinecap
1 LJ
0.667 LW
N
73 202.5 M
77.34 202.5 L
S
GR
GS
[0.75 0 0 0.75 0 0] CT
0.149 GC
2 setlinecap
1 LJ
0.667 LW
N
73 145.333 M
77.34 145.333 L
S
GR
GS
[0.75 0 0 0.75 0 0] CT
0.149 GC
2 setlinecap
1 LJ
0.667 LW
N
73 88.167 M
77.34 88.167 L
S
GR
GS
[0.75 0 0 0.75 0 0] CT
0.149 GC
2 setlinecap
1 LJ
0.667 LW
N
73 31 M
77.34 31 L
S
GR
GS
[0.75 0 0 0.75 50.75 280.5] CT
0.149 GC
/Helvetica 13 F
GS
[1 0 0 1 0 0] CT
-19 5 moveto 
1 -1 scale
(-15) t 
GR
GR
GS
[0.75 0 0 0.75 50.75 237.62501] CT
0.149 GC
/Helvetica 13 F
GS
[1 0 0 1 0 0] CT
-19 5 moveto 
1 -1 scale
(-10) t 
GR
GR
GS
[0.75 0 0 0.75 50.75 194.74999] CT
0.149 GC
/Helvetica 13 F
GS
[1 0 0 1 0 0] CT
-12 5 moveto 
1 -1 scale
(-5) t 
GR
GR
GS
[0.75 0 0 0.75 50.75 151.875] CT
0.149 GC
/Helvetica 13 F
GS
[1 0 0 1 0 0] CT
-8 5 moveto 
1 -1 scale
(0) t 
GR
GR
GS
[0.75 0 0 0.75 50.75 109] CT
0.149 GC
/Helvetica 13 F
GS
[1 0 0 1 0 0] CT
-8 5 moveto 
1 -1 scale
(5) t 
GR
GR
GS
[0.75 0 0 0.75 50.75 66.125] CT
0.149 GC
/Helvetica 13 F
GS
[1 0 0 1 0 0] CT
-15 5 moveto 
1 -1 scale
(10) t 
GR
GR
GS
[0.75 0 0 0.75 50.75 23.25] CT
0.149 GC
/Helvetica 13 F
GS
[1 0 0 1 0 0] CT
-15 5 moveto 
1 -1 scale
(15) t 
GR
GR
GS
[0.75 0 0 0.75 217.50021 21.1875] CT
/any-Bold 15 F
GS
[1 0 0 1 0 0] CT
-69 -4 moveto 
1 -1 scale
(Step u2 - two loops) t 
GR
GR
GS
[0.75 0 0 0.75 0 0] CT
0 0 1 RC
1 LJ
0.667 LW
N
73 202.5 M
73.723 202.5 L
74.447 202.5 L
75.17 202.5 L
75.893 202.5 L
76.617 202.5 L
77.34 202.5 L
78.063 202.5 L
78.787 202.5 L
79.51 202.5 L
80.233 202.5 L
80.957 202.5 L
81.68 202.5 L
82.403 202.5 L
83.127 202.5 L
83.85 202.5 L
84.573 202.5 L
85.297 202.5 L
86.02 202.5 L
86.743 202.5 L
87.467 202.5 L
88.19 202.5 L
88.913 202.5 L
89.637 202.5 L
90.36 202.5 L
91.083 202.5 L
91.807 202.5 L
92.53 202.5 L
93.253 202.5 L
93.977 202.5 L
94.7 202.5 L
95.423 202.5 L
96.147 202.5 L
96.87 202.5 L
97.593 202.5 L
98.317 202.5 L
99.04 202.5 L
99.763 202.5 L
100.487 202.5 L
101.21 202.5 L
101.933 202.5 L
102.657 202.5 L
103.38 202.5 L
104.103 202.5 L
104.827 202.5 L
105.55 202.5 L
106.273 202.5 L
106.997 202.5 L
107.72 202.5 L
108.443 202.5 L
S
GR
GS
[0.75 0 0 0.75 0 0] CT
0 0 1 RC
1 LJ
0.667 LW
N
107.72 202.5 M
108.443 202.5 L
109.167 202.5 L
109.89 202.5 L
110.613 202.5 L
111.337 202.5 L
112.06 202.5 L
112.783 202.5 L
113.507 202.5 L
114.23 202.5 L
114.953 202.5 L
115.677 202.5 L
116.4 202.5 L
117.123 202.5 L
117.847 202.5 L
118.57 202.5 L
119.293 202.5 L
120.017 202.5 L
120.74 202.5 L
121.463 202.5 L
122.187 202.5 L
122.91 202.5 L
123.633 202.5 L
124.357 202.5 L
125.08 202.5 L
125.803 202.5 L
126.527 202.5 L
127.25 202.5 L
127.973 202.5 L
128.697 202.5 L
129.42 202.5 L
130.143 202.5 L
130.867 202.5 L
131.59 202.5 L
132.313 202.5 L
133.037 202.5 L
133.76 202.5 L
134.483 202.5 L
135.207 202.5 L
135.93 202.5 L
136.653 202.5 L
137.377 202.5 L
138.1 202.5 L
138.823 202.5 L
139.547 202.5 L
140.27 202.5 L
140.993 202.5 L
141.717 202.5 L
142.44 202.5 L
143.163 202.5 L
143.887 202.5 L
144.61 202.5 L
S
GR
GS
[0.75 0 0 0.75 0 0] CT
0 0 1 RC
1 LJ
0.667 LW
N
143.887 202.5 M
144.61 202.5 L
145.333 202.5 L
146.057 202.5 L
146.78 202.5 L
147.503 202.5 L
148.227 202.5 L
148.95 202.5 L
149.673 202.5 L
150.397 202.5 L
151.12 202.5 L
151.843 202.5 L
152.567 202.5 L
153.29 202.5 L
154.013 202.5 L
154.737 202.5 L
155.46 202.5 L
156.183 202.5 L
156.907 202.5 L
157.63 202.5 L
158.353 202.5 L
159.077 202.5 L
159.8 202.5 L
160.523 202.5 L
161.247 202.5 L
161.97 202.5 L
162.693 202.5 L
163.417 202.5 L
164.14 202.5 L
164.863 202.5 L
165.587 202.5 L
166.31 202.5 L
167.033 202.5 L
167.757 202.5 L
168.48 202.5 L
169.203 202.5 L
169.927 202.5 L
170.65 202.5 L
171.373 202.5 L
172.097 202.5 L
172.82 202.5 L
173.543 202.5 L
174.267 202.5 L
174.99 202.5 L
175.713 202.5 L
176.437 202.5 L
177.16 202.5 L
177.883 202.5 L
178.607 202.5 L
179.33 202.5 L
180.053 202.5 L
180.777 202.5 L
S
GR
GS
[0.75 0 0 0.75 0 0] CT
0 0 1 RC
1 LJ
0.667 LW
N
180.053 202.5 M
180.777 202.5 L
181.5 202.5 L
182.223 202.5 L
182.947 202.5 L
183.67 202.5 L
184.393 202.5 L
185.117 202.5 L
185.84 202.5 L
186.563 202.5 L
187.287 202.5 L
188.01 202.5 L
188.733 202.5 L
189.457 202.5 L
190.18 202.5 L
190.903 202.5 L
191.627 202.5 L
192.35 202.5 L
193.073 202.5 L
193.797 202.5 L
194.52 202.5 L
195.243 202.5 L
195.967 202.5 L
196.69 202.5 L
197.413 202.5 L
198.137 202.5 L
198.86 202.5 L
199.583 202.5 L
200.307 202.5 L
201.03 202.5 L
201.753 202.5 L
202.477 202.5 L
203.2 202.5 L
203.923 202.5 L
204.647 202.5 L
205.37 202.5 L
206.093 202.5 L
206.817 202.5 L
207.54 202.5 L
208.263 202.5 L
208.987 202.5 L
209.71 202.5 L
210.433 202.5 L
211.157 202.5 L
211.88 202.5 L
212.603 202.5 L
213.327 202.5 L
214.05 202.5 L
214.773 202.5 L
215.497 202.5 L
216.22 202.5 L
216.943 202.5 L
S
GR
GS
[0.75 0 0 0.75 0 0] CT
0 0 1 RC
1 LJ
0.667 LW
N
216.22 202.5 M
216.943 202.5 L
217.667 202.5 L
218.39 202.5 L
219.113 202.5 L
219.837 202.5 L
220.56 202.5 L
221.283 202.5 L
222.007 202.5 L
222.73 202.5 L
223.453 202.5 L
224.177 202.5 L
224.9 202.5 L
225.623 202.5 L
226.347 202.5 L
227.07 202.5 L
227.793 202.5 L
228.517 202.5 L
229.24 202.5 L
229.963 202.5 L
230.687 202.5 L
231.41 202.5 L
232.133 202.5 L
232.857 202.5 L
233.58 202.5 L
234.303 202.5 L
235.027 202.5 L
235.75 202.5 L
236.473 202.5 L
237.197 202.5 L
237.92 202.5 L
238.643 202.5 L
239.367 202.5 L
240.09 202.5 L
240.813 202.5 L
241.537 202.5 L
242.26 202.5 L
242.983 202.5 L
243.707 202.5 L
244.43 202.5 L
245.153 202.5 L
245.877 202.5 L
246.6 202.5 L
247.323 202.5 L
248.047 202.5 L
248.77 202.5 L
249.493 202.5 L
250.217 202.5 L
250.94 202.5 L
251.663 202.5 L
252.387 202.5 L
253.11 202.5 L
S
GR
GS
[0.75 0 0 0.75 0 0] CT
0 0 1 RC
1 LJ
0.667 LW
N
252.387 202.5 M
253.11 202.5 L
253.833 202.5 L
254.557 202.5 L
255.28 202.5 L
256.003 202.5 L
256.727 202.5 L
257.45 202.5 L
258.173 202.5 L
258.897 202.5 L
259.62 202.5 L
260.343 202.5 L
261.067 202.5 L
261.79 202.5 L
262.513 202.5 L
263.237 202.5 L
263.96 202.5 L
264.683 202.5 L
265.407 202.5 L
266.13 202.5 L
266.853 202.5 L
267.577 202.5 L
268.3 202.5 L
269.023 202.5 L
269.747 202.5 L
270.47 202.5 L
271.193 202.5 L
271.917 202.5 L
272.64 202.5 L
273.363 202.5 L
274.087 202.5 L
274.81 202.5 L
275.533 202.5 L
276.257 202.5 L
276.98 202.5 L
277.703 202.5 L
278.427 202.5 L
279.15 202.5 L
279.873 202.5 L
280.597 202.5 L
281.32 202.5 L
282.043 202.5 L
282.767 202.5 L
283.49 202.5 L
284.213 202.5 L
284.937 202.5 L
285.66 202.5 L
286.383 202.5 L
287.107 202.5 L
287.83 202.5 L
288.553 202.5 L
289.277 202.5 L
S
GR
GS
[0.75 0 0 0.75 0 0] CT
0 0 1 RC
1 LJ
0.667 LW
N
288.553 202.5 M
289.277 202.5 L
290 202.5 L
290.723 202.5 L
291.447 202.5 L
292.17 202.5 L
292.893 202.5 L
293.617 202.5 L
294.34 202.5 L
295.063 202.5 L
295.787 202.5 L
296.51 202.5 L
297.233 202.5 L
297.957 202.5 L
298.68 202.5 L
299.403 202.5 L
300.127 202.5 L
300.85 202.5 L
301.573 202.5 L
302.297 202.5 L
303.02 202.5 L
303.743 202.5 L
304.467 202.5 L
305.19 202.5 L
305.913 202.5 L
306.637 202.5 L
307.36 202.5 L
308.083 202.5 L
308.807 202.5 L
309.53 202.5 L
310.253 202.5 L
310.977 202.5 L
311.7 202.5 L
312.423 202.5 L
313.147 202.5 L
313.87 202.5 L
314.593 202.5 L
315.317 202.5 L
316.04 202.5 L
316.763 202.5 L
317.487 202.5 L
318.21 202.5 L
318.933 202.5 L
319.657 202.5 L
320.38 202.5 L
321.103 202.5 L
321.827 202.5 L
322.55 202.5 L
323.273 202.5 L
323.997 202.5 L
324.72 202.5 L
325.443 202.5 L
S
GR
GS
[0.75 0 0 0.75 0 0] CT
0 0 1 RC
1 LJ
0.667 LW
N
324.72 202.5 M
325.443 202.5 L
326.167 202.5 L
326.89 202.5 L
327.613 202.5 L
328.337 202.5 L
329.06 202.5 L
329.783 202.5 L
330.507 202.5 L
331.23 202.5 L
331.953 202.5 L
332.677 202.5 L
333.4 202.5 L
334.123 202.5 L
334.847 202.5 L
335.57 202.5 L
336.293 202.5 L
337.017 202.5 L
337.74 202.5 L
338.463 202.5 L
339.187 202.5 L
339.91 202.5 L
340.633 202.5 L
341.357 202.5 L
342.08 202.5 L
342.803 202.5 L
343.527 202.5 L
344.25 202.5 L
344.973 202.5 L
345.697 202.5 L
346.42 202.5 L
347.143 202.5 L
347.867 202.5 L
348.59 202.5 L
349.313 202.5 L
350.037 202.5 L
350.76 202.5 L
351.483 202.5 L
352.207 202.5 L
352.93 202.5 L
353.653 202.5 L
354.377 202.5 L
355.1 202.5 L
355.823 202.5 L
356.547 202.5 L
357.27 202.5 L
357.993 202.5 L
358.717 202.5 L
359.44 202.5 L
360.163 202.5 L
360.887 202.5 L
361.61 202.5 L
S
GR
GS
[0.75 0 0 0.75 0 0] CT
0 0 1 RC
1 LJ
0.667 LW
N
360.887 202.5 M
361.61 202.5 L
362.333 202.5 L
363.057 202.5 L
363.78 202.5 L
364.503 202.5 L
365.227 202.5 L
365.95 202.5 L
366.673 202.5 L
367.397 202.5 L
368.12 202.5 L
368.843 202.5 L
369.567 202.5 L
370.29 202.5 L
371.013 202.5 L
371.737 202.5 L
372.46 202.5 L
373.183 202.5 L
373.907 202.5 L
374.63 202.5 L
375.353 202.5 L
376.077 202.5 L
376.8 202.5 L
377.523 202.5 L
378.247 202.5 L
378.97 202.5 L
379.693 202.5 L
380.417 202.5 L
381.14 202.5 L
381.863 202.5 L
382.587 202.5 L
383.31 202.5 L
384.033 202.5 L
384.757 202.5 L
385.48 202.5 L
386.203 202.5 L
386.927 202.5 L
387.65 202.5 L
388.373 202.5 L
389.097 202.5 L
389.82 202.5 L
390.543 202.5 L
391.267 202.5 L
391.99 202.5 L
392.713 202.5 L
393.437 202.5 L
394.16 202.5 L
394.883 202.5 L
395.607 202.5 L
396.33 202.5 L
397.053 202.5 L
397.777 202.5 L
S
GR
GS
[0.75 0 0 0.75 0 0] CT
0 0 1 RC
1 LJ
0.667 LW
N
397.053 202.5 M
397.777 202.5 L
398.5 202.5 L
399.223 202.5 L
399.947 202.5 L
400.67 202.5 L
401.393 202.5 L
402.117 202.5 L
402.84 202.5 L
403.563 202.5 L
404.287 202.5 L
405.01 202.5 L
405.733 202.5 L
406.457 202.5 L
407.18 202.5 L
407.903 202.5 L
408.627 202.5 L
409.35 202.5 L
410.073 202.5 L
410.797 202.5 L
411.52 202.5 L
412.243 202.5 L
412.967 202.5 L
413.69 202.5 L
414.413 202.5 L
415.137 202.5 L
415.86 202.5 L
416.583 202.5 L
417.307 202.5 L
418.03 202.5 L
418.753 202.5 L
419.477 202.5 L
420.2 202.5 L
420.923 202.5 L
421.647 202.5 L
422.37 202.5 L
423.093 202.5 L
423.817 202.5 L
424.54 202.5 L
425.263 202.5 L
425.987 202.5 L
426.71 202.5 L
427.433 202.5 L
428.157 202.5 L
428.88 202.5 L
429.603 202.5 L
430.327 202.5 L
431.05 202.5 L
431.773 202.5 L
432.497 202.5 L
433.22 202.5 L
433.943 202.5 L
S
GR
GS
[0.75 0 0 0.75 0 0] CT
0 0 1 RC
1 LJ
0.667 LW
N
433.22 202.5 M
433.943 202.5 L
434.667 202.5 L
435.39 202.5 L
436.113 202.5 L
436.837 202.5 L
437.56 202.5 L
438.283 202.5 L
439.007 202.5 L
439.73 202.5 L
440.453 202.5 L
441.177 202.5 L
441.9 202.5 L
442.623 202.5 L
443.347 202.5 L
444.07 202.5 L
444.793 202.5 L
445.517 202.5 L
446.24 202.5 L
446.963 202.5 L
447.687 202.5 L
448.41 202.5 L
449.133 202.5 L
449.857 202.5 L
450.58 202.5 L
451.303 202.5 L
452.027 202.5 L
452.75 202.5 L
453.473 202.5 L
454.197 202.5 L
454.92 202.5 L
455.643 202.5 L
456.367 202.5 L
457.09 202.5 L
457.813 202.5 L
458.537 202.5 L
459.26 202.5 L
459.983 202.5 L
460.707 202.5 L
461.43 202.5 L
462.153 202.5 L
462.877 202.5 L
463.6 202.5 L
464.323 202.5 L
465.047 202.5 L
465.77 202.5 L
466.493 202.5 L
467.217 202.5 L
467.94 202.5 L
468.663 202.5 L
469.387 202.5 L
470.11 202.5 L
S
GR
GS
[0.75 0 0 0.75 0 0] CT
0 0 1 RC
1 LJ
0.667 LW
N
469.387 202.5 M
470.11 202.5 L
470.833 202.5 L
471.557 202.5 L
472.28 202.5 L
473.003 202.5 L
473.727 202.5 L
474.45 202.5 L
475.173 202.5 L
475.897 202.5 L
476.62 202.5 L
477.343 202.5 L
478.067 202.5 L
478.79 202.5 L
479.513 202.5 L
480.237 202.5 L
480.96 202.5 L
481.683 202.5 L
482.407 202.5 L
483.13 202.5 L
483.853 202.5 L
484.577 202.5 L
485.3 202.5 L
486.023 202.5 L
486.747 202.5 L
487.47 202.5 L
488.193 202.5 L
488.917 202.5 L
489.64 202.5 L
490.363 202.5 L
491.087 202.5 L
491.81 202.5 L
492.533 202.5 L
493.257 202.5 L
493.98 202.5 L
494.703 202.5 L
495.427 202.5 L
496.15 202.5 L
496.873 202.5 L
497.597 202.5 L
498.32 202.5 L
499.043 202.5 L
499.767 202.5 L
500.49 202.5 L
501.213 202.5 L
501.937 202.5 L
502.66 202.5 L
503.383 202.5 L
504.107 202.5 L
504.83 202.5 L
505.553 202.5 L
506.277 202.5 L
S
GR
GS
[0.75 0 0 0.75 0 0] CT
0 0 1 RC
1 LJ
0.667 LW
N
505.553 202.5 M
506.277 202.5 L
507 202.5 L
S
GR
GS
[0.75 0 0 0.75 0 0] CT
0 1 1 RC
1 LJ
0.667 LW
N
73 202.5 M
73.723 202.5 L
74.447 202.5 L
75.17 202.5 L
75.893 202.5 L
76.617 202.5 L
77.34 202.5 L
78.063 202.5 L
78.787 202.5 L
79.51 191.067 L
80.233 191.067 L
80.957 191.067 L
81.68 191.067 L
82.403 191.067 L
83.127 191.067 L
83.85 191.067 L
84.573 191.067 L
85.297 191.067 L
86.02 191.067 L
86.743 191.067 L
87.467 191.067 L
88.19 191.067 L
88.913 191.067 L
89.637 191.067 L
90.36 191.067 L
91.083 191.067 L
91.807 191.067 L
92.53 191.067 L
93.253 191.067 L
93.977 191.067 L
94.7 191.067 L
95.423 191.067 L
96.147 191.067 L
96.87 191.067 L
97.593 191.067 L
98.317 191.067 L
99.04 191.067 L
99.763 191.067 L
100.487 191.067 L
101.21 191.067 L
101.933 191.067 L
102.657 191.067 L
103.38 191.067 L
104.103 191.067 L
104.827 191.067 L
105.55 191.067 L
106.273 191.067 L
106.997 191.067 L
107.72 191.067 L
108.443 191.067 L
S
GR
GS
[0.75 0 0 0.75 0 0] CT
0 1 1 RC
1 LJ
0.667 LW
N
107.72 191.067 M
108.443 191.067 L
109.167 191.067 L
109.89 191.067 L
110.613 191.067 L
111.337 191.067 L
112.06 191.067 L
112.783 191.067 L
113.507 191.067 L
114.23 191.067 L
114.953 191.067 L
115.677 191.067 L
116.4 191.067 L
117.123 191.067 L
117.847 191.067 L
118.57 191.067 L
119.293 191.067 L
120.017 191.067 L
120.74 191.067 L
121.463 191.067 L
122.187 191.067 L
122.91 191.067 L
123.633 191.067 L
124.357 191.067 L
125.08 191.067 L
125.803 191.067 L
126.527 191.067 L
127.25 191.067 L
127.973 191.067 L
128.697 191.067 L
129.42 191.067 L
130.143 191.067 L
130.867 191.067 L
131.59 191.067 L
132.313 191.067 L
133.037 191.067 L
133.76 191.067 L
134.483 191.067 L
135.207 191.067 L
135.93 191.067 L
136.653 191.067 L
137.377 191.067 L
138.1 191.067 L
138.823 191.067 L
139.547 191.067 L
140.27 191.067 L
140.993 191.067 L
141.717 191.067 L
142.44 191.067 L
143.163 191.067 L
143.887 191.067 L
144.61 191.067 L
S
GR
GS
[0.75 0 0 0.75 0 0] CT
0 1 1 RC
1 LJ
0.667 LW
N
143.887 191.067 M
144.61 191.067 L
145.333 191.067 L
146.057 191.067 L
146.78 191.067 L
147.503 191.067 L
148.227 191.067 L
148.95 191.067 L
149.673 191.067 L
150.397 191.067 L
151.12 191.067 L
151.843 191.067 L
152.567 191.067 L
153.29 191.067 L
154.013 191.067 L
154.737 191.067 L
155.46 191.067 L
156.183 191.067 L
156.907 191.067 L
157.63 191.067 L
158.353 191.067 L
159.077 191.067 L
159.8 191.067 L
160.523 191.067 L
161.247 191.067 L
161.97 191.067 L
162.693 191.067 L
163.417 191.067 L
164.14 191.067 L
164.863 191.067 L
165.587 191.067 L
166.31 191.067 L
167.033 191.067 L
167.757 191.067 L
168.48 191.067 L
169.203 191.067 L
169.927 191.067 L
170.65 191.067 L
171.373 191.067 L
172.097 191.067 L
172.82 191.067 L
173.543 191.067 L
174.267 191.067 L
174.99 191.067 L
175.713 191.067 L
176.437 191.067 L
177.16 191.067 L
177.883 191.067 L
178.607 191.067 L
179.33 191.067 L
180.053 191.067 L
180.777 191.067 L
S
GR
GS
[0.75 0 0 0.75 0 0] CT
0 1 1 RC
1 LJ
0.667 LW
N
180.053 191.067 M
180.777 191.067 L
181.5 191.067 L
182.223 191.067 L
182.947 191.067 L
183.67 191.067 L
184.393 191.067 L
185.117 191.067 L
185.84 191.067 L
186.563 191.067 L
187.287 191.067 L
188.01 191.067 L
188.733 191.067 L
189.457 191.067 L
190.18 191.067 L
190.903 191.067 L
191.627 191.067 L
192.35 191.067 L
193.073 191.067 L
193.797 191.067 L
194.52 191.067 L
195.243 191.067 L
195.967 191.067 L
196.69 191.067 L
197.413 191.067 L
198.137 191.067 L
198.86 191.067 L
199.583 191.067 L
200.307 191.067 L
201.03 191.067 L
201.753 191.067 L
202.477 191.067 L
203.2 191.067 L
203.923 191.067 L
204.647 191.067 L
205.37 191.067 L
206.093 191.067 L
206.817 191.067 L
207.54 191.067 L
208.263 191.067 L
208.987 191.067 L
209.71 191.067 L
210.433 191.067 L
211.157 191.067 L
211.88 191.067 L
212.603 191.067 L
213.327 191.067 L
214.05 191.067 L
214.773 191.067 L
215.497 191.067 L
216.22 191.067 L
216.943 191.067 L
S
GR
GS
[0.75 0 0 0.75 0 0] CT
0 1 1 RC
1 LJ
0.667 LW
N
216.22 191.067 M
216.943 191.067 L
217.667 191.067 L
218.39 191.067 L
219.113 191.067 L
219.837 191.067 L
220.56 191.067 L
221.283 191.067 L
222.007 191.067 L
222.73 191.067 L
223.453 191.067 L
224.177 191.067 L
224.9 191.067 L
225.623 191.067 L
226.347 191.067 L
227.07 191.067 L
227.793 191.067 L
228.517 191.067 L
229.24 191.067 L
229.963 191.067 L
230.687 191.067 L
231.41 191.067 L
232.133 191.067 L
232.857 191.067 L
233.58 191.067 L
234.303 191.067 L
235.027 191.067 L
235.75 191.067 L
236.473 191.067 L
237.197 191.067 L
237.92 191.067 L
238.643 191.067 L
239.367 191.067 L
240.09 191.067 L
240.813 191.067 L
241.537 191.067 L
242.26 191.067 L
242.983 191.067 L
243.707 191.067 L
244.43 191.067 L
245.153 191.067 L
245.877 191.067 L
246.6 191.067 L
247.323 191.067 L
248.047 191.067 L
248.77 191.067 L
249.493 191.067 L
250.217 191.067 L
250.94 191.067 L
251.663 191.067 L
252.387 191.067 L
253.11 191.067 L
S
GR
GS
[0.75 0 0 0.75 0 0] CT
0 1 1 RC
1 LJ
0.667 LW
N
252.387 191.067 M
253.11 191.067 L
253.833 191.067 L
254.557 191.067 L
255.28 191.067 L
256.003 191.067 L
256.727 191.067 L
257.45 191.067 L
258.173 191.067 L
258.897 191.067 L
259.62 191.067 L
260.343 191.067 L
261.067 191.067 L
261.79 191.067 L
262.513 191.067 L
263.237 191.067 L
263.96 191.067 L
264.683 191.067 L
265.407 191.067 L
266.13 191.067 L
266.853 191.067 L
267.577 191.067 L
268.3 191.067 L
269.023 191.067 L
269.747 191.067 L
270.47 191.067 L
271.193 191.067 L
271.917 191.067 L
272.64 191.067 L
273.363 191.067 L
274.087 191.067 L
274.81 191.067 L
275.533 191.067 L
276.257 191.067 L
276.98 191.067 L
277.703 191.067 L
278.427 191.067 L
279.15 191.067 L
279.873 191.067 L
280.597 191.067 L
281.32 191.067 L
282.043 191.067 L
282.767 191.067 L
283.49 191.067 L
284.213 191.067 L
284.937 191.067 L
285.66 191.067 L
286.383 191.067 L
287.107 191.067 L
287.83 191.067 L
288.553 191.067 L
289.277 191.067 L
S
GR
GS
[0.75 0 0 0.75 0 0] CT
0 1 1 RC
1 LJ
0.667 LW
N
288.553 191.067 M
289.277 191.067 L
290 191.067 L
290.723 191.067 L
291.447 191.067 L
292.17 191.067 L
292.893 191.067 L
293.617 191.067 L
294.34 191.067 L
295.063 191.067 L
295.787 191.067 L
296.51 191.067 L
297.233 191.067 L
297.957 191.067 L
298.68 191.067 L
299.403 191.067 L
300.127 191.067 L
300.85 191.067 L
301.573 191.067 L
302.297 191.067 L
303.02 191.067 L
303.743 191.067 L
304.467 191.067 L
305.19 191.067 L
305.913 191.067 L
306.637 191.067 L
307.36 191.067 L
308.083 191.067 L
308.807 191.067 L
309.53 191.067 L
310.253 191.067 L
310.977 191.067 L
311.7 191.067 L
312.423 191.067 L
313.147 191.067 L
313.87 191.067 L
314.593 191.067 L
315.317 191.067 L
316.04 191.067 L
316.763 191.067 L
317.487 191.067 L
318.21 191.067 L
318.933 191.067 L
319.657 191.067 L
320.38 191.067 L
321.103 191.067 L
321.827 191.067 L
322.55 191.067 L
323.273 191.067 L
323.997 191.067 L
324.72 191.067 L
325.443 191.067 L
S
GR
GS
[0.75 0 0 0.75 0 0] CT
0 1 1 RC
1 LJ
0.667 LW
N
324.72 191.067 M
325.443 191.067 L
326.167 191.067 L
326.89 191.067 L
327.613 191.067 L
328.337 191.067 L
329.06 191.067 L
329.783 191.067 L
330.507 191.067 L
331.23 191.067 L
331.953 191.067 L
332.677 191.067 L
333.4 191.067 L
334.123 191.067 L
334.847 191.067 L
335.57 191.067 L
336.293 191.067 L
337.017 191.067 L
337.74 191.067 L
338.463 191.067 L
339.187 191.067 L
339.91 191.067 L
340.633 191.067 L
341.357 191.067 L
342.08 191.067 L
342.803 191.067 L
343.527 191.067 L
344.25 191.067 L
344.973 191.067 L
345.697 191.067 L
346.42 191.067 L
347.143 191.067 L
347.867 191.067 L
348.59 191.067 L
349.313 191.067 L
350.037 191.067 L
350.76 191.067 L
351.483 191.067 L
352.207 191.067 L
352.93 191.067 L
353.653 191.067 L
354.377 191.067 L
355.1 191.067 L
355.823 191.067 L
356.547 191.067 L
357.27 191.067 L
357.993 191.067 L
358.717 191.067 L
359.44 191.067 L
360.163 191.067 L
360.887 191.067 L
361.61 191.067 L
S
GR
GS
[0.75 0 0 0.75 0 0] CT
0 1 1 RC
1 LJ
0.667 LW
N
360.887 191.067 M
361.61 191.067 L
362.333 191.067 L
363.057 191.067 L
363.78 191.067 L
364.503 191.067 L
365.227 191.067 L
365.95 191.067 L
366.673 191.067 L
367.397 191.067 L
368.12 191.067 L
368.843 191.067 L
369.567 191.067 L
370.29 191.067 L
371.013 191.067 L
371.737 191.067 L
372.46 191.067 L
373.183 191.067 L
373.907 191.067 L
374.63 191.067 L
375.353 191.067 L
376.077 191.067 L
376.8 191.067 L
377.523 191.067 L
378.247 191.067 L
378.97 191.067 L
379.693 191.067 L
380.417 191.067 L
381.14 191.067 L
381.863 191.067 L
382.587 191.067 L
383.31 191.067 L
384.033 191.067 L
384.757 191.067 L
385.48 191.067 L
386.203 191.067 L
386.927 191.067 L
387.65 191.067 L
388.373 191.067 L
389.097 191.067 L
389.82 191.067 L
390.543 191.067 L
391.267 191.067 L
391.99 191.067 L
392.713 191.067 L
393.437 191.067 L
394.16 191.067 L
394.883 191.067 L
395.607 191.067 L
396.33 191.067 L
397.053 191.067 L
397.777 191.067 L
S
GR
GS
[0.75 0 0 0.75 0 0] CT
0 1 1 RC
1 LJ
0.667 LW
N
397.053 191.067 M
397.777 191.067 L
398.5 191.067 L
399.223 191.067 L
399.947 191.067 L
400.67 191.067 L
401.393 191.067 L
402.117 191.067 L
402.84 191.067 L
403.563 191.067 L
404.287 191.067 L
405.01 191.067 L
405.733 191.067 L
406.457 191.067 L
407.18 191.067 L
407.903 191.067 L
408.627 191.067 L
409.35 191.067 L
410.073 191.067 L
410.797 191.067 L
411.52 191.067 L
412.243 191.067 L
412.967 191.067 L
413.69 191.067 L
414.413 191.067 L
415.137 191.067 L
415.86 191.067 L
416.583 191.067 L
417.307 191.067 L
418.03 191.067 L
418.753 191.067 L
419.477 191.067 L
420.2 191.067 L
420.923 191.067 L
421.647 191.067 L
422.37 191.067 L
423.093 191.067 L
423.817 191.067 L
424.54 191.067 L
425.263 191.067 L
425.987 191.067 L
426.71 191.067 L
427.433 191.067 L
428.157 191.067 L
428.88 191.067 L
429.603 191.067 L
430.327 191.067 L
431.05 191.067 L
431.773 191.067 L
432.497 191.067 L
433.22 191.067 L
433.943 191.067 L
S
GR
GS
[0.75 0 0 0.75 0 0] CT
0 1 1 RC
1 LJ
0.667 LW
N
433.22 191.067 M
433.943 191.067 L
434.667 191.067 L
435.39 191.067 L
436.113 191.067 L
436.837 191.067 L
437.56 191.067 L
438.283 191.067 L
439.007 191.067 L
439.73 191.067 L
440.453 191.067 L
441.177 191.067 L
441.9 191.067 L
442.623 191.067 L
443.347 191.067 L
444.07 191.067 L
444.793 191.067 L
445.517 191.067 L
446.24 191.067 L
446.963 191.067 L
447.687 191.067 L
448.41 191.067 L
449.133 191.067 L
449.857 191.067 L
450.58 191.067 L
451.303 191.067 L
452.027 191.067 L
452.75 191.067 L
453.473 191.067 L
454.197 191.067 L
454.92 191.067 L
455.643 191.067 L
456.367 191.067 L
457.09 191.067 L
457.813 191.067 L
458.537 191.067 L
459.26 191.067 L
459.983 191.067 L
460.707 191.067 L
461.43 191.067 L
462.153 191.067 L
462.877 191.067 L
463.6 191.067 L
464.323 191.067 L
465.047 191.067 L
465.77 191.067 L
466.493 191.067 L
467.217 191.067 L
467.94 191.067 L
468.663 191.067 L
469.387 191.067 L
470.11 191.067 L
S
GR
GS
[0.75 0 0 0.75 0 0] CT
0 1 1 RC
1 LJ
0.667 LW
N
469.387 191.067 M
470.11 191.067 L
470.833 191.067 L
471.557 191.067 L
472.28 191.067 L
473.003 191.067 L
473.727 191.067 L
474.45 191.067 L
475.173 191.067 L
475.897 191.067 L
476.62 191.067 L
477.343 191.067 L
478.067 191.067 L
478.79 191.067 L
479.513 191.067 L
480.237 191.067 L
480.96 191.067 L
481.683 191.067 L
482.407 191.067 L
483.13 191.067 L
483.853 191.067 L
484.577 191.067 L
485.3 191.067 L
486.023 191.067 L
486.747 191.067 L
487.47 191.067 L
488.193 191.067 L
488.917 191.067 L
489.64 191.067 L
490.363 191.067 L
491.087 191.067 L
491.81 191.067 L
492.533 191.067 L
493.257 191.067 L
493.98 191.067 L
494.703 191.067 L
495.427 191.067 L
496.15 191.067 L
496.873 191.067 L
497.597 191.067 L
498.32 191.067 L
499.043 191.067 L
499.767 191.067 L
500.49 191.067 L
501.213 191.067 L
501.937 191.067 L
502.66 191.067 L
503.383 191.067 L
504.107 191.067 L
504.83 191.067 L
505.553 191.067 L
506.277 191.067 L
S
GR
GS
[0.75 0 0 0.75 0 0] CT
0 1 1 RC
1 LJ
0.667 LW
N
505.553 191.067 M
506.277 191.067 L
507 191.067 L
S
GR
GS
[0.75 0 0 0.75 0 0] CT
1 0 0 RC
1 LJ
0.667 LW
N
73 202.5 M
73.723 202.5 L
74.447 202.5 L
75.17 202.5 L
75.893 202.5 L
76.617 202.5 L
77.34 202.5 L
78.063 202.5 L
78.787 202.5 L
79.51 202.5 L
80.233 202.5 L
80.957 202.499 L
81.68 202.496 L
82.403 202.492 L
83.127 202.486 L
83.85 202.478 L
84.573 202.467 L
85.297 202.453 L
86.02 202.437 L
86.743 202.419 L
87.467 202.397 L
88.19 202.373 L
88.913 202.346 L
89.637 202.316 L
90.36 202.284 L
91.083 202.249 L
91.807 202.211 L
92.53 202.17 L
93.253 202.127 L
93.977 202.082 L
94.7 202.034 L
95.423 201.983 L
96.147 201.93 L
96.87 201.875 L
97.593 201.817 L
98.317 201.758 L
99.04 201.695 L
99.763 201.631 L
100.487 201.565 L
101.21 201.496 L
101.933 201.426 L
102.657 201.353 L
103.38 201.279 L
104.103 201.203 L
104.827 201.125 L
105.55 201.045 L
106.273 200.963 L
106.997 200.88 L
107.72 200.795 L
108.443 200.709 L
S
GR
GS
[0.75 0 0 0.75 0 0] CT
1 0 0 RC
1 LJ
0.667 LW
N
107.72 200.795 M
108.443 200.709 L
109.167 200.621 L
109.89 200.531 L
110.613 200.44 L
111.337 200.348 L
112.06 200.254 L
112.783 200.159 L
113.507 200.063 L
114.23 199.965 L
114.953 199.867 L
115.677 199.767 L
116.4 199.666 L
117.123 199.564 L
117.847 199.461 L
118.57 199.357 L
119.293 199.253 L
120.017 199.147 L
120.74 199.041 L
121.463 198.933 L
122.187 198.825 L
122.91 198.717 L
123.633 198.607 L
124.357 198.497 L
125.08 198.387 L
125.803 198.276 L
126.527 198.164 L
127.25 198.052 L
127.973 197.94 L
128.697 197.827 L
129.42 197.714 L
130.143 197.6 L
130.867 197.486 L
131.59 197.372 L
132.313 197.258 L
133.037 197.143 L
133.76 197.028 L
134.483 196.913 L
135.207 196.799 L
135.93 196.684 L
136.653 196.568 L
137.377 196.453 L
138.1 196.338 L
138.823 196.223 L
139.547 196.108 L
140.27 195.994 L
140.993 195.879 L
141.717 195.764 L
142.44 195.65 L
143.163 195.536 L
143.887 195.422 L
144.61 195.308 L
S
GR
GS
[0.75 0 0 0.75 0 0] CT
1 0 0 RC
1 LJ
0.667 LW
N
143.887 195.422 M
144.61 195.308 L
145.333 195.195 L
146.057 195.082 L
146.78 194.969 L
147.503 194.857 L
148.227 194.745 L
148.95 194.633 L
149.673 194.521 L
150.397 194.411 L
151.12 194.3 L
151.843 194.19 L
152.567 194.081 L
153.29 193.971 L
154.013 193.863 L
154.737 193.755 L
155.46 193.647 L
156.183 193.54 L
156.907 193.434 L
157.63 193.328 L
158.353 193.223 L
159.077 193.118 L
159.8 193.014 L
160.523 192.91 L
161.247 192.807 L
161.97 192.705 L
162.693 192.604 L
163.417 192.503 L
164.14 192.402 L
164.863 192.303 L
165.587 192.204 L
166.31 192.105 L
167.033 192.008 L
167.757 191.911 L
168.48 191.814 L
169.203 191.719 L
169.927 191.624 L
170.65 191.529 L
171.373 191.436 L
172.097 191.343 L
172.82 191.251 L
173.543 191.159 L
174.267 191.069 L
174.99 190.979 L
175.713 190.889 L
176.437 190.801 L
177.16 190.713 L
177.883 190.625 L
178.607 190.539 L
179.33 190.453 L
180.053 190.367 L
180.777 190.283 L
S
GR
GS
[0.75 0 0 0.75 0 0] CT
1 0 0 RC
1 LJ
0.667 LW
N
180.053 190.367 M
180.777 190.283 L
181.5 190.199 L
182.223 190.116 L
182.947 190.033 L
183.67 189.951 L
184.393 189.87 L
185.117 189.789 L
185.84 189.709 L
186.563 189.63 L
187.287 189.551 L
188.01 189.473 L
188.733 189.395 L
189.457 189.318 L
190.18 189.242 L
190.903 189.166 L
191.627 189.091 L
192.35 189.016 L
193.073 188.942 L
193.797 188.869 L
194.52 188.796 L
195.243 188.723 L
195.967 188.651 L
196.69 188.58 L
197.413 188.509 L
198.137 188.438 L
198.86 188.368 L
199.583 188.298 L
200.307 188.229 L
201.03 188.16 L
201.753 188.092 L
202.477 188.024 L
203.2 187.956 L
203.923 187.889 L
204.647 187.822 L
205.37 187.755 L
206.093 187.689 L
206.817 187.623 L
207.54 187.557 L
208.263 187.492 L
208.987 187.426 L
209.71 187.362 L
210.433 187.297 L
211.157 187.232 L
211.88 187.168 L
212.603 187.104 L
213.327 187.04 L
214.05 186.977 L
214.773 186.913 L
215.497 186.85 L
216.22 186.786 L
216.943 186.723 L
S
GR
GS
[0.75 0 0 0.75 0 0] CT
1 0 0 RC
1 LJ
0.667 LW
N
216.22 186.786 M
216.943 186.723 L
217.667 186.66 L
218.39 186.597 L
219.113 186.533 L
219.837 186.47 L
220.56 186.407 L
221.283 186.344 L
222.007 186.281 L
222.73 186.218 L
223.453 186.155 L
224.177 186.092 L
224.9 186.028 L
225.623 185.965 L
226.347 185.901 L
227.07 185.838 L
227.793 185.774 L
228.517 185.71 L
229.24 185.646 L
229.963 185.581 L
230.687 185.517 L
231.41 185.452 L
232.133 185.387 L
232.857 185.322 L
233.58 185.256 L
234.303 185.19 L
235.027 185.124 L
235.75 185.057 L
236.473 184.99 L
237.197 184.923 L
237.92 184.856 L
238.643 184.788 L
239.367 184.719 L
240.09 184.65 L
240.813 184.581 L
241.537 184.511 L
242.26 184.441 L
242.983 184.371 L
243.707 184.299 L
244.43 184.228 L
245.153 184.156 L
245.877 184.083 L
246.6 184.01 L
247.323 183.936 L
248.047 183.862 L
248.77 183.787 L
249.493 183.711 L
250.217 183.635 L
250.94 183.558 L
251.663 183.48 L
252.387 183.402 L
253.11 183.323 L
S
GR
GS
[0.75 0 0 0.75 0 0] CT
1 0 0 RC
1 LJ
0.667 LW
N
252.387 183.402 M
253.11 183.323 L
253.833 183.244 L
254.557 183.164 L
255.28 183.083 L
256.003 183.001 L
256.727 182.919 L
257.45 182.836 L
258.173 182.752 L
258.897 182.667 L
259.62 182.582 L
260.343 182.496 L
261.067 182.408 L
261.79 182.321 L
262.513 182.232 L
263.237 182.142 L
263.96 182.052 L
264.683 181.961 L
265.407 181.869 L
266.13 181.776 L
266.853 181.682 L
267.577 181.587 L
268.3 181.492 L
269.023 181.395 L
269.747 181.298 L
270.47 181.199 L
271.193 181.1 L
271.917 180.999 L
272.64 180.898 L
273.363 180.796 L
274.087 180.692 L
274.81 180.588 L
275.533 180.483 L
276.257 180.377 L
276.98 180.269 L
277.703 180.161 L
278.427 180.052 L
279.15 179.941 L
279.873 179.83 L
280.597 179.718 L
281.32 179.604 L
282.043 179.49 L
282.767 179.374 L
283.49 179.257 L
284.213 179.139 L
284.937 179.02 L
285.66 178.9 L
286.383 178.779 L
287.107 178.657 L
287.83 178.534 L
288.553 178.409 L
289.277 178.284 L
S
GR
GS
[0.75 0 0 0.75 0 0] CT
1 0 0 RC
1 LJ
0.667 LW
N
288.553 178.409 M
289.277 178.284 L
290 178.157 L
290.723 178.029 L
291.447 177.9 L
292.17 177.77 L
292.893 177.639 L
293.617 177.506 L
294.34 177.373 L
295.063 177.238 L
295.787 177.102 L
296.51 176.965 L
297.233 176.827 L
297.957 176.687 L
298.68 176.547 L
299.403 176.405 L
300.127 176.262 L
300.85 176.118 L
301.573 175.972 L
302.297 175.826 L
303.02 175.678 L
303.743 175.529 L
304.467 175.378 L
305.19 175.227 L
305.913 175.074 L
306.637 174.92 L
307.36 174.765 L
308.083 174.609 L
308.807 174.451 L
309.53 174.292 L
310.253 174.132 L
310.977 173.971 L
311.7 173.808 L
312.423 173.645 L
313.147 173.48 L
313.87 173.313 L
314.593 173.146 L
315.317 172.977 L
316.04 172.807 L
316.763 172.635 L
317.487 172.463 L
318.21 172.289 L
318.933 172.114 L
319.657 171.938 L
320.38 171.76 L
321.103 171.581 L
321.827 171.401 L
322.55 171.219 L
323.273 171.037 L
323.997 170.853 L
324.72 170.667 L
325.443 170.481 L
S
GR
GS
[0.75 0 0 0.75 0 0] CT
1 0 0 RC
1 LJ
0.667 LW
N
324.72 170.667 M
325.443 170.481 L
326.167 170.293 L
326.89 170.104 L
327.613 169.913 L
328.337 169.722 L
329.06 169.529 L
329.783 169.334 L
330.507 169.139 L
331.23 168.942 L
331.953 168.744 L
332.677 168.544 L
333.4 168.343 L
334.123 168.141 L
334.847 167.938 L
335.57 167.733 L
336.293 167.527 L
337.017 167.32 L
337.74 167.111 L
338.463 166.901 L
339.187 166.69 L
339.91 166.477 L
340.633 166.263 L
341.357 166.048 L
342.08 165.832 L
342.803 165.614 L
343.527 165.394 L
344.25 165.174 L
344.973 164.952 L
345.697 164.729 L
346.42 164.504 L
347.143 164.278 L
347.867 164.051 L
348.59 163.822 L
349.313 163.592 L
350.037 163.361 L
350.76 163.128 L
351.483 162.894 L
352.207 162.659 L
352.93 162.422 L
353.653 162.184 L
354.377 161.944 L
355.1 161.703 L
355.823 161.461 L
356.547 161.218 L
357.27 160.972 L
357.993 160.726 L
358.717 160.478 L
359.44 160.229 L
360.163 159.978 L
360.887 159.726 L
361.61 159.473 L
S
GR
GS
[0.75 0 0 0.75 0 0] CT
1 0 0 RC
1 LJ
0.667 LW
N
360.887 159.726 M
361.61 159.473 L
362.333 159.218 L
363.057 158.962 L
363.78 158.704 L
364.503 158.445 L
365.227 158.184 L
365.95 157.922 L
366.673 157.659 L
367.397 157.394 L
368.12 157.128 L
368.843 156.86 L
369.567 156.591 L
370.29 156.32 L
371.013 156.048 L
371.737 155.774 L
372.46 155.499 L
373.183 155.222 L
373.907 154.944 L
374.63 154.664 L
375.353 154.383 L
376.077 154.101 L
376.8 153.817 L
377.523 153.531 L
378.247 153.244 L
378.97 152.955 L
379.693 152.665 L
380.417 152.373 L
381.14 152.08 L
381.863 151.785 L
382.587 151.488 L
383.31 151.19 L
384.033 150.89 L
384.757 150.589 L
385.48 150.286 L
386.203 149.982 L
386.927 149.676 L
387.65 149.368 L
388.373 149.059 L
389.097 148.748 L
389.82 148.435 L
390.543 148.121 L
391.267 147.805 L
391.99 147.487 L
392.713 147.168 L
393.437 146.847 L
394.16 146.525 L
394.883 146.2 L
395.607 145.874 L
396.33 145.546 L
397.053 145.217 L
397.777 144.886 L
S
GR
GS
[0.75 0 0 0.75 0 0] CT
1 0 0 RC
1 LJ
0.667 LW
N
397.053 145.217 M
397.777 144.886 L
398.5 144.553 L
399.223 144.218 L
399.947 143.881 L
400.67 143.543 L
401.393 143.203 L
402.117 142.861 L
402.84 142.518 L
403.563 142.172 L
404.287 141.825 L
405.01 141.476 L
405.733 141.124 L
406.457 140.772 L
407.18 140.417 L
407.903 140.06 L
408.627 139.702 L
409.35 139.341 L
410.073 138.979 L
410.797 138.615 L
411.52 138.248 L
412.243 137.88 L
412.967 137.51 L
413.69 137.138 L
414.413 136.764 L
415.137 136.388 L
415.86 136.01 L
416.583 135.63 L
417.307 135.247 L
418.03 134.863 L
418.753 134.477 L
419.477 134.089 L
420.2 133.698 L
420.923 133.306 L
421.647 132.911 L
422.37 132.514 L
423.093 132.116 L
423.817 131.715 L
424.54 131.311 L
425.263 130.906 L
425.987 130.498 L
426.71 130.089 L
427.433 129.677 L
428.157 129.262 L
428.88 128.846 L
429.603 128.427 L
430.327 128.006 L
431.05 127.583 L
431.773 127.157 L
432.497 126.729 L
433.22 126.299 L
433.943 125.867 L
S
GR
GS
[0.75 0 0 0.75 0 0] CT
1 0 0 RC
1 LJ
0.667 LW
N
433.22 126.299 M
433.943 125.867 L
434.667 125.432 L
435.39 124.994 L
436.113 124.554 L
436.837 124.112 L
437.56 123.668 L
438.283 123.221 L
439.007 122.771 L
439.73 122.319 L
440.453 121.865 L
441.177 121.408 L
441.9 120.949 L
442.623 120.487 L
443.347 120.022 L
444.07 119.555 L
444.793 119.085 L
445.517 118.613 L
446.24 118.138 L
446.963 117.661 L
447.687 117.18 L
448.41 116.698 L
449.133 116.212 L
449.857 115.724 L
450.58 115.233 L
451.303 114.739 L
452.027 114.243 L
452.75 113.743 L
453.473 113.241 L
454.197 112.737 L
454.92 112.229 L
455.643 111.719 L
456.367 111.205 L
457.09 110.689 L
457.813 110.17 L
458.537 109.648 L
459.26 109.123 L
459.983 108.595 L
460.707 108.064 L
461.43 107.53 L
462.153 106.994 L
462.877 106.454 L
463.6 105.911 L
464.323 105.365 L
465.047 104.816 L
465.77 104.264 L
466.493 103.708 L
467.217 103.15 L
467.94 102.588 L
468.663 102.024 L
469.387 101.456 L
470.11 100.885 L
S
GR
GS
[0.75 0 0 0.75 0 0] CT
1 0 0 RC
1 LJ
0.667 LW
N
469.387 101.456 M
470.11 100.885 L
470.833 100.31 L
471.557 99.732 L
472.28 99.152 L
473.003 98.567 L
473.727 97.98 L
474.45 97.389 L
475.173 96.795 L
475.897 96.197 L
476.62 95.596 L
477.343 94.992 L
478.067 94.384 L
478.79 93.772 L
479.513 93.158 L
480.237 92.539 L
480.96 91.917 L
481.683 91.292 L
482.407 90.663 L
483.13 90.031 L
483.853 89.394 L
484.577 88.755 L
485.3 88.111 L
486.023 87.464 L
486.747 86.813 L
487.47 86.159 L
488.193 85.501 L
488.917 84.838 L
489.64 84.173 L
490.363 83.503 L
491.087 82.83 L
491.81 82.152 L
492.533 81.471 L
493.257 80.786 L
493.98 80.097 L
494.703 79.404 L
495.427 78.707 L
496.15 78.006 L
496.873 77.301 L
497.597 76.592 L
498.32 75.879 L
499.043 75.162 L
499.767 74.441 L
500.49 73.716 L
501.213 72.986 L
501.937 72.252 L
502.66 71.514 L
503.383 70.772 L
504.107 70.026 L
504.83 69.275 L
505.553 68.52 L
506.277 67.761 L
S
GR
GS
[0.75 0 0 0.75 0 0] CT
1 0 0 RC
1 LJ
0.667 LW
N
505.553 68.52 M
506.277 67.761 L
507 66.997 L
S
GR
GS
[0.75 0 0 0.75 0 0] CT
1 0 1 RC
1 LJ
0.667 LW
N
73 202.5 M
73.723 202.5 L
74.447 202.5 L
75.17 202.5 L
75.893 202.5 L
76.617 202.5 L
77.34 202.5 L
78.063 202.5 L
78.787 202.5 L
79.51 202.5 L
80.233 202.499 L
80.957 202.497 L
81.68 202.493 L
82.403 202.488 L
83.127 202.481 L
83.85 202.473 L
84.573 202.464 L
85.297 202.454 L
86.02 202.442 L
86.743 202.43 L
87.467 202.416 L
88.19 202.4 L
88.913 202.384 L
89.637 202.367 L
90.36 202.348 L
91.083 202.328 L
91.807 202.307 L
92.53 202.286 L
93.253 202.263 L
93.977 202.239 L
94.7 202.214 L
95.423 202.189 L
96.147 202.162 L
96.87 202.135 L
97.593 202.106 L
98.317 202.077 L
99.04 202.047 L
99.763 202.017 L
100.487 201.985 L
101.21 201.953 L
101.933 201.92 L
102.657 201.887 L
103.38 201.853 L
104.103 201.818 L
104.827 201.783 L
105.55 201.747 L
106.273 201.711 L
106.997 201.674 L
107.72 201.637 L
108.443 201.6 L
S
GR
GS
[0.75 0 0 0.75 0 0] CT
1 0 1 RC
1 LJ
0.667 LW
N
107.72 201.637 M
108.443 201.6 L
109.167 201.562 L
109.89 201.523 L
110.613 201.485 L
111.337 201.446 L
112.06 201.406 L
112.783 201.367 L
113.507 201.327 L
114.23 201.288 L
114.953 201.248 L
115.677 201.208 L
116.4 201.168 L
117.123 201.127 L
117.847 201.087 L
118.57 201.047 L
119.293 201.007 L
120.017 200.967 L
120.74 200.927 L
121.463 200.887 L
122.187 200.847 L
122.91 200.807 L
123.633 200.768 L
124.357 200.729 L
125.08 200.69 L
125.803 200.651 L
126.527 200.613 L
127.25 200.575 L
127.973 200.538 L
128.697 200.501 L
129.42 200.464 L
130.143 200.427 L
130.867 200.392 L
131.59 200.356 L
132.313 200.321 L
133.037 200.287 L
133.76 200.253 L
134.483 200.22 L
135.207 200.188 L
135.93 200.156 L
136.653 200.125 L
137.377 200.094 L
138.1 200.064 L
138.823 200.035 L
139.547 200.007 L
140.27 199.979 L
140.993 199.952 L
141.717 199.926 L
142.44 199.901 L
143.163 199.877 L
143.887 199.853 L
144.61 199.831 L
S
GR
GS
[0.75 0 0 0.75 0 0] CT
1 0 1 RC
1 LJ
0.667 LW
N
143.887 199.853 M
144.61 199.831 L
145.333 199.809 L
146.057 199.788 L
146.78 199.768 L
147.503 199.749 L
148.227 199.731 L
148.95 199.714 L
149.673 199.698 L
150.397 199.683 L
151.12 199.67 L
151.843 199.657 L
152.567 199.645 L
153.29 199.634 L
154.013 199.624 L
154.737 199.615 L
155.46 199.608 L
156.183 199.601 L
156.907 199.596 L
157.63 199.592 L
158.353 199.589 L
159.077 199.587 L
159.8 199.586 L
160.523 199.586 L
161.247 199.588 L
161.97 199.591 L
162.693 199.595 L
163.417 199.6 L
164.14 199.606 L
164.863 199.614 L
165.587 199.622 L
166.31 199.632 L
167.033 199.644 L
167.757 199.656 L
168.48 199.67 L
169.203 199.685 L
169.927 199.701 L
170.65 199.718 L
171.373 199.737 L
172.097 199.757 L
172.82 199.778 L
173.543 199.8 L
174.267 199.824 L
174.99 199.849 L
175.713 199.875 L
176.437 199.902 L
177.16 199.931 L
177.883 199.961 L
178.607 199.992 L
179.33 200.025 L
180.053 200.058 L
180.777 200.093 L
S
GR
GS
[0.75 0 0 0.75 0 0] CT
1 0 1 RC
1 LJ
0.667 LW
N
180.053 200.058 M
180.777 200.093 L
181.5 200.13 L
182.223 200.167 L
182.947 200.206 L
183.67 200.246 L
184.393 200.287 L
185.117 200.329 L
185.84 200.373 L
186.563 200.418 L
187.287 200.464 L
188.01 200.512 L
188.733 200.56 L
189.457 200.61 L
190.18 200.661 L
190.903 200.713 L
191.627 200.766 L
192.35 200.821 L
193.073 200.877 L
193.797 200.934 L
194.52 200.992 L
195.243 201.051 L
195.967 201.112 L
196.69 201.173 L
197.413 201.236 L
198.137 201.3 L
198.86 201.365 L
199.583 201.431 L
200.307 201.498 L
201.03 201.567 L
201.753 201.636 L
202.477 201.707 L
203.2 201.778 L
203.923 201.851 L
204.647 201.925 L
205.37 202 L
206.093 202.076 L
206.817 202.152 L
207.54 202.23 L
208.263 202.309 L
208.987 202.389 L
209.71 202.47 L
210.433 202.552 L
211.157 202.635 L
211.88 202.719 L
212.603 202.804 L
213.327 202.89 L
214.05 202.977 L
214.773 203.065 L
215.497 203.154 L
216.22 203.243 L
216.943 203.334 L
S
GR
GS
[0.75 0 0 0.75 0 0] CT
1 0 1 RC
1 LJ
0.667 LW
N
216.22 203.243 M
216.943 203.334 L
217.667 203.425 L
218.39 203.518 L
219.113 203.611 L
219.837 203.705 L
220.56 203.8 L
221.283 203.896 L
222.007 203.992 L
222.73 204.09 L
223.453 204.188 L
224.177 204.287 L
224.9 204.387 L
225.623 204.488 L
226.347 204.59 L
227.07 204.692 L
227.793 204.795 L
228.517 204.899 L
229.24 205.004 L
229.963 205.109 L
230.687 205.215 L
231.41 205.322 L
232.133 205.43 L
232.857 205.538 L
233.58 205.647 L
234.303 205.756 L
235.027 205.867 L
235.75 205.978 L
236.473 206.089 L
237.197 206.202 L
237.92 206.315 L
238.643 206.429 L
239.367 206.543 L
240.09 206.658 L
240.813 206.773 L
241.537 206.889 L
242.26 207.006 L
242.983 207.124 L
243.707 207.242 L
244.43 207.36 L
245.153 207.479 L
245.877 207.599 L
246.6 207.719 L
247.323 207.84 L
248.047 207.962 L
248.77 208.083 L
249.493 208.206 L
250.217 208.329 L
250.94 208.453 L
251.663 208.577 L
252.387 208.701 L
253.11 208.826 L
S
GR
GS
[0.75 0 0 0.75 0 0] CT
1 0 1 RC
1 LJ
0.667 LW
N
252.387 208.701 M
253.11 208.826 L
253.833 208.952 L
254.557 209.078 L
255.28 209.205 L
256.003 209.332 L
256.727 209.46 L
257.45 209.588 L
258.173 209.716 L
258.897 209.846 L
259.62 209.975 L
260.343 210.105 L
261.067 210.236 L
261.79 210.367 L
262.513 210.498 L
263.237 210.63 L
263.96 210.763 L
264.683 210.896 L
265.407 211.029 L
266.13 211.163 L
266.853 211.297 L
267.577 211.432 L
268.3 211.567 L
269.023 211.703 L
269.747 211.839 L
270.47 211.975 L
271.193 212.112 L
271.917 212.25 L
272.64 212.387 L
273.363 212.526 L
274.087 212.664 L
274.81 212.804 L
275.533 212.943 L
276.257 213.083 L
276.98 213.224 L
277.703 213.365 L
278.427 213.506 L
279.15 213.648 L
279.873 213.791 L
280.597 213.934 L
281.32 214.077 L
282.043 214.221 L
282.767 214.365 L
283.49 214.509 L
284.213 214.655 L
284.937 214.8 L
285.66 214.946 L
286.383 215.093 L
287.107 215.24 L
287.83 215.387 L
288.553 215.535 L
289.277 215.684 L
S
GR
GS
[0.75 0 0 0.75 0 0] CT
1 0 1 RC
1 LJ
0.667 LW
N
288.553 215.535 M
289.277 215.684 L
290 215.833 L
290.723 215.982 L
291.447 216.132 L
292.17 216.283 L
292.893 216.434 L
293.617 216.585 L
294.34 216.737 L
295.063 216.89 L
295.787 217.043 L
296.51 217.197 L
297.233 217.351 L
297.957 217.505 L
298.68 217.661 L
299.403 217.816 L
300.127 217.973 L
300.85 218.13 L
301.573 218.287 L
302.297 218.445 L
303.02 218.604 L
303.743 218.763 L
304.467 218.923 L
305.19 219.083 L
305.913 219.244 L
306.637 219.406 L
307.36 219.568 L
308.083 219.731 L
308.807 219.895 L
309.53 220.059 L
310.253 220.224 L
310.977 220.389 L
311.7 220.555 L
312.423 220.722 L
313.147 220.89 L
313.87 221.058 L
314.593 221.227 L
315.317 221.397 L
316.04 221.567 L
316.763 221.738 L
317.487 221.91 L
318.21 222.082 L
318.933 222.256 L
319.657 222.43 L
320.38 222.604 L
321.103 222.78 L
321.827 222.956 L
322.55 223.134 L
323.273 223.312 L
323.997 223.49 L
324.72 223.67 L
325.443 223.85 L
S
GR
GS
[0.75 0 0 0.75 0 0] CT
1 0 1 RC
1 LJ
0.667 LW
N
324.72 223.67 M
325.443 223.85 L
326.167 224.032 L
326.89 224.214 L
327.613 224.397 L
328.337 224.581 L
329.06 224.765 L
329.783 224.951 L
330.507 225.137 L
331.23 225.325 L
331.953 225.513 L
332.677 225.702 L
333.4 225.893 L
334.123 226.084 L
334.847 226.276 L
335.57 226.469 L
336.293 226.663 L
337.017 226.858 L
337.74 227.054 L
338.463 227.251 L
339.187 227.449 L
339.91 227.648 L
340.633 227.848 L
341.357 228.049 L
342.08 228.252 L
342.803 228.455 L
343.527 228.659 L
344.25 228.865 L
344.973 229.071 L
345.697 229.279 L
346.42 229.488 L
347.143 229.698 L
347.867 229.909 L
348.59 230.121 L
349.313 230.334 L
350.037 230.549 L
350.76 230.765 L
351.483 230.982 L
352.207 231.2 L
352.93 231.419 L
353.653 231.64 L
354.377 231.862 L
355.1 232.085 L
355.823 232.309 L
356.547 232.535 L
357.27 232.762 L
357.993 232.99 L
358.717 233.219 L
359.44 233.45 L
360.163 233.682 L
360.887 233.916 L
361.61 234.151 L
S
GR
GS
[0.75 0 0 0.75 0 0] CT
1 0 1 RC
1 LJ
0.667 LW
N
360.887 233.916 M
361.61 234.151 L
362.333 234.387 L
363.057 234.625 L
363.78 234.864 L
364.503 235.104 L
365.227 235.346 L
365.95 235.589 L
366.673 235.833 L
367.397 236.08 L
368.12 236.327 L
368.843 236.576 L
369.567 236.826 L
370.29 237.078 L
371.013 237.332 L
371.737 237.587 L
372.46 237.843 L
373.183 238.101 L
373.907 238.36 L
374.63 238.621 L
375.353 238.884 L
376.077 239.148 L
376.8 239.414 L
377.523 239.681 L
378.247 239.95 L
378.97 240.221 L
379.693 240.493 L
380.417 240.767 L
381.14 241.042 L
381.863 241.319 L
382.587 241.598 L
383.31 241.878 L
384.033 242.161 L
384.757 242.445 L
385.48 242.73 L
386.203 243.017 L
386.927 243.306 L
387.65 243.597 L
388.373 243.89 L
389.097 244.184 L
389.82 244.48 L
390.543 244.778 L
391.267 245.078 L
391.99 245.379 L
392.713 245.682 L
393.437 245.988 L
394.16 246.295 L
394.883 246.603 L
395.607 246.914 L
396.33 247.227 L
397.053 247.541 L
397.777 247.858 L
S
GR
GS
[0.75 0 0 0.75 0 0] CT
1 0 1 RC
1 LJ
0.667 LW
N
397.053 247.541 M
397.777 247.858 L
398.5 248.176 L
399.223 248.496 L
399.947 248.818 L
400.67 249.142 L
401.393 249.468 L
402.117 249.797 L
402.84 250.127 L
403.563 250.459 L
404.287 250.793 L
405.01 251.129 L
405.733 251.467 L
406.457 251.807 L
407.18 252.149 L
407.903 252.493 L
408.627 252.839 L
409.35 253.188 L
410.073 253.538 L
410.797 253.891 L
411.52 254.245 L
412.243 254.602 L
412.967 254.961 L
413.69 255.322 L
414.413 255.686 L
415.137 256.051 L
415.86 256.419 L
416.583 256.788 L
417.307 257.16 L
418.03 257.535 L
418.753 257.911 L
419.477 258.29 L
420.2 258.671 L
420.923 259.054 L
421.647 259.44 L
422.37 259.828 L
423.093 260.218 L
423.817 260.61 L
424.54 261.005 L
425.263 261.402 L
425.987 261.801 L
426.71 262.203 L
427.433 262.608 L
428.157 263.014 L
428.88 263.423 L
429.603 263.835 L
430.327 264.248 L
431.05 264.665 L
431.773 265.084 L
432.497 265.505 L
433.22 265.928 L
433.943 266.355 L
S
GR
GS
[0.75 0 0 0.75 0 0] CT
1 0 1 RC
1 LJ
0.667 LW
N
433.22 265.928 M
433.943 266.355 L
434.667 266.783 L
435.39 267.215 L
436.113 267.648 L
436.837 268.085 L
437.56 268.523 L
438.283 268.965 L
439.007 269.409 L
439.73 269.855 L
440.453 270.305 L
441.177 270.756 L
441.9 271.211 L
442.623 271.668 L
443.347 272.128 L
444.07 272.59 L
444.793 273.055 L
445.517 273.523 L
446.24 273.994 L
446.963 274.467 L
447.687 274.943 L
448.41 275.422 L
449.133 275.903 L
449.857 276.388 L
450.58 276.875 L
451.303 277.365 L
452.027 277.858 L
452.75 278.353 L
453.473 278.852 L
454.197 279.353 L
454.92 279.857 L
455.643 280.365 L
456.367 280.875 L
457.09 281.388 L
457.813 281.904 L
458.537 282.423 L
459.26 282.944 L
459.983 283.469 L
460.707 283.997 L
461.43 284.528 L
462.153 285.062 L
462.877 285.599 L
463.6 286.139 L
464.323 286.683 L
465.047 287.229 L
465.77 287.778 L
466.493 288.331 L
467.217 288.887 L
467.94 289.446 L
468.663 290.008 L
469.387 290.573 L
470.11 291.142 L
S
GR
GS
[0.75 0 0 0.75 0 0] CT
1 0 1 RC
1 LJ
0.667 LW
N
469.387 290.573 M
470.11 291.142 L
470.833 291.714 L
471.557 292.289 L
472.28 292.867 L
473.003 293.449 L
473.727 294.033 L
474.45 294.622 L
475.173 295.213 L
475.897 295.808 L
476.62 296.407 L
477.343 297.008 L
478.067 297.614 L
478.79 298.222 L
479.513 298.834 L
480.237 299.45 L
480.96 300.069 L
481.683 300.691 L
482.407 301.317 L
483.13 301.947 L
483.853 302.58 L
484.577 303.217 L
485.3 303.857 L
486.023 304.501 L
486.747 305.149 L
487.47 305.8 L
488.193 306.455 L
488.917 307.114 L
489.64 307.776 L
490.363 308.442 L
491.087 309.112 L
491.81 309.786 L
492.533 310.463 L
493.257 311.145 L
493.98 311.83 L
494.703 312.519 L
495.427 313.212 L
496.15 313.909 L
496.873 314.61 L
497.597 315.314 L
498.32 316.023 L
499.043 316.736 L
499.767 317.453 L
500.49 318.174 L
501.213 318.898 L
501.937 319.627 L
502.66 320.361 L
503.383 321.098 L
504.107 321.839 L
504.83 322.585 L
505.553 323.334 L
506.277 324.088 L
S
GR
GS
[0.75 0 0 0.75 0 0] CT
1 0 1 RC
1 LJ
0.667 LW
N
505.553 323.334 M
506.277 324.088 L
507 324.847 L
S
GR
GS
[0.75 0 0 0.75 0 0] CT
1 GC
N
424 112 M
424 44 L
494 44 L
494 112 L
cp
f
GR
GS
[0.75 0 0 0.75 357 40.7005] CT
/Helvetica 12 F
GS
[1 0 0 1 0 0] CT
0 4.5 moveto 
1 -1 scale
(u1) t 
GR
GR
GS
[0.75 0 0 0.75 0 0] CT
0 0 1 RC
1 LJ
0.667 LW
N
432 54.267 M
472 54.267 L
S
GR
GS
[0.75 0 0 0.75 357 52.56683] CT
/Helvetica 12 F
GS
[1 0 0 1 0 0] CT
0 4.5 moveto 
1 -1 scale
(u2) t 
GR
GR
GS
[0.75 0 0 0.75 0 0] CT
0 1 1 RC
1 LJ
0.667 LW
N
432 70.089 M
472 70.089 L
S
GR
GS
[0.75 0 0 0.75 357 64.43317] CT
/Helvetica 12 F
GS
[1 0 0 1 0 0] CT
0 4.5 moveto 
1 -1 scale
(y1) t 
GR
GR
GS
[0.75 0 0 0.75 0 0] CT
1 0 0 RC
1 LJ
0.667 LW
N
432 85.911 M
472 85.911 L
S
GR
GS
[0.75 0 0 0.75 357 76.29951] CT
/Helvetica 12 F
GS
[1 0 0 1 0 0] CT
0 4.5 moveto 
1 -1 scale
(y2) t 
GR
GR
GS
[0.75 0 0 0.75 0 0] CT
1 0 1 RC
1 LJ
0.667 LW
N
432 101.733 M
472 101.733 L
S
GR
GS
[0.75 0 0 0.75 0 0] CT
0.149 GC
10.0 ML
0.667 LW
N
424 112 M
424 44 L
494 44 L
494 112 L
cp
S
GR
%%Trailer
%%Pages: 1
%%EOF
