%!PS-Adobe-3.0 EPSF-3.0
%%Creator: (MATLAB, The Mathworks, Inc. Version 8.6.0.267246 \(R2015b\). Operating System: Windows 8)
%%Title: E:/Projects/skola/rls/pics/SP1/loop2.eps
%%CreationDate: 2017-03-02T14:32:04
%%Pages: (atend)
%%BoundingBox: 0 0 420 315
%%LanguageLevel: 2
%%EndComments
%%BeginProlog
%%BeginResource: procset (Apache XML Graphics Std ProcSet) 1.2 0
%%Version: 1.2 0
%%Copyright: (Copyright 2001-2003,2010 The Apache Software Foundation. License terms: http://www.apache.org/licenses/LICENSE-2.0)
/bd{bind def}bind def
/ld{load def}bd
/GR/grestore ld
/M/moveto ld
/LJ/setlinejoin ld
/C/curveto ld
/f/fill ld
/LW/setlinewidth ld
/GC/setgray ld
/t/show ld
/N/newpath ld
/CT/concat ld
/cp/closepath ld
/S/stroke ld
/L/lineto ld
/CC/setcmykcolor ld
/A/ashow ld
/GS/gsave ld
/RC/setrgbcolor ld
/RM/rmoveto ld
/ML/setmiterlimit ld
/re {4 2 roll M
1 index 0 rlineto
0 exch rlineto
neg 0 rlineto
cp } bd
/_ctm matrix def
/_tm matrix def
/BT { _ctm currentmatrix pop matrix _tm copy pop 0 0 moveto } bd
/ET { _ctm setmatrix } bd
/iTm { _ctm setmatrix _tm concat } bd
/Tm { _tm astore pop iTm 0 0 moveto } bd
/ux 0.0 def
/uy 0.0 def
/F {
  /Tp exch def
  /Tf exch def
  Tf findfont Tp scalefont setfont
  /cf Tf def  /cs Tp def
} bd
/ULS {currentpoint /uy exch def /ux exch def} bd
/ULE {
  /Tcx currentpoint pop def
  gsave
  newpath
  cf findfont cs scalefont dup
  /FontMatrix get 0 get /Ts exch def /FontInfo get dup
  /UnderlinePosition get Ts mul /To exch def
  /UnderlineThickness get Ts mul /Tt exch def
  ux uy To add moveto  Tcx uy To add lineto
  Tt setlinewidth stroke
  grestore
} bd
/OLE {
  /Tcx currentpoint pop def
  gsave
  newpath
  cf findfont cs scalefont dup
  /FontMatrix get 0 get /Ts exch def /FontInfo get dup
  /UnderlinePosition get Ts mul /To exch def
  /UnderlineThickness get Ts mul /Tt exch def
  ux uy To add cs add moveto Tcx uy To add cs add lineto
  Tt setlinewidth stroke
  grestore
} bd
/SOE {
  /Tcx currentpoint pop def
  gsave
  newpath
  cf findfont cs scalefont dup
  /FontMatrix get 0 get /Ts exch def /FontInfo get dup
  /UnderlinePosition get Ts mul /To exch def
  /UnderlineThickness get Ts mul /Tt exch def
  ux uy To add cs 10 mul 26 idiv add moveto Tcx uy To add cs 10 mul 26 idiv add lineto
  Tt setlinewidth stroke
  grestore
} bd
/QT {
/Y22 exch store
/X22 exch store
/Y21 exch store
/X21 exch store
currentpoint
/Y21 load 2 mul add 3 div exch
/X21 load 2 mul add 3 div exch
/X21 load 2 mul /X22 load add 3 div
/Y21 load 2 mul /Y22 load add 3 div
/X22 load /Y22 load curveto
} bd
/SSPD {
dup length /d exch dict def
{
/v exch def
/k exch def
currentpagedevice k known {
/cpdv currentpagedevice k get def
v cpdv ne {
/upd false def
/nullv v type /nulltype eq def
/nullcpdv cpdv type /nulltype eq def
nullv nullcpdv or
{
/upd true def
} {
/sametype v type cpdv type eq def
sametype {
v type /arraytype eq {
/vlen v length def
/cpdvlen cpdv length def
vlen cpdvlen eq {
0 1 vlen 1 sub {
/i exch def
/obj v i get def
/cpdobj cpdv i get def
obj cpdobj ne {
/upd true def
exit
} if
} for
} {
/upd true def
} ifelse
} {
v type /dicttype eq {
v {
/dv exch def
/dk exch def
/cpddv cpdv dk get def
dv cpddv ne {
/upd true def
exit
} if
} forall
} {
/upd true def
} ifelse
} ifelse
} if
} ifelse
upd true eq {
d k v put
} if
} if
} if
} forall
d length 0 gt {
d setpagedevice
} if
} bd
%%EndResource
%%BeginResource: procset (Apache XML Graphics EPS ProcSet) 1.0 0
%%Version: 1.0 0
%%Copyright: (Copyright 2002-2003 The Apache Software Foundation. License terms: http://www.apache.org/licenses/LICENSE-2.0)
/BeginEPSF { %def
/b4_Inc_state save def         % Save state for cleanup
/dict_count countdictstack def % Count objects on dict stack
/op_count count 1 sub def      % Count objects on operand stack
userdict begin                 % Push userdict on dict stack
/showpage { } def              % Redefine showpage, { } = null proc
0 setgray 0 setlinecap         % Prepare graphics state
1 setlinewidth 0 setlinejoin
10 setmiterlimit [ ] 0 setdash newpath
/languagelevel where           % If level not equal to 1 then
{pop languagelevel             % set strokeadjust and
1 ne                           % overprint to their defaults.
{false setstrokeadjust false setoverprint
} if
} if
} bd
/EndEPSF { %def
count op_count sub {pop} repeat            % Clean up stacks
countdictstack dict_count sub {end} repeat
b4_Inc_state restore
} bd
%%EndResource
%FOPBeginFontDict
%%IncludeResource: font Courier-Bold
%%IncludeResource: font Helvetica
%%IncludeResource: font Courier-BoldOblique
%%IncludeResource: font Courier-Oblique
%%IncludeResource: font Times-Roman
%%IncludeResource: font Helvetica-BoldOblique
%%IncludeResource: font Helvetica-Bold
%%IncludeResource: font Helvetica-Oblique
%%IncludeResource: font Times-BoldItalic
%%IncludeResource: font Courier
%%IncludeResource: font Times-Italic
%%IncludeResource: font Times-Bold
%%IncludeResource: font Symbol
%%IncludeResource: font ZapfDingbats
%FOPEndFontDict
%%BeginResource: encoding WinAnsiEncoding
/WinAnsiEncoding [
/.notdef /.notdef /.notdef /.notdef /.notdef
/.notdef /.notdef /.notdef /.notdef /.notdef
/.notdef /.notdef /.notdef /.notdef /.notdef
/.notdef /.notdef /.notdef /.notdef /.notdef
/.notdef /.notdef /.notdef /.notdef /.notdef
/.notdef /.notdef /.notdef /.notdef /.notdef
/.notdef /.notdef /space /exclam /quotedbl
/numbersign /dollar /percent /ampersand /quotesingle
/parenleft /parenright /asterisk /plus /comma
/hyphen /period /slash /zero /one
/two /three /four /five /six
/seven /eight /nine /colon /semicolon
/less /equal /greater /question /at
/A /B /C /D /E
/F /G /H /I /J
/K /L /M /N /O
/P /Q /R /S /T
/U /V /W /X /Y
/Z /bracketleft /backslash /bracketright /asciicircum
/underscore /quoteleft /a /b /c
/d /e /f /g /h
/i /j /k /l /m
/n /o /p /q /r
/s /t /u /v /w
/x /y /z /braceleft /bar
/braceright /asciitilde /bullet /Euro /bullet
/quotesinglbase /florin /quotedblbase /ellipsis /dagger
/daggerdbl /circumflex /perthousand /Scaron /guilsinglleft
/OE /bullet /Zcaron /bullet /bullet
/quoteleft /quoteright /quotedblleft /quotedblright /bullet
/endash /emdash /asciitilde /trademark /scaron
/guilsinglright /oe /bullet /zcaron /Ydieresis
/space /exclamdown /cent /sterling /currency
/yen /brokenbar /section /dieresis /copyright
/ordfeminine /guillemotleft /logicalnot /sfthyphen /registered
/macron /degree /plusminus /twosuperior /threesuperior
/acute /mu /paragraph /middot /cedilla
/onesuperior /ordmasculine /guillemotright /onequarter /onehalf
/threequarters /questiondown /Agrave /Aacute /Acircumflex
/Atilde /Adieresis /Aring /AE /Ccedilla
/Egrave /Eacute /Ecircumflex /Edieresis /Igrave
/Iacute /Icircumflex /Idieresis /Eth /Ntilde
/Ograve /Oacute /Ocircumflex /Otilde /Odieresis
/multiply /Oslash /Ugrave /Uacute /Ucircumflex
/Udieresis /Yacute /Thorn /germandbls /agrave
/aacute /acircumflex /atilde /adieresis /aring
/ae /ccedilla /egrave /eacute /ecircumflex
/edieresis /igrave /iacute /icircumflex /idieresis
/eth /ntilde /ograve /oacute /ocircumflex
/otilde /odieresis /divide /oslash /ugrave
/uacute /ucircumflex /udieresis /yacute /thorn
/ydieresis
] def
%%EndResource
%FOPBeginFontReencode
/Courier-Bold findfont
dup length dict begin
  {1 index /FID ne {def} {pop pop} ifelse} forall
  /Encoding WinAnsiEncoding def
  currentdict
end
/Courier-Bold exch definefont pop
/Helvetica findfont
dup length dict begin
  {1 index /FID ne {def} {pop pop} ifelse} forall
  /Encoding WinAnsiEncoding def
  currentdict
end
/Helvetica exch definefont pop
/Courier-BoldOblique findfont
dup length dict begin
  {1 index /FID ne {def} {pop pop} ifelse} forall
  /Encoding WinAnsiEncoding def
  currentdict
end
/Courier-BoldOblique exch definefont pop
/Courier-Oblique findfont
dup length dict begin
  {1 index /FID ne {def} {pop pop} ifelse} forall
  /Encoding WinAnsiEncoding def
  currentdict
end
/Courier-Oblique exch definefont pop
/Times-Roman findfont
dup length dict begin
  {1 index /FID ne {def} {pop pop} ifelse} forall
  /Encoding WinAnsiEncoding def
  currentdict
end
/Times-Roman exch definefont pop
/Helvetica-BoldOblique findfont
dup length dict begin
  {1 index /FID ne {def} {pop pop} ifelse} forall
  /Encoding WinAnsiEncoding def
  currentdict
end
/Helvetica-BoldOblique exch definefont pop
/Helvetica-Bold findfont
dup length dict begin
  {1 index /FID ne {def} {pop pop} ifelse} forall
  /Encoding WinAnsiEncoding def
  currentdict
end
/Helvetica-Bold exch definefont pop
/Helvetica-Oblique findfont
dup length dict begin
  {1 index /FID ne {def} {pop pop} ifelse} forall
  /Encoding WinAnsiEncoding def
  currentdict
end
/Helvetica-Oblique exch definefont pop
/Times-BoldItalic findfont
dup length dict begin
  {1 index /FID ne {def} {pop pop} ifelse} forall
  /Encoding WinAnsiEncoding def
  currentdict
end
/Times-BoldItalic exch definefont pop
/Courier findfont
dup length dict begin
  {1 index /FID ne {def} {pop pop} ifelse} forall
  /Encoding WinAnsiEncoding def
  currentdict
end
/Courier exch definefont pop
/Times-Italic findfont
dup length dict begin
  {1 index /FID ne {def} {pop pop} ifelse} forall
  /Encoding WinAnsiEncoding def
  currentdict
end
/Times-Italic exch definefont pop
/Times-Bold findfont
dup length dict begin
  {1 index /FID ne {def} {pop pop} ifelse} forall
  /Encoding WinAnsiEncoding def
  currentdict
end
/Times-Bold exch definefont pop
%FOPEndFontReencode
%%EndProlog
%%Page: 1 1
%%PageBoundingBox: 0 0 420 315
%%BeginPageSetup
[1 0 0 -1 0 315] CT
%%EndPageSetup
GS
[0.75 0 0 0.75 0 0] CT
1 GC
N
0 0 560 420 re
f
GR
GS
[0.75 0 0 0.75 0 0] CT
1 GC
N
0 0 560 420 re
f
GR
GS
[0.75 0 0 0.75 0 0] CT
1 GC
N
73 374 M
507 374 L
507 31 L
73 31 L
cp
f
GR
GS
[0.75 0 0 0.75 0 0] CT
0.149 GC
2 setlinecap
1 LJ
0.667 LW
N
73 374 M
507 374 L
S
GR
GS
[0.75 0 0 0.75 0 0] CT
0.149 GC
2 setlinecap
1 LJ
0.667 LW
N
73 374 M
73 369.66 L
S
GR
GS
[0.75 0 0 0.75 0 0] CT
0.149 GC
2 setlinecap
1 LJ
0.667 LW
N
145.333 374 M
145.333 369.66 L
S
GR
GS
[0.75 0 0 0.75 0 0] CT
0.149 GC
2 setlinecap
1 LJ
0.667 LW
N
217.667 374 M
217.667 369.66 L
S
GR
GS
[0.75 0 0 0.75 0 0] CT
0.149 GC
2 setlinecap
1 LJ
0.667 LW
N
290 374 M
290 369.66 L
S
GR
GS
[0.75 0 0 0.75 0 0] CT
0.149 GC
2 setlinecap
1 LJ
0.667 LW
N
362.333 374 M
362.333 369.66 L
S
GR
GS
[0.75 0 0 0.75 0 0] CT
0.149 GC
2 setlinecap
1 LJ
0.667 LW
N
434.667 374 M
434.667 369.66 L
S
GR
GS
[0.75 0 0 0.75 0 0] CT
0.149 GC
2 setlinecap
1 LJ
0.667 LW
N
507 374 M
507 369.66 L
S
GR
GS
[0.75 0 0 0.75 54.75 284.50001] CT
0.149 GC
/Helvetica 13 F
GS
[1 0 0 1 0 0] CT
-4 13 moveto 
1 -1 scale
(0) t 
GR
GR
GS
[0.75 0 0 0.75 109 284.50001] CT
0.149 GC
/Helvetica 13 F
GS
[1 0 0 1 0 0] CT
-11 13 moveto 
1 -1 scale
(100) t 
GR
GR
GS
[0.75 0 0 0.75 163.25 284.50001] CT
0.149 GC
/Helvetica 13 F
GS
[1 0 0 1 0 0] CT
-11 13 moveto 
1 -1 scale
(200) t 
GR
GR
GS
[0.75 0 0 0.75 217.5 284.50001] CT
0.149 GC
/Helvetica 13 F
GS
[1 0 0 1 0 0] CT
-11 13 moveto 
1 -1 scale
(300) t 
GR
GR
GS
[0.75 0 0 0.75 271.75001 284.50001] CT
0.149 GC
/Helvetica 13 F
GS
[1 0 0 1 0 0] CT
-11 13 moveto 
1 -1 scale
(400) t 
GR
GR
GS
[0.75 0 0 0.75 325.99999 284.50001] CT
0.149 GC
/Helvetica 13 F
GS
[1 0 0 1 0 0] CT
-11 13 moveto 
1 -1 scale
(500) t 
GR
GR
GS
[0.75 0 0 0.75 380.25 284.50001] CT
0.149 GC
/Helvetica 13 F
GS
[1 0 0 1 0 0] CT
-11 13 moveto 
1 -1 scale
(600) t 
GR
GR
GS
[0.75 0 0 0.75 217.50016 297.49999] CT
0.149 GC
/Helvetica 15 F
GS
[1 0 0 1 0 0] CT
-11 14 moveto 
1 -1 scale
(t\(s\)) t 
GR
GR
GS
[0.75 0 0 0.75 0 0] CT
0.149 GC
2 setlinecap
1 LJ
0.667 LW
N
73 374 M
73 31 L
S
GR
GS
[0.75 0 0 0.75 0 0] CT
0.149 GC
2 setlinecap
1 LJ
0.667 LW
N
73 374 M
77.34 374 L
S
GR
GS
[0.75 0 0 0.75 0 0] CT
0.149 GC
2 setlinecap
1 LJ
0.667 LW
N
73 316.833 M
77.34 316.833 L
S
GR
GS
[0.75 0 0 0.75 0 0] CT
0.149 GC
2 setlinecap
1 LJ
0.667 LW
N
73 259.667 M
77.34 259.667 L
S
GR
GS
[0.75 0 0 0.75 0 0] CT
0.149 GC
2 setlinecap
1 LJ
0.667 LW
N
73 202.5 M
77.34 202.5 L
S
GR
GS
[0.75 0 0 0.75 0 0] CT
0.149 GC
2 setlinecap
1 LJ
0.667 LW
N
73 145.333 M
77.34 145.333 L
S
GR
GS
[0.75 0 0 0.75 0 0] CT
0.149 GC
2 setlinecap
1 LJ
0.667 LW
N
73 88.167 M
77.34 88.167 L
S
GR
GS
[0.75 0 0 0.75 0 0] CT
0.149 GC
2 setlinecap
1 LJ
0.667 LW
N
73 31 M
77.34 31 L
S
GR
GS
[0.75 0 0 0.75 50.75 280.5] CT
0.149 GC
/Helvetica 13 F
GS
[1 0 0 1 0 0] CT
-8 5 moveto 
1 -1 scale
(0) t 
GR
GR
GS
[0.75 0 0 0.75 50.75 237.62501] CT
0.149 GC
/Helvetica 13 F
GS
[1 0 0 1 0 0] CT
-19 5 moveto 
1 -1 scale
(0.5) t 
GR
GR
GS
[0.75 0 0 0.75 50.75 194.74999] CT
0.149 GC
/Helvetica 13 F
GS
[1 0 0 1 0 0] CT
-8 5 moveto 
1 -1 scale
(1) t 
GR
GR
GS
[0.75 0 0 0.75 50.75 151.875] CT
0.149 GC
/Helvetica 13 F
GS
[1 0 0 1 0 0] CT
-19 5 moveto 
1 -1 scale
(1.5) t 
GR
GR
GS
[0.75 0 0 0.75 50.75 109] CT
0.149 GC
/Helvetica 13 F
GS
[1 0 0 1 0 0] CT
-8 5 moveto 
1 -1 scale
(2) t 
GR
GR
GS
[0.75 0 0 0.75 50.75 66.125] CT
0.149 GC
/Helvetica 13 F
GS
[1 0 0 1 0 0] CT
-19 5 moveto 
1 -1 scale
(2.5) t 
GR
GR
GS
[0.75 0 0 0.75 50.75 23.25] CT
0.149 GC
/Helvetica 13 F
GS
[1 0 0 1 0 0] CT
-8 5 moveto 
1 -1 scale
(3) t 
GR
GR
GS
[0.75 0 0 0.75 217.50021 21.18751] CT
/any-Bold 15 F
GS
[1 0 0 1 0 0] CT
-56 -4 moveto 
1 -1 scale
(Step u2 - loop 2) t 
GR
GR
GS
[0.75 0 0 0.75 0 0] CT
0 0 1 RC
1 LJ
0.667 LW
N
73 374 M
73.723 374 L
74.447 374 L
75.17 374 L
75.893 374 L
76.617 374 L
77.34 374 L
78.063 374 L
78.787 374 L
79.51 374 L
80.233 374 L
80.957 374 L
81.68 374 L
82.403 374 L
83.127 374 L
83.85 374 L
84.573 374 L
85.297 374 L
86.02 374 L
86.743 374 L
87.467 374 L
88.19 374 L
88.913 374 L
89.637 374 L
90.36 374 L
91.083 374 L
91.807 374 L
92.53 374 L
93.253 374 L
93.977 374 L
94.7 374 L
95.423 374 L
96.147 374 L
96.87 374 L
97.593 374 L
98.317 374 L
99.04 374 L
99.763 374 L
100.487 374 L
101.21 374 L
101.933 374 L
102.657 374 L
103.38 374 L
104.103 374 L
104.827 374 L
105.55 374 L
106.273 374 L
106.997 374 L
107.72 374 L
108.443 374 L
S
GR
GS
[0.75 0 0 0.75 0 0] CT
0 0 1 RC
1 LJ
0.667 LW
N
107.72 374 M
108.443 374 L
109.167 374 L
109.89 374 L
110.613 374 L
111.337 374 L
112.06 374 L
112.783 374 L
113.507 374 L
114.23 374 L
114.953 374 L
115.677 374 L
116.4 374 L
117.123 374 L
117.847 374 L
118.57 374 L
119.293 374 L
120.017 374 L
120.74 374 L
121.463 374 L
122.187 374 L
122.91 374 L
123.633 374 L
124.357 374 L
125.08 374 L
125.803 374 L
126.527 374 L
127.25 374 L
127.973 374 L
128.697 374 L
129.42 374 L
130.143 374 L
130.867 374 L
131.59 374 L
132.313 374 L
133.037 374 L
133.76 374 L
134.483 374 L
135.207 374 L
135.93 374 L
136.653 374 L
137.377 374 L
138.1 374 L
138.823 374 L
139.547 374 L
140.27 374 L
140.993 374 L
141.717 374 L
142.44 374 L
143.163 374 L
143.887 374 L
144.61 374 L
S
GR
GS
[0.75 0 0 0.75 0 0] CT
0 0 1 RC
1 LJ
0.667 LW
N
143.887 374 M
144.61 374 L
145.333 374 L
146.057 374 L
146.78 374 L
147.503 374 L
148.227 374 L
148.95 374 L
149.673 374 L
150.397 374 L
151.12 374 L
151.843 374 L
152.567 374 L
153.29 374 L
154.013 374 L
154.737 374 L
155.46 374 L
156.183 374 L
156.907 374 L
157.63 374 L
158.353 374 L
159.077 374 L
159.8 374 L
160.523 374 L
161.247 374 L
161.97 374 L
162.693 374 L
163.417 374 L
164.14 374 L
164.863 374 L
165.587 374 L
166.31 374 L
167.033 374 L
167.757 374 L
168.48 374 L
169.203 374 L
169.927 374 L
170.65 374 L
171.373 374 L
172.097 374 L
172.82 374 L
173.543 374 L
174.267 374 L
174.99 374 L
175.713 374 L
176.437 374 L
177.16 374 L
177.883 374 L
178.607 374 L
179.33 374 L
180.053 374 L
180.777 374 L
S
GR
GS
[0.75 0 0 0.75 0 0] CT
0 0 1 RC
1 LJ
0.667 LW
N
180.053 374 M
180.777 374 L
181.5 374 L
182.223 374 L
182.947 374 L
183.67 374 L
184.393 374 L
185.117 374 L
185.84 374 L
186.563 374 L
187.287 374 L
188.01 374 L
188.733 374 L
189.457 374 L
190.18 374 L
190.903 374 L
191.627 374 L
192.35 374 L
193.073 374 L
193.797 374 L
194.52 374 L
195.243 374 L
195.967 374 L
196.69 374 L
197.413 374 L
198.137 374 L
198.86 374 L
199.583 374 L
200.307 374 L
201.03 374 L
201.753 374 L
202.477 374 L
203.2 374 L
203.923 374 L
204.647 374 L
205.37 374 L
206.093 374 L
206.817 374 L
207.54 374 L
208.263 374 L
208.987 374 L
209.71 374 L
210.433 374 L
211.157 374 L
211.88 374 L
212.603 374 L
213.327 374 L
214.05 374 L
214.773 374 L
215.497 374 L
216.22 374 L
216.943 374 L
S
GR
GS
[0.75 0 0 0.75 0 0] CT
0 0 1 RC
1 LJ
0.667 LW
N
216.22 374 M
216.943 374 L
217.667 374 L
218.39 374 L
219.113 374 L
219.837 374 L
220.56 374 L
221.283 374 L
222.007 374 L
222.73 374 L
223.453 374 L
224.177 374 L
224.9 374 L
225.623 374 L
226.347 374 L
227.07 374 L
227.793 374 L
228.517 374 L
229.24 374 L
229.963 374 L
230.687 374 L
231.41 374 L
232.133 374 L
232.857 374 L
233.58 374 L
234.303 374 L
235.027 374 L
235.75 374 L
236.473 374 L
237.197 374 L
237.92 374 L
238.643 374 L
239.367 374 L
240.09 374 L
240.813 374 L
241.537 374 L
242.26 374 L
242.983 374 L
243.707 374 L
244.43 374 L
245.153 374 L
245.877 374 L
246.6 374 L
247.323 374 L
248.047 374 L
248.77 374 L
249.493 374 L
250.217 374 L
250.94 374 L
251.663 374 L
252.387 374 L
253.11 374 L
S
GR
GS
[0.75 0 0 0.75 0 0] CT
0 0 1 RC
1 LJ
0.667 LW
N
252.387 374 M
253.11 374 L
253.833 374 L
254.557 374 L
255.28 374 L
256.003 374 L
256.727 374 L
257.45 374 L
258.173 374 L
258.897 374 L
259.62 374 L
260.343 374 L
261.067 374 L
261.79 374 L
262.513 374 L
263.237 374 L
263.96 374 L
264.683 374 L
265.407 374 L
266.13 374 L
266.853 374 L
267.577 374 L
268.3 374 L
269.023 374 L
269.747 374 L
270.47 374 L
271.193 374 L
271.917 374 L
272.64 374 L
273.363 374 L
274.087 374 L
274.81 374 L
275.533 374 L
276.257 374 L
276.98 374 L
277.703 374 L
278.427 374 L
279.15 374 L
279.873 374 L
280.597 374 L
281.32 374 L
282.043 374 L
282.767 374 L
283.49 374 L
284.213 374 L
284.937 374 L
285.66 374 L
286.383 374 L
287.107 374 L
287.83 374 L
288.553 374 L
289.277 374 L
S
GR
GS
[0.75 0 0 0.75 0 0] CT
0 0 1 RC
1 LJ
0.667 LW
N
288.553 374 M
289.277 374 L
290 374 L
290.723 374 L
291.447 374 L
292.17 374 L
292.893 374 L
293.617 374 L
294.34 374 L
295.063 374 L
295.787 374 L
296.51 374 L
297.233 374 L
297.957 374 L
298.68 374 L
299.403 374 L
300.127 374 L
300.85 374 L
301.573 374 L
302.297 374 L
303.02 374 L
303.743 374 L
304.467 374 L
305.19 374 L
305.913 374 L
306.637 374 L
307.36 374 L
308.083 374 L
308.807 374 L
309.53 374 L
310.253 374 L
310.977 374 L
311.7 374 L
312.423 374 L
313.147 374 L
313.87 374 L
314.593 374 L
315.317 374 L
316.04 374 L
316.763 374 L
317.487 374 L
318.21 374 L
318.933 374 L
319.657 374 L
320.38 374 L
321.103 374 L
321.827 374 L
322.55 374 L
323.273 374 L
323.997 374 L
324.72 374 L
325.443 374 L
S
GR
GS
[0.75 0 0 0.75 0 0] CT
0 0 1 RC
1 LJ
0.667 LW
N
324.72 374 M
325.443 374 L
326.167 374 L
326.89 374 L
327.613 374 L
328.337 374 L
329.06 374 L
329.783 374 L
330.507 374 L
331.23 374 L
331.953 374 L
332.677 374 L
333.4 374 L
334.123 374 L
334.847 374 L
335.57 374 L
336.293 374 L
337.017 374 L
337.74 374 L
338.463 374 L
339.187 374 L
339.91 374 L
340.633 374 L
341.357 374 L
342.08 374 L
342.803 374 L
343.527 374 L
344.25 374 L
344.973 374 L
345.697 374 L
346.42 374 L
347.143 374 L
347.867 374 L
348.59 374 L
349.313 374 L
350.037 374 L
350.76 374 L
351.483 374 L
352.207 374 L
352.93 374 L
353.653 374 L
354.377 374 L
355.1 374 L
355.823 374 L
356.547 374 L
357.27 374 L
357.993 374 L
358.717 374 L
359.44 374 L
360.163 374 L
360.887 374 L
361.61 374 L
S
GR
GS
[0.75 0 0 0.75 0 0] CT
0 0 1 RC
1 LJ
0.667 LW
N
360.887 374 M
361.61 374 L
362.333 374 L
363.057 374 L
363.78 374 L
364.503 374 L
365.227 374 L
365.95 374 L
366.673 374 L
367.397 374 L
368.12 374 L
368.843 374 L
369.567 374 L
370.29 374 L
371.013 374 L
371.737 374 L
372.46 374 L
373.183 374 L
373.907 374 L
374.63 374 L
375.353 374 L
376.077 374 L
376.8 374 L
377.523 374 L
378.247 374 L
378.97 374 L
379.693 374 L
380.417 374 L
381.14 374 L
381.863 374 L
382.587 374 L
383.31 374 L
384.033 374 L
384.757 374 L
385.48 374 L
386.203 374 L
386.927 374 L
387.65 374 L
388.373 374 L
389.097 374 L
389.82 374 L
390.543 374 L
391.267 374 L
391.99 374 L
392.713 374 L
393.437 374 L
394.16 374 L
394.883 374 L
395.607 374 L
396.33 374 L
397.053 374 L
397.777 374 L
S
GR
GS
[0.75 0 0 0.75 0 0] CT
0 0 1 RC
1 LJ
0.667 LW
N
397.053 374 M
397.777 374 L
398.5 374 L
399.223 374 L
399.947 374 L
400.67 374 L
401.393 374 L
402.117 374 L
402.84 374 L
403.563 374 L
404.287 374 L
405.01 374 L
405.733 374 L
406.457 374 L
407.18 374 L
407.903 374 L
408.627 374 L
409.35 374 L
410.073 374 L
410.797 374 L
411.52 374 L
412.243 374 L
412.967 374 L
413.69 374 L
414.413 374 L
415.137 374 L
415.86 374 L
416.583 374 L
417.307 374 L
418.03 374 L
418.753 374 L
419.477 374 L
420.2 374 L
420.923 374 L
421.647 374 L
422.37 374 L
423.093 374 L
423.817 374 L
424.54 374 L
425.263 374 L
425.987 374 L
426.71 374 L
427.433 374 L
428.157 374 L
428.88 374 L
429.603 374 L
430.327 374 L
431.05 374 L
431.773 374 L
432.497 374 L
433.22 374 L
433.943 374 L
S
GR
GS
[0.75 0 0 0.75 0 0] CT
0 0 1 RC
1 LJ
0.667 LW
N
433.22 374 M
433.943 374 L
434.667 374 L
435.39 374 L
436.113 374 L
436.837 374 L
437.56 374 L
438.283 374 L
439.007 374 L
439.73 374 L
440.453 374 L
441.177 374 L
441.9 374 L
442.623 374 L
443.347 374 L
444.07 374 L
444.793 374 L
445.517 374 L
446.24 374 L
446.963 374 L
447.687 374 L
448.41 374 L
449.133 374 L
449.857 374 L
450.58 374 L
451.303 374 L
452.027 374 L
452.75 374 L
453.473 374 L
454.197 374 L
454.92 374 L
455.643 374 L
456.367 374 L
457.09 374 L
457.813 374 L
458.537 374 L
459.26 374 L
459.983 374 L
460.707 374 L
461.43 374 L
462.153 374 L
462.877 374 L
463.6 374 L
464.323 374 L
465.047 374 L
465.77 374 L
466.493 374 L
467.217 374 L
467.94 374 L
468.663 374 L
469.387 374 L
470.11 374 L
S
GR
GS
[0.75 0 0 0.75 0 0] CT
0 0 1 RC
1 LJ
0.667 LW
N
469.387 374 M
470.11 374 L
470.833 374 L
471.557 374 L
472.28 374 L
473.003 374 L
473.727 374 L
474.45 374 L
475.173 374 L
475.897 374 L
476.62 374 L
477.343 374 L
478.067 374 L
478.79 374 L
479.513 374 L
480.237 374 L
480.96 374 L
481.683 374 L
482.407 374 L
483.13 374 L
483.853 374 L
484.577 374 L
485.3 374 L
486.023 374 L
486.747 374 L
487.47 374 L
488.193 374 L
488.917 374 L
489.64 374 L
490.363 374 L
491.087 374 L
491.81 374 L
492.533 374 L
493.257 374 L
493.98 374 L
494.703 374 L
495.427 374 L
496.15 374 L
496.873 374 L
497.597 374 L
498.32 374 L
499.043 374 L
499.767 374 L
500.49 374 L
501.213 374 L
501.937 374 L
502.66 374 L
503.383 374 L
504.107 374 L
504.83 374 L
505.553 374 L
506.277 374 L
S
GR
GS
[0.75 0 0 0.75 0 0] CT
0 0 1 RC
1 LJ
0.667 LW
N
505.553 374 M
506.277 374 L
507 374 L
S
GR
GS
[0.75 0 0 0.75 0 0] CT
0 1 1 RC
1 LJ
0.667 LW
N
73 374 M
73.723 374 L
74.447 374 L
75.17 374 L
75.893 374 L
76.617 374 L
77.34 374 L
78.063 374 L
78.787 374 L
79.51 259.667 L
80.233 259.667 L
80.957 259.667 L
81.68 259.667 L
82.403 259.667 L
83.127 259.667 L
83.85 259.667 L
84.573 259.667 L
85.297 259.667 L
86.02 259.667 L
86.743 259.667 L
87.467 259.667 L
88.19 259.667 L
88.913 259.667 L
89.637 259.667 L
90.36 259.667 L
91.083 259.667 L
91.807 259.667 L
92.53 259.667 L
93.253 259.667 L
93.977 259.667 L
94.7 259.667 L
95.423 259.667 L
96.147 259.667 L
96.87 259.667 L
97.593 259.667 L
98.317 259.667 L
99.04 259.667 L
99.763 259.667 L
100.487 259.667 L
101.21 259.667 L
101.933 259.667 L
102.657 259.667 L
103.38 259.667 L
104.103 259.667 L
104.827 259.667 L
105.55 259.667 L
106.273 259.667 L
106.997 259.667 L
107.72 259.667 L
108.443 259.667 L
S
GR
GS
[0.75 0 0 0.75 0 0] CT
0 1 1 RC
1 LJ
0.667 LW
N
107.72 259.667 M
108.443 259.667 L
109.167 259.667 L
109.89 259.667 L
110.613 259.667 L
111.337 259.667 L
112.06 259.667 L
112.783 259.667 L
113.507 259.667 L
114.23 259.667 L
114.953 259.667 L
115.677 259.667 L
116.4 259.667 L
117.123 259.667 L
117.847 259.667 L
118.57 259.667 L
119.293 259.667 L
120.017 259.667 L
120.74 259.667 L
121.463 259.667 L
122.187 259.667 L
122.91 259.667 L
123.633 259.667 L
124.357 259.667 L
125.08 259.667 L
125.803 259.667 L
126.527 259.667 L
127.25 259.667 L
127.973 259.667 L
128.697 259.667 L
129.42 259.667 L
130.143 259.667 L
130.867 259.667 L
131.59 259.667 L
132.313 259.667 L
133.037 259.667 L
133.76 259.667 L
134.483 259.667 L
135.207 259.667 L
135.93 259.667 L
136.653 259.667 L
137.377 259.667 L
138.1 259.667 L
138.823 259.667 L
139.547 259.667 L
140.27 259.667 L
140.993 259.667 L
141.717 259.667 L
142.44 259.667 L
143.163 259.667 L
143.887 259.667 L
144.61 259.667 L
S
GR
GS
[0.75 0 0 0.75 0 0] CT
0 1 1 RC
1 LJ
0.667 LW
N
143.887 259.667 M
144.61 259.667 L
145.333 259.667 L
146.057 259.667 L
146.78 259.667 L
147.503 259.667 L
148.227 259.667 L
148.95 259.667 L
149.673 259.667 L
150.397 259.667 L
151.12 259.667 L
151.843 259.667 L
152.567 259.667 L
153.29 259.667 L
154.013 259.667 L
154.737 259.667 L
155.46 259.667 L
156.183 259.667 L
156.907 259.667 L
157.63 259.667 L
158.353 259.667 L
159.077 259.667 L
159.8 259.667 L
160.523 259.667 L
161.247 259.667 L
161.97 259.667 L
162.693 259.667 L
163.417 259.667 L
164.14 259.667 L
164.863 259.667 L
165.587 259.667 L
166.31 259.667 L
167.033 259.667 L
167.757 259.667 L
168.48 259.667 L
169.203 259.667 L
169.927 259.667 L
170.65 259.667 L
171.373 259.667 L
172.097 259.667 L
172.82 259.667 L
173.543 259.667 L
174.267 259.667 L
174.99 259.667 L
175.713 259.667 L
176.437 259.667 L
177.16 259.667 L
177.883 259.667 L
178.607 259.667 L
179.33 259.667 L
180.053 259.667 L
180.777 259.667 L
S
GR
GS
[0.75 0 0 0.75 0 0] CT
0 1 1 RC
1 LJ
0.667 LW
N
180.053 259.667 M
180.777 259.667 L
181.5 259.667 L
182.223 259.667 L
182.947 259.667 L
183.67 259.667 L
184.393 259.667 L
185.117 259.667 L
185.84 259.667 L
186.563 259.667 L
187.287 259.667 L
188.01 259.667 L
188.733 259.667 L
189.457 259.667 L
190.18 259.667 L
190.903 259.667 L
191.627 259.667 L
192.35 259.667 L
193.073 259.667 L
193.797 259.667 L
194.52 259.667 L
195.243 259.667 L
195.967 259.667 L
196.69 259.667 L
197.413 259.667 L
198.137 259.667 L
198.86 259.667 L
199.583 259.667 L
200.307 259.667 L
201.03 259.667 L
201.753 259.667 L
202.477 259.667 L
203.2 259.667 L
203.923 259.667 L
204.647 259.667 L
205.37 259.667 L
206.093 259.667 L
206.817 259.667 L
207.54 259.667 L
208.263 259.667 L
208.987 259.667 L
209.71 259.667 L
210.433 259.667 L
211.157 259.667 L
211.88 259.667 L
212.603 259.667 L
213.327 259.667 L
214.05 259.667 L
214.773 259.667 L
215.497 259.667 L
216.22 259.667 L
216.943 259.667 L
S
GR
GS
[0.75 0 0 0.75 0 0] CT
0 1 1 RC
1 LJ
0.667 LW
N
216.22 259.667 M
216.943 259.667 L
217.667 259.667 L
218.39 259.667 L
219.113 259.667 L
219.837 259.667 L
220.56 259.667 L
221.283 259.667 L
222.007 259.667 L
222.73 259.667 L
223.453 259.667 L
224.177 259.667 L
224.9 259.667 L
225.623 259.667 L
226.347 259.667 L
227.07 259.667 L
227.793 259.667 L
228.517 259.667 L
229.24 259.667 L
229.963 259.667 L
230.687 259.667 L
231.41 259.667 L
232.133 259.667 L
232.857 259.667 L
233.58 259.667 L
234.303 259.667 L
235.027 259.667 L
235.75 259.667 L
236.473 259.667 L
237.197 259.667 L
237.92 259.667 L
238.643 259.667 L
239.367 259.667 L
240.09 259.667 L
240.813 259.667 L
241.537 259.667 L
242.26 259.667 L
242.983 259.667 L
243.707 259.667 L
244.43 259.667 L
245.153 259.667 L
245.877 259.667 L
246.6 259.667 L
247.323 259.667 L
248.047 259.667 L
248.77 259.667 L
249.493 259.667 L
250.217 259.667 L
250.94 259.667 L
251.663 259.667 L
252.387 259.667 L
253.11 259.667 L
S
GR
GS
[0.75 0 0 0.75 0 0] CT
0 1 1 RC
1 LJ
0.667 LW
N
252.387 259.667 M
253.11 259.667 L
253.833 259.667 L
254.557 259.667 L
255.28 259.667 L
256.003 259.667 L
256.727 259.667 L
257.45 259.667 L
258.173 259.667 L
258.897 259.667 L
259.62 259.667 L
260.343 259.667 L
261.067 259.667 L
261.79 259.667 L
262.513 259.667 L
263.237 259.667 L
263.96 259.667 L
264.683 259.667 L
265.407 259.667 L
266.13 259.667 L
266.853 259.667 L
267.577 259.667 L
268.3 259.667 L
269.023 259.667 L
269.747 259.667 L
270.47 259.667 L
271.193 259.667 L
271.917 259.667 L
272.64 259.667 L
273.363 259.667 L
274.087 259.667 L
274.81 259.667 L
275.533 259.667 L
276.257 259.667 L
276.98 259.667 L
277.703 259.667 L
278.427 259.667 L
279.15 259.667 L
279.873 259.667 L
280.597 259.667 L
281.32 259.667 L
282.043 259.667 L
282.767 259.667 L
283.49 259.667 L
284.213 259.667 L
284.937 259.667 L
285.66 259.667 L
286.383 259.667 L
287.107 259.667 L
287.83 259.667 L
288.553 259.667 L
289.277 259.667 L
S
GR
GS
[0.75 0 0 0.75 0 0] CT
0 1 1 RC
1 LJ
0.667 LW
N
288.553 259.667 M
289.277 259.667 L
290 259.667 L
290.723 259.667 L
291.447 259.667 L
292.17 259.667 L
292.893 259.667 L
293.617 259.667 L
294.34 259.667 L
295.063 259.667 L
295.787 259.667 L
296.51 259.667 L
297.233 259.667 L
297.957 259.667 L
298.68 259.667 L
299.403 259.667 L
300.127 259.667 L
300.85 259.667 L
301.573 259.667 L
302.297 259.667 L
303.02 259.667 L
303.743 259.667 L
304.467 259.667 L
305.19 259.667 L
305.913 259.667 L
306.637 259.667 L
307.36 259.667 L
308.083 259.667 L
308.807 259.667 L
309.53 259.667 L
310.253 259.667 L
310.977 259.667 L
311.7 259.667 L
312.423 259.667 L
313.147 259.667 L
313.87 259.667 L
314.593 259.667 L
315.317 259.667 L
316.04 259.667 L
316.763 259.667 L
317.487 259.667 L
318.21 259.667 L
318.933 259.667 L
319.657 259.667 L
320.38 259.667 L
321.103 259.667 L
321.827 259.667 L
322.55 259.667 L
323.273 259.667 L
323.997 259.667 L
324.72 259.667 L
325.443 259.667 L
S
GR
GS
[0.75 0 0 0.75 0 0] CT
0 1 1 RC
1 LJ
0.667 LW
N
324.72 259.667 M
325.443 259.667 L
326.167 259.667 L
326.89 259.667 L
327.613 259.667 L
328.337 259.667 L
329.06 259.667 L
329.783 259.667 L
330.507 259.667 L
331.23 259.667 L
331.953 259.667 L
332.677 259.667 L
333.4 259.667 L
334.123 259.667 L
334.847 259.667 L
335.57 259.667 L
336.293 259.667 L
337.017 259.667 L
337.74 259.667 L
338.463 259.667 L
339.187 259.667 L
339.91 259.667 L
340.633 259.667 L
341.357 259.667 L
342.08 259.667 L
342.803 259.667 L
343.527 259.667 L
344.25 259.667 L
344.973 259.667 L
345.697 259.667 L
346.42 259.667 L
347.143 259.667 L
347.867 259.667 L
348.59 259.667 L
349.313 259.667 L
350.037 259.667 L
350.76 259.667 L
351.483 259.667 L
352.207 259.667 L
352.93 259.667 L
353.653 259.667 L
354.377 259.667 L
355.1 259.667 L
355.823 259.667 L
356.547 259.667 L
357.27 259.667 L
357.993 259.667 L
358.717 259.667 L
359.44 259.667 L
360.163 259.667 L
360.887 259.667 L
361.61 259.667 L
S
GR
GS
[0.75 0 0 0.75 0 0] CT
0 1 1 RC
1 LJ
0.667 LW
N
360.887 259.667 M
361.61 259.667 L
362.333 259.667 L
363.057 259.667 L
363.78 259.667 L
364.503 259.667 L
365.227 259.667 L
365.95 259.667 L
366.673 259.667 L
367.397 259.667 L
368.12 259.667 L
368.843 259.667 L
369.567 259.667 L
370.29 259.667 L
371.013 259.667 L
371.737 259.667 L
372.46 259.667 L
373.183 259.667 L
373.907 259.667 L
374.63 259.667 L
375.353 259.667 L
376.077 259.667 L
376.8 259.667 L
377.523 259.667 L
378.247 259.667 L
378.97 259.667 L
379.693 259.667 L
380.417 259.667 L
381.14 259.667 L
381.863 259.667 L
382.587 259.667 L
383.31 259.667 L
384.033 259.667 L
384.757 259.667 L
385.48 259.667 L
386.203 259.667 L
386.927 259.667 L
387.65 259.667 L
388.373 259.667 L
389.097 259.667 L
389.82 259.667 L
390.543 259.667 L
391.267 259.667 L
391.99 259.667 L
392.713 259.667 L
393.437 259.667 L
394.16 259.667 L
394.883 259.667 L
395.607 259.667 L
396.33 259.667 L
397.053 259.667 L
397.777 259.667 L
S
GR
GS
[0.75 0 0 0.75 0 0] CT
0 1 1 RC
1 LJ
0.667 LW
N
397.053 259.667 M
397.777 259.667 L
398.5 259.667 L
399.223 259.667 L
399.947 259.667 L
400.67 259.667 L
401.393 259.667 L
402.117 259.667 L
402.84 259.667 L
403.563 259.667 L
404.287 259.667 L
405.01 259.667 L
405.733 259.667 L
406.457 259.667 L
407.18 259.667 L
407.903 259.667 L
408.627 259.667 L
409.35 259.667 L
410.073 259.667 L
410.797 259.667 L
411.52 259.667 L
412.243 259.667 L
412.967 259.667 L
413.69 259.667 L
414.413 259.667 L
415.137 259.667 L
415.86 259.667 L
416.583 259.667 L
417.307 259.667 L
418.03 259.667 L
418.753 259.667 L
419.477 259.667 L
420.2 259.667 L
420.923 259.667 L
421.647 259.667 L
422.37 259.667 L
423.093 259.667 L
423.817 259.667 L
424.54 259.667 L
425.263 259.667 L
425.987 259.667 L
426.71 259.667 L
427.433 259.667 L
428.157 259.667 L
428.88 259.667 L
429.603 259.667 L
430.327 259.667 L
431.05 259.667 L
431.773 259.667 L
432.497 259.667 L
433.22 259.667 L
433.943 259.667 L
S
GR
GS
[0.75 0 0 0.75 0 0] CT
0 1 1 RC
1 LJ
0.667 LW
N
433.22 259.667 M
433.943 259.667 L
434.667 259.667 L
435.39 259.667 L
436.113 259.667 L
436.837 259.667 L
437.56 259.667 L
438.283 259.667 L
439.007 259.667 L
439.73 259.667 L
440.453 259.667 L
441.177 259.667 L
441.9 259.667 L
442.623 259.667 L
443.347 259.667 L
444.07 259.667 L
444.793 259.667 L
445.517 259.667 L
446.24 259.667 L
446.963 259.667 L
447.687 259.667 L
448.41 259.667 L
449.133 259.667 L
449.857 259.667 L
450.58 259.667 L
451.303 259.667 L
452.027 259.667 L
452.75 259.667 L
453.473 259.667 L
454.197 259.667 L
454.92 259.667 L
455.643 259.667 L
456.367 259.667 L
457.09 259.667 L
457.813 259.667 L
458.537 259.667 L
459.26 259.667 L
459.983 259.667 L
460.707 259.667 L
461.43 259.667 L
462.153 259.667 L
462.877 259.667 L
463.6 259.667 L
464.323 259.667 L
465.047 259.667 L
465.77 259.667 L
466.493 259.667 L
467.217 259.667 L
467.94 259.667 L
468.663 259.667 L
469.387 259.667 L
470.11 259.667 L
S
GR
GS
[0.75 0 0 0.75 0 0] CT
0 1 1 RC
1 LJ
0.667 LW
N
469.387 259.667 M
470.11 259.667 L
470.833 259.667 L
471.557 259.667 L
472.28 259.667 L
473.003 259.667 L
473.727 259.667 L
474.45 259.667 L
475.173 259.667 L
475.897 259.667 L
476.62 259.667 L
477.343 259.667 L
478.067 259.667 L
478.79 259.667 L
479.513 259.667 L
480.237 259.667 L
480.96 259.667 L
481.683 259.667 L
482.407 259.667 L
483.13 259.667 L
483.853 259.667 L
484.577 259.667 L
485.3 259.667 L
486.023 259.667 L
486.747 259.667 L
487.47 259.667 L
488.193 259.667 L
488.917 259.667 L
489.64 259.667 L
490.363 259.667 L
491.087 259.667 L
491.81 259.667 L
492.533 259.667 L
493.257 259.667 L
493.98 259.667 L
494.703 259.667 L
495.427 259.667 L
496.15 259.667 L
496.873 259.667 L
497.597 259.667 L
498.32 259.667 L
499.043 259.667 L
499.767 259.667 L
500.49 259.667 L
501.213 259.667 L
501.937 259.667 L
502.66 259.667 L
503.383 259.667 L
504.107 259.667 L
504.83 259.667 L
505.553 259.667 L
506.277 259.667 L
S
GR
GS
[0.75 0 0 0.75 0 0] CT
0 1 1 RC
1 LJ
0.667 LW
N
505.553 259.667 M
506.277 259.667 L
507 259.667 L
S
GR
GS
[0.75 0 0 0.75 0 0] CT
1 0 0 RC
1 LJ
0.667 LW
N
73 374 M
73.723 374 L
74.447 374 L
75.17 374 L
75.893 374 L
76.617 374 L
77.34 374 L
78.063 374 L
78.787 374 L
79.51 374 L
80.233 373.998 L
80.957 373.988 L
81.68 373.964 L
82.403 373.923 L
83.127 373.862 L
83.85 373.777 L
84.573 373.669 L
85.297 373.534 L
86.02 373.373 L
86.743 373.185 L
87.467 372.97 L
88.19 372.727 L
88.913 372.456 L
89.637 372.158 L
90.36 371.832 L
91.083 371.479 L
91.807 371.099 L
92.53 370.692 L
93.253 370.259 L
93.977 369.799 L
94.7 369.315 L
95.423 368.804 L
96.147 368.269 L
96.87 367.71 L
97.593 367.126 L
98.317 366.519 L
99.04 365.888 L
99.763 365.234 L
100.487 364.558 L
101.21 363.86 L
101.933 363.14 L
102.657 362.398 L
103.38 361.636 L
104.103 360.854 L
104.827 360.051 L
105.55 359.228 L
106.273 358.386 L
106.997 357.525 L
107.72 356.646 L
108.443 355.748 L
S
GR
GS
[0.75 0 0 0.75 0 0] CT
1 0 0 RC
1 LJ
0.667 LW
N
107.72 356.646 M
108.443 355.748 L
109.167 354.833 L
109.89 353.9 L
110.613 352.95 L
111.337 351.983 L
112.06 351 L
112.783 350.001 L
113.507 348.986 L
114.23 347.955 L
114.953 346.91 L
115.677 345.851 L
116.4 344.776 L
117.123 343.688 L
117.847 342.587 L
118.57 341.472 L
119.293 340.344 L
120.017 339.204 L
120.74 338.051 L
121.463 336.886 L
122.187 335.71 L
122.91 334.522 L
123.633 333.323 L
124.357 332.113 L
125.08 330.893 L
125.803 329.663 L
126.527 328.423 L
127.25 327.173 L
127.973 325.914 L
128.697 324.647 L
129.42 323.37 L
130.143 322.085 L
130.867 320.792 L
131.59 319.491 L
132.313 318.182 L
133.037 316.866 L
133.76 315.543 L
134.483 314.214 L
135.207 312.877 L
135.93 311.535 L
136.653 310.186 L
137.377 308.832 L
138.1 307.472 L
138.823 306.106 L
139.547 304.736 L
140.27 303.361 L
140.993 301.981 L
141.717 300.597 L
142.44 299.209 L
143.163 297.817 L
143.887 296.421 L
144.61 295.022 L
S
GR
GS
[0.75 0 0 0.75 0 0] CT
1 0 0 RC
1 LJ
0.667 LW
N
143.887 296.421 M
144.61 295.022 L
145.333 293.619 L
146.057 292.214 L
146.78 290.806 L
147.503 289.395 L
148.227 287.982 L
148.95 286.566 L
149.673 285.149 L
150.397 283.729 L
151.12 282.309 L
151.843 280.886 L
152.567 279.463 L
153.29 278.038 L
154.013 276.613 L
154.737 275.187 L
155.46 273.761 L
156.183 272.334 L
156.907 270.907 L
157.63 269.48 L
158.353 268.054 L
159.077 266.627 L
159.8 265.202 L
160.523 263.777 L
161.247 262.352 L
161.97 260.929 L
162.693 259.507 L
163.417 258.087 L
164.14 256.668 L
164.863 255.25 L
165.587 253.834 L
166.31 252.42 L
167.033 251.009 L
167.757 249.599 L
168.48 248.192 L
169.203 246.787 L
169.927 245.384 L
170.65 243.985 L
171.373 242.588 L
172.097 241.194 L
172.82 239.804 L
173.543 238.416 L
174.267 237.032 L
174.99 235.651 L
175.713 234.274 L
176.437 232.9 L
177.16 231.53 L
177.883 230.165 L
178.607 228.803 L
179.33 227.445 L
180.053 226.091 L
180.777 224.742 L
S
GR
GS
[0.75 0 0 0.75 0 0] CT
1 0 0 RC
1 LJ
0.667 LW
N
180.053 226.091 M
180.777 224.742 L
181.5 223.397 L
182.223 222.056 L
182.947 220.72 L
183.67 219.389 L
184.393 218.062 L
185.117 216.74 L
185.84 215.423 L
186.563 214.111 L
187.287 212.804 L
188.01 211.503 L
188.733 210.206 L
189.457 208.915 L
190.18 207.629 L
190.903 206.349 L
191.627 205.074 L
192.35 203.805 L
193.073 202.542 L
193.797 201.284 L
194.52 200.032 L
195.243 198.786 L
195.967 197.545 L
196.69 196.311 L
197.413 195.083 L
198.137 193.861 L
198.86 192.645 L
199.583 191.435 L
200.307 190.231 L
201.03 189.034 L
201.753 187.843 L
202.477 186.658 L
203.2 185.48 L
203.923 184.309 L
204.647 183.143 L
205.37 181.985 L
206.093 180.833 L
206.817 179.687 L
207.54 178.549 L
208.263 177.417 L
208.987 176.291 L
209.71 175.173 L
210.433 174.061 L
211.157 172.956 L
211.88 171.858 L
212.603 170.767 L
213.327 169.683 L
214.05 168.606 L
214.773 167.535 L
215.497 166.472 L
216.22 165.416 L
216.943 164.366 L
S
GR
GS
[0.75 0 0 0.75 0 0] CT
1 0 0 RC
1 LJ
0.667 LW
N
216.22 165.416 M
216.943 164.366 L
217.667 163.324 L
218.39 162.289 L
219.113 161.261 L
219.837 160.24 L
220.56 159.226 L
221.283 158.219 L
222.007 157.22 L
222.73 156.227 L
223.453 155.242 L
224.177 154.264 L
224.9 153.293 L
225.623 152.329 L
226.347 151.372 L
227.07 150.423 L
227.793 149.481 L
228.517 148.546 L
229.24 147.618 L
229.963 146.697 L
230.687 145.784 L
231.41 144.878 L
232.133 143.979 L
232.857 143.087 L
233.58 142.202 L
234.303 141.325 L
235.027 140.455 L
235.75 139.592 L
236.473 138.736 L
237.197 137.887 L
237.92 137.046 L
238.643 136.211 L
239.367 135.384 L
240.09 134.564 L
240.813 133.751 L
241.537 132.945 L
242.26 132.147 L
242.983 131.355 L
243.707 130.571 L
244.43 129.793 L
245.153 129.023 L
245.877 128.26 L
246.6 127.503 L
247.323 126.754 L
248.047 126.012 L
248.77 125.276 L
249.493 124.548 L
250.217 123.827 L
250.94 123.112 L
251.663 122.404 L
252.387 121.704 L
253.11 121.01 L
S
GR
GS
[0.75 0 0 0.75 0 0] CT
1 0 0 RC
1 LJ
0.667 LW
N
252.387 121.704 M
253.11 121.01 L
253.833 120.323 L
254.557 119.643 L
255.28 118.969 L
256.003 118.302 L
256.727 117.642 L
257.45 116.989 L
258.173 116.343 L
258.897 115.703 L
259.62 115.07 L
260.343 114.443 L
261.067 113.823 L
261.79 113.21 L
262.513 112.603 L
263.237 112.003 L
263.96 111.409 L
264.683 110.821 L
265.407 110.24 L
266.13 109.666 L
266.853 109.098 L
267.577 108.536 L
268.3 107.98 L
269.023 107.431 L
269.747 106.888 L
270.47 106.351 L
271.193 105.821 L
271.917 105.296 L
272.64 104.778 L
273.363 104.266 L
274.087 103.76 L
274.81 103.26 L
275.533 102.766 L
276.257 102.278 L
276.98 101.795 L
277.703 101.319 L
278.427 100.849 L
279.15 100.384 L
279.873 99.926 L
280.597 99.473 L
281.32 99.025 L
282.043 98.584 L
282.767 98.148 L
283.49 97.718 L
284.213 97.293 L
284.937 96.874 L
285.66 96.461 L
286.383 96.053 L
287.107 95.65 L
287.83 95.253 L
288.553 94.862 L
289.277 94.475 L
S
GR
GS
[0.75 0 0 0.75 0 0] CT
1 0 0 RC
1 LJ
0.667 LW
N
288.553 94.862 M
289.277 94.475 L
290 94.094 L
290.723 93.719 L
291.447 93.348 L
292.17 92.983 L
292.893 92.623 L
293.617 92.268 L
294.34 91.918 L
295.063 91.573 L
295.787 91.233 L
296.51 90.899 L
297.233 90.569 L
297.957 90.244 L
298.68 89.924 L
299.403 89.609 L
300.127 89.299 L
300.85 88.993 L
301.573 88.692 L
302.297 88.396 L
303.02 88.105 L
303.743 87.818 L
304.467 87.536 L
305.19 87.258 L
305.913 86.985 L
306.637 86.716 L
307.36 86.452 L
308.083 86.192 L
308.807 85.937 L
309.53 85.686 L
310.253 85.439 L
310.977 85.197 L
311.7 84.958 L
312.423 84.724 L
313.147 84.494 L
313.87 84.269 L
314.593 84.047 L
315.317 83.829 L
316.04 83.616 L
316.763 83.406 L
317.487 83.2 L
318.21 82.998 L
318.933 82.8 L
319.657 82.606 L
320.38 82.416 L
321.103 82.229 L
321.827 82.046 L
322.55 81.867 L
323.273 81.692 L
323.997 81.52 L
324.72 81.352 L
325.443 81.187 L
S
GR
GS
[0.75 0 0 0.75 0 0] CT
1 0 0 RC
1 LJ
0.667 LW
N
324.72 81.352 M
325.443 81.187 L
326.167 81.026 L
326.89 80.868 L
327.613 80.714 L
328.337 80.563 L
329.06 80.415 L
329.783 80.271 L
330.507 80.13 L
331.23 79.992 L
331.953 79.858 L
332.677 79.727 L
333.4 79.599 L
334.123 79.474 L
334.847 79.352 L
335.57 79.234 L
336.293 79.118 L
337.017 79.006 L
337.74 78.896 L
338.463 78.789 L
339.187 78.686 L
339.91 78.585 L
340.633 78.487 L
341.357 78.391 L
342.08 78.299 L
342.803 78.209 L
343.527 78.122 L
344.25 78.038 L
344.973 77.956 L
345.697 77.877 L
346.42 77.801 L
347.143 77.727 L
347.867 77.655 L
348.59 77.587 L
349.313 77.52 L
350.037 77.456 L
350.76 77.395 L
351.483 77.336 L
352.207 77.279 L
352.93 77.224 L
353.653 77.172 L
354.377 77.122 L
355.1 77.074 L
355.823 77.029 L
356.547 76.985 L
357.27 76.944 L
357.993 76.905 L
358.717 76.868 L
359.44 76.833 L
360.163 76.8 L
360.887 76.77 L
361.61 76.741 L
S
GR
GS
[0.75 0 0 0.75 0 0] CT
1 0 0 RC
1 LJ
0.667 LW
N
360.887 76.77 M
361.61 76.741 L
362.333 76.714 L
363.057 76.689 L
363.78 76.666 L
364.503 76.644 L
365.227 76.625 L
365.95 76.607 L
366.673 76.592 L
367.397 76.578 L
368.12 76.565 L
368.843 76.555 L
369.567 76.546 L
370.29 76.539 L
371.013 76.533 L
371.737 76.529 L
372.46 76.527 L
373.183 76.526 L
373.907 76.527 L
374.63 76.529 L
375.353 76.533 L
376.077 76.538 L
376.8 76.545 L
377.523 76.553 L
378.247 76.562 L
378.97 76.573 L
379.693 76.585 L
380.417 76.599 L
381.14 76.614 L
381.863 76.63 L
382.587 76.647 L
383.31 76.666 L
384.033 76.686 L
384.757 76.707 L
385.48 76.729 L
386.203 76.753 L
386.927 76.777 L
387.65 76.803 L
388.373 76.829 L
389.097 76.857 L
389.82 76.886 L
390.543 76.916 L
391.267 76.947 L
391.99 76.979 L
392.713 77.012 L
393.437 77.046 L
394.16 77.081 L
394.883 77.116 L
395.607 77.153 L
396.33 77.19 L
397.053 77.229 L
397.777 77.268 L
S
GR
GS
[0.75 0 0 0.75 0 0] CT
1 0 0 RC
1 LJ
0.667 LW
N
397.053 77.229 M
397.777 77.268 L
398.5 77.308 L
399.223 77.349 L
399.947 77.391 L
400.67 77.433 L
401.393 77.476 L
402.117 77.52 L
402.84 77.565 L
403.563 77.61 L
404.287 77.656 L
405.01 77.703 L
405.733 77.75 L
406.457 77.798 L
407.18 77.847 L
407.903 77.896 L
408.627 77.946 L
409.35 77.996 L
410.073 78.047 L
410.797 78.099 L
411.52 78.151 L
412.243 78.203 L
412.967 78.256 L
413.69 78.31 L
414.413 78.364 L
415.137 78.418 L
415.86 78.473 L
416.583 78.529 L
417.307 78.584 L
418.03 78.641 L
418.753 78.697 L
419.477 78.754 L
420.2 78.811 L
420.923 78.869 L
421.647 78.927 L
422.37 78.985 L
423.093 79.044 L
423.817 79.103 L
424.54 79.162 L
425.263 79.222 L
425.987 79.282 L
426.71 79.342 L
427.433 79.402 L
428.157 79.463 L
428.88 79.523 L
429.603 79.584 L
430.327 79.645 L
431.05 79.707 L
431.773 79.768 L
432.497 79.83 L
433.22 79.892 L
433.943 79.954 L
S
GR
GS
[0.75 0 0 0.75 0 0] CT
1 0 0 RC
1 LJ
0.667 LW
N
433.22 79.892 M
433.943 79.954 L
434.667 80.016 L
435.39 80.078 L
436.113 80.141 L
436.837 80.203 L
437.56 80.266 L
438.283 80.329 L
439.007 80.391 L
439.73 80.454 L
440.453 80.517 L
441.177 80.58 L
441.9 80.643 L
442.623 80.706 L
443.347 80.769 L
444.07 80.832 L
444.793 80.895 L
445.517 80.958 L
446.24 81.022 L
446.963 81.085 L
447.687 81.148 L
448.41 81.211 L
449.133 81.274 L
449.857 81.337 L
450.58 81.4 L
451.303 81.463 L
452.027 81.525 L
452.75 81.588 L
453.473 81.651 L
454.197 81.713 L
454.92 81.776 L
455.643 81.838 L
456.367 81.901 L
457.09 81.963 L
457.813 82.025 L
458.537 82.087 L
459.26 82.149 L
459.983 82.21 L
460.707 82.272 L
461.43 82.333 L
462.153 82.394 L
462.877 82.456 L
463.6 82.516 L
464.323 82.577 L
465.047 82.638 L
465.77 82.698 L
466.493 82.759 L
467.217 82.819 L
467.94 82.879 L
468.663 82.938 L
469.387 82.998 L
470.11 83.057 L
S
GR
GS
[0.75 0 0 0.75 0 0] CT
1 0 0 RC
1 LJ
0.667 LW
N
469.387 82.998 M
470.11 83.057 L
470.833 83.116 L
471.557 83.175 L
472.28 83.234 L
473.003 83.292 L
473.727 83.35 L
474.45 83.408 L
475.173 83.466 L
475.897 83.524 L
476.62 83.581 L
477.343 83.638 L
478.067 83.695 L
478.79 83.751 L
479.513 83.808 L
480.237 83.864 L
480.96 83.92 L
481.683 83.975 L
482.407 84.03 L
483.13 84.086 L
483.853 84.14 L
484.577 84.195 L
485.3 84.249 L
486.023 84.303 L
486.747 84.357 L
487.47 84.41 L
488.193 84.463 L
488.917 84.516 L
489.64 84.568 L
490.363 84.621 L
491.087 84.673 L
491.81 84.724 L
492.533 84.776 L
493.257 84.827 L
493.98 84.878 L
494.703 84.928 L
495.427 84.978 L
496.15 85.028 L
496.873 85.078 L
497.597 85.127 L
498.32 85.176 L
499.043 85.224 L
499.767 85.273 L
500.49 85.321 L
501.213 85.369 L
501.937 85.416 L
502.66 85.463 L
503.383 85.51 L
504.107 85.556 L
504.83 85.602 L
505.553 85.648 L
506.277 85.694 L
S
GR
GS
[0.75 0 0 0.75 0 0] CT
1 0 0 RC
1 LJ
0.667 LW
N
505.553 85.648 M
506.277 85.694 L
507 85.739 L
S
GR
GS
[0.75 0 0 0.75 0 0] CT
1 0 1 RC
1 LJ
0.667 LW
N
73 374 M
73.723 374 L
74.447 374 L
75.17 374 L
75.893 374 L
76.617 374 L
77.34 374 L
78.063 374 L
78.787 374 L
79.51 374 L
80.233 373.99 L
80.957 373.966 L
81.68 373.928 L
82.403 373.877 L
83.127 373.812 L
83.85 373.734 L
84.573 373.644 L
85.297 373.54 L
86.02 373.424 L
86.743 373.296 L
87.467 373.155 L
88.19 373.003 L
88.913 372.839 L
89.637 372.663 L
90.36 372.476 L
91.083 372.278 L
91.807 372.069 L
92.53 371.85 L
93.253 371.62 L
93.977 371.379 L
94.7 371.129 L
95.423 370.868 L
96.147 370.598 L
96.87 370.318 L
97.593 370.029 L
98.317 369.731 L
99.04 369.423 L
99.763 369.107 L
100.487 368.782 L
101.21 368.449 L
101.933 368.107 L
102.657 367.757 L
103.38 367.399 L
104.103 367.034 L
104.827 366.66 L
105.55 366.28 L
106.273 365.891 L
106.997 365.496 L
107.72 365.094 L
108.443 364.685 L
S
GR
GS
[0.75 0 0 0.75 0 0] CT
1 0 1 RC
1 LJ
0.667 LW
N
107.72 365.094 M
108.443 364.685 L
109.167 364.269 L
109.89 363.846 L
110.613 363.418 L
111.337 362.983 L
112.06 362.542 L
112.783 362.095 L
113.507 361.642 L
114.23 361.184 L
114.953 360.72 L
115.677 360.251 L
116.4 359.776 L
117.123 359.297 L
117.847 358.813 L
118.57 358.324 L
119.293 357.83 L
120.017 357.331 L
120.74 356.829 L
121.463 356.322 L
122.187 355.811 L
122.91 355.296 L
123.633 354.777 L
124.357 354.254 L
125.08 353.728 L
125.803 353.198 L
126.527 352.664 L
127.25 352.128 L
127.973 351.588 L
128.697 351.046 L
129.42 350.5 L
130.143 349.952 L
130.867 349.4 L
131.59 348.847 L
132.313 348.29 L
133.037 347.732 L
133.76 347.171 L
134.483 346.608 L
135.207 346.043 L
135.93 345.476 L
136.653 344.907 L
137.377 344.337 L
138.1 343.764 L
138.823 343.191 L
139.547 342.615 L
140.27 342.039 L
140.993 341.461 L
141.717 340.882 L
142.44 340.301 L
143.163 339.72 L
143.887 339.138 L
144.61 338.555 L
S
GR
GS
[0.75 0 0 0.75 0 0] CT
1 0 1 RC
1 LJ
0.667 LW
N
143.887 339.138 M
144.61 338.555 L
145.333 337.971 L
146.057 337.387 L
146.78 336.802 L
147.503 336.217 L
148.227 335.631 L
148.95 335.045 L
149.673 334.458 L
150.397 333.871 L
151.12 333.285 L
151.843 332.698 L
152.567 332.111 L
153.29 331.524 L
154.013 330.938 L
154.737 330.352 L
155.46 329.766 L
156.183 329.18 L
156.907 328.595 L
157.63 328.011 L
158.353 327.427 L
159.077 326.844 L
159.8 326.261 L
160.523 325.679 L
161.247 325.098 L
161.97 324.518 L
162.693 323.939 L
163.417 323.361 L
164.14 322.784 L
164.863 322.208 L
165.587 321.633 L
166.31 321.059 L
167.033 320.487 L
167.757 319.916 L
168.48 319.346 L
169.203 318.778 L
169.927 318.212 L
170.65 317.646 L
171.373 317.083 L
172.097 316.521 L
172.82 315.961 L
173.543 315.402 L
174.267 314.845 L
174.99 314.29 L
175.713 313.737 L
176.437 313.185 L
177.16 312.636 L
177.883 312.089 L
178.607 311.543 L
179.33 310.999 L
180.053 310.458 L
180.777 309.919 L
S
GR
GS
[0.75 0 0 0.75 0 0] CT
1 0 1 RC
1 LJ
0.667 LW
N
180.053 310.458 M
180.777 309.919 L
181.5 309.381 L
182.223 308.846 L
182.947 308.314 L
183.67 307.783 L
184.393 307.254 L
185.117 306.728 L
185.84 306.205 L
186.563 305.683 L
187.287 305.164 L
188.01 304.647 L
188.733 304.133 L
189.457 303.621 L
190.18 303.112 L
190.903 302.605 L
191.627 302.101 L
192.35 301.6 L
193.073 301.1 L
193.797 300.604 L
194.52 300.11 L
195.243 299.619 L
195.967 299.13 L
196.69 298.644 L
197.413 298.161 L
198.137 297.681 L
198.86 297.203 L
199.583 296.728 L
200.307 296.255 L
201.03 295.786 L
201.753 295.319 L
202.477 294.855 L
203.2 294.394 L
203.923 293.936 L
204.647 293.481 L
205.37 293.028 L
206.093 292.579 L
206.817 292.132 L
207.54 291.688 L
208.263 291.247 L
208.987 290.809 L
209.71 290.374 L
210.433 289.942 L
211.157 289.513 L
211.88 289.087 L
212.603 288.664 L
213.327 288.243 L
214.05 287.826 L
214.773 287.412 L
215.497 287 L
216.22 286.592 L
216.943 286.186 L
S
GR
GS
[0.75 0 0 0.75 0 0] CT
1 0 1 RC
1 LJ
0.667 LW
N
216.22 286.592 M
216.943 286.186 L
217.667 285.784 L
218.39 285.385 L
219.113 284.988 L
219.837 284.595 L
220.56 284.204 L
221.283 283.817 L
222.007 283.433 L
222.73 283.051 L
223.453 282.673 L
224.177 282.298 L
224.9 281.925 L
225.623 281.556 L
226.347 281.19 L
227.07 280.826 L
227.793 280.466 L
228.517 280.109 L
229.24 279.755 L
229.963 279.403 L
230.687 279.055 L
231.41 278.71 L
232.133 278.367 L
232.857 278.028 L
233.58 277.692 L
234.303 277.358 L
235.027 277.028 L
235.75 276.701 L
236.473 276.376 L
237.197 276.055 L
237.92 275.736 L
238.643 275.421 L
239.367 275.108 L
240.09 274.798 L
240.813 274.491 L
241.537 274.187 L
242.26 273.887 L
242.983 273.588 L
243.707 273.293 L
244.43 273.001 L
245.153 272.712 L
245.877 272.425 L
246.6 272.141 L
247.323 271.861 L
248.047 271.582 L
248.77 271.307 L
249.493 271.035 L
250.217 270.765 L
250.94 270.499 L
251.663 270.235 L
252.387 269.974 L
253.11 269.715 L
S
GR
GS
[0.75 0 0 0.75 0 0] CT
1 0 1 RC
1 LJ
0.667 LW
N
252.387 269.974 M
253.11 269.715 L
253.833 269.46 L
254.557 269.207 L
255.28 268.957 L
256.003 268.709 L
256.727 268.465 L
257.45 268.223 L
258.173 267.983 L
258.897 267.747 L
259.62 267.513 L
260.343 267.281 L
261.067 267.053 L
261.79 266.827 L
262.513 266.603 L
263.237 266.382 L
263.96 266.164 L
264.683 265.948 L
265.407 265.735 L
266.13 265.525 L
266.853 265.317 L
267.577 265.111 L
268.3 264.908 L
269.023 264.708 L
269.747 264.51 L
270.47 264.314 L
271.193 264.121 L
271.917 263.931 L
272.64 263.742 L
273.363 263.557 L
274.087 263.373 L
274.81 263.192 L
275.533 263.014 L
276.257 262.837 L
276.98 262.663 L
277.703 262.492 L
278.427 262.323 L
279.15 262.155 L
279.873 261.991 L
280.597 261.828 L
281.32 261.668 L
282.043 261.51 L
282.767 261.354 L
283.49 261.201 L
284.213 261.049 L
284.937 260.9 L
285.66 260.753 L
286.383 260.608 L
287.107 260.466 L
287.83 260.325 L
288.553 260.186 L
289.277 260.05 L
S
GR
GS
[0.75 0 0 0.75 0 0] CT
1 0 1 RC
1 LJ
0.667 LW
N
288.553 260.186 M
289.277 260.05 L
290 259.915 L
290.723 259.783 L
291.447 259.653 L
292.17 259.525 L
292.893 259.398 L
293.617 259.274 L
294.34 259.152 L
295.063 259.031 L
295.787 258.913 L
296.51 258.796 L
297.233 258.682 L
297.957 258.569 L
298.68 258.458 L
299.403 258.349 L
300.127 258.242 L
300.85 258.137 L
301.573 258.034 L
302.297 257.932 L
303.02 257.832 L
303.743 257.734 L
304.467 257.638 L
305.19 257.544 L
305.913 257.451 L
306.637 257.36 L
307.36 257.27 L
308.083 257.183 L
308.807 257.096 L
309.53 257.012 L
310.253 256.929 L
310.977 256.848 L
311.7 256.769 L
312.423 256.691 L
313.147 256.614 L
313.87 256.54 L
314.593 256.466 L
315.317 256.395 L
316.04 256.324 L
316.763 256.256 L
317.487 256.189 L
318.21 256.123 L
318.933 256.059 L
319.657 255.996 L
320.38 255.934 L
321.103 255.874 L
321.827 255.816 L
322.55 255.759 L
323.273 255.703 L
323.997 255.648 L
324.72 255.595 L
325.443 255.543 L
S
GR
GS
[0.75 0 0 0.75 0 0] CT
1 0 1 RC
1 LJ
0.667 LW
N
324.72 255.595 M
325.443 255.543 L
326.167 255.493 L
326.89 255.444 L
327.613 255.396 L
328.337 255.349 L
329.06 255.304 L
329.783 255.26 L
330.507 255.217 L
331.23 255.175 L
331.953 255.135 L
332.677 255.095 L
333.4 255.057 L
334.123 255.02 L
334.847 254.984 L
335.57 254.95 L
336.293 254.916 L
337.017 254.884 L
337.74 254.853 L
338.463 254.822 L
339.187 254.793 L
339.91 254.765 L
340.633 254.738 L
341.357 254.712 L
342.08 254.687 L
342.803 254.663 L
343.527 254.64 L
344.25 254.618 L
344.973 254.597 L
345.697 254.576 L
346.42 254.557 L
347.143 254.539 L
347.867 254.522 L
348.59 254.505 L
349.313 254.49 L
350.037 254.475 L
350.76 254.461 L
351.483 254.448 L
352.207 254.436 L
352.93 254.425 L
353.653 254.415 L
354.377 254.405 L
355.1 254.396 L
355.823 254.388 L
356.547 254.381 L
357.27 254.375 L
357.993 254.369 L
358.717 254.364 L
359.44 254.36 L
360.163 254.356 L
360.887 254.353 L
361.61 254.351 L
S
GR
GS
[0.75 0 0 0.75 0 0] CT
1 0 1 RC
1 LJ
0.667 LW
N
360.887 254.353 M
361.61 254.351 L
362.333 254.35 L
363.057 254.349 L
363.78 254.349 L
364.503 254.35 L
365.227 254.351 L
365.95 254.353 L
366.673 254.356 L
367.397 254.359 L
368.12 254.362 L
368.843 254.367 L
369.567 254.372 L
370.29 254.377 L
371.013 254.383 L
371.737 254.39 L
372.46 254.397 L
373.183 254.405 L
373.907 254.413 L
374.63 254.422 L
375.353 254.431 L
376.077 254.441 L
376.8 254.452 L
377.523 254.462 L
378.247 254.474 L
378.97 254.486 L
379.693 254.498 L
380.417 254.51 L
381.14 254.524 L
381.863 254.537 L
382.587 254.551 L
383.31 254.565 L
384.033 254.58 L
384.757 254.595 L
385.48 254.611 L
386.203 254.627 L
386.927 254.643 L
387.65 254.66 L
388.373 254.677 L
389.097 254.695 L
389.82 254.712 L
390.543 254.731 L
391.267 254.749 L
391.99 254.768 L
392.713 254.787 L
393.437 254.806 L
394.16 254.826 L
394.883 254.846 L
395.607 254.866 L
396.33 254.887 L
397.053 254.908 L
397.777 254.929 L
S
GR
GS
[0.75 0 0 0.75 0 0] CT
1 0 1 RC
1 LJ
0.667 LW
N
397.053 254.908 M
397.777 254.929 L
398.5 254.95 L
399.223 254.972 L
399.947 254.994 L
400.67 255.016 L
401.393 255.038 L
402.117 255.061 L
402.84 255.084 L
403.563 255.107 L
404.287 255.13 L
405.01 255.153 L
405.733 255.177 L
406.457 255.201 L
407.18 255.225 L
407.903 255.249 L
408.627 255.273 L
409.35 255.298 L
410.073 255.322 L
410.797 255.347 L
411.52 255.372 L
412.243 255.397 L
412.967 255.423 L
413.69 255.448 L
414.413 255.474 L
415.137 255.499 L
415.86 255.525 L
416.583 255.551 L
417.307 255.577 L
418.03 255.603 L
418.753 255.629 L
419.477 255.656 L
420.2 255.682 L
420.923 255.708 L
421.647 255.735 L
422.37 255.762 L
423.093 255.788 L
423.817 255.815 L
424.54 255.842 L
425.263 255.869 L
425.987 255.896 L
426.71 255.923 L
427.433 255.95 L
428.157 255.977 L
428.88 256.004 L
429.603 256.031 L
430.327 256.058 L
431.05 256.086 L
431.773 256.113 L
432.497 256.14 L
433.22 256.167 L
433.943 256.195 L
S
GR
GS
[0.75 0 0 0.75 0 0] CT
1 0 1 RC
1 LJ
0.667 LW
N
433.22 256.167 M
433.943 256.195 L
434.667 256.222 L
435.39 256.249 L
436.113 256.277 L
436.837 256.304 L
437.56 256.331 L
438.283 256.358 L
439.007 256.386 L
439.73 256.413 L
440.453 256.44 L
441.177 256.467 L
441.9 256.494 L
442.623 256.522 L
443.347 256.549 L
444.07 256.576 L
444.793 256.603 L
445.517 256.63 L
446.24 256.657 L
446.963 256.684 L
447.687 256.711 L
448.41 256.737 L
449.133 256.764 L
449.857 256.791 L
450.58 256.818 L
451.303 256.844 L
452.027 256.871 L
452.75 256.897 L
453.473 256.924 L
454.197 256.95 L
454.92 256.976 L
455.643 257.003 L
456.367 257.029 L
457.09 257.055 L
457.813 257.081 L
458.537 257.106 L
459.26 257.132 L
459.983 257.158 L
460.707 257.184 L
461.43 257.209 L
462.153 257.235 L
462.877 257.26 L
463.6 257.285 L
464.323 257.31 L
465.047 257.335 L
465.77 257.36 L
466.493 257.385 L
467.217 257.41 L
467.94 257.435 L
468.663 257.459 L
469.387 257.484 L
470.11 257.508 L
S
GR
GS
[0.75 0 0 0.75 0 0] CT
1 0 1 RC
1 LJ
0.667 LW
N
469.387 257.484 M
470.11 257.508 L
470.833 257.532 L
471.557 257.556 L
472.28 257.58 L
473.003 257.604 L
473.727 257.628 L
474.45 257.652 L
475.173 257.675 L
475.897 257.699 L
476.62 257.722 L
477.343 257.745 L
478.067 257.768 L
478.79 257.791 L
479.513 257.814 L
480.237 257.837 L
480.96 257.859 L
481.683 257.882 L
482.407 257.904 L
483.13 257.926 L
483.853 257.948 L
484.577 257.97 L
485.3 257.992 L
486.023 258.014 L
486.747 258.035 L
487.47 258.057 L
488.193 258.078 L
488.917 258.099 L
489.64 258.12 L
490.363 258.141 L
491.087 258.162 L
491.81 258.182 L
492.533 258.203 L
493.257 258.223 L
493.98 258.243 L
494.703 258.263 L
495.427 258.283 L
496.15 258.303 L
496.873 258.323 L
497.597 258.342 L
498.32 258.362 L
499.043 258.381 L
499.767 258.4 L
500.49 258.419 L
501.213 258.438 L
501.937 258.456 L
502.66 258.475 L
503.383 258.493 L
504.107 258.512 L
504.83 258.53 L
505.553 258.548 L
506.277 258.566 L
S
GR
GS
[0.75 0 0 0.75 0 0] CT
1 0 1 RC
1 LJ
0.667 LW
N
505.553 258.548 M
506.277 258.566 L
507 258.583 L
S
GR
GS
[0.75 0 0 0.75 0 0] CT
1 GC
N
424 112 M
424 44 L
494 44 L
494 112 L
cp
f
GR
GS
[0.75 0 0 0.75 357 40.7005] CT
/Helvetica 12 F
GS
[1 0 0 1 0 0] CT
0 4.5 moveto 
1 -1 scale
(u1) t 
GR
GR
GS
[0.75 0 0 0.75 0 0] CT
0 0 1 RC
1 LJ
0.667 LW
N
432 54.267 M
472 54.267 L
S
GR
GS
[0.75 0 0 0.75 357 52.56683] CT
/Helvetica 12 F
GS
[1 0 0 1 0 0] CT
0 4.5 moveto 
1 -1 scale
(u2) t 
GR
GR
GS
[0.75 0 0 0.75 0 0] CT
0 1 1 RC
1 LJ
0.667 LW
N
432 70.089 M
472 70.089 L
S
GR
GS
[0.75 0 0 0.75 357 64.43317] CT
/Helvetica 12 F
GS
[1 0 0 1 0 0] CT
0 4.5 moveto 
1 -1 scale
(y1) t 
GR
GR
GS
[0.75 0 0 0.75 0 0] CT
1 0 0 RC
1 LJ
0.667 LW
N
432 85.911 M
472 85.911 L
S
GR
GS
[0.75 0 0 0.75 357 76.29951] CT
/Helvetica 12 F
GS
[1 0 0 1 0 0] CT
0 4.5 moveto 
1 -1 scale
(y2) t 
GR
GR
GS
[0.75 0 0 0.75 0 0] CT
1 0 1 RC
1 LJ
0.667 LW
N
432 101.733 M
472 101.733 L
S
GR
GS
[0.75 0 0 0.75 0 0] CT
0.149 GC
10.0 ML
0.667 LW
N
424 112 M
424 44 L
494 44 L
494 112 L
cp
S
GR
%%Trailer
%%Pages: 1
%%EOF
