%!PS-Adobe-3.0 EPSF-3.0
%%Creator: (MATLAB, The Mathworks, Inc. Version 8.6.0.267246 \(R2015b\). Operating System: Windows 8)
%%Title: E:/Projects/skola/rls/pics/SP4/r_5_y.eps
%%CreationDate: 2017-03-21T18:11:19
%%Pages: (atend)
%%BoundingBox: 0 0 420 315
%%LanguageLevel: 2
%%EndComments
%%BeginProlog
%%BeginResource: procset (Apache XML Graphics Std ProcSet) 1.2 0
%%Version: 1.2 0
%%Copyright: (Copyright 2001-2003,2010 The Apache Software Foundation. License terms: http://www.apache.org/licenses/LICENSE-2.0)
/bd{bind def}bind def
/ld{load def}bd
/GR/grestore ld
/M/moveto ld
/LJ/setlinejoin ld
/C/curveto ld
/f/fill ld
/LW/setlinewidth ld
/GC/setgray ld
/t/show ld
/N/newpath ld
/CT/concat ld
/cp/closepath ld
/S/stroke ld
/L/lineto ld
/CC/setcmykcolor ld
/A/ashow ld
/GS/gsave ld
/RC/setrgbcolor ld
/RM/rmoveto ld
/ML/setmiterlimit ld
/re {4 2 roll M
1 index 0 rlineto
0 exch rlineto
neg 0 rlineto
cp } bd
/_ctm matrix def
/_tm matrix def
/BT { _ctm currentmatrix pop matrix _tm copy pop 0 0 moveto } bd
/ET { _ctm setmatrix } bd
/iTm { _ctm setmatrix _tm concat } bd
/Tm { _tm astore pop iTm 0 0 moveto } bd
/ux 0.0 def
/uy 0.0 def
/F {
  /Tp exch def
  /Tf exch def
  Tf findfont Tp scalefont setfont
  /cf Tf def  /cs Tp def
} bd
/ULS {currentpoint /uy exch def /ux exch def} bd
/ULE {
  /Tcx currentpoint pop def
  gsave
  newpath
  cf findfont cs scalefont dup
  /FontMatrix get 0 get /Ts exch def /FontInfo get dup
  /UnderlinePosition get Ts mul /To exch def
  /UnderlineThickness get Ts mul /Tt exch def
  ux uy To add moveto  Tcx uy To add lineto
  Tt setlinewidth stroke
  grestore
} bd
/OLE {
  /Tcx currentpoint pop def
  gsave
  newpath
  cf findfont cs scalefont dup
  /FontMatrix get 0 get /Ts exch def /FontInfo get dup
  /UnderlinePosition get Ts mul /To exch def
  /UnderlineThickness get Ts mul /Tt exch def
  ux uy To add cs add moveto Tcx uy To add cs add lineto
  Tt setlinewidth stroke
  grestore
} bd
/SOE {
  /Tcx currentpoint pop def
  gsave
  newpath
  cf findfont cs scalefont dup
  /FontMatrix get 0 get /Ts exch def /FontInfo get dup
  /UnderlinePosition get Ts mul /To exch def
  /UnderlineThickness get Ts mul /Tt exch def
  ux uy To add cs 10 mul 26 idiv add moveto Tcx uy To add cs 10 mul 26 idiv add lineto
  Tt setlinewidth stroke
  grestore
} bd
/QT {
/Y22 exch store
/X22 exch store
/Y21 exch store
/X21 exch store
currentpoint
/Y21 load 2 mul add 3 div exch
/X21 load 2 mul add 3 div exch
/X21 load 2 mul /X22 load add 3 div
/Y21 load 2 mul /Y22 load add 3 div
/X22 load /Y22 load curveto
} bd
/SSPD {
dup length /d exch dict def
{
/v exch def
/k exch def
currentpagedevice k known {
/cpdv currentpagedevice k get def
v cpdv ne {
/upd false def
/nullv v type /nulltype eq def
/nullcpdv cpdv type /nulltype eq def
nullv nullcpdv or
{
/upd true def
} {
/sametype v type cpdv type eq def
sametype {
v type /arraytype eq {
/vlen v length def
/cpdvlen cpdv length def
vlen cpdvlen eq {
0 1 vlen 1 sub {
/i exch def
/obj v i get def
/cpdobj cpdv i get def
obj cpdobj ne {
/upd true def
exit
} if
} for
} {
/upd true def
} ifelse
} {
v type /dicttype eq {
v {
/dv exch def
/dk exch def
/cpddv cpdv dk get def
dv cpddv ne {
/upd true def
exit
} if
} forall
} {
/upd true def
} ifelse
} ifelse
} if
} ifelse
upd true eq {
d k v put
} if
} if
} if
} forall
d length 0 gt {
d setpagedevice
} if
} bd
%%EndResource
%%BeginResource: procset (Apache XML Graphics EPS ProcSet) 1.0 0
%%Version: 1.0 0
%%Copyright: (Copyright 2002-2003 The Apache Software Foundation. License terms: http://www.apache.org/licenses/LICENSE-2.0)
/BeginEPSF { %def
/b4_Inc_state save def         % Save state for cleanup
/dict_count countdictstack def % Count objects on dict stack
/op_count count 1 sub def      % Count objects on operand stack
userdict begin                 % Push userdict on dict stack
/showpage { } def              % Redefine showpage, { } = null proc
0 setgray 0 setlinecap         % Prepare graphics state
1 setlinewidth 0 setlinejoin
10 setmiterlimit [ ] 0 setdash newpath
/languagelevel where           % If level not equal to 1 then
{pop languagelevel             % set strokeadjust and
1 ne                           % overprint to their defaults.
{false setstrokeadjust false setoverprint
} if
} if
} bd
/EndEPSF { %def
count op_count sub {pop} repeat            % Clean up stacks
countdictstack dict_count sub {end} repeat
b4_Inc_state restore
} bd
%%EndResource
%FOPBeginFontDict
%%IncludeResource: font Courier-Bold
%%IncludeResource: font Helvetica
%%IncludeResource: font Courier-BoldOblique
%%IncludeResource: font Courier-Oblique
%%IncludeResource: font Times-Roman
%%IncludeResource: font Helvetica-BoldOblique
%%IncludeResource: font Helvetica-Bold
%%IncludeResource: font Helvetica-Oblique
%%IncludeResource: font Times-BoldItalic
%%IncludeResource: font Courier
%%IncludeResource: font Times-Italic
%%IncludeResource: font Times-Bold
%%IncludeResource: font Symbol
%%IncludeResource: font ZapfDingbats
%FOPEndFontDict
%%BeginResource: encoding WinAnsiEncoding
/WinAnsiEncoding [
/.notdef /.notdef /.notdef /.notdef /.notdef
/.notdef /.notdef /.notdef /.notdef /.notdef
/.notdef /.notdef /.notdef /.notdef /.notdef
/.notdef /.notdef /.notdef /.notdef /.notdef
/.notdef /.notdef /.notdef /.notdef /.notdef
/.notdef /.notdef /.notdef /.notdef /.notdef
/.notdef /.notdef /space /exclam /quotedbl
/numbersign /dollar /percent /ampersand /quotesingle
/parenleft /parenright /asterisk /plus /comma
/hyphen /period /slash /zero /one
/two /three /four /five /six
/seven /eight /nine /colon /semicolon
/less /equal /greater /question /at
/A /B /C /D /E
/F /G /H /I /J
/K /L /M /N /O
/P /Q /R /S /T
/U /V /W /X /Y
/Z /bracketleft /backslash /bracketright /asciicircum
/underscore /quoteleft /a /b /c
/d /e /f /g /h
/i /j /k /l /m
/n /o /p /q /r
/s /t /u /v /w
/x /y /z /braceleft /bar
/braceright /asciitilde /bullet /Euro /bullet
/quotesinglbase /florin /quotedblbase /ellipsis /dagger
/daggerdbl /circumflex /perthousand /Scaron /guilsinglleft
/OE /bullet /Zcaron /bullet /bullet
/quoteleft /quoteright /quotedblleft /quotedblright /bullet
/endash /emdash /asciitilde /trademark /scaron
/guilsinglright /oe /bullet /zcaron /Ydieresis
/space /exclamdown /cent /sterling /currency
/yen /brokenbar /section /dieresis /copyright
/ordfeminine /guillemotleft /logicalnot /sfthyphen /registered
/macron /degree /plusminus /twosuperior /threesuperior
/acute /mu /paragraph /middot /cedilla
/onesuperior /ordmasculine /guillemotright /onequarter /onehalf
/threequarters /questiondown /Agrave /Aacute /Acircumflex
/Atilde /Adieresis /Aring /AE /Ccedilla
/Egrave /Eacute /Ecircumflex /Edieresis /Igrave
/Iacute /Icircumflex /Idieresis /Eth /Ntilde
/Ograve /Oacute /Ocircumflex /Otilde /Odieresis
/multiply /Oslash /Ugrave /Uacute /Ucircumflex
/Udieresis /Yacute /Thorn /germandbls /agrave
/aacute /acircumflex /atilde /adieresis /aring
/ae /ccedilla /egrave /eacute /ecircumflex
/edieresis /igrave /iacute /icircumflex /idieresis
/eth /ntilde /ograve /oacute /ocircumflex
/otilde /odieresis /divide /oslash /ugrave
/uacute /ucircumflex /udieresis /yacute /thorn
/ydieresis
] def
%%EndResource
%FOPBeginFontReencode
/Courier-Bold findfont
dup length dict begin
  {1 index /FID ne {def} {pop pop} ifelse} forall
  /Encoding WinAnsiEncoding def
  currentdict
end
/Courier-Bold exch definefont pop
/Helvetica findfont
dup length dict begin
  {1 index /FID ne {def} {pop pop} ifelse} forall
  /Encoding WinAnsiEncoding def
  currentdict
end
/Helvetica exch definefont pop
/Courier-BoldOblique findfont
dup length dict begin
  {1 index /FID ne {def} {pop pop} ifelse} forall
  /Encoding WinAnsiEncoding def
  currentdict
end
/Courier-BoldOblique exch definefont pop
/Courier-Oblique findfont
dup length dict begin
  {1 index /FID ne {def} {pop pop} ifelse} forall
  /Encoding WinAnsiEncoding def
  currentdict
end
/Courier-Oblique exch definefont pop
/Times-Roman findfont
dup length dict begin
  {1 index /FID ne {def} {pop pop} ifelse} forall
  /Encoding WinAnsiEncoding def
  currentdict
end
/Times-Roman exch definefont pop
/Helvetica-BoldOblique findfont
dup length dict begin
  {1 index /FID ne {def} {pop pop} ifelse} forall
  /Encoding WinAnsiEncoding def
  currentdict
end
/Helvetica-BoldOblique exch definefont pop
/Helvetica-Bold findfont
dup length dict begin
  {1 index /FID ne {def} {pop pop} ifelse} forall
  /Encoding WinAnsiEncoding def
  currentdict
end
/Helvetica-Bold exch definefont pop
/Helvetica-Oblique findfont
dup length dict begin
  {1 index /FID ne {def} {pop pop} ifelse} forall
  /Encoding WinAnsiEncoding def
  currentdict
end
/Helvetica-Oblique exch definefont pop
/Times-BoldItalic findfont
dup length dict begin
  {1 index /FID ne {def} {pop pop} ifelse} forall
  /Encoding WinAnsiEncoding def
  currentdict
end
/Times-BoldItalic exch definefont pop
/Courier findfont
dup length dict begin
  {1 index /FID ne {def} {pop pop} ifelse} forall
  /Encoding WinAnsiEncoding def
  currentdict
end
/Courier exch definefont pop
/Times-Italic findfont
dup length dict begin
  {1 index /FID ne {def} {pop pop} ifelse} forall
  /Encoding WinAnsiEncoding def
  currentdict
end
/Times-Italic exch definefont pop
/Times-Bold findfont
dup length dict begin
  {1 index /FID ne {def} {pop pop} ifelse} forall
  /Encoding WinAnsiEncoding def
  currentdict
end
/Times-Bold exch definefont pop
%FOPEndFontReencode
%%EndProlog
%%Page: 1 1
%%PageBoundingBox: 0 0 420 315
%%BeginPageSetup
[1 0 0 -1 0 315] CT
%%EndPageSetup
GS
[0.75 0 0 0.75 0 0] CT
1 GC
N
0 0 560 420 re
f
GR
GS
[0.75 0 0 0.75 0 0] CT
1 GC
N
0 0 560 420 re
f
GR
GS
[0.75 0 0 0.75 0 0] CT
1 GC
N
73 374 M
507 374 L
507 31 L
73 31 L
cp
f
GR
GS
[0.75 0 0 0.75 0 0] CT
0.149 GC
2 setlinecap
1 LJ
0.667 LW
N
73 374 M
507 374 L
S
GR
GS
[0.75 0 0 0.75 0 0] CT
0.149 GC
2 setlinecap
1 LJ
0.667 LW
N
73 31 M
507 31 L
S
GR
GS
[0.75 0 0 0.75 0 0] CT
0.149 GC
2 setlinecap
1 LJ
0.667 LW
N
73 374 M
73 369.66 L
S
GR
GS
[0.75 0 0 0.75 0 0] CT
0.149 GC
2 setlinecap
1 LJ
0.667 LW
N
145.333 374 M
145.333 369.66 L
S
GR
GS
[0.75 0 0 0.75 0 0] CT
0.149 GC
2 setlinecap
1 LJ
0.667 LW
N
217.667 374 M
217.667 369.66 L
S
GR
GS
[0.75 0 0 0.75 0 0] CT
0.149 GC
2 setlinecap
1 LJ
0.667 LW
N
290 374 M
290 369.66 L
S
GR
GS
[0.75 0 0 0.75 0 0] CT
0.149 GC
2 setlinecap
1 LJ
0.667 LW
N
362.333 374 M
362.333 369.66 L
S
GR
GS
[0.75 0 0 0.75 0 0] CT
0.149 GC
2 setlinecap
1 LJ
0.667 LW
N
434.667 374 M
434.667 369.66 L
S
GR
GS
[0.75 0 0 0.75 0 0] CT
0.149 GC
2 setlinecap
1 LJ
0.667 LW
N
507 374 M
507 369.66 L
S
GR
GS
[0.75 0 0 0.75 0 0] CT
0.149 GC
2 setlinecap
1 LJ
0.667 LW
N
73 31 M
73 35.34 L
S
GR
GS
[0.75 0 0 0.75 0 0] CT
0.149 GC
2 setlinecap
1 LJ
0.667 LW
N
145.333 31 M
145.333 35.34 L
S
GR
GS
[0.75 0 0 0.75 0 0] CT
0.149 GC
2 setlinecap
1 LJ
0.667 LW
N
217.667 31 M
217.667 35.34 L
S
GR
GS
[0.75 0 0 0.75 0 0] CT
0.149 GC
2 setlinecap
1 LJ
0.667 LW
N
290 31 M
290 35.34 L
S
GR
GS
[0.75 0 0 0.75 0 0] CT
0.149 GC
2 setlinecap
1 LJ
0.667 LW
N
362.333 31 M
362.333 35.34 L
S
GR
GS
[0.75 0 0 0.75 0 0] CT
0.149 GC
2 setlinecap
1 LJ
0.667 LW
N
434.667 31 M
434.667 35.34 L
S
GR
GS
[0.75 0 0 0.75 0 0] CT
0.149 GC
2 setlinecap
1 LJ
0.667 LW
N
507 31 M
507 35.34 L
S
GR
GS
[0.75 0 0 0.75 54.75 284.50001] CT
0.149 GC
/Helvetica 13 F
GS
[1 0 0 1 0 0] CT
-4 13 moveto 
1 -1 scale
(0) t 
GR
GR
GS
[0.75 0 0 0.75 109 284.50001] CT
0.149 GC
/Helvetica 13 F
GS
[1 0 0 1 0 0] CT
-11 13 moveto 
1 -1 scale
(200) t 
GR
GR
GS
[0.75 0 0 0.75 163.25 284.50001] CT
0.149 GC
/Helvetica 13 F
GS
[1 0 0 1 0 0] CT
-11 13 moveto 
1 -1 scale
(400) t 
GR
GR
GS
[0.75 0 0 0.75 217.5 284.50001] CT
0.149 GC
/Helvetica 13 F
GS
[1 0 0 1 0 0] CT
-11 13 moveto 
1 -1 scale
(600) t 
GR
GR
GS
[0.75 0 0 0.75 271.75001 284.50001] CT
0.149 GC
/Helvetica 13 F
GS
[1 0 0 1 0 0] CT
-11 13 moveto 
1 -1 scale
(800) t 
GR
GR
GS
[0.75 0 0 0.75 325.99999 284.50001] CT
0.149 GC
/Helvetica 13 F
GS
[1 0 0 1 0 0] CT
-14.5 13 moveto 
1 -1 scale
(1000) t 
GR
GR
GS
[0.75 0 0 0.75 380.25 284.50001] CT
0.149 GC
/Helvetica 13 F
GS
[1 0 0 1 0 0] CT
-14.5 13 moveto 
1 -1 scale
(1200) t 
GR
GR
GS
[0.75 0 0 0.75 217.50016 297.49999] CT
0.149 GC
/Helvetica 15 F
GS
[1 0 0 1 0 0] CT
-11 14 moveto 
1 -1 scale
(t\(s\)) t 
GR
GR
GS
[0.75 0 0 0.75 0 0] CT
0.149 GC
2 setlinecap
1 LJ
0.667 LW
N
73 374 M
73 31 L
S
GR
GS
[0.75 0 0 0.75 0 0] CT
0.149 GC
2 setlinecap
1 LJ
0.667 LW
N
507 374 M
507 31 L
S
GR
GS
[0.75 0 0 0.75 0 0] CT
0.149 GC
2 setlinecap
1 LJ
0.667 LW
N
73 374 M
77.34 374 L
S
GR
GS
[0.75 0 0 0.75 0 0] CT
0.149 GC
2 setlinecap
1 LJ
0.667 LW
N
73 325 M
77.34 325 L
S
GR
GS
[0.75 0 0 0.75 0 0] CT
0.149 GC
2 setlinecap
1 LJ
0.667 LW
N
73 276 M
77.34 276 L
S
GR
GS
[0.75 0 0 0.75 0 0] CT
0.149 GC
2 setlinecap
1 LJ
0.667 LW
N
73 227 M
77.34 227 L
S
GR
GS
[0.75 0 0 0.75 0 0] CT
0.149 GC
2 setlinecap
1 LJ
0.667 LW
N
73 178 M
77.34 178 L
S
GR
GS
[0.75 0 0 0.75 0 0] CT
0.149 GC
2 setlinecap
1 LJ
0.667 LW
N
73 129 M
77.34 129 L
S
GR
GS
[0.75 0 0 0.75 0 0] CT
0.149 GC
2 setlinecap
1 LJ
0.667 LW
N
73 80 M
77.34 80 L
S
GR
GS
[0.75 0 0 0.75 0 0] CT
0.149 GC
2 setlinecap
1 LJ
0.667 LW
N
73 31 M
77.34 31 L
S
GR
GS
[0.75 0 0 0.75 0 0] CT
0.149 GC
2 setlinecap
1 LJ
0.667 LW
N
507 374 M
502.66 374 L
S
GR
GS
[0.75 0 0 0.75 0 0] CT
0.149 GC
2 setlinecap
1 LJ
0.667 LW
N
507 325 M
502.66 325 L
S
GR
GS
[0.75 0 0 0.75 0 0] CT
0.149 GC
2 setlinecap
1 LJ
0.667 LW
N
507 276 M
502.66 276 L
S
GR
GS
[0.75 0 0 0.75 0 0] CT
0.149 GC
2 setlinecap
1 LJ
0.667 LW
N
507 227 M
502.66 227 L
S
GR
GS
[0.75 0 0 0.75 0 0] CT
0.149 GC
2 setlinecap
1 LJ
0.667 LW
N
507 178 M
502.66 178 L
S
GR
GS
[0.75 0 0 0.75 0 0] CT
0.149 GC
2 setlinecap
1 LJ
0.667 LW
N
507 129 M
502.66 129 L
S
GR
GS
[0.75 0 0 0.75 0 0] CT
0.149 GC
2 setlinecap
1 LJ
0.667 LW
N
507 80 M
502.66 80 L
S
GR
GS
[0.75 0 0 0.75 0 0] CT
0.149 GC
2 setlinecap
1 LJ
0.667 LW
N
507 31 M
502.66 31 L
S
GR
GS
[0.75 0 0 0.75 50.75 280.5] CT
0.149 GC
/Helvetica 13 F
GS
[1 0 0 1 0 0] CT
-30 5 moveto 
1 -1 scale
(-0.02) t 
GR
GR
GS
[0.75 0 0 0.75 50.75 243.75] CT
0.149 GC
/Helvetica 13 F
GS
[1 0 0 1 0 0] CT
-8 5 moveto 
1 -1 scale
(0) t 
GR
GR
GS
[0.75 0 0 0.75 50.75 207] CT
0.149 GC
/Helvetica 13 F
GS
[1 0 0 1 0 0] CT
-26 5 moveto 
1 -1 scale
(0.02) t 
GR
GR
GS
[0.75 0 0 0.75 50.75 170.25] CT
0.149 GC
/Helvetica 13 F
GS
[1 0 0 1 0 0] CT
-26 5 moveto 
1 -1 scale
(0.04) t 
GR
GR
GS
[0.75 0 0 0.75 50.75 133.5] CT
0.149 GC
/Helvetica 13 F
GS
[1 0 0 1 0 0] CT
-26 5 moveto 
1 -1 scale
(0.06) t 
GR
GR
GS
[0.75 0 0 0.75 50.75 96.75] CT
0.149 GC
/Helvetica 13 F
GS
[1 0 0 1 0 0] CT
-26 5 moveto 
1 -1 scale
(0.08) t 
GR
GR
GS
[0.75 0 0 0.75 50.75 60] CT
0.149 GC
/Helvetica 13 F
GS
[1 0 0 1 0 0] CT
-19 5 moveto 
1 -1 scale
(0.1) t 
GR
GR
GS
[0.75 0 0 0.75 50.75 23.25] CT
0.149 GC
/Helvetica 13 F
GS
[1 0 0 1 0 0] CT
-26 5 moveto 
1 -1 scale
(0.12) t 
GR
GR
GS
[0.75 0 0 0.75 217.50021 21.1875] CT
/any-Bold 15 F
GS
[1 0 0 1 0 0] CT
-110.5 -4 moveto 
1 -1 scale
(Response of system with R 4.5) t 
GR
GR
GS
[0.75 0 0 0.75 0 0] CT
0 0.447 0.741 RC
1 LJ
0.667 LW
N
73 325 M
73.362 325 L
73.362 80 L
73.362 80 L
73.785 80 L
74.156 80 L
74.607 80 L
75.134 80 L
75.869 80 L
76.936 80 L
78.601 80 L
80.471 80 L
82.071 80 L
83.671 80 L
85.281 80 L
86.82 80 L
88.285 80 L
89.754 80 L
91.299 80 L
92.903 80 L
94.469 80 L
95.943 80 L
97.376 80 L
98.868 80 L
100.452 80 L
102.049 80 L
103.558 80 L
104.985 80 L
106.432 80 L
107.981 80 L
109.599 80 L
111.16 80 L
112.608 80 L
114.021 80 L
115.518 80 L
117.127 80 L
118.739 80 L
120.234 80 L
121.636 80 L
123.076 80 L
124.645 80 L
126.289 80 L
127.849 80 L
129.272 80 L
130.665 80 L
132.17 80 L
133.811 80 L
135.438 80 L
136.914 80 L
138.288 80 L
S
GR
GS
[0.75 0 0 0.75 0 0] CT
0 0.447 0.741 RC
1 LJ
0.667 LW
N
136.914 80 M
138.288 80 L
139.721 80 L
141.317 80 L
142.99 80 L
144.546 80 L
145.939 80 L
147.311 80 L
148.829 80 L
150.505 80 L
152.147 80 L
153.6 80 L
154.943 80 L
156.372 80 L
157.999 80 L
159.703 80 L
161.251 80 L
162.61 80 L
163.961 80 L
165.497 80 L
167.213 80 L
168.867 80 L
170.293 80 L
171.603 80 L
173.031 80 L
174.692 80 L
176.428 80 L
177.964 80 L
179.288 80 L
180.621 80 L
181.5 80 L
181.5 80 L
181.5 80 L
181.722 80 L
181.945 80 L
182.273 80 L
182.694 80 L
183.185 80 L
183.773 80 L
184.492 80 L
185.403 80 L
186.61 80 L
188.259 80 L
190.259 80 L
191.516 80 L
192.772 80 L
194.404 80 L
196.328 80 L
197.617 80 L
198.905 80 L
200.526 80 L
202.399 80 L
S
GR
GS
[0.75 0 0 0.75 0 0] CT
0 0.447 0.741 RC
1 LJ
0.667 LW
N
200.526 80 M
202.399 80 L
203.71 80 L
205.021 80 L
206.633 80 L
208.469 80 L
210.13 80 L
211.459 80 L
212.689 80 L
214.137 80 L
215.907 80 L
217.711 80 L
219.19 80 L
220.421 80 L
221.725 80 L
223.346 80 L
225.2 80 L
226.517 80 L
227.833 80 L
229.441 80 L
231.267 80 L
232.924 80 L
234.259 80 L
235.497 80 L
236.946 80 L
238.71 80 L
240.506 80 L
241.986 80 L
243.223 80 L
244.532 80 L
246.151 80 L
247.999 80 L
249.319 80 L
250.638 80 L
252.244 80 L
254.065 80 L
255.721 80 L
257.058 80 L
258.299 80 L
259.749 80 L
261.51 80 L
263.303 80 L
264.783 80 L
266.023 80 L
267.334 80 L
268.954 80 L
270.798 80 L
272.118 80 L
273.439 80 L
275.045 80 L
276.864 80 L
278.518 80 L
S
GR
GS
[0.75 0 0 0.75 0 0] CT
0 0.447 0.741 RC
1 LJ
0.667 LW
N
276.864 80 M
278.518 80 L
279.857 80 L
281.1 80 L
282.55 80 L
284.31 80 L
286.101 80 L
287.581 80 L
288.822 80 L
290.134 80 L
291.754 80 L
293.596 80 L
294.918 80 L
296.239 80 L
297.844 80 L
299.662 80 L
301.316 80 L
302.655 80 L
303.899 80 L
305.349 80 L
307.109 80 L
308.899 80 L
310.379 80 L
311.621 80 L
312.934 80 L
314.553 80 L
316.395 80 L
317.716 80 L
319.038 80 L
320.643 80 L
322.46 80 L
324.114 80 L
325.453 80 L
326.698 80 L
328.148 80 L
329.907 80 L
331.697 80 L
333.177 80 L
334.42 80 L
335.732 80 L
337.351 80 L
339.193 80 L
340.515 80 L
341.836 80 L
343.441 80 L
345.259 80 L
346.912 80 L
348.252 80 L
349.496 80 L
350.947 80 L
352.706 80 L
354.495 80 L
S
GR
GS
[0.75 0 0 0.75 0 0] CT
0 0.447 0.741 RC
1 LJ
0.667 LW
N
352.706 80 M
354.495 80 L
355.976 80 L
357.218 80 L
358.531 80 L
360.15 80 L
361.991 80 L
363.313 80 L
364.635 80 L
366.24 80 L
368.057 80 L
369.711 80 L
371.05 80 L
372.294 80 L
373.745 80 L
375.504 80 L
377.294 80 L
378.774 80 L
380.016 80 L
381.329 80 L
382.948 80 L
384.79 80 L
386.111 80 L
387.433 80 L
389.038 80 L
390.855 80 L
392.509 80 L
393.848 80 L
395.093 80 L
396.544 80 L
398.302 80 L
400.092 80 L
401.572 80 L
402.815 80 L
404.128 80 L
405.747 80 L
407.588 80 L
408.91 80 L
410.232 80 L
411.837 80 L
413.654 80 L
415.307 80 L
416.647 80 L
417.891 80 L
419.342 80 L
421.101 80 L
422.89 80 L
424.371 80 L
425.613 80 L
426.926 80 L
428.545 80 L
430.386 80 L
S
GR
GS
[0.75 0 0 0.75 0 0] CT
0 0.447 0.741 RC
1 LJ
0.667 LW
N
428.545 80 M
430.386 80 L
431.708 80 L
433.03 80 L
434.635 80 L
436.452 80 L
438.106 80 L
439.445 80 L
440.689 80 L
442.14 80 L
443.899 80 L
445.689 80 L
447.169 80 L
448.411 80 L
449.724 80 L
451.343 80 L
453.185 80 L
454.506 80 L
455.828 80 L
457.433 80 L
459.25 80 L
460.904 80 L
462.243 80 L
463.488 80 L
464.939 80 L
466.697 80 L
468.487 80 L
469.967 80 L
471.21 80 L
472.522 80 L
474.142 80 L
475.983 80 L
477.305 80 L
478.626 80 L
480.231 80 L
482.048 80 L
483.702 80 L
485.042 80 L
486.286 80 L
487.737 80 L
489.495 80 L
491.285 80 L
492.765 80 L
494.008 80 L
495.321 80 L
496.94 80 L
498.781 80 L
500.103 80 L
501.425 80 L
503.03 80 L
504.847 80 L
506.5 80 L
S
GR
GS
[0.75 0 0 0.75 0 0] CT
0 0.447 0.741 RC
1 LJ
0.667 LW
N
504.847 80 M
506.5 80 L
507 80 L
S
GR
GS
[0.75 0 0 0.75 0 0] CT
0.851 0.325 0.098 RC
1 LJ
0.667 LW
N
73 325 M
73.362 325 L
73.362 325 L
73.362 325 L
73.785 325 L
74.156 325 L
74.607 325 L
75.134 325 L
75.869 325 L
76.936 325 L
78.601 325 L
80.471 325 L
82.071 325 L
83.671 325 L
85.281 325 L
86.82 325 L
88.285 325 L
89.754 325 L
91.299 325 L
92.903 325 L
94.469 325 L
95.943 325 L
97.376 325 L
98.868 325 L
100.452 325 L
102.049 325 L
103.558 325 L
104.985 325 L
106.432 325 L
107.981 325 L
109.599 325 L
111.16 325 L
112.608 325 L
114.021 325 L
115.518 325 L
117.127 325 L
118.739 325 L
120.234 325 L
121.636 325 L
123.076 325 L
124.645 325 L
126.289 325 L
127.849 325 L
129.272 325 L
130.665 325 L
132.17 325 L
133.811 325 L
135.438 325 L
136.914 325 L
138.288 325 L
S
GR
GS
[0.75 0 0 0.75 0 0] CT
0.851 0.325 0.098 RC
1 LJ
0.667 LW
N
136.914 325 M
138.288 325 L
139.721 325 L
141.317 325 L
142.99 325 L
144.546 325 L
145.939 325 L
147.311 325 L
148.829 325 L
150.505 325 L
152.147 325 L
153.6 325 L
154.943 325 L
156.372 325 L
157.999 325 L
159.703 325 L
161.251 325 L
162.61 325 L
163.961 325 L
165.497 325 L
167.213 325 L
168.867 325 L
170.293 325 L
171.603 325 L
173.031 325 L
174.692 325 L
176.428 325 L
177.964 325 L
179.288 325 L
180.621 325 L
181.5 325 L
181.5 80 L
181.5 80 L
181.722 80 L
181.945 80 L
182.273 80 L
182.694 80 L
183.185 80 L
183.773 80 L
184.492 80 L
185.403 80 L
186.61 80 L
188.259 80 L
190.259 80 L
191.516 80 L
192.772 80 L
194.404 80 L
196.328 80 L
197.617 80 L
198.905 80 L
200.526 80 L
202.399 80 L
S
GR
GS
[0.75 0 0 0.75 0 0] CT
0.851 0.325 0.098 RC
1 LJ
0.667 LW
N
200.526 80 M
202.399 80 L
203.71 80 L
205.021 80 L
206.633 80 L
208.469 80 L
210.13 80 L
211.459 80 L
212.689 80 L
214.137 80 L
215.907 80 L
217.711 80 L
219.19 80 L
220.421 80 L
221.725 80 L
223.346 80 L
225.2 80 L
226.517 80 L
227.833 80 L
229.441 80 L
231.267 80 L
232.924 80 L
234.259 80 L
235.497 80 L
236.946 80 L
238.71 80 L
240.506 80 L
241.986 80 L
243.223 80 L
244.532 80 L
246.151 80 L
247.999 80 L
249.319 80 L
250.638 80 L
252.244 80 L
254.065 80 L
255.721 80 L
257.058 80 L
258.299 80 L
259.749 80 L
261.51 80 L
263.303 80 L
264.783 80 L
266.023 80 L
267.334 80 L
268.954 80 L
270.798 80 L
272.118 80 L
273.439 80 L
275.045 80 L
276.864 80 L
278.518 80 L
S
GR
GS
[0.75 0 0 0.75 0 0] CT
0.851 0.325 0.098 RC
1 LJ
0.667 LW
N
276.864 80 M
278.518 80 L
279.857 80 L
281.1 80 L
282.55 80 L
284.31 80 L
286.101 80 L
287.581 80 L
288.822 80 L
290.134 80 L
291.754 80 L
293.596 80 L
294.918 80 L
296.239 80 L
297.844 80 L
299.662 80 L
301.316 80 L
302.655 80 L
303.899 80 L
305.349 80 L
307.109 80 L
308.899 80 L
310.379 80 L
311.621 80 L
312.934 80 L
314.553 80 L
316.395 80 L
317.716 80 L
319.038 80 L
320.643 80 L
322.46 80 L
324.114 80 L
325.453 80 L
326.698 80 L
328.148 80 L
329.907 80 L
331.697 80 L
333.177 80 L
334.42 80 L
335.732 80 L
337.351 80 L
339.193 80 L
340.515 80 L
341.836 80 L
343.441 80 L
345.259 80 L
346.912 80 L
348.252 80 L
349.496 80 L
350.947 80 L
352.706 80 L
354.495 80 L
S
GR
GS
[0.75 0 0 0.75 0 0] CT
0.851 0.325 0.098 RC
1 LJ
0.667 LW
N
352.706 80 M
354.495 80 L
355.976 80 L
357.218 80 L
358.531 80 L
360.15 80 L
361.991 80 L
363.313 80 L
364.635 80 L
366.24 80 L
368.057 80 L
369.711 80 L
371.05 80 L
372.294 80 L
373.745 80 L
375.504 80 L
377.294 80 L
378.774 80 L
380.016 80 L
381.329 80 L
382.948 80 L
384.79 80 L
386.111 80 L
387.433 80 L
389.038 80 L
390.855 80 L
392.509 80 L
393.848 80 L
395.093 80 L
396.544 80 L
398.302 80 L
400.092 80 L
401.572 80 L
402.815 80 L
404.128 80 L
405.747 80 L
407.588 80 L
408.91 80 L
410.232 80 L
411.837 80 L
413.654 80 L
415.307 80 L
416.647 80 L
417.891 80 L
419.342 80 L
421.101 80 L
422.89 80 L
424.371 80 L
425.613 80 L
426.926 80 L
428.545 80 L
430.386 80 L
S
GR
GS
[0.75 0 0 0.75 0 0] CT
0.851 0.325 0.098 RC
1 LJ
0.667 LW
N
428.545 80 M
430.386 80 L
431.708 80 L
433.03 80 L
434.635 80 L
436.452 80 L
438.106 80 L
439.445 80 L
440.689 80 L
442.14 80 L
443.899 80 L
445.689 80 L
447.169 80 L
448.411 80 L
449.724 80 L
451.343 80 L
453.185 80 L
454.506 80 L
455.828 80 L
457.433 80 L
459.25 80 L
460.904 80 L
462.243 80 L
463.488 80 L
464.939 80 L
466.697 80 L
468.487 80 L
469.967 80 L
471.21 80 L
472.522 80 L
474.142 80 L
475.983 80 L
477.305 80 L
478.626 80 L
480.231 80 L
482.048 80 L
483.702 80 L
485.042 80 L
486.286 80 L
487.737 80 L
489.495 80 L
491.285 80 L
492.765 80 L
494.008 80 L
495.321 80 L
496.94 80 L
498.781 80 L
500.103 80 L
501.425 80 L
503.03 80 L
504.847 80 L
506.5 80 L
S
GR
GS
[0.75 0 0 0.75 0 0] CT
0.851 0.325 0.098 RC
1 LJ
0.667 LW
N
504.847 80 M
506.5 80 L
507 80 L
S
GR
GS
[0.75 0 0 0.75 0 0] CT
0.929 0.694 0.125 RC
1 LJ
0.667 LW
N
73 325 M
73.362 325 L
73.362 325 L
73.362 325 L
73.785 324.942 L
74.156 324.798 L
74.607 324.514 L
75.134 324.042 L
75.869 323.158 L
76.936 321.455 L
78.601 317.933 L
80.471 312.911 L
82.071 307.845 L
83.671 302.174 L
85.281 295.945 L
86.82 289.574 L
88.285 283.194 L
89.754 276.543 L
91.299 269.331 L
92.903 261.665 L
94.469 254.055 L
95.943 246.829 L
97.376 239.773 L
98.868 232.438 L
100.452 224.692 L
102.049 216.963 L
103.558 209.763 L
104.985 203.066 L
106.432 196.408 L
107.981 189.445 L
109.599 182.376 L
111.16 175.764 L
112.608 169.827 L
114.021 164.225 L
115.518 158.505 L
117.127 152.604 L
118.739 146.959 L
120.234 141.964 L
121.636 137.49 L
123.076 133.112 L
124.645 128.583 L
126.289 124.111 L
127.849 120.12 L
129.272 116.692 L
130.665 113.528 L
132.17 110.317 L
133.811 107.059 L
135.438 104.066 L
136.914 101.549 L
138.288 99.372 L
S
GR
GS
[0.75 0 0 0.75 0 0] CT
0.929 0.694 0.125 RC
1 LJ
0.667 LW
N
136.914 101.549 M
138.288 99.372 L
139.721 97.263 L
141.317 95.104 L
142.99 93.042 L
144.546 91.301 L
145.939 89.881 L
147.311 88.602 L
148.829 87.32 L
150.505 86.057 L
152.147 84.965 L
153.6 84.111 L
154.943 83.41 L
156.372 82.75 L
157.999 82.1 L
159.703 81.526 L
161.251 81.092 L
162.61 80.773 L
163.961 80.51 L
165.497 80.27 L
167.213 80.07 L
168.867 79.938 L
170.293 79.867 L
171.603 79.832 L
173.031 79.826 L
174.692 79.854 L
176.428 79.918 L
177.964 80.001 L
179.288 80.088 L
180.621 80.19 L
181.5 80.262 L
181.5 80.262 L
181.5 80.262 L
181.722 80.282 L
181.945 80.301 L
182.273 80.33 L
182.694 80.368 L
183.185 80.414 L
183.773 80.47 L
184.492 80.54 L
185.403 80.631 L
186.61 80.755 L
188.259 80.929 L
190.259 81.144 L
191.516 81.279 L
192.772 81.414 L
194.404 81.586 L
196.328 81.783 L
197.617 81.911 L
198.905 82.035 L
200.526 82.184 L
202.399 82.346 L
S
GR
GS
[0.75 0 0 0.75 0 0] CT
0.929 0.694 0.125 RC
1 LJ
0.667 LW
N
200.526 82.184 M
202.399 82.346 L
203.71 82.452 L
205.021 82.552 L
206.633 82.666 L
208.469 82.785 L
210.13 82.88 L
211.459 82.949 L
212.689 83.007 L
214.137 83.067 L
215.907 83.129 L
217.711 83.181 L
219.19 83.214 L
220.421 83.235 L
221.725 83.252 L
223.346 83.266 L
225.2 83.271 L
226.517 83.268 L
227.833 83.26 L
229.441 83.243 L
231.267 83.217 L
232.924 83.185 L
234.259 83.156 L
235.497 83.125 L
236.946 83.085 L
238.71 83.032 L
240.506 82.972 L
241.986 82.919 L
243.223 82.873 L
244.532 82.823 L
246.151 82.758 L
247.999 82.681 L
249.319 82.624 L
250.638 82.567 L
252.244 82.496 L
254.065 82.414 L
255.721 82.339 L
257.058 82.278 L
258.299 82.221 L
259.749 82.155 L
261.51 82.075 L
263.303 81.995 L
264.783 81.929 L
266.023 81.874 L
267.334 81.817 L
268.954 81.747 L
270.798 81.67 L
272.118 81.615 L
273.439 81.562 L
275.045 81.499 L
276.864 81.429 L
278.518 81.367 L
S
GR
GS
[0.75 0 0 0.75 0 0] CT
0.929 0.694 0.125 RC
1 LJ
0.667 LW
N
276.864 81.429 M
278.518 81.367 L
279.857 81.318 L
281.1 81.274 L
282.55 81.224 L
284.31 81.166 L
286.101 81.108 L
287.581 81.063 L
288.822 81.026 L
290.134 80.988 L
291.754 80.943 L
293.596 80.894 L
294.918 80.86 L
296.239 80.827 L
297.844 80.789 L
299.662 80.749 L
301.316 80.713 L
302.655 80.686 L
303.899 80.661 L
305.349 80.634 L
307.109 80.603 L
308.899 80.572 L
310.379 80.548 L
311.621 80.529 L
312.934 80.51 L
314.553 80.487 L
316.395 80.463 L
317.716 80.447 L
319.038 80.431 L
320.643 80.413 L
322.46 80.393 L
324.114 80.377 L
325.453 80.364 L
326.698 80.353 L
328.148 80.34 L
329.907 80.325 L
331.697 80.312 L
333.177 80.301 L
334.42 80.292 L
335.732 80.284 L
337.351 80.273 L
339.193 80.262 L
340.515 80.255 L
341.836 80.248 L
343.441 80.24 L
345.259 80.231 L
346.912 80.223 L
348.252 80.217 L
349.496 80.212 L
350.947 80.206 L
352.706 80.199 L
354.495 80.193 L
S
GR
GS
[0.75 0 0 0.75 0 0] CT
0.929 0.694 0.125 RC
1 LJ
0.667 LW
N
352.706 80.199 M
354.495 80.193 L
355.976 80.188 L
357.218 80.183 L
358.531 80.179 L
360.15 80.174 L
361.991 80.168 L
363.313 80.165 L
364.635 80.161 L
366.24 80.156 L
368.057 80.152 L
369.711 80.147 L
371.05 80.144 L
372.294 80.141 L
373.745 80.138 L
375.504 80.134 L
377.294 80.13 L
378.774 80.127 L
380.016 80.124 L
381.329 80.121 L
382.948 80.118 L
384.79 80.114 L
386.111 80.112 L
387.433 80.109 L
389.038 80.106 L
390.855 80.103 L
392.509 80.1 L
393.848 80.098 L
395.093 80.096 L
396.544 80.093 L
398.302 80.09 L
400.092 80.087 L
401.572 80.085 L
402.815 80.083 L
404.128 80.081 L
405.747 80.079 L
407.588 80.076 L
408.91 80.074 L
410.232 80.072 L
411.837 80.07 L
413.654 80.068 L
415.307 80.066 L
416.647 80.064 L
417.891 80.062 L
419.342 80.061 L
421.101 80.059 L
422.89 80.057 L
424.371 80.055 L
425.613 80.054 L
426.926 80.052 L
428.545 80.05 L
430.386 80.049 L
S
GR
GS
[0.75 0 0 0.75 0 0] CT
0.929 0.694 0.125 RC
1 LJ
0.667 LW
N
428.545 80.05 M
430.386 80.049 L
431.708 80.047 L
433.03 80.046 L
434.635 80.044 L
436.452 80.043 L
438.106 80.041 L
439.445 80.04 L
440.689 80.039 L
442.14 80.038 L
443.899 80.037 L
445.689 80.035 L
447.169 80.034 L
448.411 80.033 L
449.724 80.032 L
451.343 80.031 L
453.185 80.03 L
454.506 80.029 L
455.828 80.028 L
457.433 80.027 L
459.25 80.026 L
460.904 80.025 L
462.243 80.024 L
463.488 80.024 L
464.939 80.023 L
466.697 80.022 L
468.487 80.021 L
469.967 80.021 L
471.21 80.02 L
472.522 80.02 L
474.142 80.019 L
475.983 80.018 L
477.305 80.018 L
478.626 80.017 L
480.231 80.017 L
482.048 80.016 L
483.702 80.015 L
485.042 80.015 L
486.286 80.014 L
487.737 80.014 L
489.495 80.014 L
491.285 80.013 L
492.765 80.013 L
494.008 80.012 L
495.321 80.012 L
496.94 80.012 L
498.781 80.011 L
500.103 80.011 L
501.425 80.01 L
503.03 80.01 L
504.847 80.01 L
506.5 80.009 L
S
GR
GS
[0.75 0 0 0.75 0 0] CT
0.929 0.694 0.125 RC
1 LJ
0.667 LW
N
504.847 80.01 M
506.5 80.009 L
507 80.009 L
S
GR
GS
[0.75 0 0 0.75 0 0] CT
0.494 0.184 0.557 RC
1 LJ
0.667 LW
N
73 325 M
73.362 325 L
73.362 325 L
73.362 325 L
73.785 325 L
74.156 325 L
74.607 325 L
75.134 325 L
75.869 325 L
76.936 325 L
78.601 325 L
80.471 325 L
82.071 325 L
83.671 325 L
85.281 325 L
86.82 325 L
88.285 325 L
89.754 325 L
91.299 325 L
92.903 325 L
94.469 325 L
95.943 325 L
97.376 325 L
98.868 325 L
100.452 325 L
102.049 325 L
103.558 325 L
104.985 325 L
106.432 325 L
107.981 325 L
109.599 325 L
111.16 325 L
112.608 325 L
114.021 325 L
115.518 325 L
117.127 325 L
118.739 325 L
120.234 325 L
121.636 325 L
123.076 325 L
124.645 325 L
126.289 325 L
127.849 325 L
129.272 325 L
130.665 325 L
132.17 325 L
133.811 325 L
135.438 325 L
136.914 325 L
138.288 325 L
S
GR
GS
[0.75 0 0 0.75 0 0] CT
0.494 0.184 0.557 RC
1 LJ
0.667 LW
N
136.914 325 M
138.288 325 L
139.721 325 L
141.317 325 L
142.99 325 L
144.546 325 L
145.939 325 L
147.311 325 L
148.829 325 L
150.505 325 L
152.147 325 L
153.6 325 L
154.943 325 L
156.372 325 L
157.999 325 L
159.703 325 L
161.251 325 L
162.61 325 L
163.961 325 L
165.497 325 L
167.213 325 L
168.867 325 L
170.293 325 L
171.603 325 L
173.031 325 L
174.692 325 L
176.428 325 L
177.964 325 L
179.288 325 L
180.621 325 L
181.5 325 L
181.5 325 L
181.5 325 L
181.722 324.984 L
181.945 324.935 L
182.273 324.808 L
182.694 324.552 L
183.185 324.131 L
183.773 323.467 L
184.492 322.442 L
185.403 320.837 L
186.61 318.242 L
188.259 313.931 L
190.259 307.677 L
191.516 303.256 L
192.772 298.507 L
194.404 291.909 L
196.328 283.615 L
197.617 277.808 L
198.905 271.837 L
200.526 264.144 L
202.399 255.071 L
S
GR
GS
[0.75 0 0 0.75 0 0] CT
0.494 0.184 0.557 RC
1 LJ
0.667 LW
N
200.526 264.144 M
202.399 255.071 L
203.71 248.65 L
205.021 242.201 L
206.633 234.272 L
208.469 225.283 L
210.13 217.239 L
211.459 210.888 L
212.689 205.09 L
214.137 198.388 L
215.907 190.388 L
217.711 182.487 L
219.19 176.215 L
220.421 171.144 L
221.725 165.927 L
223.346 159.672 L
225.2 152.837 L
226.517 148.198 L
227.833 143.738 L
229.441 138.537 L
231.267 132.955 L
232.924 128.188 L
234.259 124.555 L
235.497 121.348 L
236.946 117.789 L
238.71 113.735 L
240.506 109.911 L
241.986 106.987 L
243.223 104.694 L
244.532 102.415 L
246.151 99.795 L
247.999 97.066 L
249.319 95.281 L
250.638 93.625 L
252.244 91.776 L
254.065 89.892 L
255.721 88.362 L
257.058 87.247 L
258.299 86.303 L
259.749 85.306 L
261.51 84.238 L
263.303 83.301 L
264.783 82.633 L
266.023 82.142 L
267.334 81.686 L
268.954 81.206 L
270.798 80.762 L
272.118 80.506 L
273.439 80.297 L
275.045 80.1 L
276.864 79.946 L
278.518 79.863 L
S
GR
GS
[0.75 0 0 0.75 0 0] CT
0.494 0.184 0.557 RC
1 LJ
0.667 LW
N
276.864 79.946 M
278.518 79.863 L
279.857 79.83 L
281.1 79.825 L
282.55 79.846 L
284.31 79.906 L
286.101 80 L
287.581 80.099 L
288.822 80.195 L
290.134 80.306 L
291.754 80.455 L
293.596 80.637 L
294.918 80.773 L
296.239 80.912 L
297.844 81.084 L
299.662 81.28 L
301.316 81.457 L
302.655 81.598 L
303.899 81.726 L
305.349 81.871 L
307.109 82.041 L
308.899 82.205 L
310.379 82.332 L
311.621 82.434 L
312.934 82.535 L
314.553 82.651 L
316.395 82.772 L
317.716 82.85 L
319.038 82.921 L
320.643 82.998 L
322.46 83.074 L
324.114 83.131 L
325.453 83.17 L
326.698 83.201 L
328.148 83.229 L
329.907 83.253 L
331.697 83.267 L
333.177 83.271 L
334.42 83.269 L
335.732 83.261 L
337.351 83.246 L
339.193 83.22 L
340.515 83.196 L
341.836 83.169 L
343.441 83.13 L
345.259 83.08 L
346.912 83.03 L
348.252 82.985 L
349.496 82.942 L
350.947 82.889 L
352.706 82.821 L
354.495 82.749 L
S
GR
GS
[0.75 0 0 0.75 0 0] CT
0.494 0.184 0.557 RC
1 LJ
0.667 LW
N
352.706 82.821 M
354.495 82.749 L
355.976 82.688 L
357.218 82.635 L
358.531 82.577 L
360.15 82.506 L
361.991 82.423 L
363.313 82.363 L
364.635 82.303 L
366.24 82.23 L
368.057 82.147 L
369.711 82.073 L
371.05 82.012 L
372.294 81.957 L
373.745 81.892 L
375.504 81.816 L
377.294 81.739 L
378.774 81.677 L
380.016 81.625 L
381.329 81.572 L
382.948 81.508 L
384.79 81.437 L
386.111 81.387 L
387.433 81.339 L
389.038 81.281 L
390.855 81.219 L
392.509 81.164 L
393.848 81.121 L
395.093 81.082 L
396.544 81.038 L
398.302 80.987 L
400.092 80.937 L
401.572 80.898 L
402.815 80.866 L
404.128 80.833 L
405.747 80.795 L
407.588 80.753 L
408.91 80.725 L
410.232 80.697 L
411.837 80.665 L
413.654 80.631 L
415.307 80.602 L
416.647 80.579 L
417.891 80.558 L
419.342 80.536 L
421.101 80.51 L
422.89 80.485 L
424.371 80.465 L
425.613 80.45 L
426.926 80.434 L
428.545 80.415 L
430.386 80.395 L
S
GR
GS
[0.75 0 0 0.75 0 0] CT
0.494 0.184 0.557 RC
1 LJ
0.667 LW
N
428.545 80.415 M
430.386 80.395 L
431.708 80.382 L
433.03 80.369 L
434.635 80.354 L
436.452 80.339 L
438.106 80.325 L
439.445 80.315 L
440.689 80.305 L
442.14 80.295 L
443.899 80.283 L
445.689 80.272 L
447.169 80.263 L
448.411 80.256 L
449.724 80.249 L
451.343 80.241 L
453.185 80.232 L
454.506 80.226 L
455.828 80.22 L
457.433 80.213 L
459.25 80.206 L
460.904 80.199 L
462.243 80.194 L
463.488 80.19 L
464.939 80.185 L
466.697 80.179 L
468.487 80.173 L
469.967 80.169 L
471.21 80.165 L
472.522 80.162 L
474.142 80.157 L
475.983 80.152 L
477.305 80.149 L
478.626 80.146 L
480.231 80.142 L
482.048 80.137 L
483.702 80.134 L
485.042 80.131 L
486.286 80.128 L
487.737 80.125 L
489.495 80.121 L
491.285 80.118 L
492.765 80.115 L
494.008 80.112 L
495.321 80.11 L
496.94 80.107 L
498.781 80.103 L
500.103 80.101 L
501.425 80.099 L
503.03 80.096 L
504.847 80.093 L
506.5 80.09 L
S
GR
GS
[0.75 0 0 0.75 0 0] CT
0.494 0.184 0.557 RC
1 LJ
0.667 LW
N
504.847 80.093 M
506.5 80.09 L
507 80.089 L
S
GR
GS
[0.75 0 0 0.75 0 0] CT
1 GC
N
422 112 M
422 44 L
494 44 L
494 112 L
cp
f
GR
GS
[0.75 0 0 0.75 355.5 40.7005] CT
/Helvetica 12 F
GS
[1 0 0 1 0 0] CT
0 4.5 moveto 
1 -1 scale
(w1) t 
GR
GR
GS
[0.75 0 0 0.75 0 0] CT
0 0.447 0.741 RC
1 LJ
0.667 LW
N
430 54.267 M
470 54.267 L
S
GR
GS
[0.75 0 0 0.75 355.5 52.56683] CT
/Helvetica 12 F
GS
[1 0 0 1 0 0] CT
0 4.5 moveto 
1 -1 scale
(w2) t 
GR
GR
GS
[0.75 0 0 0.75 0 0] CT
0.851 0.325 0.098 RC
1 LJ
0.667 LW
N
430 70.089 M
470 70.089 L
S
GR
GS
[0.75 0 0 0.75 355.5 64.43317] CT
/Helvetica 12 F
GS
[1 0 0 1 0 0] CT
0 4.5 moveto 
1 -1 scale
(y1) t 
GR
GR
GS
[0.75 0 0 0.75 0 0] CT
0.929 0.694 0.125 RC
1 LJ
0.667 LW
N
430 85.911 M
470 85.911 L
S
GR
GS
[0.75 0 0 0.75 355.5 76.29951] CT
/Helvetica 12 F
GS
[1 0 0 1 0 0] CT
0 4.5 moveto 
1 -1 scale
(y2) t 
GR
GR
GS
[0.75 0 0 0.75 0 0] CT
0.494 0.184 0.557 RC
1 LJ
0.667 LW
N
430 101.733 M
470 101.733 L
S
GR
GS
[0.75 0 0 0.75 0 0] CT
0.149 GC
10.0 ML
0.667 LW
N
422 112 M
422 44 L
494 44 L
494 112 L
cp
S
GR
%%Trailer
%%Pages: 1
%%EOF
