%!PS-Adobe-3.0 EPSF-3.0
%%Creator: (MATLAB, The Mathworks, Inc. Version 8.6.0.267246 \(R2015b\). Operating System: Windows 8)
%%Title: E:/Projects/skola/rls/pics/SP4/r_5_u.eps
%%CreationDate: 2017-03-21T18:11:30
%%Pages: (atend)
%%BoundingBox: 0 0 420 315
%%LanguageLevel: 2
%%EndComments
%%BeginProlog
%%BeginResource: procset (Apache XML Graphics Std ProcSet) 1.2 0
%%Version: 1.2 0
%%Copyright: (Copyright 2001-2003,2010 The Apache Software Foundation. License terms: http://www.apache.org/licenses/LICENSE-2.0)
/bd{bind def}bind def
/ld{load def}bd
/GR/grestore ld
/M/moveto ld
/LJ/setlinejoin ld
/C/curveto ld
/f/fill ld
/LW/setlinewidth ld
/GC/setgray ld
/t/show ld
/N/newpath ld
/CT/concat ld
/cp/closepath ld
/S/stroke ld
/L/lineto ld
/CC/setcmykcolor ld
/A/ashow ld
/GS/gsave ld
/RC/setrgbcolor ld
/RM/rmoveto ld
/ML/setmiterlimit ld
/re {4 2 roll M
1 index 0 rlineto
0 exch rlineto
neg 0 rlineto
cp } bd
/_ctm matrix def
/_tm matrix def
/BT { _ctm currentmatrix pop matrix _tm copy pop 0 0 moveto } bd
/ET { _ctm setmatrix } bd
/iTm { _ctm setmatrix _tm concat } bd
/Tm { _tm astore pop iTm 0 0 moveto } bd
/ux 0.0 def
/uy 0.0 def
/F {
  /Tp exch def
  /Tf exch def
  Tf findfont Tp scalefont setfont
  /cf Tf def  /cs Tp def
} bd
/ULS {currentpoint /uy exch def /ux exch def} bd
/ULE {
  /Tcx currentpoint pop def
  gsave
  newpath
  cf findfont cs scalefont dup
  /FontMatrix get 0 get /Ts exch def /FontInfo get dup
  /UnderlinePosition get Ts mul /To exch def
  /UnderlineThickness get Ts mul /Tt exch def
  ux uy To add moveto  Tcx uy To add lineto
  Tt setlinewidth stroke
  grestore
} bd
/OLE {
  /Tcx currentpoint pop def
  gsave
  newpath
  cf findfont cs scalefont dup
  /FontMatrix get 0 get /Ts exch def /FontInfo get dup
  /UnderlinePosition get Ts mul /To exch def
  /UnderlineThickness get Ts mul /Tt exch def
  ux uy To add cs add moveto Tcx uy To add cs add lineto
  Tt setlinewidth stroke
  grestore
} bd
/SOE {
  /Tcx currentpoint pop def
  gsave
  newpath
  cf findfont cs scalefont dup
  /FontMatrix get 0 get /Ts exch def /FontInfo get dup
  /UnderlinePosition get Ts mul /To exch def
  /UnderlineThickness get Ts mul /Tt exch def
  ux uy To add cs 10 mul 26 idiv add moveto Tcx uy To add cs 10 mul 26 idiv add lineto
  Tt setlinewidth stroke
  grestore
} bd
/QT {
/Y22 exch store
/X22 exch store
/Y21 exch store
/X21 exch store
currentpoint
/Y21 load 2 mul add 3 div exch
/X21 load 2 mul add 3 div exch
/X21 load 2 mul /X22 load add 3 div
/Y21 load 2 mul /Y22 load add 3 div
/X22 load /Y22 load curveto
} bd
/SSPD {
dup length /d exch dict def
{
/v exch def
/k exch def
currentpagedevice k known {
/cpdv currentpagedevice k get def
v cpdv ne {
/upd false def
/nullv v type /nulltype eq def
/nullcpdv cpdv type /nulltype eq def
nullv nullcpdv or
{
/upd true def
} {
/sametype v type cpdv type eq def
sametype {
v type /arraytype eq {
/vlen v length def
/cpdvlen cpdv length def
vlen cpdvlen eq {
0 1 vlen 1 sub {
/i exch def
/obj v i get def
/cpdobj cpdv i get def
obj cpdobj ne {
/upd true def
exit
} if
} for
} {
/upd true def
} ifelse
} {
v type /dicttype eq {
v {
/dv exch def
/dk exch def
/cpddv cpdv dk get def
dv cpddv ne {
/upd true def
exit
} if
} forall
} {
/upd true def
} ifelse
} ifelse
} if
} ifelse
upd true eq {
d k v put
} if
} if
} if
} forall
d length 0 gt {
d setpagedevice
} if
} bd
%%EndResource
%%BeginResource: procset (Apache XML Graphics EPS ProcSet) 1.0 0
%%Version: 1.0 0
%%Copyright: (Copyright 2002-2003 The Apache Software Foundation. License terms: http://www.apache.org/licenses/LICENSE-2.0)
/BeginEPSF { %def
/b4_Inc_state save def         % Save state for cleanup
/dict_count countdictstack def % Count objects on dict stack
/op_count count 1 sub def      % Count objects on operand stack
userdict begin                 % Push userdict on dict stack
/showpage { } def              % Redefine showpage, { } = null proc
0 setgray 0 setlinecap         % Prepare graphics state
1 setlinewidth 0 setlinejoin
10 setmiterlimit [ ] 0 setdash newpath
/languagelevel where           % If level not equal to 1 then
{pop languagelevel             % set strokeadjust and
1 ne                           % overprint to their defaults.
{false setstrokeadjust false setoverprint
} if
} if
} bd
/EndEPSF { %def
count op_count sub {pop} repeat            % Clean up stacks
countdictstack dict_count sub {end} repeat
b4_Inc_state restore
} bd
%%EndResource
%FOPBeginFontDict
%%IncludeResource: font Courier-Bold
%%IncludeResource: font Helvetica
%%IncludeResource: font Courier-BoldOblique
%%IncludeResource: font Courier-Oblique
%%IncludeResource: font Times-Roman
%%IncludeResource: font Helvetica-BoldOblique
%%IncludeResource: font Helvetica-Bold
%%IncludeResource: font Helvetica-Oblique
%%IncludeResource: font Times-BoldItalic
%%IncludeResource: font Courier
%%IncludeResource: font Times-Italic
%%IncludeResource: font Times-Bold
%%IncludeResource: font Symbol
%%IncludeResource: font ZapfDingbats
%FOPEndFontDict
%%BeginResource: encoding WinAnsiEncoding
/WinAnsiEncoding [
/.notdef /.notdef /.notdef /.notdef /.notdef
/.notdef /.notdef /.notdef /.notdef /.notdef
/.notdef /.notdef /.notdef /.notdef /.notdef
/.notdef /.notdef /.notdef /.notdef /.notdef
/.notdef /.notdef /.notdef /.notdef /.notdef
/.notdef /.notdef /.notdef /.notdef /.notdef
/.notdef /.notdef /space /exclam /quotedbl
/numbersign /dollar /percent /ampersand /quotesingle
/parenleft /parenright /asterisk /plus /comma
/hyphen /period /slash /zero /one
/two /three /four /five /six
/seven /eight /nine /colon /semicolon
/less /equal /greater /question /at
/A /B /C /D /E
/F /G /H /I /J
/K /L /M /N /O
/P /Q /R /S /T
/U /V /W /X /Y
/Z /bracketleft /backslash /bracketright /asciicircum
/underscore /quoteleft /a /b /c
/d /e /f /g /h
/i /j /k /l /m
/n /o /p /q /r
/s /t /u /v /w
/x /y /z /braceleft /bar
/braceright /asciitilde /bullet /Euro /bullet
/quotesinglbase /florin /quotedblbase /ellipsis /dagger
/daggerdbl /circumflex /perthousand /Scaron /guilsinglleft
/OE /bullet /Zcaron /bullet /bullet
/quoteleft /quoteright /quotedblleft /quotedblright /bullet
/endash /emdash /asciitilde /trademark /scaron
/guilsinglright /oe /bullet /zcaron /Ydieresis
/space /exclamdown /cent /sterling /currency
/yen /brokenbar /section /dieresis /copyright
/ordfeminine /guillemotleft /logicalnot /sfthyphen /registered
/macron /degree /plusminus /twosuperior /threesuperior
/acute /mu /paragraph /middot /cedilla
/onesuperior /ordmasculine /guillemotright /onequarter /onehalf
/threequarters /questiondown /Agrave /Aacute /Acircumflex
/Atilde /Adieresis /Aring /AE /Ccedilla
/Egrave /Eacute /Ecircumflex /Edieresis /Igrave
/Iacute /Icircumflex /Idieresis /Eth /Ntilde
/Ograve /Oacute /Ocircumflex /Otilde /Odieresis
/multiply /Oslash /Ugrave /Uacute /Ucircumflex
/Udieresis /Yacute /Thorn /germandbls /agrave
/aacute /acircumflex /atilde /adieresis /aring
/ae /ccedilla /egrave /eacute /ecircumflex
/edieresis /igrave /iacute /icircumflex /idieresis
/eth /ntilde /ograve /oacute /ocircumflex
/otilde /odieresis /divide /oslash /ugrave
/uacute /ucircumflex /udieresis /yacute /thorn
/ydieresis
] def
%%EndResource
%FOPBeginFontReencode
/Courier-Bold findfont
dup length dict begin
  {1 index /FID ne {def} {pop pop} ifelse} forall
  /Encoding WinAnsiEncoding def
  currentdict
end
/Courier-Bold exch definefont pop
/Helvetica findfont
dup length dict begin
  {1 index /FID ne {def} {pop pop} ifelse} forall
  /Encoding WinAnsiEncoding def
  currentdict
end
/Helvetica exch definefont pop
/Courier-BoldOblique findfont
dup length dict begin
  {1 index /FID ne {def} {pop pop} ifelse} forall
  /Encoding WinAnsiEncoding def
  currentdict
end
/Courier-BoldOblique exch definefont pop
/Courier-Oblique findfont
dup length dict begin
  {1 index /FID ne {def} {pop pop} ifelse} forall
  /Encoding WinAnsiEncoding def
  currentdict
end
/Courier-Oblique exch definefont pop
/Times-Roman findfont
dup length dict begin
  {1 index /FID ne {def} {pop pop} ifelse} forall
  /Encoding WinAnsiEncoding def
  currentdict
end
/Times-Roman exch definefont pop
/Helvetica-BoldOblique findfont
dup length dict begin
  {1 index /FID ne {def} {pop pop} ifelse} forall
  /Encoding WinAnsiEncoding def
  currentdict
end
/Helvetica-BoldOblique exch definefont pop
/Helvetica-Bold findfont
dup length dict begin
  {1 index /FID ne {def} {pop pop} ifelse} forall
  /Encoding WinAnsiEncoding def
  currentdict
end
/Helvetica-Bold exch definefont pop
/Helvetica-Oblique findfont
dup length dict begin
  {1 index /FID ne {def} {pop pop} ifelse} forall
  /Encoding WinAnsiEncoding def
  currentdict
end
/Helvetica-Oblique exch definefont pop
/Times-BoldItalic findfont
dup length dict begin
  {1 index /FID ne {def} {pop pop} ifelse} forall
  /Encoding WinAnsiEncoding def
  currentdict
end
/Times-BoldItalic exch definefont pop
/Courier findfont
dup length dict begin
  {1 index /FID ne {def} {pop pop} ifelse} forall
  /Encoding WinAnsiEncoding def
  currentdict
end
/Courier exch definefont pop
/Times-Italic findfont
dup length dict begin
  {1 index /FID ne {def} {pop pop} ifelse} forall
  /Encoding WinAnsiEncoding def
  currentdict
end
/Times-Italic exch definefont pop
/Times-Bold findfont
dup length dict begin
  {1 index /FID ne {def} {pop pop} ifelse} forall
  /Encoding WinAnsiEncoding def
  currentdict
end
/Times-Bold exch definefont pop
%FOPEndFontReencode
%%EndProlog
%%Page: 1 1
%%PageBoundingBox: 0 0 420 315
%%BeginPageSetup
[1 0 0 -1 0 315] CT
%%EndPageSetup
GS
[0.75 0 0 0.75 0 0] CT
1 GC
N
0 0 560 420 re
f
GR
GS
[0.75 0 0 0.75 0 0] CT
1 GC
N
0 0 560 420 re
f
GR
GS
[0.75 0 0 0.75 0 0] CT
1 GC
N
73 374 M
507 374 L
507 31 L
73 31 L
cp
f
GR
GS
[0.75 0 0 0.75 0 0] CT
0.149 GC
2 setlinecap
1 LJ
0.667 LW
N
73 374 M
507 374 L
S
GR
GS
[0.75 0 0 0.75 0 0] CT
0.149 GC
2 setlinecap
1 LJ
0.667 LW
N
73 31 M
507 31 L
S
GR
GS
[0.75 0 0 0.75 0 0] CT
0.149 GC
2 setlinecap
1 LJ
0.667 LW
N
73 374 M
73 369.66 L
S
GR
GS
[0.75 0 0 0.75 0 0] CT
0.149 GC
2 setlinecap
1 LJ
0.667 LW
N
145.333 374 M
145.333 369.66 L
S
GR
GS
[0.75 0 0 0.75 0 0] CT
0.149 GC
2 setlinecap
1 LJ
0.667 LW
N
217.667 374 M
217.667 369.66 L
S
GR
GS
[0.75 0 0 0.75 0 0] CT
0.149 GC
2 setlinecap
1 LJ
0.667 LW
N
290 374 M
290 369.66 L
S
GR
GS
[0.75 0 0 0.75 0 0] CT
0.149 GC
2 setlinecap
1 LJ
0.667 LW
N
362.333 374 M
362.333 369.66 L
S
GR
GS
[0.75 0 0 0.75 0 0] CT
0.149 GC
2 setlinecap
1 LJ
0.667 LW
N
434.667 374 M
434.667 369.66 L
S
GR
GS
[0.75 0 0 0.75 0 0] CT
0.149 GC
2 setlinecap
1 LJ
0.667 LW
N
507 374 M
507 369.66 L
S
GR
GS
[0.75 0 0 0.75 0 0] CT
0.149 GC
2 setlinecap
1 LJ
0.667 LW
N
73 31 M
73 35.34 L
S
GR
GS
[0.75 0 0 0.75 0 0] CT
0.149 GC
2 setlinecap
1 LJ
0.667 LW
N
145.333 31 M
145.333 35.34 L
S
GR
GS
[0.75 0 0 0.75 0 0] CT
0.149 GC
2 setlinecap
1 LJ
0.667 LW
N
217.667 31 M
217.667 35.34 L
S
GR
GS
[0.75 0 0 0.75 0 0] CT
0.149 GC
2 setlinecap
1 LJ
0.667 LW
N
290 31 M
290 35.34 L
S
GR
GS
[0.75 0 0 0.75 0 0] CT
0.149 GC
2 setlinecap
1 LJ
0.667 LW
N
362.333 31 M
362.333 35.34 L
S
GR
GS
[0.75 0 0 0.75 0 0] CT
0.149 GC
2 setlinecap
1 LJ
0.667 LW
N
434.667 31 M
434.667 35.34 L
S
GR
GS
[0.75 0 0 0.75 0 0] CT
0.149 GC
2 setlinecap
1 LJ
0.667 LW
N
507 31 M
507 35.34 L
S
GR
GS
[0.75 0 0 0.75 54.75 284.50001] CT
0.149 GC
/Helvetica 13 F
GS
[1 0 0 1 0 0] CT
-4 13 moveto 
1 -1 scale
(0) t 
GR
GR
GS
[0.75 0 0 0.75 109 284.50001] CT
0.149 GC
/Helvetica 13 F
GS
[1 0 0 1 0 0] CT
-11 13 moveto 
1 -1 scale
(200) t 
GR
GR
GS
[0.75 0 0 0.75 163.25 284.50001] CT
0.149 GC
/Helvetica 13 F
GS
[1 0 0 1 0 0] CT
-11 13 moveto 
1 -1 scale
(400) t 
GR
GR
GS
[0.75 0 0 0.75 217.5 284.50001] CT
0.149 GC
/Helvetica 13 F
GS
[1 0 0 1 0 0] CT
-11 13 moveto 
1 -1 scale
(600) t 
GR
GR
GS
[0.75 0 0 0.75 271.75001 284.50001] CT
0.149 GC
/Helvetica 13 F
GS
[1 0 0 1 0 0] CT
-11 13 moveto 
1 -1 scale
(800) t 
GR
GR
GS
[0.75 0 0 0.75 325.99999 284.50001] CT
0.149 GC
/Helvetica 13 F
GS
[1 0 0 1 0 0] CT
-14.5 13 moveto 
1 -1 scale
(1000) t 
GR
GR
GS
[0.75 0 0 0.75 380.25 284.50001] CT
0.149 GC
/Helvetica 13 F
GS
[1 0 0 1 0 0] CT
-14.5 13 moveto 
1 -1 scale
(1200) t 
GR
GR
GS
[0.75 0 0 0.75 217.50016 297.49999] CT
0.149 GC
/Helvetica 15 F
GS
[1 0 0 1 0 0] CT
-11 14 moveto 
1 -1 scale
(t\(s\)) t 
GR
GR
GS
[0.75 0 0 0.75 0 0] CT
0.149 GC
2 setlinecap
1 LJ
0.667 LW
N
73 374 M
73 31 L
S
GR
GS
[0.75 0 0 0.75 0 0] CT
0.149 GC
2 setlinecap
1 LJ
0.667 LW
N
507 374 M
507 31 L
S
GR
GS
[0.75 0 0 0.75 0 0] CT
0.149 GC
2 setlinecap
1 LJ
0.667 LW
N
73 374 M
77.34 374 L
S
GR
GS
[0.75 0 0 0.75 0 0] CT
0.149 GC
2 setlinecap
1 LJ
0.667 LW
N
73 331.125 M
77.34 331.125 L
S
GR
GS
[0.75 0 0 0.75 0 0] CT
0.149 GC
2 setlinecap
1 LJ
0.667 LW
N
73 288.25 M
77.34 288.25 L
S
GR
GS
[0.75 0 0 0.75 0 0] CT
0.149 GC
2 setlinecap
1 LJ
0.667 LW
N
73 245.375 M
77.34 245.375 L
S
GR
GS
[0.75 0 0 0.75 0 0] CT
0.149 GC
2 setlinecap
1 LJ
0.667 LW
N
73 202.5 M
77.34 202.5 L
S
GR
GS
[0.75 0 0 0.75 0 0] CT
0.149 GC
2 setlinecap
1 LJ
0.667 LW
N
73 159.625 M
77.34 159.625 L
S
GR
GS
[0.75 0 0 0.75 0 0] CT
0.149 GC
2 setlinecap
1 LJ
0.667 LW
N
73 116.75 M
77.34 116.75 L
S
GR
GS
[0.75 0 0 0.75 0 0] CT
0.149 GC
2 setlinecap
1 LJ
0.667 LW
N
73 73.875 M
77.34 73.875 L
S
GR
GS
[0.75 0 0 0.75 0 0] CT
0.149 GC
2 setlinecap
1 LJ
0.667 LW
N
73 31 M
77.34 31 L
S
GR
GS
[0.75 0 0 0.75 0 0] CT
0.149 GC
2 setlinecap
1 LJ
0.667 LW
N
507 374 M
502.66 374 L
S
GR
GS
[0.75 0 0 0.75 0 0] CT
0.149 GC
2 setlinecap
1 LJ
0.667 LW
N
507 331.125 M
502.66 331.125 L
S
GR
GS
[0.75 0 0 0.75 0 0] CT
0.149 GC
2 setlinecap
1 LJ
0.667 LW
N
507 288.25 M
502.66 288.25 L
S
GR
GS
[0.75 0 0 0.75 0 0] CT
0.149 GC
2 setlinecap
1 LJ
0.667 LW
N
507 245.375 M
502.66 245.375 L
S
GR
GS
[0.75 0 0 0.75 0 0] CT
0.149 GC
2 setlinecap
1 LJ
0.667 LW
N
507 202.5 M
502.66 202.5 L
S
GR
GS
[0.75 0 0 0.75 0 0] CT
0.149 GC
2 setlinecap
1 LJ
0.667 LW
N
507 159.625 M
502.66 159.625 L
S
GR
GS
[0.75 0 0 0.75 0 0] CT
0.149 GC
2 setlinecap
1 LJ
0.667 LW
N
507 116.75 M
502.66 116.75 L
S
GR
GS
[0.75 0 0 0.75 0 0] CT
0.149 GC
2 setlinecap
1 LJ
0.667 LW
N
507 73.875 M
502.66 73.875 L
S
GR
GS
[0.75 0 0 0.75 0 0] CT
0.149 GC
2 setlinecap
1 LJ
0.667 LW
N
507 31 M
502.66 31 L
S
GR
GS
[0.75 0 0 0.75 50.75 280.5] CT
0.149 GC
/Helvetica 13 F
GS
[1 0 0 1 0 0] CT
-12 5 moveto 
1 -1 scale
(-3) t 
GR
GR
GS
[0.75 0 0 0.75 50.75 248.34375] CT
0.149 GC
/Helvetica 13 F
GS
[1 0 0 1 0 0] CT
-12 5 moveto 
1 -1 scale
(-2) t 
GR
GR
GS
[0.75 0 0 0.75 50.75 216.1875] CT
0.149 GC
/Helvetica 13 F
GS
[1 0 0 1 0 0] CT
-12 5 moveto 
1 -1 scale
(-1) t 
GR
GR
GS
[0.75 0 0 0.75 50.75 184.03125] CT
0.149 GC
/Helvetica 13 F
GS
[1 0 0 1 0 0] CT
-8 5 moveto 
1 -1 scale
(0) t 
GR
GR
GS
[0.75 0 0 0.75 50.75 151.875] CT
0.149 GC
/Helvetica 13 F
GS
[1 0 0 1 0 0] CT
-8 5 moveto 
1 -1 scale
(1) t 
GR
GR
GS
[0.75 0 0 0.75 50.75 119.71875] CT
0.149 GC
/Helvetica 13 F
GS
[1 0 0 1 0 0] CT
-8 5 moveto 
1 -1 scale
(2) t 
GR
GR
GS
[0.75 0 0 0.75 50.75 87.5625] CT
0.149 GC
/Helvetica 13 F
GS
[1 0 0 1 0 0] CT
-8 5 moveto 
1 -1 scale
(3) t 
GR
GR
GS
[0.75 0 0 0.75 50.75 55.40625] CT
0.149 GC
/Helvetica 13 F
GS
[1 0 0 1 0 0] CT
-8 5 moveto 
1 -1 scale
(4) t 
GR
GR
GS
[0.75 0 0 0.75 50.75 23.25] CT
0.149 GC
/Helvetica 13 F
GS
[1 0 0 1 0 0] CT
-8 5 moveto 
1 -1 scale
(5) t 
GR
GR
GS
[0.75 0 0 0.75 217.50021 21.1875] CT
/any-Bold 15 F
GS
[1 0 0 1 0 0] CT
-142.5 -4 moveto 
1 -1 scale
(Response of system with R 4.5 - control) t 
GR
GR
GS
[0.75 0 0 0.75 0 0] CT
0 0.447 0.741 RC
1 LJ
0.667 LW
N
73 245.375 M
73.362 245.375 L
73.362 245.375 L
73.362 245.375 L
73.785 241.847 L
74.156 238.78 L
74.607 235.075 L
75.134 230.79 L
75.869 224.897 L
76.936 216.518 L
78.601 203.855 L
80.471 190.294 L
82.071 179.247 L
83.671 168.731 L
85.281 158.694 L
86.82 149.607 L
88.285 141.42 L
89.754 133.663 L
91.299 125.988 L
92.903 118.535 L
94.469 111.753 L
95.943 105.811 L
97.376 100.427 L
98.868 95.228 L
100.452 90.144 L
102.049 85.458 L
103.558 81.42 L
104.985 77.933 L
106.432 74.715 L
107.981 71.606 L
109.599 68.714 L
111.16 66.246 L
112.608 64.224 L
114.021 62.487 L
115.518 60.884 L
117.127 59.417 L
118.739 58.194 L
120.234 57.265 L
121.636 56.56 L
123.076 55.991 L
124.645 55.535 L
126.289 55.226 L
127.849 55.077 L
129.272 55.052 L
130.665 55.12 L
132.17 55.287 L
133.811 55.566 L
135.438 55.932 L
136.914 56.329 L
138.288 56.748 L
S
GR
GS
[0.75 0 0 0.75 0 0] CT
0 0.447 0.741 RC
1 LJ
0.667 LW
N
136.914 56.329 M
138.288 56.748 L
139.721 57.228 L
141.317 57.807 L
142.99 58.454 L
144.546 59.085 L
145.939 59.668 L
147.311 60.254 L
148.829 60.913 L
150.505 61.646 L
152.147 62.363 L
153.6 62.994 L
154.943 63.571 L
156.372 64.177 L
157.999 64.851 L
159.703 65.538 L
161.251 66.142 L
162.61 66.655 L
163.961 67.148 L
165.497 67.687 L
167.213 68.259 L
168.867 68.781 L
170.293 69.207 L
171.603 69.579 L
173.031 69.961 L
174.692 70.378 L
176.428 70.78 L
177.964 71.108 L
179.288 71.37 L
180.621 71.615 L
181.5 71.766 L
181.5 71.766 L
181.5 71.766 L
181.722 71.969 L
181.945 72.413 L
182.273 73.32 L
182.694 74.699 L
183.185 76.425 L
183.773 78.538 L
184.492 81.115 L
185.403 84.33 L
186.61 88.485 L
188.259 93.967 L
190.259 100.296 L
191.516 104.084 L
192.772 107.726 L
194.404 112.238 L
196.328 117.237 L
197.617 120.389 L
198.905 123.387 L
200.526 126.942 L
202.399 130.755 L
S
GR
GS
[0.75 0 0 0.75 0 0] CT
0 0.447 0.741 RC
1 LJ
0.667 LW
N
200.526 126.942 M
202.399 130.755 L
203.71 133.237 L
205.021 135.569 L
206.633 138.237 L
208.469 141.018 L
210.13 143.304 L
211.459 144.979 L
212.689 146.416 L
214.137 147.97 L
215.907 149.679 L
217.711 151.214 L
219.19 152.325 L
220.421 153.154 L
221.725 153.942 L
223.346 154.801 L
225.2 155.629 L
226.517 156.123 L
227.833 156.544 L
229.441 156.967 L
231.267 157.335 L
232.924 157.575 L
234.259 157.707 L
235.497 157.785 L
236.946 157.828 L
238.71 157.816 L
240.506 157.739 L
241.986 157.631 L
243.223 157.513 L
244.532 157.365 L
246.151 157.153 L
247.999 156.877 L
249.319 156.66 L
250.638 156.43 L
252.244 156.136 L
254.065 155.788 L
255.721 155.462 L
257.058 155.192 L
258.299 154.94 L
259.749 154.645 L
261.51 154.288 L
263.303 153.928 L
264.783 153.635 L
266.023 153.392 L
267.334 153.141 L
268.954 152.84 L
270.798 152.509 L
272.118 152.279 L
273.439 152.058 L
275.045 151.799 L
276.864 151.523 L
278.518 151.285 L
S
GR
GS
[0.75 0 0 0.75 0 0] CT
0 0.447 0.741 RC
1 LJ
0.667 LW
N
276.864 151.523 M
278.518 151.285 L
279.857 151.102 L
281.1 150.94 L
282.55 150.761 L
284.31 150.56 L
286.101 150.372 L
287.581 150.227 L
288.822 150.114 L
290.134 150.003 L
291.754 149.877 L
293.596 149.75 L
294.918 149.667 L
296.239 149.592 L
297.844 149.511 L
299.662 149.432 L
301.316 149.371 L
302.655 149.327 L
303.899 149.292 L
305.349 149.259 L
307.109 149.227 L
308.899 149.204 L
310.379 149.191 L
311.621 149.183 L
312.934 149.18 L
314.553 149.181 L
316.395 149.189 L
317.716 149.197 L
319.038 149.209 L
320.643 149.227 L
322.46 149.251 L
324.114 149.278 L
325.453 149.299 L
326.698 149.321 L
328.148 149.349 L
329.907 149.384 L
331.697 149.423 L
333.177 149.455 L
334.42 149.482 L
335.732 149.512 L
337.351 149.549 L
339.193 149.592 L
340.515 149.622 L
341.836 149.652 L
343.441 149.689 L
345.259 149.731 L
346.912 149.768 L
348.252 149.797 L
349.496 149.823 L
350.947 149.854 L
352.706 149.89 L
354.495 149.927 L
S
GR
GS
[0.75 0 0 0.75 0 0] CT
0 0.447 0.741 RC
1 LJ
0.667 LW
N
352.706 149.89 M
354.495 149.927 L
355.976 149.956 L
357.218 149.978 L
358.531 150.002 L
360.15 150.03 L
361.991 150.062 L
363.313 150.082 L
364.635 150.103 L
366.24 150.126 L
368.057 150.153 L
369.711 150.175 L
371.05 150.191 L
372.294 150.206 L
373.745 150.222 L
375.504 150.241 L
377.294 150.26 L
378.774 150.274 L
380.016 150.284 L
381.329 150.295 L
382.948 150.308 L
384.79 150.322 L
386.111 150.33 L
387.433 150.339 L
389.038 150.348 L
390.855 150.359 L
392.509 150.367 L
393.848 150.373 L
395.093 150.377 L
396.544 150.383 L
398.302 150.39 L
400.092 150.396 L
401.572 150.4 L
402.815 150.403 L
404.128 150.406 L
405.747 150.409 L
407.588 150.414 L
408.91 150.415 L
410.232 150.417 L
411.837 150.42 L
413.654 150.422 L
415.307 150.425 L
416.647 150.425 L
417.891 150.426 L
419.342 150.427 L
421.101 150.428 L
422.89 150.43 L
424.371 150.431 L
425.613 150.43 L
426.926 150.431 L
428.545 150.431 L
430.386 150.433 L
S
GR
GS
[0.75 0 0 0.75 0 0] CT
0 0.447 0.741 RC
1 LJ
0.667 LW
N
428.545 150.431 M
430.386 150.433 L
431.708 150.432 L
433.03 150.432 L
434.635 150.433 L
436.452 150.434 L
438.106 150.435 L
439.445 150.434 L
440.689 150.434 L
442.14 150.434 L
443.899 150.434 L
445.689 150.436 L
447.169 150.436 L
448.411 150.435 L
449.724 150.435 L
451.343 150.435 L
453.185 150.436 L
454.506 150.436 L
455.828 150.436 L
457.433 150.436 L
459.25 150.437 L
460.904 150.438 L
462.243 150.438 L
463.488 150.438 L
464.939 150.438 L
466.697 150.439 L
468.487 150.44 L
469.967 150.44 L
471.21 150.44 L
472.522 150.44 L
474.142 150.441 L
475.983 150.442 L
477.305 150.442 L
478.626 150.442 L
480.231 150.443 L
482.048 150.444 L
483.702 150.445 L
485.042 150.445 L
486.286 150.445 L
487.737 150.445 L
489.495 150.446 L
491.285 150.448 L
492.765 150.448 L
494.008 150.447 L
495.321 150.448 L
496.94 150.448 L
498.781 150.45 L
500.103 150.449 L
501.425 150.45 L
503.03 150.45 L
504.847 150.451 L
506.5 150.453 L
S
GR
GS
[0.75 0 0 0.75 0 0] CT
0 0.447 0.741 RC
1 LJ
0.667 LW
N
504.847 150.451 M
506.5 150.453 L
507 150.452 L
S
GR
GS
[0.75 0 0 0.75 0 0] CT
0.851 0.325 0.098 RC
1 LJ
0.667 LW
N
73 245.375 M
73.362 245.375 L
73.362 245.375 L
73.362 245.375 L
73.785 245.622 L
74.156 246.18 L
74.607 247.188 L
75.134 248.704 L
75.869 251.231 L
76.936 255.396 L
78.601 262.369 L
80.471 270.243 L
82.071 276.788 L
83.671 283.074 L
85.281 289.105 L
86.82 294.588 L
88.285 299.545 L
89.754 304.256 L
91.299 308.933 L
92.903 313.491 L
94.469 317.653 L
95.943 321.313 L
97.376 324.641 L
98.868 327.866 L
100.452 331.034 L
102.049 333.966 L
103.558 336.506 L
104.985 338.709 L
106.432 340.753 L
107.981 342.739 L
109.599 344.6 L
111.16 346.201 L
112.608 347.523 L
114.021 348.67 L
115.518 349.739 L
117.127 350.733 L
118.739 351.576 L
120.234 352.232 L
121.636 352.744 L
123.076 353.172 L
124.645 353.537 L
126.289 353.814 L
127.849 353.985 L
129.272 354.07 L
130.665 354.095 L
132.17 354.062 L
133.811 353.963 L
135.438 353.806 L
136.914 353.621 L
138.288 353.416 L
S
GR
GS
[0.75 0 0 0.75 0 0] CT
0.851 0.325 0.098 RC
1 LJ
0.667 LW
N
136.914 353.621 M
138.288 353.416 L
139.721 353.172 L
141.317 352.871 L
142.99 352.526 L
144.546 352.184 L
145.939 351.865 L
147.311 351.539 L
148.829 351.171 L
150.505 350.757 L
152.147 350.349 L
153.6 349.987 L
154.943 349.655 L
156.372 349.304 L
157.999 348.911 L
159.703 348.509 L
161.251 348.153 L
162.61 347.85 L
163.961 347.557 L
165.497 347.236 L
167.213 346.894 L
168.867 346.579 L
170.293 346.322 L
171.603 346.097 L
173.031 345.863 L
174.692 345.609 L
176.428 345.361 L
177.964 345.158 L
179.288 344.995 L
180.621 344.842 L
181.5 344.747 L
181.5 344.747 L
181.5 344.747 L
181.722 343.131 L
181.945 341.521 L
182.273 339.155 L
182.694 336.143 L
183.185 332.66 L
183.773 328.525 L
184.492 323.536 L
185.403 317.323 L
186.61 309.294 L
188.259 298.692 L
190.259 286.435 L
191.516 279.088 L
192.772 272.017 L
194.404 263.247 L
196.328 253.517 L
197.617 247.37 L
198.905 241.518 L
200.526 234.569 L
202.399 227.103 L
S
GR
GS
[0.75 0 0 0.75 0 0] CT
0.851 0.325 0.098 RC
1 LJ
0.667 LW
N
200.526 234.569 M
202.399 227.103 L
203.71 222.233 L
205.021 217.648 L
206.633 212.395 L
208.469 206.908 L
210.13 202.386 L
211.459 199.059 L
212.689 196.2 L
214.137 193.1 L
215.907 189.68 L
217.711 186.594 L
219.19 184.347 L
220.421 182.662 L
221.725 181.051 L
223.346 179.284 L
225.2 177.564 L
226.517 176.526 L
227.833 175.628 L
229.441 174.711 L
231.267 173.89 L
232.924 173.331 L
234.259 172.998 L
235.497 172.776 L
236.946 172.613 L
238.71 172.544 L
240.506 172.603 L
241.986 172.738 L
243.223 172.906 L
244.532 173.13 L
246.151 173.468 L
247.999 173.924 L
249.319 174.289 L
250.638 174.68 L
252.244 175.188 L
254.065 175.796 L
255.721 176.371 L
257.058 176.846 L
258.299 177.293 L
259.749 177.82 L
261.51 178.461 L
263.303 179.11 L
264.783 179.639 L
266.023 180.075 L
267.334 180.529 L
268.954 181.077 L
270.798 181.679 L
272.118 182.096 L
273.439 182.499 L
275.045 182.97 L
276.864 183.476 L
278.518 183.911 L
S
GR
GS
[0.75 0 0 0.75 0 0] CT
0.851 0.325 0.098 RC
1 LJ
0.667 LW
N
276.864 183.476 M
278.518 183.911 L
279.857 184.245 L
281.1 184.539 L
282.55 184.865 L
284.31 185.233 L
286.101 185.578 L
287.581 185.841 L
288.822 186.045 L
290.134 186.247 L
291.754 186.474 L
293.596 186.706 L
294.918 186.854 L
296.239 186.989 L
297.844 187.134 L
299.662 187.276 L
301.316 187.384 L
302.655 187.459 L
303.899 187.518 L
305.349 187.574 L
307.109 187.627 L
308.899 187.664 L
310.379 187.682 L
311.621 187.69 L
312.934 187.691 L
314.553 187.682 L
316.395 187.661 L
317.716 187.639 L
319.038 187.611 L
320.643 187.571 L
322.46 187.518 L
324.114 187.464 L
325.453 187.416 L
326.698 187.369 L
328.148 187.311 L
329.907 187.237 L
331.697 187.159 L
333.177 187.092 L
334.42 187.036 L
335.732 186.975 L
337.351 186.899 L
339.193 186.812 L
340.515 186.75 L
341.836 186.688 L
343.441 186.613 L
345.259 186.529 L
346.912 186.453 L
348.252 186.394 L
349.496 186.339 L
350.947 186.276 L
352.706 186.203 L
354.495 186.13 L
S
GR
GS
[0.75 0 0 0.75 0 0] CT
0.851 0.325 0.098 RC
1 LJ
0.667 LW
N
352.706 186.203 M
354.495 186.13 L
355.976 186.071 L
357.218 186.024 L
358.531 185.975 L
360.15 185.917 L
361.991 185.854 L
363.313 185.81 L
364.635 185.768 L
366.24 185.719 L
368.057 185.666 L
369.711 185.621 L
371.05 185.586 L
372.294 185.555 L
373.745 185.52 L
375.504 185.481 L
377.294 185.443 L
378.774 185.414 L
380.016 185.391 L
381.329 185.367 L
382.948 185.34 L
384.79 185.312 L
386.111 185.292 L
387.433 185.274 L
389.038 185.254 L
390.855 185.233 L
392.509 185.215 L
393.848 185.201 L
395.093 185.19 L
396.544 185.177 L
398.302 185.163 L
400.092 185.15 L
401.572 185.14 L
402.815 185.132 L
404.128 185.125 L
405.747 185.116 L
407.588 185.108 L
408.91 185.102 L
410.232 185.097 L
411.837 185.091 L
413.654 185.085 L
415.307 185.08 L
416.647 185.077 L
417.891 185.074 L
419.342 185.071 L
421.101 185.067 L
422.89 185.064 L
424.371 185.062 L
425.613 185.06 L
426.926 185.058 L
428.545 185.056 L
430.386 185.054 L
S
GR
GS
[0.75 0 0 0.75 0 0] CT
0.851 0.325 0.098 RC
1 LJ
0.667 LW
N
428.545 185.056 M
430.386 185.054 L
431.708 185.053 L
433.03 185.051 L
434.635 185.05 L
436.452 185.048 L
438.106 185.047 L
439.445 185.046 L
440.689 185.045 L
442.14 185.044 L
443.899 185.043 L
445.689 185.042 L
447.169 185.041 L
448.411 185.04 L
449.724 185.039 L
451.343 185.038 L
453.185 185.037 L
454.506 185.036 L
455.828 185.035 L
457.433 185.034 L
459.25 185.033 L
460.904 185.031 L
462.243 185.03 L
463.488 185.029 L
464.939 185.028 L
466.697 185.027 L
468.487 185.026 L
469.967 185.024 L
471.21 185.024 L
472.522 185.022 L
474.142 185.021 L
475.983 185.02 L
477.305 185.019 L
478.626 185.017 L
480.231 185.016 L
482.048 185.015 L
483.702 185.013 L
485.042 185.012 L
486.286 185.011 L
487.737 185.01 L
489.495 185.009 L
491.285 185.007 L
492.765 185.006 L
494.008 185.005 L
495.321 185.004 L
496.94 185.003 L
498.781 185.001 L
500.103 185 L
501.425 184.999 L
503.03 184.998 L
504.847 184.997 L
506.5 184.995 L
S
GR
GS
[0.75 0 0 0.75 0 0] CT
0.851 0.325 0.098 RC
1 LJ
0.667 LW
N
504.847 184.997 M
506.5 184.995 L
507 184.995 L
S
GR
GS
[0.75 0 0 0.75 0 0] CT
1 GC
N
424 80 M
424 44 L
494 44 L
494 80 L
cp
f
GR
GS
[0.75 0 0 0.75 357 40.625] CT
/Helvetica 12 F
GS
[1 0 0 1 0 0] CT
0 4.5 moveto 
1 -1 scale
(u1) t 
GR
GR
GS
[0.75 0 0 0.75 0 0] CT
0 0.447 0.741 RC
1 LJ
0.667 LW
N
432 54.167 M
472 54.167 L
S
GR
GS
[0.75 0 0 0.75 357 52.375] CT
/Helvetica 12 F
GS
[1 0 0 1 0 0] CT
0 4.5 moveto 
1 -1 scale
(u2) t 
GR
GR
GS
[0.75 0 0 0.75 0 0] CT
0.851 0.325 0.098 RC
1 LJ
0.667 LW
N
432 69.833 M
472 69.833 L
S
GR
GS
[0.75 0 0 0.75 0 0] CT
0.149 GC
10.0 ML
0.667 LW
N
424 80 M
424 44 L
494 44 L
494 80 L
cp
S
GR
%%Trailer
%%Pages: 1
%%EOF
