%!PS-Adobe-3.0 EPSF-3.0
%%Creator: (MATLAB, The Mathworks, Inc. Version 8.6.0.267246 \(R2015b\). Operating System: Windows 8)
%%Title: E:/Projects/skola/rls/pics/SP4/r_6_u.eps
%%CreationDate: 2017-03-21T18:12:03
%%Pages: (atend)
%%BoundingBox: 0 0 420 315
%%LanguageLevel: 2
%%EndComments
%%BeginProlog
%%BeginResource: procset (Apache XML Graphics Std ProcSet) 1.2 0
%%Version: 1.2 0
%%Copyright: (Copyright 2001-2003,2010 The Apache Software Foundation. License terms: http://www.apache.org/licenses/LICENSE-2.0)
/bd{bind def}bind def
/ld{load def}bd
/GR/grestore ld
/M/moveto ld
/LJ/setlinejoin ld
/C/curveto ld
/f/fill ld
/LW/setlinewidth ld
/GC/setgray ld
/t/show ld
/N/newpath ld
/CT/concat ld
/cp/closepath ld
/S/stroke ld
/L/lineto ld
/CC/setcmykcolor ld
/A/ashow ld
/GS/gsave ld
/RC/setrgbcolor ld
/RM/rmoveto ld
/ML/setmiterlimit ld
/re {4 2 roll M
1 index 0 rlineto
0 exch rlineto
neg 0 rlineto
cp } bd
/_ctm matrix def
/_tm matrix def
/BT { _ctm currentmatrix pop matrix _tm copy pop 0 0 moveto } bd
/ET { _ctm setmatrix } bd
/iTm { _ctm setmatrix _tm concat } bd
/Tm { _tm astore pop iTm 0 0 moveto } bd
/ux 0.0 def
/uy 0.0 def
/F {
  /Tp exch def
  /Tf exch def
  Tf findfont Tp scalefont setfont
  /cf Tf def  /cs Tp def
} bd
/ULS {currentpoint /uy exch def /ux exch def} bd
/ULE {
  /Tcx currentpoint pop def
  gsave
  newpath
  cf findfont cs scalefont dup
  /FontMatrix get 0 get /Ts exch def /FontInfo get dup
  /UnderlinePosition get Ts mul /To exch def
  /UnderlineThickness get Ts mul /Tt exch def
  ux uy To add moveto  Tcx uy To add lineto
  Tt setlinewidth stroke
  grestore
} bd
/OLE {
  /Tcx currentpoint pop def
  gsave
  newpath
  cf findfont cs scalefont dup
  /FontMatrix get 0 get /Ts exch def /FontInfo get dup
  /UnderlinePosition get Ts mul /To exch def
  /UnderlineThickness get Ts mul /Tt exch def
  ux uy To add cs add moveto Tcx uy To add cs add lineto
  Tt setlinewidth stroke
  grestore
} bd
/SOE {
  /Tcx currentpoint pop def
  gsave
  newpath
  cf findfont cs scalefont dup
  /FontMatrix get 0 get /Ts exch def /FontInfo get dup
  /UnderlinePosition get Ts mul /To exch def
  /UnderlineThickness get Ts mul /Tt exch def
  ux uy To add cs 10 mul 26 idiv add moveto Tcx uy To add cs 10 mul 26 idiv add lineto
  Tt setlinewidth stroke
  grestore
} bd
/QT {
/Y22 exch store
/X22 exch store
/Y21 exch store
/X21 exch store
currentpoint
/Y21 load 2 mul add 3 div exch
/X21 load 2 mul add 3 div exch
/X21 load 2 mul /X22 load add 3 div
/Y21 load 2 mul /Y22 load add 3 div
/X22 load /Y22 load curveto
} bd
/SSPD {
dup length /d exch dict def
{
/v exch def
/k exch def
currentpagedevice k known {
/cpdv currentpagedevice k get def
v cpdv ne {
/upd false def
/nullv v type /nulltype eq def
/nullcpdv cpdv type /nulltype eq def
nullv nullcpdv or
{
/upd true def
} {
/sametype v type cpdv type eq def
sametype {
v type /arraytype eq {
/vlen v length def
/cpdvlen cpdv length def
vlen cpdvlen eq {
0 1 vlen 1 sub {
/i exch def
/obj v i get def
/cpdobj cpdv i get def
obj cpdobj ne {
/upd true def
exit
} if
} for
} {
/upd true def
} ifelse
} {
v type /dicttype eq {
v {
/dv exch def
/dk exch def
/cpddv cpdv dk get def
dv cpddv ne {
/upd true def
exit
} if
} forall
} {
/upd true def
} ifelse
} ifelse
} if
} ifelse
upd true eq {
d k v put
} if
} if
} if
} forall
d length 0 gt {
d setpagedevice
} if
} bd
%%EndResource
%%BeginResource: procset (Apache XML Graphics EPS ProcSet) 1.0 0
%%Version: 1.0 0
%%Copyright: (Copyright 2002-2003 The Apache Software Foundation. License terms: http://www.apache.org/licenses/LICENSE-2.0)
/BeginEPSF { %def
/b4_Inc_state save def         % Save state for cleanup
/dict_count countdictstack def % Count objects on dict stack
/op_count count 1 sub def      % Count objects on operand stack
userdict begin                 % Push userdict on dict stack
/showpage { } def              % Redefine showpage, { } = null proc
0 setgray 0 setlinecap         % Prepare graphics state
1 setlinewidth 0 setlinejoin
10 setmiterlimit [ ] 0 setdash newpath
/languagelevel where           % If level not equal to 1 then
{pop languagelevel             % set strokeadjust and
1 ne                           % overprint to their defaults.
{false setstrokeadjust false setoverprint
} if
} if
} bd
/EndEPSF { %def
count op_count sub {pop} repeat            % Clean up stacks
countdictstack dict_count sub {end} repeat
b4_Inc_state restore
} bd
%%EndResource
%FOPBeginFontDict
%%IncludeResource: font Courier-Bold
%%IncludeResource: font Helvetica
%%IncludeResource: font Courier-BoldOblique
%%IncludeResource: font Courier-Oblique
%%IncludeResource: font Times-Roman
%%IncludeResource: font Helvetica-BoldOblique
%%IncludeResource: font Helvetica-Bold
%%IncludeResource: font Helvetica-Oblique
%%IncludeResource: font Times-BoldItalic
%%IncludeResource: font Courier
%%IncludeResource: font Times-Italic
%%IncludeResource: font Times-Bold
%%IncludeResource: font Symbol
%%IncludeResource: font ZapfDingbats
%FOPEndFontDict
%%BeginResource: encoding WinAnsiEncoding
/WinAnsiEncoding [
/.notdef /.notdef /.notdef /.notdef /.notdef
/.notdef /.notdef /.notdef /.notdef /.notdef
/.notdef /.notdef /.notdef /.notdef /.notdef
/.notdef /.notdef /.notdef /.notdef /.notdef
/.notdef /.notdef /.notdef /.notdef /.notdef
/.notdef /.notdef /.notdef /.notdef /.notdef
/.notdef /.notdef /space /exclam /quotedbl
/numbersign /dollar /percent /ampersand /quotesingle
/parenleft /parenright /asterisk /plus /comma
/hyphen /period /slash /zero /one
/two /three /four /five /six
/seven /eight /nine /colon /semicolon
/less /equal /greater /question /at
/A /B /C /D /E
/F /G /H /I /J
/K /L /M /N /O
/P /Q /R /S /T
/U /V /W /X /Y
/Z /bracketleft /backslash /bracketright /asciicircum
/underscore /quoteleft /a /b /c
/d /e /f /g /h
/i /j /k /l /m
/n /o /p /q /r
/s /t /u /v /w
/x /y /z /braceleft /bar
/braceright /asciitilde /bullet /Euro /bullet
/quotesinglbase /florin /quotedblbase /ellipsis /dagger
/daggerdbl /circumflex /perthousand /Scaron /guilsinglleft
/OE /bullet /Zcaron /bullet /bullet
/quoteleft /quoteright /quotedblleft /quotedblright /bullet
/endash /emdash /asciitilde /trademark /scaron
/guilsinglright /oe /bullet /zcaron /Ydieresis
/space /exclamdown /cent /sterling /currency
/yen /brokenbar /section /dieresis /copyright
/ordfeminine /guillemotleft /logicalnot /sfthyphen /registered
/macron /degree /plusminus /twosuperior /threesuperior
/acute /mu /paragraph /middot /cedilla
/onesuperior /ordmasculine /guillemotright /onequarter /onehalf
/threequarters /questiondown /Agrave /Aacute /Acircumflex
/Atilde /Adieresis /Aring /AE /Ccedilla
/Egrave /Eacute /Ecircumflex /Edieresis /Igrave
/Iacute /Icircumflex /Idieresis /Eth /Ntilde
/Ograve /Oacute /Ocircumflex /Otilde /Odieresis
/multiply /Oslash /Ugrave /Uacute /Ucircumflex
/Udieresis /Yacute /Thorn /germandbls /agrave
/aacute /acircumflex /atilde /adieresis /aring
/ae /ccedilla /egrave /eacute /ecircumflex
/edieresis /igrave /iacute /icircumflex /idieresis
/eth /ntilde /ograve /oacute /ocircumflex
/otilde /odieresis /divide /oslash /ugrave
/uacute /ucircumflex /udieresis /yacute /thorn
/ydieresis
] def
%%EndResource
%FOPBeginFontReencode
/Courier-Bold findfont
dup length dict begin
  {1 index /FID ne {def} {pop pop} ifelse} forall
  /Encoding WinAnsiEncoding def
  currentdict
end
/Courier-Bold exch definefont pop
/Helvetica findfont
dup length dict begin
  {1 index /FID ne {def} {pop pop} ifelse} forall
  /Encoding WinAnsiEncoding def
  currentdict
end
/Helvetica exch definefont pop
/Courier-BoldOblique findfont
dup length dict begin
  {1 index /FID ne {def} {pop pop} ifelse} forall
  /Encoding WinAnsiEncoding def
  currentdict
end
/Courier-BoldOblique exch definefont pop
/Courier-Oblique findfont
dup length dict begin
  {1 index /FID ne {def} {pop pop} ifelse} forall
  /Encoding WinAnsiEncoding def
  currentdict
end
/Courier-Oblique exch definefont pop
/Times-Roman findfont
dup length dict begin
  {1 index /FID ne {def} {pop pop} ifelse} forall
  /Encoding WinAnsiEncoding def
  currentdict
end
/Times-Roman exch definefont pop
/Helvetica-BoldOblique findfont
dup length dict begin
  {1 index /FID ne {def} {pop pop} ifelse} forall
  /Encoding WinAnsiEncoding def
  currentdict
end
/Helvetica-BoldOblique exch definefont pop
/Helvetica-Bold findfont
dup length dict begin
  {1 index /FID ne {def} {pop pop} ifelse} forall
  /Encoding WinAnsiEncoding def
  currentdict
end
/Helvetica-Bold exch definefont pop
/Helvetica-Oblique findfont
dup length dict begin
  {1 index /FID ne {def} {pop pop} ifelse} forall
  /Encoding WinAnsiEncoding def
  currentdict
end
/Helvetica-Oblique exch definefont pop
/Times-BoldItalic findfont
dup length dict begin
  {1 index /FID ne {def} {pop pop} ifelse} forall
  /Encoding WinAnsiEncoding def
  currentdict
end
/Times-BoldItalic exch definefont pop
/Courier findfont
dup length dict begin
  {1 index /FID ne {def} {pop pop} ifelse} forall
  /Encoding WinAnsiEncoding def
  currentdict
end
/Courier exch definefont pop
/Times-Italic findfont
dup length dict begin
  {1 index /FID ne {def} {pop pop} ifelse} forall
  /Encoding WinAnsiEncoding def
  currentdict
end
/Times-Italic exch definefont pop
/Times-Bold findfont
dup length dict begin
  {1 index /FID ne {def} {pop pop} ifelse} forall
  /Encoding WinAnsiEncoding def
  currentdict
end
/Times-Bold exch definefont pop
%FOPEndFontReencode
%%EndProlog
%%Page: 1 1
%%PageBoundingBox: 0 0 420 315
%%BeginPageSetup
[1 0 0 -1 0 315] CT
%%EndPageSetup
GS
[0.75 0 0 0.75 0 0] CT
1 GC
N
0 0 560 420 re
f
GR
GS
[0.75 0 0 0.75 0 0] CT
1 GC
N
0 0 560 420 re
f
GR
GS
[0.75 0 0 0.75 0 0] CT
1 GC
N
73 374 M
507 374 L
507 31 L
73 31 L
cp
f
GR
GS
[0.75 0 0 0.75 0 0] CT
0.149 GC
2 setlinecap
1 LJ
0.667 LW
N
73 374 M
507 374 L
S
GR
GS
[0.75 0 0 0.75 0 0] CT
0.149 GC
2 setlinecap
1 LJ
0.667 LW
N
73 31 M
507 31 L
S
GR
GS
[0.75 0 0 0.75 0 0] CT
0.149 GC
2 setlinecap
1 LJ
0.667 LW
N
73 374 M
73 369.66 L
S
GR
GS
[0.75 0 0 0.75 0 0] CT
0.149 GC
2 setlinecap
1 LJ
0.667 LW
N
145.333 374 M
145.333 369.66 L
S
GR
GS
[0.75 0 0 0.75 0 0] CT
0.149 GC
2 setlinecap
1 LJ
0.667 LW
N
217.667 374 M
217.667 369.66 L
S
GR
GS
[0.75 0 0 0.75 0 0] CT
0.149 GC
2 setlinecap
1 LJ
0.667 LW
N
290 374 M
290 369.66 L
S
GR
GS
[0.75 0 0 0.75 0 0] CT
0.149 GC
2 setlinecap
1 LJ
0.667 LW
N
362.333 374 M
362.333 369.66 L
S
GR
GS
[0.75 0 0 0.75 0 0] CT
0.149 GC
2 setlinecap
1 LJ
0.667 LW
N
434.667 374 M
434.667 369.66 L
S
GR
GS
[0.75 0 0 0.75 0 0] CT
0.149 GC
2 setlinecap
1 LJ
0.667 LW
N
507 374 M
507 369.66 L
S
GR
GS
[0.75 0 0 0.75 0 0] CT
0.149 GC
2 setlinecap
1 LJ
0.667 LW
N
73 31 M
73 35.34 L
S
GR
GS
[0.75 0 0 0.75 0 0] CT
0.149 GC
2 setlinecap
1 LJ
0.667 LW
N
145.333 31 M
145.333 35.34 L
S
GR
GS
[0.75 0 0 0.75 0 0] CT
0.149 GC
2 setlinecap
1 LJ
0.667 LW
N
217.667 31 M
217.667 35.34 L
S
GR
GS
[0.75 0 0 0.75 0 0] CT
0.149 GC
2 setlinecap
1 LJ
0.667 LW
N
290 31 M
290 35.34 L
S
GR
GS
[0.75 0 0 0.75 0 0] CT
0.149 GC
2 setlinecap
1 LJ
0.667 LW
N
362.333 31 M
362.333 35.34 L
S
GR
GS
[0.75 0 0 0.75 0 0] CT
0.149 GC
2 setlinecap
1 LJ
0.667 LW
N
434.667 31 M
434.667 35.34 L
S
GR
GS
[0.75 0 0 0.75 0 0] CT
0.149 GC
2 setlinecap
1 LJ
0.667 LW
N
507 31 M
507 35.34 L
S
GR
GS
[0.75 0 0 0.75 54.75 284.50001] CT
0.149 GC
/Helvetica 13 F
GS
[1 0 0 1 0 0] CT
-4 13 moveto 
1 -1 scale
(0) t 
GR
GR
GS
[0.75 0 0 0.75 109 284.50001] CT
0.149 GC
/Helvetica 13 F
GS
[1 0 0 1 0 0] CT
-11 13 moveto 
1 -1 scale
(200) t 
GR
GR
GS
[0.75 0 0 0.75 163.25 284.50001] CT
0.149 GC
/Helvetica 13 F
GS
[1 0 0 1 0 0] CT
-11 13 moveto 
1 -1 scale
(400) t 
GR
GR
GS
[0.75 0 0 0.75 217.5 284.50001] CT
0.149 GC
/Helvetica 13 F
GS
[1 0 0 1 0 0] CT
-11 13 moveto 
1 -1 scale
(600) t 
GR
GR
GS
[0.75 0 0 0.75 271.75001 284.50001] CT
0.149 GC
/Helvetica 13 F
GS
[1 0 0 1 0 0] CT
-11 13 moveto 
1 -1 scale
(800) t 
GR
GR
GS
[0.75 0 0 0.75 325.99999 284.50001] CT
0.149 GC
/Helvetica 13 F
GS
[1 0 0 1 0 0] CT
-14.5 13 moveto 
1 -1 scale
(1000) t 
GR
GR
GS
[0.75 0 0 0.75 380.25 284.50001] CT
0.149 GC
/Helvetica 13 F
GS
[1 0 0 1 0 0] CT
-14.5 13 moveto 
1 -1 scale
(1200) t 
GR
GR
GS
[0.75 0 0 0.75 217.50016 297.49999] CT
0.149 GC
/Helvetica 15 F
GS
[1 0 0 1 0 0] CT
-11 14 moveto 
1 -1 scale
(t\(s\)) t 
GR
GR
GS
[0.75 0 0 0.75 0 0] CT
0.149 GC
2 setlinecap
1 LJ
0.667 LW
N
73 374 M
73 31 L
S
GR
GS
[0.75 0 0 0.75 0 0] CT
0.149 GC
2 setlinecap
1 LJ
0.667 LW
N
507 374 M
507 31 L
S
GR
GS
[0.75 0 0 0.75 0 0] CT
0.149 GC
2 setlinecap
1 LJ
0.667 LW
N
73 374 M
77.34 374 L
S
GR
GS
[0.75 0 0 0.75 0 0] CT
0.149 GC
2 setlinecap
1 LJ
0.667 LW
N
73 331.125 M
77.34 331.125 L
S
GR
GS
[0.75 0 0 0.75 0 0] CT
0.149 GC
2 setlinecap
1 LJ
0.667 LW
N
73 288.25 M
77.34 288.25 L
S
GR
GS
[0.75 0 0 0.75 0 0] CT
0.149 GC
2 setlinecap
1 LJ
0.667 LW
N
73 245.375 M
77.34 245.375 L
S
GR
GS
[0.75 0 0 0.75 0 0] CT
0.149 GC
2 setlinecap
1 LJ
0.667 LW
N
73 202.5 M
77.34 202.5 L
S
GR
GS
[0.75 0 0 0.75 0 0] CT
0.149 GC
2 setlinecap
1 LJ
0.667 LW
N
73 159.625 M
77.34 159.625 L
S
GR
GS
[0.75 0 0 0.75 0 0] CT
0.149 GC
2 setlinecap
1 LJ
0.667 LW
N
73 116.75 M
77.34 116.75 L
S
GR
GS
[0.75 0 0 0.75 0 0] CT
0.149 GC
2 setlinecap
1 LJ
0.667 LW
N
73 73.875 M
77.34 73.875 L
S
GR
GS
[0.75 0 0 0.75 0 0] CT
0.149 GC
2 setlinecap
1 LJ
0.667 LW
N
73 31 M
77.34 31 L
S
GR
GS
[0.75 0 0 0.75 0 0] CT
0.149 GC
2 setlinecap
1 LJ
0.667 LW
N
507 374 M
502.66 374 L
S
GR
GS
[0.75 0 0 0.75 0 0] CT
0.149 GC
2 setlinecap
1 LJ
0.667 LW
N
507 331.125 M
502.66 331.125 L
S
GR
GS
[0.75 0 0 0.75 0 0] CT
0.149 GC
2 setlinecap
1 LJ
0.667 LW
N
507 288.25 M
502.66 288.25 L
S
GR
GS
[0.75 0 0 0.75 0 0] CT
0.149 GC
2 setlinecap
1 LJ
0.667 LW
N
507 245.375 M
502.66 245.375 L
S
GR
GS
[0.75 0 0 0.75 0 0] CT
0.149 GC
2 setlinecap
1 LJ
0.667 LW
N
507 202.5 M
502.66 202.5 L
S
GR
GS
[0.75 0 0 0.75 0 0] CT
0.149 GC
2 setlinecap
1 LJ
0.667 LW
N
507 159.625 M
502.66 159.625 L
S
GR
GS
[0.75 0 0 0.75 0 0] CT
0.149 GC
2 setlinecap
1 LJ
0.667 LW
N
507 116.75 M
502.66 116.75 L
S
GR
GS
[0.75 0 0 0.75 0 0] CT
0.149 GC
2 setlinecap
1 LJ
0.667 LW
N
507 73.875 M
502.66 73.875 L
S
GR
GS
[0.75 0 0 0.75 0 0] CT
0.149 GC
2 setlinecap
1 LJ
0.667 LW
N
507 31 M
502.66 31 L
S
GR
GS
[0.75 0 0 0.75 50.75 280.5] CT
0.149 GC
/Helvetica 13 F
GS
[1 0 0 1 0 0] CT
-12 5 moveto 
1 -1 scale
(-3) t 
GR
GR
GS
[0.75 0 0 0.75 50.75 248.34375] CT
0.149 GC
/Helvetica 13 F
GS
[1 0 0 1 0 0] CT
-12 5 moveto 
1 -1 scale
(-2) t 
GR
GR
GS
[0.75 0 0 0.75 50.75 216.1875] CT
0.149 GC
/Helvetica 13 F
GS
[1 0 0 1 0 0] CT
-12 5 moveto 
1 -1 scale
(-1) t 
GR
GR
GS
[0.75 0 0 0.75 50.75 184.03125] CT
0.149 GC
/Helvetica 13 F
GS
[1 0 0 1 0 0] CT
-8 5 moveto 
1 -1 scale
(0) t 
GR
GR
GS
[0.75 0 0 0.75 50.75 151.875] CT
0.149 GC
/Helvetica 13 F
GS
[1 0 0 1 0 0] CT
-8 5 moveto 
1 -1 scale
(1) t 
GR
GR
GS
[0.75 0 0 0.75 50.75 119.71875] CT
0.149 GC
/Helvetica 13 F
GS
[1 0 0 1 0 0] CT
-8 5 moveto 
1 -1 scale
(2) t 
GR
GR
GS
[0.75 0 0 0.75 50.75 87.5625] CT
0.149 GC
/Helvetica 13 F
GS
[1 0 0 1 0 0] CT
-8 5 moveto 
1 -1 scale
(3) t 
GR
GR
GS
[0.75 0 0 0.75 50.75 55.40625] CT
0.149 GC
/Helvetica 13 F
GS
[1 0 0 1 0 0] CT
-8 5 moveto 
1 -1 scale
(4) t 
GR
GR
GS
[0.75 0 0 0.75 50.75 23.25] CT
0.149 GC
/Helvetica 13 F
GS
[1 0 0 1 0 0] CT
-8 5 moveto 
1 -1 scale
(5) t 
GR
GR
GS
[0.75 0 0 0.75 217.50021 21.1875] CT
/any-Bold 15 F
GS
[1 0 0 1 0 0] CT
-142.5 -4 moveto 
1 -1 scale
(Response of system with R 4.6 - control) t 
GR
GR
GS
[0.75 0 0 0.75 0 0] CT
0 0.447 0.741 RC
1 LJ
0.667 LW
N
73 245.375 M
73.362 245.375 L
73.362 80.471 L
73.362 80.471 L
73.583 79.636 L
73.791 77.285 L
74.078 72.918 L
74.421 67.262 L
74.831 60.885 L
75.31 54.5 L
75.886 48.396 L
76.599 42.903 L
77.52 38.385 L
78.768 35.379 L
80.484 34.645 L
81.808 35.493 L
83.132 36.938 L
84.598 38.861 L
86.105 40.952 L
87.488 42.864 L
88.742 44.543 L
90.006 46.161 L
91.414 47.861 L
92.941 49.582 L
94.403 51.113 L
95.697 52.379 L
96.922 53.502 L
98.25 54.64 L
99.75 55.831 L
101.281 56.952 L
102.651 57.883 L
103.873 58.661 L
105.125 59.406 L
106.553 60.196 L
108.115 60.991 L
109.581 61.681 L
110.847 62.238 L
112.046 62.732 L
113.379 63.245 L
114.914 63.789 L
116.467 64.295 L
117.82 64.706 L
119.011 65.047 L
120.251 65.377 L
121.703 65.736 L
123.299 66.097 L
124.767 66.404 L
126.004 66.649 L
127.179 66.866 L
128.519 67.097 L
S
GR
GS
[0.75 0 0 0.75 0 0] CT
0 0.447 0.741 RC
1 LJ
0.667 LW
N
127.179 66.866 M
128.519 67.097 L
130.088 67.344 L
131.662 67.571 L
132.997 67.753 L
134.158 67.903 L
135.388 68.05 L
136.863 68.212 L
138.492 68.375 L
139.959 68.51 L
141.169 68.62 L
142.322 68.716 L
143.67 68.82 L
145.27 68.932 L
146.86 69.031 L
148.179 69.112 L
149.314 69.18 L
150.538 69.246 L
152.032 69.319 L
153.688 69.39 L
155.153 69.449 L
156.341 69.5 L
157.478 69.544 L
158.831 69.59 L
160.456 69.64 L
162.059 69.681 L
163.365 69.719 L
164.481 69.751 L
165.699 69.781 L
167.208 69.813 L
168.883 69.843 L
170.348 69.868 L
171.52 69.893 L
172.645 69.914 L
174.001 69.934 L
175.643 69.955 L
177.256 69.971 L
178.553 69.989 L
179.656 70.006 L
180.87 70.019 L
181.5 70.028 L
181.5 70.028 L
181.5 70.028 L
181.757 105.499 L
181.975 123.684 L
182.282 139.077 L
182.65 149.411 L
183.071 156.195 L
183.57 161.1 L
184.172 164.921 L
184.926 167.959 L
185.908 170.159 L
S
GR
GS
[0.75 0 0 0.75 0 0] CT
0 0.447 0.741 RC
1 LJ
0.667 LW
N
184.926 167.959 M
185.908 170.159 L
187.255 171.194 L
189.061 170.641 L
190.273 169.694 L
191.485 168.534 L
192.978 166.996 L
194.647 165.277 L
196.121 163.842 L
197.303 162.799 L
198.429 161.86 L
199.776 160.808 L
201.408 159.641 L
203.024 158.588 L
204.331 157.849 L
205.44 157.286 L
206.648 156.704 L
208.155 156.036 L
209.841 155.353 L
211.011 154.954 L
212.182 154.579 L
213.641 154.144 L
215.329 153.679 L
216.533 153.405 L
217.736 153.148 L
219.197 152.856 L
220.846 152.549 L
222.344 152.297 L
223.558 152.144 L
224.689 152.008 L
226.01 151.852 L
227.609 151.673 L
229.232 151.495 L
230.572 151.387 L
231.699 151.321 L
232.895 151.242 L
234.369 151.145 L
236.04 151.033 L
237.238 150.986 L
238.435 150.937 L
239.893 150.874 L
241.546 150.797 L
243.05 150.731 L
244.265 150.716 L
245.393 150.699 L
246.708 150.669 L
248.306 150.628 L
249.935 150.573 L
251.28 150.556 L
252.406 150.561 L
253.596 150.551 L
255.065 150.531 L
S
GR
GS
[0.75 0 0 0.75 0 0] CT
0 0.447 0.741 RC
1 LJ
0.667 LW
N
253.596 150.551 M
255.065 150.531 L
256.74 150.496 L
257.94 150.499 L
259.14 150.495 L
260.598 150.482 L
262.248 150.456 L
263.75 150.432 L
264.966 150.446 L
266.095 150.455 L
267.413 150.451 L
269.01 150.439 L
270.636 150.411 L
271.979 150.413 L
273.107 150.432 L
274.299 150.436 L
275.77 150.432 L
277.442 150.413 L
278.642 150.426 L
279.842 150.431 L
281.299 150.428 L
282.95 150.412 L
284.452 150.396 L
285.668 150.416 L
286.797 150.429 L
288.115 150.43 L
289.712 150.423 L
291.337 150.4 L
292.682 150.405 L
293.81 150.427 L
295.001 150.433 L
296.471 150.431 L
298.144 150.415 L
299.344 150.429 L
300.544 150.436 L
302.002 150.434 L
303.652 150.419 L
305.153 150.404 L
306.37 150.424 L
307.499 150.438 L
308.817 150.44 L
310.414 150.433 L
312.039 150.41 L
313.383 150.416 L
314.511 150.437 L
315.703 150.444 L
317.174 150.442 L
318.846 150.426 L
320.046 150.44 L
321.246 150.446 L
322.703 150.445 L
324.354 150.43 L
S
GR
GS
[0.75 0 0 0.75 0 0] CT
0 0.447 0.741 RC
1 LJ
0.667 LW
N
322.703 150.445 M
324.354 150.43 L
325.855 150.414 L
327.071 150.434 L
328.201 150.447 L
329.519 150.449 L
331.116 150.442 L
332.741 150.419 L
334.085 150.424 L
335.213 150.446 L
336.405 150.452 L
337.875 150.45 L
339.548 150.433 L
340.748 150.447 L
341.948 150.453 L
343.405 150.451 L
345.055 150.436 L
346.557 150.42 L
347.773 150.44 L
348.903 150.453 L
350.221 150.455 L
351.817 150.447 L
353.443 150.424 L
354.787 150.429 L
355.915 150.45 L
357.107 150.456 L
358.577 150.454 L
360.249 150.437 L
361.45 150.451 L
362.65 150.457 L
364.107 150.455 L
365.757 150.439 L
367.259 150.423 L
368.475 150.443 L
369.605 150.456 L
370.922 150.458 L
372.519 150.45 L
374.144 150.426 L
375.489 150.431 L
376.617 150.453 L
377.809 150.459 L
379.279 150.456 L
380.951 150.439 L
382.151 150.452 L
383.352 150.459 L
384.809 150.457 L
386.459 150.441 L
387.961 150.425 L
389.177 150.445 L
390.307 150.458 L
391.624 150.459 L
393.221 150.451 L
S
GR
GS
[0.75 0 0 0.75 0 0] CT
0 0.447 0.741 RC
1 LJ
0.667 LW
N
391.624 150.459 M
393.221 150.451 L
394.846 150.428 L
396.19 150.432 L
397.319 150.454 L
398.511 150.46 L
399.981 150.457 L
401.653 150.44 L
402.853 150.453 L
404.053 150.46 L
405.511 150.457 L
407.161 150.442 L
408.662 150.425 L
409.879 150.445 L
411.009 150.458 L
412.326 150.46 L
413.923 150.452 L
415.548 150.428 L
416.892 150.433 L
418.02 150.454 L
419.212 150.46 L
420.683 150.458 L
422.355 150.441 L
423.555 150.454 L
424.755 150.46 L
426.212 150.458 L
427.862 150.442 L
429.364 150.426 L
430.58 150.446 L
431.71 150.459 L
433.028 150.46 L
434.625 150.452 L
436.25 150.429 L
437.594 150.433 L
438.722 150.454 L
439.914 150.461 L
441.384 150.458 L
443.056 150.441 L
444.257 150.454 L
445.457 150.46 L
446.914 150.458 L
448.564 150.442 L
450.066 150.426 L
451.282 150.446 L
452.412 150.459 L
453.73 150.46 L
455.326 150.452 L
456.952 150.429 L
458.296 150.433 L
459.424 150.455 L
460.616 150.461 L
462.086 150.458 L
S
GR
GS
[0.75 0 0 0.75 0 0] CT
0 0.447 0.741 RC
1 LJ
0.667 LW
N
460.616 150.461 M
462.086 150.458 L
463.758 150.441 L
464.958 150.454 L
466.159 150.46 L
467.616 150.458 L
469.266 150.443 L
470.768 150.426 L
471.984 150.446 L
473.114 150.459 L
474.431 150.46 L
476.028 150.452 L
477.653 150.429 L
478.997 150.433 L
480.126 150.455 L
481.318 150.461 L
482.788 150.458 L
484.46 150.441 L
485.66 150.454 L
486.86 150.46 L
488.318 150.458 L
489.968 150.443 L
491.469 150.426 L
492.686 150.446 L
493.816 150.459 L
495.133 150.46 L
496.73 150.453 L
498.355 150.429 L
499.699 150.433 L
500.827 150.455 L
502.02 150.461 L
503.49 150.458 L
505.162 150.441 L
506.362 150.454 L
507 150.463 L
S
GR
GS
[0.75 0 0 0.75 0 0] CT
0.851 0.325 0.098 RC
1 LJ
0.667 LW
N
73 245.375 M
73.362 245.375 L
73.362 245.375 L
73.362 245.375 L
73.583 257.675 L
73.791 267.853 L
74.078 280.224 L
74.421 292.93 L
74.831 305.71 L
75.31 317.948 L
75.886 329.637 L
76.599 340.524 L
77.52 350.236 L
78.768 358.14 L
80.484 363.165 L
81.808 364.516 L
83.132 364.708 L
84.598 364.195 L
86.105 363.273 L
87.488 362.276 L
88.742 361.333 L
90.006 360.386 L
91.414 359.365 L
92.941 358.313 L
94.403 357.369 L
95.697 356.586 L
96.922 355.89 L
98.25 355.183 L
99.75 354.44 L
101.281 353.739 L
102.651 353.158 L
103.873 352.675 L
105.125 352.211 L
106.553 351.718 L
108.115 351.22 L
109.581 350.788 L
110.847 350.442 L
112.046 350.135 L
113.379 349.816 L
114.914 349.475 L
116.467 349.156 L
117.82 348.9 L
119.011 348.69 L
120.251 348.485 L
121.703 348.261 L
123.299 348.033 L
124.767 347.84 L
126.004 347.689 L
127.179 347.555 L
128.519 347.411 L
S
GR
GS
[0.75 0 0 0.75 0 0] CT
0.851 0.325 0.098 RC
1 LJ
0.667 LW
N
127.179 347.555 M
128.519 347.411 L
130.088 347.256 L
131.662 347.111 L
132.997 346.999 L
134.158 346.908 L
135.388 346.817 L
136.863 346.715 L
138.492 346.611 L
139.959 346.524 L
141.169 346.459 L
142.322 346.401 L
143.67 346.336 L
145.27 346.265 L
146.86 346.199 L
148.179 346.15 L
149.314 346.111 L
150.538 346.07 L
152.032 346.024 L
153.688 345.977 L
155.153 345.938 L
156.341 345.91 L
157.478 345.884 L
158.831 345.855 L
160.456 345.823 L
162.059 345.793 L
163.365 345.771 L
164.481 345.755 L
165.699 345.737 L
167.208 345.716 L
168.883 345.694 L
170.348 345.676 L
171.52 345.665 L
172.645 345.654 L
174.001 345.641 L
175.643 345.626 L
177.256 345.612 L
178.553 345.602 L
179.656 345.595 L
180.87 345.588 L
181.5 345.584 L
181.5 180.68 L
181.5 180.68 L
181.757 179.895 L
181.975 177.538 L
182.282 173.18 L
182.65 167.673 L
183.071 161.908 L
183.57 156.274 L
184.172 151.153 L
184.926 146.909 L
185.908 144.01 L
S
GR
GS
[0.75 0 0 0.75 0 0] CT
0.851 0.325 0.098 RC
1 LJ
0.667 LW
N
184.926 146.909 M
185.908 144.01 L
187.255 143.146 L
189.061 144.998 L
190.273 147.151 L
191.485 149.592 L
192.978 152.698 L
194.647 156.069 L
196.121 158.859 L
197.303 160.95 L
198.429 162.807 L
199.776 164.858 L
201.408 167.107 L
203.024 169.097 L
204.331 170.557 L
205.44 171.696 L
206.648 172.837 L
208.155 174.126 L
209.841 175.41 L
211.011 176.221 L
212.182 176.964 L
213.641 177.805 L
215.329 178.67 L
216.533 179.23 L
217.736 179.741 L
219.197 180.303 L
220.846 180.867 L
222.344 181.322 L
223.558 181.662 L
224.689 181.952 L
226.01 182.259 L
227.609 182.589 L
229.232 182.884 L
230.572 183.106 L
231.699 183.279 L
232.895 183.445 L
234.369 183.627 L
236.04 183.808 L
237.238 183.928 L
238.435 184.037 L
239.893 184.155 L
241.546 184.27 L
243.05 184.361 L
244.265 184.434 L
245.393 184.495 L
246.708 184.557 L
248.306 184.621 L
249.935 184.675 L
251.28 184.719 L
252.406 184.756 L
253.596 184.788 L
255.065 184.821 L
S
GR
GS
[0.75 0 0 0.75 0 0] CT
0.851 0.325 0.098 RC
1 LJ
0.667 LW
N
253.596 184.788 M
255.065 184.821 L
256.74 184.851 L
257.94 184.875 L
259.14 184.895 L
260.598 184.915 L
262.248 184.932 L
263.75 184.944 L
264.966 184.959 L
266.095 184.97 L
267.413 184.98 L
269.01 184.987 L
270.636 184.99 L
271.979 184.997 L
273.107 185.005 L
274.299 185.01 L
275.77 185.013 L
277.442 185.012 L
278.642 185.017 L
279.842 185.019 L
281.299 185.02 L
282.95 185.017 L
284.452 185.014 L
285.668 185.018 L
286.797 185.02 L
288.115 185.02 L
289.712 185.018 L
291.337 185.012 L
292.682 185.012 L
293.81 185.015 L
295.001 185.015 L
296.471 185.014 L
298.144 185.008 L
299.344 185.01 L
300.544 185.01 L
302.002 185.008 L
303.652 185.003 L
305.153 184.998 L
306.37 185.001 L
307.499 185.002 L
308.817 185.001 L
310.414 184.998 L
312.039 184.991 L
313.383 184.991 L
314.511 184.994 L
315.703 184.994 L
317.174 184.992 L
318.846 184.987 L
320.046 184.989 L
321.246 184.989 L
322.703 184.988 L
324.354 184.983 L
S
GR
GS
[0.75 0 0 0.75 0 0] CT
0.851 0.325 0.098 RC
1 LJ
0.667 LW
N
322.703 184.988 M
324.354 184.983 L
325.855 184.979 L
327.071 184.982 L
328.201 184.984 L
329.519 184.983 L
331.116 184.98 L
332.741 184.974 L
334.085 184.975 L
335.213 184.978 L
336.405 184.979 L
337.875 184.977 L
339.548 184.973 L
340.748 184.975 L
341.948 184.976 L
343.405 184.975 L
345.055 184.971 L
346.557 184.967 L
347.773 184.97 L
348.903 184.972 L
350.221 184.972 L
351.817 184.97 L
353.443 184.965 L
354.787 184.965 L
355.915 184.969 L
357.107 184.97 L
358.577 184.969 L
360.249 184.965 L
361.45 184.967 L
362.65 184.968 L
364.107 184.968 L
365.757 184.964 L
367.259 184.96 L
368.475 184.964 L
369.605 184.967 L
370.922 184.967 L
372.519 184.965 L
374.144 184.96 L
375.489 184.96 L
376.617 184.964 L
377.809 184.965 L
379.279 184.965 L
380.951 184.961 L
382.151 184.964 L
383.352 184.965 L
384.809 184.964 L
386.459 184.961 L
387.961 184.957 L
389.177 184.961 L
390.307 184.964 L
391.624 184.964 L
393.221 184.962 L
S
GR
GS
[0.75 0 0 0.75 0 0] CT
0.851 0.325 0.098 RC
1 LJ
0.667 LW
N
391.624 184.964 M
393.221 184.962 L
394.846 184.957 L
396.19 184.958 L
397.319 184.962 L
398.511 184.963 L
399.981 184.963 L
401.653 184.959 L
402.853 184.962 L
404.053 184.963 L
405.511 184.962 L
407.161 184.959 L
408.662 184.956 L
409.879 184.96 L
411.009 184.962 L
412.326 184.962 L
413.923 184.961 L
415.548 184.956 L
416.892 184.957 L
418.02 184.961 L
419.212 184.962 L
420.683 184.962 L
422.355 184.958 L
423.555 184.961 L
424.755 184.962 L
426.212 184.962 L
427.862 184.958 L
429.364 184.955 L
430.58 184.959 L
431.71 184.962 L
433.028 184.962 L
434.625 184.96 L
436.25 184.955 L
437.594 184.956 L
438.722 184.961 L
439.914 184.962 L
441.384 184.961 L
443.056 184.958 L
444.257 184.96 L
445.457 184.962 L
446.914 184.961 L
448.564 184.958 L
450.066 184.955 L
451.282 184.959 L
452.412 184.961 L
453.73 184.962 L
455.326 184.96 L
456.952 184.955 L
458.296 184.956 L
459.424 184.96 L
460.616 184.962 L
462.086 184.961 L
S
GR
GS
[0.75 0 0 0.75 0 0] CT
0.851 0.325 0.098 RC
1 LJ
0.667 LW
N
460.616 184.962 M
462.086 184.961 L
463.758 184.958 L
464.958 184.96 L
466.159 184.961 L
467.616 184.961 L
469.266 184.958 L
470.768 184.954 L
471.984 184.959 L
473.114 184.961 L
474.431 184.961 L
476.028 184.96 L
477.653 184.955 L
478.997 184.956 L
480.126 184.96 L
481.318 184.961 L
482.788 184.961 L
484.46 184.957 L
485.66 184.96 L
486.86 184.961 L
488.318 184.961 L
489.968 184.958 L
491.469 184.954 L
492.686 184.958 L
493.816 184.961 L
495.133 184.961 L
496.73 184.96 L
498.355 184.955 L
499.699 184.956 L
500.827 184.96 L
502.02 184.961 L
503.49 184.961 L
505.162 184.957 L
506.362 184.96 L
507 184.962 L
S
GR
GS
[0.75 0 0 0.75 0 0] CT
1 GC
N
424 80 M
424 44 L
494 44 L
494 80 L
cp
f
GR
GS
[0.75 0 0 0.75 357 40.625] CT
/Helvetica 12 F
GS
[1 0 0 1 0 0] CT
0 4.5 moveto 
1 -1 scale
(u1) t 
GR
GR
GS
[0.75 0 0 0.75 0 0] CT
0 0.447 0.741 RC
1 LJ
0.667 LW
N
432 54.167 M
472 54.167 L
S
GR
GS
[0.75 0 0 0.75 357 52.375] CT
/Helvetica 12 F
GS
[1 0 0 1 0 0] CT
0 4.5 moveto 
1 -1 scale
(u2) t 
GR
GR
GS
[0.75 0 0 0.75 0 0] CT
0.851 0.325 0.098 RC
1 LJ
0.667 LW
N
432 69.833 M
472 69.833 L
S
GR
GS
[0.75 0 0 0.75 0 0] CT
0.149 GC
10.0 ML
0.667 LW
N
424 80 M
424 44 L
494 44 L
494 80 L
cp
S
GR
%%Trailer
%%Pages: 1
%%EOF
