%!PS-Adobe-3.0 EPSF-3.0
%%Creator: (MATLAB, The Mathworks, Inc. Version 8.6.0.267246 \(R2015b\). Operating System: Windows 8)
%%Title: E:/Projects/skola/rls/pics/SP4/r_6_y.eps
%%CreationDate: 2017-03-21T18:11:51
%%Pages: (atend)
%%BoundingBox: 0 0 420 315
%%LanguageLevel: 2
%%EndComments
%%BeginProlog
%%BeginResource: procset (Apache XML Graphics Std ProcSet) 1.2 0
%%Version: 1.2 0
%%Copyright: (Copyright 2001-2003,2010 The Apache Software Foundation. License terms: http://www.apache.org/licenses/LICENSE-2.0)
/bd{bind def}bind def
/ld{load def}bd
/GR/grestore ld
/M/moveto ld
/LJ/setlinejoin ld
/C/curveto ld
/f/fill ld
/LW/setlinewidth ld
/GC/setgray ld
/t/show ld
/N/newpath ld
/CT/concat ld
/cp/closepath ld
/S/stroke ld
/L/lineto ld
/CC/setcmykcolor ld
/A/ashow ld
/GS/gsave ld
/RC/setrgbcolor ld
/RM/rmoveto ld
/ML/setmiterlimit ld
/re {4 2 roll M
1 index 0 rlineto
0 exch rlineto
neg 0 rlineto
cp } bd
/_ctm matrix def
/_tm matrix def
/BT { _ctm currentmatrix pop matrix _tm copy pop 0 0 moveto } bd
/ET { _ctm setmatrix } bd
/iTm { _ctm setmatrix _tm concat } bd
/Tm { _tm astore pop iTm 0 0 moveto } bd
/ux 0.0 def
/uy 0.0 def
/F {
  /Tp exch def
  /Tf exch def
  Tf findfont Tp scalefont setfont
  /cf Tf def  /cs Tp def
} bd
/ULS {currentpoint /uy exch def /ux exch def} bd
/ULE {
  /Tcx currentpoint pop def
  gsave
  newpath
  cf findfont cs scalefont dup
  /FontMatrix get 0 get /Ts exch def /FontInfo get dup
  /UnderlinePosition get Ts mul /To exch def
  /UnderlineThickness get Ts mul /Tt exch def
  ux uy To add moveto  Tcx uy To add lineto
  Tt setlinewidth stroke
  grestore
} bd
/OLE {
  /Tcx currentpoint pop def
  gsave
  newpath
  cf findfont cs scalefont dup
  /FontMatrix get 0 get /Ts exch def /FontInfo get dup
  /UnderlinePosition get Ts mul /To exch def
  /UnderlineThickness get Ts mul /Tt exch def
  ux uy To add cs add moveto Tcx uy To add cs add lineto
  Tt setlinewidth stroke
  grestore
} bd
/SOE {
  /Tcx currentpoint pop def
  gsave
  newpath
  cf findfont cs scalefont dup
  /FontMatrix get 0 get /Ts exch def /FontInfo get dup
  /UnderlinePosition get Ts mul /To exch def
  /UnderlineThickness get Ts mul /Tt exch def
  ux uy To add cs 10 mul 26 idiv add moveto Tcx uy To add cs 10 mul 26 idiv add lineto
  Tt setlinewidth stroke
  grestore
} bd
/QT {
/Y22 exch store
/X22 exch store
/Y21 exch store
/X21 exch store
currentpoint
/Y21 load 2 mul add 3 div exch
/X21 load 2 mul add 3 div exch
/X21 load 2 mul /X22 load add 3 div
/Y21 load 2 mul /Y22 load add 3 div
/X22 load /Y22 load curveto
} bd
/SSPD {
dup length /d exch dict def
{
/v exch def
/k exch def
currentpagedevice k known {
/cpdv currentpagedevice k get def
v cpdv ne {
/upd false def
/nullv v type /nulltype eq def
/nullcpdv cpdv type /nulltype eq def
nullv nullcpdv or
{
/upd true def
} {
/sametype v type cpdv type eq def
sametype {
v type /arraytype eq {
/vlen v length def
/cpdvlen cpdv length def
vlen cpdvlen eq {
0 1 vlen 1 sub {
/i exch def
/obj v i get def
/cpdobj cpdv i get def
obj cpdobj ne {
/upd true def
exit
} if
} for
} {
/upd true def
} ifelse
} {
v type /dicttype eq {
v {
/dv exch def
/dk exch def
/cpddv cpdv dk get def
dv cpddv ne {
/upd true def
exit
} if
} forall
} {
/upd true def
} ifelse
} ifelse
} if
} ifelse
upd true eq {
d k v put
} if
} if
} if
} forall
d length 0 gt {
d setpagedevice
} if
} bd
%%EndResource
%%BeginResource: procset (Apache XML Graphics EPS ProcSet) 1.0 0
%%Version: 1.0 0
%%Copyright: (Copyright 2002-2003 The Apache Software Foundation. License terms: http://www.apache.org/licenses/LICENSE-2.0)
/BeginEPSF { %def
/b4_Inc_state save def         % Save state for cleanup
/dict_count countdictstack def % Count objects on dict stack
/op_count count 1 sub def      % Count objects on operand stack
userdict begin                 % Push userdict on dict stack
/showpage { } def              % Redefine showpage, { } = null proc
0 setgray 0 setlinecap         % Prepare graphics state
1 setlinewidth 0 setlinejoin
10 setmiterlimit [ ] 0 setdash newpath
/languagelevel where           % If level not equal to 1 then
{pop languagelevel             % set strokeadjust and
1 ne                           % overprint to their defaults.
{false setstrokeadjust false setoverprint
} if
} if
} bd
/EndEPSF { %def
count op_count sub {pop} repeat            % Clean up stacks
countdictstack dict_count sub {end} repeat
b4_Inc_state restore
} bd
%%EndResource
%FOPBeginFontDict
%%IncludeResource: font Courier-Bold
%%IncludeResource: font Helvetica
%%IncludeResource: font Courier-BoldOblique
%%IncludeResource: font Courier-Oblique
%%IncludeResource: font Times-Roman
%%IncludeResource: font Helvetica-BoldOblique
%%IncludeResource: font Helvetica-Bold
%%IncludeResource: font Helvetica-Oblique
%%IncludeResource: font Times-BoldItalic
%%IncludeResource: font Courier
%%IncludeResource: font Times-Italic
%%IncludeResource: font Times-Bold
%%IncludeResource: font Symbol
%%IncludeResource: font ZapfDingbats
%FOPEndFontDict
%%BeginResource: encoding WinAnsiEncoding
/WinAnsiEncoding [
/.notdef /.notdef /.notdef /.notdef /.notdef
/.notdef /.notdef /.notdef /.notdef /.notdef
/.notdef /.notdef /.notdef /.notdef /.notdef
/.notdef /.notdef /.notdef /.notdef /.notdef
/.notdef /.notdef /.notdef /.notdef /.notdef
/.notdef /.notdef /.notdef /.notdef /.notdef
/.notdef /.notdef /space /exclam /quotedbl
/numbersign /dollar /percent /ampersand /quotesingle
/parenleft /parenright /asterisk /plus /comma
/hyphen /period /slash /zero /one
/two /three /four /five /six
/seven /eight /nine /colon /semicolon
/less /equal /greater /question /at
/A /B /C /D /E
/F /G /H /I /J
/K /L /M /N /O
/P /Q /R /S /T
/U /V /W /X /Y
/Z /bracketleft /backslash /bracketright /asciicircum
/underscore /quoteleft /a /b /c
/d /e /f /g /h
/i /j /k /l /m
/n /o /p /q /r
/s /t /u /v /w
/x /y /z /braceleft /bar
/braceright /asciitilde /bullet /Euro /bullet
/quotesinglbase /florin /quotedblbase /ellipsis /dagger
/daggerdbl /circumflex /perthousand /Scaron /guilsinglleft
/OE /bullet /Zcaron /bullet /bullet
/quoteleft /quoteright /quotedblleft /quotedblright /bullet
/endash /emdash /asciitilde /trademark /scaron
/guilsinglright /oe /bullet /zcaron /Ydieresis
/space /exclamdown /cent /sterling /currency
/yen /brokenbar /section /dieresis /copyright
/ordfeminine /guillemotleft /logicalnot /sfthyphen /registered
/macron /degree /plusminus /twosuperior /threesuperior
/acute /mu /paragraph /middot /cedilla
/onesuperior /ordmasculine /guillemotright /onequarter /onehalf
/threequarters /questiondown /Agrave /Aacute /Acircumflex
/Atilde /Adieresis /Aring /AE /Ccedilla
/Egrave /Eacute /Ecircumflex /Edieresis /Igrave
/Iacute /Icircumflex /Idieresis /Eth /Ntilde
/Ograve /Oacute /Ocircumflex /Otilde /Odieresis
/multiply /Oslash /Ugrave /Uacute /Ucircumflex
/Udieresis /Yacute /Thorn /germandbls /agrave
/aacute /acircumflex /atilde /adieresis /aring
/ae /ccedilla /egrave /eacute /ecircumflex
/edieresis /igrave /iacute /icircumflex /idieresis
/eth /ntilde /ograve /oacute /ocircumflex
/otilde /odieresis /divide /oslash /ugrave
/uacute /ucircumflex /udieresis /yacute /thorn
/ydieresis
] def
%%EndResource
%FOPBeginFontReencode
/Courier-Bold findfont
dup length dict begin
  {1 index /FID ne {def} {pop pop} ifelse} forall
  /Encoding WinAnsiEncoding def
  currentdict
end
/Courier-Bold exch definefont pop
/Helvetica findfont
dup length dict begin
  {1 index /FID ne {def} {pop pop} ifelse} forall
  /Encoding WinAnsiEncoding def
  currentdict
end
/Helvetica exch definefont pop
/Courier-BoldOblique findfont
dup length dict begin
  {1 index /FID ne {def} {pop pop} ifelse} forall
  /Encoding WinAnsiEncoding def
  currentdict
end
/Courier-BoldOblique exch definefont pop
/Courier-Oblique findfont
dup length dict begin
  {1 index /FID ne {def} {pop pop} ifelse} forall
  /Encoding WinAnsiEncoding def
  currentdict
end
/Courier-Oblique exch definefont pop
/Times-Roman findfont
dup length dict begin
  {1 index /FID ne {def} {pop pop} ifelse} forall
  /Encoding WinAnsiEncoding def
  currentdict
end
/Times-Roman exch definefont pop
/Helvetica-BoldOblique findfont
dup length dict begin
  {1 index /FID ne {def} {pop pop} ifelse} forall
  /Encoding WinAnsiEncoding def
  currentdict
end
/Helvetica-BoldOblique exch definefont pop
/Helvetica-Bold findfont
dup length dict begin
  {1 index /FID ne {def} {pop pop} ifelse} forall
  /Encoding WinAnsiEncoding def
  currentdict
end
/Helvetica-Bold exch definefont pop
/Helvetica-Oblique findfont
dup length dict begin
  {1 index /FID ne {def} {pop pop} ifelse} forall
  /Encoding WinAnsiEncoding def
  currentdict
end
/Helvetica-Oblique exch definefont pop
/Times-BoldItalic findfont
dup length dict begin
  {1 index /FID ne {def} {pop pop} ifelse} forall
  /Encoding WinAnsiEncoding def
  currentdict
end
/Times-BoldItalic exch definefont pop
/Courier findfont
dup length dict begin
  {1 index /FID ne {def} {pop pop} ifelse} forall
  /Encoding WinAnsiEncoding def
  currentdict
end
/Courier exch definefont pop
/Times-Italic findfont
dup length dict begin
  {1 index /FID ne {def} {pop pop} ifelse} forall
  /Encoding WinAnsiEncoding def
  currentdict
end
/Times-Italic exch definefont pop
/Times-Bold findfont
dup length dict begin
  {1 index /FID ne {def} {pop pop} ifelse} forall
  /Encoding WinAnsiEncoding def
  currentdict
end
/Times-Bold exch definefont pop
%FOPEndFontReencode
%%EndProlog
%%Page: 1 1
%%PageBoundingBox: 0 0 420 315
%%BeginPageSetup
[1 0 0 -1 0 315] CT
%%EndPageSetup
GS
[0.75 0 0 0.75 0 0] CT
1 GC
N
0 0 560 420 re
f
GR
GS
[0.75 0 0 0.75 0 0] CT
1 GC
N
0 0 560 420 re
f
GR
GS
[0.75 0 0 0.75 0 0] CT
1 GC
N
73 374 M
507 374 L
507 31 L
73 31 L
cp
f
GR
GS
[0.75 0 0 0.75 0 0] CT
0.149 GC
2 setlinecap
1 LJ
0.667 LW
N
73 374 M
507 374 L
S
GR
GS
[0.75 0 0 0.75 0 0] CT
0.149 GC
2 setlinecap
1 LJ
0.667 LW
N
73 31 M
507 31 L
S
GR
GS
[0.75 0 0 0.75 0 0] CT
0.149 GC
2 setlinecap
1 LJ
0.667 LW
N
73 374 M
73 369.66 L
S
GR
GS
[0.75 0 0 0.75 0 0] CT
0.149 GC
2 setlinecap
1 LJ
0.667 LW
N
145.333 374 M
145.333 369.66 L
S
GR
GS
[0.75 0 0 0.75 0 0] CT
0.149 GC
2 setlinecap
1 LJ
0.667 LW
N
217.667 374 M
217.667 369.66 L
S
GR
GS
[0.75 0 0 0.75 0 0] CT
0.149 GC
2 setlinecap
1 LJ
0.667 LW
N
290 374 M
290 369.66 L
S
GR
GS
[0.75 0 0 0.75 0 0] CT
0.149 GC
2 setlinecap
1 LJ
0.667 LW
N
362.333 374 M
362.333 369.66 L
S
GR
GS
[0.75 0 0 0.75 0 0] CT
0.149 GC
2 setlinecap
1 LJ
0.667 LW
N
434.667 374 M
434.667 369.66 L
S
GR
GS
[0.75 0 0 0.75 0 0] CT
0.149 GC
2 setlinecap
1 LJ
0.667 LW
N
507 374 M
507 369.66 L
S
GR
GS
[0.75 0 0 0.75 0 0] CT
0.149 GC
2 setlinecap
1 LJ
0.667 LW
N
73 31 M
73 35.34 L
S
GR
GS
[0.75 0 0 0.75 0 0] CT
0.149 GC
2 setlinecap
1 LJ
0.667 LW
N
145.333 31 M
145.333 35.34 L
S
GR
GS
[0.75 0 0 0.75 0 0] CT
0.149 GC
2 setlinecap
1 LJ
0.667 LW
N
217.667 31 M
217.667 35.34 L
S
GR
GS
[0.75 0 0 0.75 0 0] CT
0.149 GC
2 setlinecap
1 LJ
0.667 LW
N
290 31 M
290 35.34 L
S
GR
GS
[0.75 0 0 0.75 0 0] CT
0.149 GC
2 setlinecap
1 LJ
0.667 LW
N
362.333 31 M
362.333 35.34 L
S
GR
GS
[0.75 0 0 0.75 0 0] CT
0.149 GC
2 setlinecap
1 LJ
0.667 LW
N
434.667 31 M
434.667 35.34 L
S
GR
GS
[0.75 0 0 0.75 0 0] CT
0.149 GC
2 setlinecap
1 LJ
0.667 LW
N
507 31 M
507 35.34 L
S
GR
GS
[0.75 0 0 0.75 54.75 284.50001] CT
0.149 GC
/Helvetica 13 F
GS
[1 0 0 1 0 0] CT
-4 13 moveto 
1 -1 scale
(0) t 
GR
GR
GS
[0.75 0 0 0.75 109 284.50001] CT
0.149 GC
/Helvetica 13 F
GS
[1 0 0 1 0 0] CT
-11 13 moveto 
1 -1 scale
(200) t 
GR
GR
GS
[0.75 0 0 0.75 163.25 284.50001] CT
0.149 GC
/Helvetica 13 F
GS
[1 0 0 1 0 0] CT
-11 13 moveto 
1 -1 scale
(400) t 
GR
GR
GS
[0.75 0 0 0.75 217.5 284.50001] CT
0.149 GC
/Helvetica 13 F
GS
[1 0 0 1 0 0] CT
-11 13 moveto 
1 -1 scale
(600) t 
GR
GR
GS
[0.75 0 0 0.75 271.75001 284.50001] CT
0.149 GC
/Helvetica 13 F
GS
[1 0 0 1 0 0] CT
-11 13 moveto 
1 -1 scale
(800) t 
GR
GR
GS
[0.75 0 0 0.75 325.99999 284.50001] CT
0.149 GC
/Helvetica 13 F
GS
[1 0 0 1 0 0] CT
-14.5 13 moveto 
1 -1 scale
(1000) t 
GR
GR
GS
[0.75 0 0 0.75 380.25 284.50001] CT
0.149 GC
/Helvetica 13 F
GS
[1 0 0 1 0 0] CT
-14.5 13 moveto 
1 -1 scale
(1200) t 
GR
GR
GS
[0.75 0 0 0.75 217.50016 297.49999] CT
0.149 GC
/Helvetica 15 F
GS
[1 0 0 1 0 0] CT
-11 14 moveto 
1 -1 scale
(t\(s\)) t 
GR
GR
GS
[0.75 0 0 0.75 0 0] CT
0.149 GC
2 setlinecap
1 LJ
0.667 LW
N
73 374 M
73 31 L
S
GR
GS
[0.75 0 0 0.75 0 0] CT
0.149 GC
2 setlinecap
1 LJ
0.667 LW
N
507 374 M
507 31 L
S
GR
GS
[0.75 0 0 0.75 0 0] CT
0.149 GC
2 setlinecap
1 LJ
0.667 LW
N
73 374 M
77.34 374 L
S
GR
GS
[0.75 0 0 0.75 0 0] CT
0.149 GC
2 setlinecap
1 LJ
0.667 LW
N
73 316.833 M
77.34 316.833 L
S
GR
GS
[0.75 0 0 0.75 0 0] CT
0.149 GC
2 setlinecap
1 LJ
0.667 LW
N
73 259.667 M
77.34 259.667 L
S
GR
GS
[0.75 0 0 0.75 0 0] CT
0.149 GC
2 setlinecap
1 LJ
0.667 LW
N
73 202.5 M
77.34 202.5 L
S
GR
GS
[0.75 0 0 0.75 0 0] CT
0.149 GC
2 setlinecap
1 LJ
0.667 LW
N
73 145.333 M
77.34 145.333 L
S
GR
GS
[0.75 0 0 0.75 0 0] CT
0.149 GC
2 setlinecap
1 LJ
0.667 LW
N
73 88.167 M
77.34 88.167 L
S
GR
GS
[0.75 0 0 0.75 0 0] CT
0.149 GC
2 setlinecap
1 LJ
0.667 LW
N
73 31 M
77.34 31 L
S
GR
GS
[0.75 0 0 0.75 0 0] CT
0.149 GC
2 setlinecap
1 LJ
0.667 LW
N
507 374 M
502.66 374 L
S
GR
GS
[0.75 0 0 0.75 0 0] CT
0.149 GC
2 setlinecap
1 LJ
0.667 LW
N
507 316.833 M
502.66 316.833 L
S
GR
GS
[0.75 0 0 0.75 0 0] CT
0.149 GC
2 setlinecap
1 LJ
0.667 LW
N
507 259.667 M
502.66 259.667 L
S
GR
GS
[0.75 0 0 0.75 0 0] CT
0.149 GC
2 setlinecap
1 LJ
0.667 LW
N
507 202.5 M
502.66 202.5 L
S
GR
GS
[0.75 0 0 0.75 0 0] CT
0.149 GC
2 setlinecap
1 LJ
0.667 LW
N
507 145.333 M
502.66 145.333 L
S
GR
GS
[0.75 0 0 0.75 0 0] CT
0.149 GC
2 setlinecap
1 LJ
0.667 LW
N
507 88.167 M
502.66 88.167 L
S
GR
GS
[0.75 0 0 0.75 0 0] CT
0.149 GC
2 setlinecap
1 LJ
0.667 LW
N
507 31 M
502.66 31 L
S
GR
GS
[0.75 0 0 0.75 50.75 280.5] CT
0.149 GC
/Helvetica 13 F
GS
[1 0 0 1 0 0] CT
-30 5 moveto 
1 -1 scale
(-0.02) t 
GR
GR
GS
[0.75 0 0 0.75 50.75 237.62501] CT
0.149 GC
/Helvetica 13 F
GS
[1 0 0 1 0 0] CT
-8 5 moveto 
1 -1 scale
(0) t 
GR
GR
GS
[0.75 0 0 0.75 50.75 194.74999] CT
0.149 GC
/Helvetica 13 F
GS
[1 0 0 1 0 0] CT
-26 5 moveto 
1 -1 scale
(0.02) t 
GR
GR
GS
[0.75 0 0 0.75 50.75 151.875] CT
0.149 GC
/Helvetica 13 F
GS
[1 0 0 1 0 0] CT
-26 5 moveto 
1 -1 scale
(0.04) t 
GR
GR
GS
[0.75 0 0 0.75 50.75 109.00001] CT
0.149 GC
/Helvetica 13 F
GS
[1 0 0 1 0 0] CT
-26 5 moveto 
1 -1 scale
(0.06) t 
GR
GR
GS
[0.75 0 0 0.75 50.75 66.125] CT
0.149 GC
/Helvetica 13 F
GS
[1 0 0 1 0 0] CT
-26 5 moveto 
1 -1 scale
(0.08) t 
GR
GR
GS
[0.75 0 0 0.75 50.75 23.25] CT
0.149 GC
/Helvetica 13 F
GS
[1 0 0 1 0 0] CT
-19 5 moveto 
1 -1 scale
(0.1) t 
GR
GR
GS
[0.75 0 0 0.75 217.50021 21.18749] CT
/any-Bold 15 F
GS
[1 0 0 1 0 0] CT
-110.5 -4 moveto 
1 -1 scale
(Response of system with R 4.6) t 
GR
GR
GS
[0.75 0 0 0.75 0 0] CT
0 0.447 0.741 RC
1 LJ
0.667 LW
N
73 316.833 M
73.362 316.833 L
73.362 31 L
73.362 31 L
73.583 31 L
73.791 31 L
74.078 31 L
74.421 31 L
74.831 31 L
75.31 31 L
75.886 31 L
76.599 31 L
77.52 31 L
78.768 31 L
80.484 31 L
81.808 31 L
83.132 31 L
84.598 31 L
86.105 31 L
87.488 31 L
88.742 31 L
90.006 31 L
91.414 31 L
92.941 31 L
94.403 31 L
95.697 31 L
96.922 31 L
98.25 31 L
99.75 31 L
101.281 31 L
102.651 31 L
103.873 31 L
105.125 31 L
106.553 31 L
108.115 31 L
109.581 31 L
110.847 31 L
112.046 31 L
113.379 31 L
114.914 31 L
116.467 31 L
117.82 31 L
119.011 31 L
120.251 31 L
121.703 31 L
123.299 31 L
124.767 31 L
126.004 31 L
127.179 31 L
128.519 31 L
S
GR
GS
[0.75 0 0 0.75 0 0] CT
0 0.447 0.741 RC
1 LJ
0.667 LW
N
127.179 31 M
128.519 31 L
130.088 31 L
131.662 31 L
132.997 31 L
134.158 31 L
135.388 31 L
136.863 31 L
138.492 31 L
139.959 31 L
141.169 31 L
142.322 31 L
143.67 31 L
145.27 31 L
146.86 31 L
148.179 31 L
149.314 31 L
150.538 31 L
152.032 31 L
153.688 31 L
155.153 31 L
156.341 31 L
157.478 31 L
158.831 31 L
160.456 31 L
162.059 31 L
163.365 31 L
164.481 31 L
165.699 31 L
167.208 31 L
168.883 31 L
170.348 31 L
171.52 31 L
172.645 31 L
174.001 31 L
175.643 31 L
177.256 31 L
178.553 31 L
179.656 31 L
180.87 31 L
181.5 31 L
181.5 31 L
181.5 31 L
181.757 31 L
181.975 31 L
182.282 31 L
182.65 31 L
183.071 31 L
183.57 31 L
184.172 31 L
184.926 31 L
185.908 31 L
S
GR
GS
[0.75 0 0 0.75 0 0] CT
0 0.447 0.741 RC
1 LJ
0.667 LW
N
184.926 31 M
185.908 31 L
187.255 31 L
189.061 31 L
190.273 31 L
191.485 31 L
192.978 31 L
194.647 31 L
196.121 31 L
197.303 31 L
198.429 31 L
199.776 31 L
201.408 31 L
203.024 31 L
204.331 31 L
205.44 31 L
206.648 31 L
208.155 31 L
209.841 31 L
211.011 31 L
212.182 31 L
213.641 31 L
215.329 31 L
216.533 31 L
217.736 31 L
219.197 31 L
220.846 31 L
222.344 31 L
223.558 31 L
224.689 31 L
226.01 31 L
227.609 31 L
229.232 31 L
230.572 31 L
231.699 31 L
232.895 31 L
234.369 31 L
236.04 31 L
237.238 31 L
238.435 31 L
239.893 31 L
241.546 31 L
243.05 31 L
244.265 31 L
245.393 31 L
246.708 31 L
248.306 31 L
249.935 31 L
251.28 31 L
252.406 31 L
253.596 31 L
255.065 31 L
S
GR
GS
[0.75 0 0 0.75 0 0] CT
0 0.447 0.741 RC
1 LJ
0.667 LW
N
253.596 31 M
255.065 31 L
256.74 31 L
257.94 31 L
259.14 31 L
260.598 31 L
262.248 31 L
263.75 31 L
264.966 31 L
266.095 31 L
267.413 31 L
269.01 31 L
270.636 31 L
271.979 31 L
273.107 31 L
274.299 31 L
275.77 31 L
277.442 31 L
278.642 31 L
279.842 31 L
281.299 31 L
282.95 31 L
284.452 31 L
285.668 31 L
286.797 31 L
288.115 31 L
289.712 31 L
291.337 31 L
292.682 31 L
293.81 31 L
295.001 31 L
296.471 31 L
298.144 31 L
299.344 31 L
300.544 31 L
302.002 31 L
303.652 31 L
305.153 31 L
306.37 31 L
307.499 31 L
308.817 31 L
310.414 31 L
312.039 31 L
313.383 31 L
314.511 31 L
315.703 31 L
317.174 31 L
318.846 31 L
320.046 31 L
321.246 31 L
322.703 31 L
324.354 31 L
S
GR
GS
[0.75 0 0 0.75 0 0] CT
0 0.447 0.741 RC
1 LJ
0.667 LW
N
322.703 31 M
324.354 31 L
325.855 31 L
327.071 31 L
328.201 31 L
329.519 31 L
331.116 31 L
332.741 31 L
334.085 31 L
335.213 31 L
336.405 31 L
337.875 31 L
339.548 31 L
340.748 31 L
341.948 31 L
343.405 31 L
345.055 31 L
346.557 31 L
347.773 31 L
348.903 31 L
350.221 31 L
351.817 31 L
353.443 31 L
354.787 31 L
355.915 31 L
357.107 31 L
358.577 31 L
360.249 31 L
361.45 31 L
362.65 31 L
364.107 31 L
365.757 31 L
367.259 31 L
368.475 31 L
369.605 31 L
370.922 31 L
372.519 31 L
374.144 31 L
375.489 31 L
376.617 31 L
377.809 31 L
379.279 31 L
380.951 31 L
382.151 31 L
383.352 31 L
384.809 31 L
386.459 31 L
387.961 31 L
389.177 31 L
390.307 31 L
391.624 31 L
393.221 31 L
S
GR
GS
[0.75 0 0 0.75 0 0] CT
0 0.447 0.741 RC
1 LJ
0.667 LW
N
391.624 31 M
393.221 31 L
394.846 31 L
396.19 31 L
397.319 31 L
398.511 31 L
399.981 31 L
401.653 31 L
402.853 31 L
404.053 31 L
405.511 31 L
407.161 31 L
408.662 31 L
409.879 31 L
411.009 31 L
412.326 31 L
413.923 31 L
415.548 31 L
416.892 31 L
418.02 31 L
419.212 31 L
420.683 31 L
422.355 31 L
423.555 31 L
424.755 31 L
426.212 31 L
427.862 31 L
429.364 31 L
430.58 31 L
431.71 31 L
433.028 31 L
434.625 31 L
436.25 31 L
437.594 31 L
438.722 31 L
439.914 31 L
441.384 31 L
443.056 31 L
444.257 31 L
445.457 31 L
446.914 31 L
448.564 31 L
450.066 31 L
451.282 31 L
452.412 31 L
453.73 31 L
455.326 31 L
456.952 31 L
458.296 31 L
459.424 31 L
460.616 31 L
462.086 31 L
S
GR
GS
[0.75 0 0 0.75 0 0] CT
0 0.447 0.741 RC
1 LJ
0.667 LW
N
460.616 31 M
462.086 31 L
463.758 31 L
464.958 31 L
466.159 31 L
467.616 31 L
469.266 31 L
470.768 31 L
471.984 31 L
473.114 31 L
474.431 31 L
476.028 31 L
477.653 31 L
478.997 31 L
480.126 31 L
481.318 31 L
482.788 31 L
484.46 31 L
485.66 31 L
486.86 31 L
488.318 31 L
489.968 31 L
491.469 31 L
492.686 31 L
493.816 31 L
495.133 31 L
496.73 31 L
498.355 31 L
499.699 31 L
500.827 31 L
502.02 31 L
503.49 31 L
505.162 31 L
506.362 31 L
507 31 L
S
GR
GS
[0.75 0 0 0.75 0 0] CT
0.851 0.325 0.098 RC
1 LJ
0.667 LW
N
73 316.833 M
73.362 316.833 L
73.362 316.833 L
73.362 316.833 L
73.583 316.833 L
73.791 316.833 L
74.078 316.833 L
74.421 316.833 L
74.831 316.833 L
75.31 316.833 L
75.886 316.833 L
76.599 316.833 L
77.52 316.833 L
78.768 316.833 L
80.484 316.833 L
81.808 316.833 L
83.132 316.833 L
84.598 316.833 L
86.105 316.833 L
87.488 316.833 L
88.742 316.833 L
90.006 316.833 L
91.414 316.833 L
92.941 316.833 L
94.403 316.833 L
95.697 316.833 L
96.922 316.833 L
98.25 316.833 L
99.75 316.833 L
101.281 316.833 L
102.651 316.833 L
103.873 316.833 L
105.125 316.833 L
106.553 316.833 L
108.115 316.833 L
109.581 316.833 L
110.847 316.833 L
112.046 316.833 L
113.379 316.833 L
114.914 316.833 L
116.467 316.833 L
117.82 316.833 L
119.011 316.833 L
120.251 316.833 L
121.703 316.833 L
123.299 316.833 L
124.767 316.833 L
126.004 316.833 L
127.179 316.833 L
128.519 316.833 L
S
GR
GS
[0.75 0 0 0.75 0 0] CT
0.851 0.325 0.098 RC
1 LJ
0.667 LW
N
127.179 316.833 M
128.519 316.833 L
130.088 316.833 L
131.662 316.833 L
132.997 316.833 L
134.158 316.833 L
135.388 316.833 L
136.863 316.833 L
138.492 316.833 L
139.959 316.833 L
141.169 316.833 L
142.322 316.833 L
143.67 316.833 L
145.27 316.833 L
146.86 316.833 L
148.179 316.833 L
149.314 316.833 L
150.538 316.833 L
152.032 316.833 L
153.688 316.833 L
155.153 316.833 L
156.341 316.833 L
157.478 316.833 L
158.831 316.833 L
160.456 316.833 L
162.059 316.833 L
163.365 316.833 L
164.481 316.833 L
165.699 316.833 L
167.208 316.833 L
168.883 316.833 L
170.348 316.833 L
171.52 316.833 L
172.645 316.833 L
174.001 316.833 L
175.643 316.833 L
177.256 316.833 L
178.553 316.833 L
179.656 316.833 L
180.87 316.833 L
181.5 316.833 L
181.5 31 L
181.5 31 L
181.757 31 L
181.975 31 L
182.282 31 L
182.65 31 L
183.071 31 L
183.57 31 L
184.172 31 L
184.926 31 L
185.908 31 L
S
GR
GS
[0.75 0 0 0.75 0 0] CT
0.851 0.325 0.098 RC
1 LJ
0.667 LW
N
184.926 31 M
185.908 31 L
187.255 31 L
189.061 31 L
190.273 31 L
191.485 31 L
192.978 31 L
194.647 31 L
196.121 31 L
197.303 31 L
198.429 31 L
199.776 31 L
201.408 31 L
203.024 31 L
204.331 31 L
205.44 31 L
206.648 31 L
208.155 31 L
209.841 31 L
211.011 31 L
212.182 31 L
213.641 31 L
215.329 31 L
216.533 31 L
217.736 31 L
219.197 31 L
220.846 31 L
222.344 31 L
223.558 31 L
224.689 31 L
226.01 31 L
227.609 31 L
229.232 31 L
230.572 31 L
231.699 31 L
232.895 31 L
234.369 31 L
236.04 31 L
237.238 31 L
238.435 31 L
239.893 31 L
241.546 31 L
243.05 31 L
244.265 31 L
245.393 31 L
246.708 31 L
248.306 31 L
249.935 31 L
251.28 31 L
252.406 31 L
253.596 31 L
255.065 31 L
S
GR
GS
[0.75 0 0 0.75 0 0] CT
0.851 0.325 0.098 RC
1 LJ
0.667 LW
N
253.596 31 M
255.065 31 L
256.74 31 L
257.94 31 L
259.14 31 L
260.598 31 L
262.248 31 L
263.75 31 L
264.966 31 L
266.095 31 L
267.413 31 L
269.01 31 L
270.636 31 L
271.979 31 L
273.107 31 L
274.299 31 L
275.77 31 L
277.442 31 L
278.642 31 L
279.842 31 L
281.299 31 L
282.95 31 L
284.452 31 L
285.668 31 L
286.797 31 L
288.115 31 L
289.712 31 L
291.337 31 L
292.682 31 L
293.81 31 L
295.001 31 L
296.471 31 L
298.144 31 L
299.344 31 L
300.544 31 L
302.002 31 L
303.652 31 L
305.153 31 L
306.37 31 L
307.499 31 L
308.817 31 L
310.414 31 L
312.039 31 L
313.383 31 L
314.511 31 L
315.703 31 L
317.174 31 L
318.846 31 L
320.046 31 L
321.246 31 L
322.703 31 L
324.354 31 L
S
GR
GS
[0.75 0 0 0.75 0 0] CT
0.851 0.325 0.098 RC
1 LJ
0.667 LW
N
322.703 31 M
324.354 31 L
325.855 31 L
327.071 31 L
328.201 31 L
329.519 31 L
331.116 31 L
332.741 31 L
334.085 31 L
335.213 31 L
336.405 31 L
337.875 31 L
339.548 31 L
340.748 31 L
341.948 31 L
343.405 31 L
345.055 31 L
346.557 31 L
347.773 31 L
348.903 31 L
350.221 31 L
351.817 31 L
353.443 31 L
354.787 31 L
355.915 31 L
357.107 31 L
358.577 31 L
360.249 31 L
361.45 31 L
362.65 31 L
364.107 31 L
365.757 31 L
367.259 31 L
368.475 31 L
369.605 31 L
370.922 31 L
372.519 31 L
374.144 31 L
375.489 31 L
376.617 31 L
377.809 31 L
379.279 31 L
380.951 31 L
382.151 31 L
383.352 31 L
384.809 31 L
386.459 31 L
387.961 31 L
389.177 31 L
390.307 31 L
391.624 31 L
393.221 31 L
S
GR
GS
[0.75 0 0 0.75 0 0] CT
0.851 0.325 0.098 RC
1 LJ
0.667 LW
N
391.624 31 M
393.221 31 L
394.846 31 L
396.19 31 L
397.319 31 L
398.511 31 L
399.981 31 L
401.653 31 L
402.853 31 L
404.053 31 L
405.511 31 L
407.161 31 L
408.662 31 L
409.879 31 L
411.009 31 L
412.326 31 L
413.923 31 L
415.548 31 L
416.892 31 L
418.02 31 L
419.212 31 L
420.683 31 L
422.355 31 L
423.555 31 L
424.755 31 L
426.212 31 L
427.862 31 L
429.364 31 L
430.58 31 L
431.71 31 L
433.028 31 L
434.625 31 L
436.25 31 L
437.594 31 L
438.722 31 L
439.914 31 L
441.384 31 L
443.056 31 L
444.257 31 L
445.457 31 L
446.914 31 L
448.564 31 L
450.066 31 L
451.282 31 L
452.412 31 L
453.73 31 L
455.326 31 L
456.952 31 L
458.296 31 L
459.424 31 L
460.616 31 L
462.086 31 L
S
GR
GS
[0.75 0 0 0.75 0 0] CT
0.851 0.325 0.098 RC
1 LJ
0.667 LW
N
460.616 31 M
462.086 31 L
463.758 31 L
464.958 31 L
466.159 31 L
467.616 31 L
469.266 31 L
470.768 31 L
471.984 31 L
473.114 31 L
474.431 31 L
476.028 31 L
477.653 31 L
478.997 31 L
480.126 31 L
481.318 31 L
482.788 31 L
484.46 31 L
485.66 31 L
486.86 31 L
488.318 31 L
489.968 31 L
491.469 31 L
492.686 31 L
493.816 31 L
495.133 31 L
496.73 31 L
498.355 31 L
499.699 31 L
500.827 31 L
502.02 31 L
503.49 31 L
505.162 31 L
506.362 31 L
507 31 L
S
GR
GS
[0.75 0 0 0.75 0 0] CT
0.929 0.694 0.125 RC
1 LJ
0.667 LW
N
73 316.833 M
73.362 316.833 L
73.362 316.833 L
73.362 316.833 L
73.583 313.482 L
73.791 310.38 L
74.078 306.149 L
74.421 301.172 L
74.831 295.345 L
75.31 288.707 L
75.886 280.934 L
76.599 271.628 L
77.52 260.134 L
78.768 245.422 L
80.484 226.721 L
81.808 213.417 L
83.132 201.018 L
84.598 188.266 L
86.105 176.159 L
87.488 165.863 L
88.742 157.166 L
90.006 148.963 L
91.414 140.456 L
92.941 131.921 L
94.403 124.372 L
95.697 118.163 L
96.922 112.667 L
98.25 107.098 L
99.75 101.265 L
101.281 95.772 L
102.651 91.222 L
103.873 87.431 L
105.125 83.799 L
106.553 79.936 L
108.115 76.038 L
109.581 72.66 L
110.847 69.948 L
112.046 67.542 L
113.379 65.041 L
114.914 62.374 L
116.467 59.887 L
117.82 57.881 L
119.011 56.232 L
120.251 54.622 L
121.703 52.867 L
123.299 51.087 L
124.767 49.579 L
126.004 48.397 L
127.179 47.343 L
128.519 46.219 L
S
GR
GS
[0.75 0 0 0.75 0 0] CT
0.929 0.694 0.125 RC
1 LJ
0.667 LW
N
127.179 47.343 M
128.519 46.219 L
130.088 45.001 L
131.662 43.877 L
132.997 42.995 L
134.158 42.277 L
135.388 41.562 L
136.863 40.766 L
138.492 39.955 L
139.959 39.284 L
141.169 38.767 L
142.322 38.305 L
143.67 37.8 L
145.27 37.246 L
146.86 36.739 L
148.179 36.351 L
149.314 36.037 L
150.538 35.72 L
152.032 35.359 L
153.688 34.992 L
155.153 34.693 L
156.341 34.467 L
157.478 34.263 L
158.831 34.037 L
160.456 33.785 L
162.059 33.558 L
163.365 33.386 L
164.481 33.249 L
165.699 33.108 L
167.208 32.945 L
168.883 32.779 L
170.348 32.646 L
171.52 32.547 L
172.645 32.457 L
174.001 32.355 L
175.643 32.242 L
177.256 32.14 L
178.553 32.064 L
179.656 32.003 L
180.87 31.941 L
181.5 31.91 L
181.5 31.91 L
181.5 31.91 L
181.757 31.897 L
181.975 31.887 L
182.282 31.873 L
182.65 31.856 L
183.071 31.837 L
183.57 31.815 L
184.172 31.789 L
184.926 31.758 L
185.908 31.72 L
S
GR
GS
[0.75 0 0 0.75 0 0] CT
0.929 0.694 0.125 RC
1 LJ
0.667 LW
N
184.926 31.758 M
185.908 31.72 L
187.255 31.67 L
189.061 31.609 L
190.273 31.571 L
191.485 31.535 L
192.978 31.494 L
194.647 31.452 L
196.121 31.418 L
197.303 31.393 L
198.429 31.37 L
199.776 31.344 L
201.408 31.316 L
203.024 31.29 L
204.331 31.27 L
205.44 31.255 L
206.648 31.239 L
208.155 31.22 L
209.841 31.202 L
211.011 31.189 L
212.182 31.178 L
213.641 31.165 L
215.329 31.151 L
216.533 31.141 L
217.736 31.132 L
219.197 31.123 L
220.846 31.112 L
222.344 31.104 L
223.558 31.097 L
224.689 31.092 L
226.01 31.085 L
227.609 31.078 L
229.232 31.072 L
230.572 31.067 L
231.699 31.063 L
232.895 31.059 L
234.369 31.055 L
236.04 31.05 L
237.238 31.047 L
238.435 31.044 L
239.893 31.041 L
241.546 31.037 L
243.05 31.034 L
244.265 31.032 L
245.393 31.03 L
246.708 31.028 L
248.306 31.026 L
249.935 31.024 L
251.28 31.022 L
252.406 31.021 L
253.596 31.02 L
255.065 31.018 L
S
GR
GS
[0.75 0 0 0.75 0 0] CT
0.929 0.694 0.125 RC
1 LJ
0.667 LW
N
253.596 31.02 M
255.065 31.018 L
256.74 31.017 L
257.94 31.016 L
259.14 31.015 L
260.598 31.014 L
262.248 31.012 L
263.75 31.011 L
264.966 31.011 L
266.095 31.01 L
267.413 31.009 L
269.01 31.009 L
270.636 31.008 L
271.979 31.007 L
273.107 31.007 L
274.299 31.007 L
275.77 31.006 L
277.442 31.006 L
278.642 31.005 L
279.842 31.005 L
281.299 31.005 L
282.95 31.004 L
284.452 31.004 L
285.668 31.004 L
286.797 31.003 L
288.115 31.003 L
289.712 31.003 L
291.337 31.003 L
292.682 31.002 L
293.81 31.002 L
295.001 31.002 L
296.471 31.002 L
298.144 31.002 L
299.344 31.002 L
300.544 31.002 L
302.002 31.002 L
303.652 31.001 L
305.153 31.001 L
306.37 31.001 L
307.499 31.001 L
308.817 31.001 L
310.414 31.001 L
312.039 31.001 L
313.383 31.001 L
314.511 31.001 L
315.703 31.001 L
317.174 31.001 L
318.846 31.001 L
320.046 31.001 L
321.246 31.001 L
322.703 31.001 L
324.354 31 L
S
GR
GS
[0.75 0 0 0.75 0 0] CT
0.929 0.694 0.125 RC
1 LJ
0.667 LW
N
322.703 31.001 M
324.354 31 L
325.855 31 L
327.071 31 L
328.201 31 L
329.519 31 L
331.116 31 L
332.741 31 L
334.085 31 L
335.213 31 L
336.405 31 L
337.875 31 L
339.548 31 L
340.748 31 L
341.948 31 L
343.405 31 L
345.055 31 L
346.557 31 L
347.773 31 L
348.903 31 L
350.221 31 L
351.817 31 L
353.443 31 L
354.787 31 L
355.915 31 L
357.107 31 L
358.577 31 L
360.249 31 L
361.45 31 L
362.65 31 L
364.107 31 L
365.757 31 L
367.259 31 L
368.475 31 L
369.605 31 L
370.922 31 L
372.519 31 L
374.144 31 L
375.489 31 L
376.617 31 L
377.809 31 L
379.279 31 L
380.951 31 L
382.151 31 L
383.352 31 L
384.809 31 L
386.459 31 L
387.961 31 L
389.177 31 L
390.307 31 L
391.624 31 L
393.221 31 L
S
GR
GS
[0.75 0 0 0.75 0 0] CT
0.929 0.694 0.125 RC
1 LJ
0.667 LW
N
391.624 31 M
393.221 31 L
394.846 31 L
396.19 31 L
397.319 31 L
398.511 31 L
399.981 31 L
401.653 31 L
402.853 31 L
404.053 31 L
405.511 31 L
407.161 31 L
408.662 31 L
409.879 31 L
411.009 31 L
412.326 31 L
413.923 31 L
415.548 31 L
416.892 31 L
418.02 31 L
419.212 31 L
420.683 31 L
422.355 31 L
423.555 31 L
424.755 31 L
426.212 31 L
427.862 31 L
429.364 31 L
430.58 31 L
431.71 31 L
433.028 31 L
434.625 31 L
436.25 31 L
437.594 31 L
438.722 31 L
439.914 31 L
441.384 31 L
443.056 31 L
444.257 31 L
445.457 31 L
446.914 31 L
448.564 31 L
450.066 31 L
451.282 31 L
452.412 31 L
453.73 31 L
455.326 31 L
456.952 31 L
458.296 31 L
459.424 31 L
460.616 31 L
462.086 31 L
S
GR
GS
[0.75 0 0 0.75 0 0] CT
0.929 0.694 0.125 RC
1 LJ
0.667 LW
N
460.616 31 M
462.086 31 L
463.758 31 L
464.958 31 L
466.159 31 L
467.616 31 L
469.266 31 L
470.768 31 L
471.984 31 L
473.114 31 L
474.431 31 L
476.028 31 L
477.653 31 L
478.997 31 L
480.126 31 L
481.318 31 L
482.788 31 L
484.46 31 L
485.66 31 L
486.86 31 L
488.318 31 L
489.968 31 L
491.469 31 L
492.686 31 L
493.816 31 L
495.133 31 L
496.73 31 L
498.355 31 L
499.699 31 L
500.827 31 L
502.02 31 L
503.49 31 L
505.162 31 L
506.362 31 L
507 31 L
S
GR
GS
[0.75 0 0 0.75 0 0] CT
0.494 0.184 0.557 RC
1 LJ
0.667 LW
N
73 316.833 M
73.362 316.833 L
73.362 316.833 L
73.362 316.833 L
73.583 316.833 L
73.791 316.833 L
74.078 316.833 L
74.421 316.833 L
74.831 316.833 L
75.31 316.833 L
75.886 316.833 L
76.599 316.833 L
77.52 316.833 L
78.768 316.833 L
80.484 316.833 L
81.808 316.833 L
83.132 316.833 L
84.598 316.833 L
86.105 316.833 L
87.488 316.833 L
88.742 316.833 L
90.006 316.833 L
91.414 316.833 L
92.941 316.833 L
94.403 316.833 L
95.697 316.833 L
96.922 316.833 L
98.25 316.833 L
99.75 316.833 L
101.281 316.833 L
102.651 316.833 L
103.873 316.833 L
105.125 316.833 L
106.553 316.833 L
108.115 316.833 L
109.581 316.833 L
110.847 316.833 L
112.046 316.833 L
113.379 316.833 L
114.914 316.833 L
116.467 316.833 L
117.82 316.833 L
119.011 316.833 L
120.251 316.833 L
121.703 316.833 L
123.299 316.833 L
124.767 316.833 L
126.004 316.833 L
127.179 316.833 L
128.519 316.833 L
S
GR
GS
[0.75 0 0 0.75 0 0] CT
0.494 0.184 0.557 RC
1 LJ
0.667 LW
N
127.179 316.833 M
128.519 316.833 L
130.088 316.833 L
131.662 316.833 L
132.997 316.833 L
134.158 316.833 L
135.388 316.833 L
136.863 316.833 L
138.492 316.833 L
139.959 316.833 L
141.169 316.833 L
142.322 316.833 L
143.67 316.833 L
145.27 316.833 L
146.86 316.833 L
148.179 316.833 L
149.314 316.833 L
150.538 316.833 L
152.032 316.833 L
153.688 316.833 L
155.153 316.833 L
156.341 316.833 L
157.478 316.833 L
158.831 316.833 L
160.456 316.833 L
162.059 316.833 L
163.365 316.833 L
164.481 316.833 L
165.699 316.833 L
167.208 316.833 L
168.883 316.833 L
170.348 316.833 L
171.52 316.833 L
172.645 316.833 L
174.001 316.833 L
175.643 316.833 L
177.256 316.833 L
178.553 316.833 L
179.656 316.833 L
180.87 316.833 L
181.5 316.833 L
181.5 316.833 L
181.5 316.833 L
181.757 312.31 L
181.975 308.531 L
182.282 303.315 L
182.65 297.191 L
183.071 290.346 L
183.57 282.488 L
184.172 273.317 L
184.926 262.347 L
185.908 248.821 L
S
GR
GS
[0.75 0 0 0.75 0 0] CT
0.494 0.184 0.557 RC
1 LJ
0.667 LW
N
184.926 262.347 M
185.908 248.821 L
187.255 231.61 L
189.061 210.74 L
190.273 198.029 L
191.485 186.263 L
192.978 172.96 L
194.647 159.507 L
196.121 148.75 L
197.303 140.812 L
198.429 133.782 L
199.776 125.993 L
201.408 117.392 L
203.024 109.688 L
204.331 103.997 L
205.44 99.516 L
206.648 94.966 L
208.155 89.743 L
209.841 84.44 L
211.011 81.062 L
212.182 77.915 L
213.641 74.287 L
215.329 70.466 L
216.533 67.967 L
217.736 65.639 L
219.197 63.025 L
220.846 60.33 L
222.344 58.096 L
223.558 56.422 L
224.689 54.963 L
226.01 53.375 L
227.609 51.605 L
229.232 49.966 L
230.572 48.72 L
231.699 47.741 L
232.895 46.767 L
234.369 45.652 L
236.04 44.492 L
237.238 43.723 L
238.435 43.002 L
239.893 42.185 L
241.546 41.331 L
243.05 40.617 L
244.265 40.08 L
245.393 39.611 L
246.708 39.097 L
248.306 38.518 L
249.935 37.975 L
251.28 37.559 L
252.406 37.231 L
253.596 36.905 L
255.065 36.527 L
S
GR
GS
[0.75 0 0 0.75 0 0] CT
0.494 0.184 0.557 RC
1 LJ
0.667 LW
N
253.596 36.905 M
255.065 36.527 L
256.74 36.129 L
257.94 35.863 L
259.14 35.612 L
260.598 35.327 L
262.248 35.026 L
263.75 34.773 L
264.966 34.58 L
266.095 34.411 L
267.413 34.224 L
269.01 34.013 L
270.636 33.813 L
271.979 33.659 L
273.107 33.537 L
274.299 33.414 L
275.77 33.271 L
277.442 33.12 L
278.642 33.018 L
279.842 32.922 L
281.299 32.811 L
282.95 32.694 L
284.452 32.594 L
285.668 32.518 L
286.797 32.451 L
288.115 32.377 L
289.712 32.292 L
291.337 32.211 L
292.682 32.149 L
293.81 32.099 L
295.001 32.048 L
296.471 31.99 L
298.144 31.927 L
299.344 31.885 L
300.544 31.845 L
302.002 31.798 L
303.652 31.749 L
305.153 31.707 L
306.37 31.674 L
307.499 31.646 L
308.817 31.614 L
310.414 31.578 L
312.039 31.543 L
313.383 31.516 L
314.511 31.494 L
315.703 31.472 L
317.174 31.447 L
318.846 31.419 L
320.046 31.401 L
321.246 31.383 L
322.703 31.363 L
324.354 31.341 L
S
GR
GS
[0.75 0 0 0.75 0 0] CT
0.494 0.184 0.557 RC
1 LJ
0.667 LW
N
322.703 31.363 M
324.354 31.341 L
325.855 31.322 L
327.071 31.308 L
328.201 31.295 L
329.519 31.281 L
331.116 31.265 L
332.741 31.249 L
334.085 31.237 L
335.213 31.227 L
336.405 31.217 L
337.875 31.206 L
339.548 31.193 L
340.748 31.185 L
341.948 31.177 L
343.405 31.168 L
345.055 31.158 L
346.557 31.149 L
347.773 31.143 L
348.903 31.137 L
350.221 31.13 L
351.817 31.123 L
353.443 31.116 L
354.787 31.11 L
355.915 31.106 L
357.107 31.101 L
358.577 31.096 L
360.249 31.09 L
361.45 31.086 L
362.65 31.082 L
364.107 31.078 L
365.757 31.074 L
367.259 31.07 L
368.475 31.067 L
369.605 31.064 L
370.922 31.061 L
372.519 31.057 L
374.144 31.054 L
375.489 31.051 L
376.617 31.049 L
377.809 31.047 L
379.279 31.045 L
380.951 31.042 L
382.151 31.04 L
383.352 31.039 L
384.809 31.037 L
386.459 31.034 L
387.961 31.033 L
389.177 31.031 L
390.307 31.03 L
391.624 31.029 L
393.221 31.027 L
S
GR
GS
[0.75 0 0 0.75 0 0] CT
0.494 0.184 0.557 RC
1 LJ
0.667 LW
N
391.624 31.029 M
393.221 31.027 L
394.846 31.025 L
396.19 31.024 L
397.319 31.023 L
398.511 31.022 L
399.981 31.021 L
401.653 31.02 L
402.853 31.019 L
404.053 31.018 L
405.511 31.017 L
407.161 31.016 L
408.662 31.015 L
409.879 31.015 L
411.009 31.014 L
412.326 31.013 L
413.923 31.013 L
415.548 31.012 L
416.892 31.011 L
418.02 31.011 L
419.212 31.01 L
420.683 31.01 L
422.355 31.009 L
423.555 31.009 L
424.755 31.009 L
426.212 31.008 L
427.862 31.008 L
429.364 31.007 L
430.58 31.007 L
431.71 31.007 L
433.028 31.006 L
434.625 31.006 L
436.25 31.006 L
437.594 31.005 L
438.722 31.005 L
439.914 31.005 L
441.384 31.005 L
443.056 31.004 L
444.257 31.004 L
445.457 31.004 L
446.914 31.004 L
448.564 31.004 L
450.066 31.003 L
451.282 31.003 L
452.412 31.003 L
453.73 31.003 L
455.326 31.003 L
456.952 31.003 L
458.296 31.003 L
459.424 31.002 L
460.616 31.002 L
462.086 31.002 L
S
GR
GS
[0.75 0 0 0.75 0 0] CT
0.494 0.184 0.557 RC
1 LJ
0.667 LW
N
460.616 31.002 M
462.086 31.002 L
463.758 31.002 L
464.958 31.002 L
466.159 31.002 L
467.616 31.002 L
469.266 31.002 L
470.768 31.002 L
471.984 31.002 L
473.114 31.001 L
474.431 31.001 L
476.028 31.001 L
477.653 31.001 L
478.997 31.001 L
480.126 31.001 L
481.318 31.001 L
482.788 31.001 L
484.46 31.001 L
485.66 31.001 L
486.86 31.001 L
488.318 31.001 L
489.968 31.001 L
491.469 31.001 L
492.686 31.001 L
493.816 31.001 L
495.133 31.001 L
496.73 31.001 L
498.355 31.001 L
499.699 31.001 L
500.827 31.001 L
502.02 31.001 L
503.49 31 L
505.162 31 L
506.362 31 L
507 31 L
S
GR
GS
[0.75 0 0 0.75 0 0] CT
1 GC
N
422 112 M
422 44 L
494 44 L
494 112 L
cp
f
GR
GS
[0.75 0 0 0.75 355.5 40.7005] CT
/Helvetica 12 F
GS
[1 0 0 1 0 0] CT
0 4.5 moveto 
1 -1 scale
(w1) t 
GR
GR
GS
[0.75 0 0 0.75 0 0] CT
0 0.447 0.741 RC
1 LJ
0.667 LW
N
430 54.267 M
470 54.267 L
S
GR
GS
[0.75 0 0 0.75 355.5 52.56683] CT
/Helvetica 12 F
GS
[1 0 0 1 0 0] CT
0 4.5 moveto 
1 -1 scale
(w2) t 
GR
GR
GS
[0.75 0 0 0.75 0 0] CT
0.851 0.325 0.098 RC
1 LJ
0.667 LW
N
430 70.089 M
470 70.089 L
S
GR
GS
[0.75 0 0 0.75 355.5 64.43317] CT
/Helvetica 12 F
GS
[1 0 0 1 0 0] CT
0 4.5 moveto 
1 -1 scale
(y1) t 
GR
GR
GS
[0.75 0 0 0.75 0 0] CT
0.929 0.694 0.125 RC
1 LJ
0.667 LW
N
430 85.911 M
470 85.911 L
S
GR
GS
[0.75 0 0 0.75 355.5 76.29951] CT
/Helvetica 12 F
GS
[1 0 0 1 0 0] CT
0 4.5 moveto 
1 -1 scale
(y2) t 
GR
GR
GS
[0.75 0 0 0.75 0 0] CT
0.494 0.184 0.557 RC
1 LJ
0.667 LW
N
430 101.733 M
470 101.733 L
S
GR
GS
[0.75 0 0 0.75 0 0] CT
0.149 GC
10.0 ML
0.667 LW
N
422 112 M
422 44 L
494 44 L
494 112 L
cp
S
GR
%%Trailer
%%Pages: 1
%%EOF
