%!PS-Adobe-3.0 EPSF-3.0
%%Creator: (MATLAB, The Mathworks, Inc. Version 8.6.0.267246 \(R2015b\). Operating System: Windows 8)
%%Title: E:/Projects/skola/rls/pics/SP4/sigma.eps
%%CreationDate: 2017-03-21T18:10:01
%%Pages: (atend)
%%BoundingBox: 0 0 420 315
%%LanguageLevel: 2
%%EndComments
%%BeginProlog
%%BeginResource: procset (Apache XML Graphics Std ProcSet) 1.2 0
%%Version: 1.2 0
%%Copyright: (Copyright 2001-2003,2010 The Apache Software Foundation. License terms: http://www.apache.org/licenses/LICENSE-2.0)
/bd{bind def}bind def
/ld{load def}bd
/GR/grestore ld
/M/moveto ld
/LJ/setlinejoin ld
/C/curveto ld
/f/fill ld
/LW/setlinewidth ld
/GC/setgray ld
/t/show ld
/N/newpath ld
/CT/concat ld
/cp/closepath ld
/S/stroke ld
/L/lineto ld
/CC/setcmykcolor ld
/A/ashow ld
/GS/gsave ld
/RC/setrgbcolor ld
/RM/rmoveto ld
/ML/setmiterlimit ld
/re {4 2 roll M
1 index 0 rlineto
0 exch rlineto
neg 0 rlineto
cp } bd
/_ctm matrix def
/_tm matrix def
/BT { _ctm currentmatrix pop matrix _tm copy pop 0 0 moveto } bd
/ET { _ctm setmatrix } bd
/iTm { _ctm setmatrix _tm concat } bd
/Tm { _tm astore pop iTm 0 0 moveto } bd
/ux 0.0 def
/uy 0.0 def
/F {
  /Tp exch def
  /Tf exch def
  Tf findfont Tp scalefont setfont
  /cf Tf def  /cs Tp def
} bd
/ULS {currentpoint /uy exch def /ux exch def} bd
/ULE {
  /Tcx currentpoint pop def
  gsave
  newpath
  cf findfont cs scalefont dup
  /FontMatrix get 0 get /Ts exch def /FontInfo get dup
  /UnderlinePosition get Ts mul /To exch def
  /UnderlineThickness get Ts mul /Tt exch def
  ux uy To add moveto  Tcx uy To add lineto
  Tt setlinewidth stroke
  grestore
} bd
/OLE {
  /Tcx currentpoint pop def
  gsave
  newpath
  cf findfont cs scalefont dup
  /FontMatrix get 0 get /Ts exch def /FontInfo get dup
  /UnderlinePosition get Ts mul /To exch def
  /UnderlineThickness get Ts mul /Tt exch def
  ux uy To add cs add moveto Tcx uy To add cs add lineto
  Tt setlinewidth stroke
  grestore
} bd
/SOE {
  /Tcx currentpoint pop def
  gsave
  newpath
  cf findfont cs scalefont dup
  /FontMatrix get 0 get /Ts exch def /FontInfo get dup
  /UnderlinePosition get Ts mul /To exch def
  /UnderlineThickness get Ts mul /Tt exch def
  ux uy To add cs 10 mul 26 idiv add moveto Tcx uy To add cs 10 mul 26 idiv add lineto
  Tt setlinewidth stroke
  grestore
} bd
/QT {
/Y22 exch store
/X22 exch store
/Y21 exch store
/X21 exch store
currentpoint
/Y21 load 2 mul add 3 div exch
/X21 load 2 mul add 3 div exch
/X21 load 2 mul /X22 load add 3 div
/Y21 load 2 mul /Y22 load add 3 div
/X22 load /Y22 load curveto
} bd
/SSPD {
dup length /d exch dict def
{
/v exch def
/k exch def
currentpagedevice k known {
/cpdv currentpagedevice k get def
v cpdv ne {
/upd false def
/nullv v type /nulltype eq def
/nullcpdv cpdv type /nulltype eq def
nullv nullcpdv or
{
/upd true def
} {
/sametype v type cpdv type eq def
sametype {
v type /arraytype eq {
/vlen v length def
/cpdvlen cpdv length def
vlen cpdvlen eq {
0 1 vlen 1 sub {
/i exch def
/obj v i get def
/cpdobj cpdv i get def
obj cpdobj ne {
/upd true def
exit
} if
} for
} {
/upd true def
} ifelse
} {
v type /dicttype eq {
v {
/dv exch def
/dk exch def
/cpddv cpdv dk get def
dv cpddv ne {
/upd true def
exit
} if
} forall
} {
/upd true def
} ifelse
} ifelse
} if
} ifelse
upd true eq {
d k v put
} if
} if
} if
} forall
d length 0 gt {
d setpagedevice
} if
} bd
%%EndResource
%%BeginResource: procset (Apache XML Graphics EPS ProcSet) 1.0 0
%%Version: 1.0 0
%%Copyright: (Copyright 2002-2003 The Apache Software Foundation. License terms: http://www.apache.org/licenses/LICENSE-2.0)
/BeginEPSF { %def
/b4_Inc_state save def         % Save state for cleanup
/dict_count countdictstack def % Count objects on dict stack
/op_count count 1 sub def      % Count objects on operand stack
userdict begin                 % Push userdict on dict stack
/showpage { } def              % Redefine showpage, { } = null proc
0 setgray 0 setlinecap         % Prepare graphics state
1 setlinewidth 0 setlinejoin
10 setmiterlimit [ ] 0 setdash newpath
/languagelevel where           % If level not equal to 1 then
{pop languagelevel             % set strokeadjust and
1 ne                           % overprint to their defaults.
{false setstrokeadjust false setoverprint
} if
} if
} bd
/EndEPSF { %def
count op_count sub {pop} repeat            % Clean up stacks
countdictstack dict_count sub {end} repeat
b4_Inc_state restore
} bd
%%EndResource
%FOPBeginFontDict
%%IncludeResource: font Courier-Bold
%%IncludeResource: font Helvetica
%%IncludeResource: font Courier-BoldOblique
%%IncludeResource: font Courier-Oblique
%%IncludeResource: font Times-Roman
%%IncludeResource: font Helvetica-BoldOblique
%%IncludeResource: font Helvetica-Bold
%%IncludeResource: font Helvetica-Oblique
%%IncludeResource: font Times-BoldItalic
%%IncludeResource: font Courier
%%IncludeResource: font Times-Italic
%%IncludeResource: font Times-Bold
%%IncludeResource: font Symbol
%%IncludeResource: font ZapfDingbats
%FOPEndFontDict
%%BeginResource: encoding WinAnsiEncoding
/WinAnsiEncoding [
/.notdef /.notdef /.notdef /.notdef /.notdef
/.notdef /.notdef /.notdef /.notdef /.notdef
/.notdef /.notdef /.notdef /.notdef /.notdef
/.notdef /.notdef /.notdef /.notdef /.notdef
/.notdef /.notdef /.notdef /.notdef /.notdef
/.notdef /.notdef /.notdef /.notdef /.notdef
/.notdef /.notdef /space /exclam /quotedbl
/numbersign /dollar /percent /ampersand /quotesingle
/parenleft /parenright /asterisk /plus /comma
/hyphen /period /slash /zero /one
/two /three /four /five /six
/seven /eight /nine /colon /semicolon
/less /equal /greater /question /at
/A /B /C /D /E
/F /G /H /I /J
/K /L /M /N /O
/P /Q /R /S /T
/U /V /W /X /Y
/Z /bracketleft /backslash /bracketright /asciicircum
/underscore /quoteleft /a /b /c
/d /e /f /g /h
/i /j /k /l /m
/n /o /p /q /r
/s /t /u /v /w
/x /y /z /braceleft /bar
/braceright /asciitilde /bullet /Euro /bullet
/quotesinglbase /florin /quotedblbase /ellipsis /dagger
/daggerdbl /circumflex /perthousand /Scaron /guilsinglleft
/OE /bullet /Zcaron /bullet /bullet
/quoteleft /quoteright /quotedblleft /quotedblright /bullet
/endash /emdash /asciitilde /trademark /scaron
/guilsinglright /oe /bullet /zcaron /Ydieresis
/space /exclamdown /cent /sterling /currency
/yen /brokenbar /section /dieresis /copyright
/ordfeminine /guillemotleft /logicalnot /sfthyphen /registered
/macron /degree /plusminus /twosuperior /threesuperior
/acute /mu /paragraph /middot /cedilla
/onesuperior /ordmasculine /guillemotright /onequarter /onehalf
/threequarters /questiondown /Agrave /Aacute /Acircumflex
/Atilde /Adieresis /Aring /AE /Ccedilla
/Egrave /Eacute /Ecircumflex /Edieresis /Igrave
/Iacute /Icircumflex /Idieresis /Eth /Ntilde
/Ograve /Oacute /Ocircumflex /Otilde /Odieresis
/multiply /Oslash /Ugrave /Uacute /Ucircumflex
/Udieresis /Yacute /Thorn /germandbls /agrave
/aacute /acircumflex /atilde /adieresis /aring
/ae /ccedilla /egrave /eacute /ecircumflex
/edieresis /igrave /iacute /icircumflex /idieresis
/eth /ntilde /ograve /oacute /ocircumflex
/otilde /odieresis /divide /oslash /ugrave
/uacute /ucircumflex /udieresis /yacute /thorn
/ydieresis
] def
%%EndResource
%FOPBeginFontReencode
/Courier-Bold findfont
dup length dict begin
  {1 index /FID ne {def} {pop pop} ifelse} forall
  /Encoding WinAnsiEncoding def
  currentdict
end
/Courier-Bold exch definefont pop
/Helvetica findfont
dup length dict begin
  {1 index /FID ne {def} {pop pop} ifelse} forall
  /Encoding WinAnsiEncoding def
  currentdict
end
/Helvetica exch definefont pop
/Courier-BoldOblique findfont
dup length dict begin
  {1 index /FID ne {def} {pop pop} ifelse} forall
  /Encoding WinAnsiEncoding def
  currentdict
end
/Courier-BoldOblique exch definefont pop
/Courier-Oblique findfont
dup length dict begin
  {1 index /FID ne {def} {pop pop} ifelse} forall
  /Encoding WinAnsiEncoding def
  currentdict
end
/Courier-Oblique exch definefont pop
/Times-Roman findfont
dup length dict begin
  {1 index /FID ne {def} {pop pop} ifelse} forall
  /Encoding WinAnsiEncoding def
  currentdict
end
/Times-Roman exch definefont pop
/Helvetica-BoldOblique findfont
dup length dict begin
  {1 index /FID ne {def} {pop pop} ifelse} forall
  /Encoding WinAnsiEncoding def
  currentdict
end
/Helvetica-BoldOblique exch definefont pop
/Helvetica-Bold findfont
dup length dict begin
  {1 index /FID ne {def} {pop pop} ifelse} forall
  /Encoding WinAnsiEncoding def
  currentdict
end
/Helvetica-Bold exch definefont pop
/Helvetica-Oblique findfont
dup length dict begin
  {1 index /FID ne {def} {pop pop} ifelse} forall
  /Encoding WinAnsiEncoding def
  currentdict
end
/Helvetica-Oblique exch definefont pop
/Times-BoldItalic findfont
dup length dict begin
  {1 index /FID ne {def} {pop pop} ifelse} forall
  /Encoding WinAnsiEncoding def
  currentdict
end
/Times-BoldItalic exch definefont pop
/Courier findfont
dup length dict begin
  {1 index /FID ne {def} {pop pop} ifelse} forall
  /Encoding WinAnsiEncoding def
  currentdict
end
/Courier exch definefont pop
/Times-Italic findfont
dup length dict begin
  {1 index /FID ne {def} {pop pop} ifelse} forall
  /Encoding WinAnsiEncoding def
  currentdict
end
/Times-Italic exch definefont pop
/Times-Bold findfont
dup length dict begin
  {1 index /FID ne {def} {pop pop} ifelse} forall
  /Encoding WinAnsiEncoding def
  currentdict
end
/Times-Bold exch definefont pop
%FOPEndFontReencode
%%EndProlog
%%Page: 1 1
%%PageBoundingBox: 0 0 420 315
%%BeginPageSetup
[1 0 0 -1 0 315] CT
%%EndPageSetup
GS
[0.75 0 0 0.75 0 0] CT
1 GC
N
0 0 560 420 re
f
GR
GS
[0.75 0 0 0.75 0 0] CT
1 GC
N
0 0 560 420 re
f
GR
GS
[0.75 0 0 0.75 0 0] CT
1 GC
N
85 374 M
507 374 L
507 51 L
85 51 L
cp
f
GR
GS
[0.75 0 0 0.75 0 0] CT
0.4 GC
2 setlinecap
1 LJ
0.667 LW
N
85 374 M
507 374 L
S
GR
GS
[0.75 0 0 0.75 0 0] CT
0.4 GC
2 setlinecap
1 LJ
0.667 LW
N
85 51 M
507 51 L
S
GR
GS
[0.75 0 0 0.75 0 0] CT
0.4 GC
2 setlinecap
1 LJ
0.667 LW
N
85 374 M
85 369.78 L
S
GR
GS
[0.75 0 0 0.75 0 0] CT
0.4 GC
2 setlinecap
1 LJ
0.667 LW
N
190.5 374 M
190.5 369.78 L
S
GR
GS
[0.75 0 0 0.75 0 0] CT
0.4 GC
2 setlinecap
1 LJ
0.667 LW
N
296 374 M
296 369.78 L
S
GR
GS
[0.75 0 0 0.75 0 0] CT
0.4 GC
2 setlinecap
1 LJ
0.667 LW
N
401.5 374 M
401.5 369.78 L
S
GR
GS
[0.75 0 0 0.75 0 0] CT
0.4 GC
2 setlinecap
1 LJ
0.667 LW
N
507 374 M
507 369.78 L
S
GR
GS
[0.75 0 0 0.75 0 0] CT
0.4 GC
2 setlinecap
1 LJ
0.667 LW
N
85 51 M
85 55.22 L
S
GR
GS
[0.75 0 0 0.75 0 0] CT
0.4 GC
2 setlinecap
1 LJ
0.667 LW
N
190.5 51 M
190.5 55.22 L
S
GR
GS
[0.75 0 0 0.75 0 0] CT
0.4 GC
2 setlinecap
1 LJ
0.667 LW
N
296 51 M
296 55.22 L
S
GR
GS
[0.75 0 0 0.75 0 0] CT
0.4 GC
2 setlinecap
1 LJ
0.667 LW
N
401.5 51 M
401.5 55.22 L
S
GR
GS
[0.75 0 0 0.75 0 0] CT
0.4 GC
2 setlinecap
1 LJ
0.667 LW
N
507 51 M
507 55.22 L
S
GR
GS
[0.75 0 0 0.75 54 297] CT
0.4 GC
/Helvetica 13 F
GS
[1 0 0 1 0 0] CT
0 0 moveto 
1 -1 scale
(10) t 
GR
GR
GS
[0.75 0 0 0.75 65.25 292.5] CT
0.4 GC
/Helvetica 11 F
GS
[1 0 0 1 0 0] CT
0 0 moveto 
1 -1 scale
(-4) t 
GR
GR
GS
[0.75 0 0 0.75 133.5 297] CT
0.4 GC
/Helvetica 13 F
GS
[1 0 0 1 0 0] CT
0 0 moveto 
1 -1 scale
(10) t 
GR
GR
GS
[0.75 0 0 0.75 144.75 292.5] CT
0.4 GC
/Helvetica 11 F
GS
[1 0 0 1 0 0] CT
0 0 moveto 
1 -1 scale
(-2) t 
GR
GR
GS
[0.75 0 0 0.75 213.75 297] CT
0.4 GC
/Helvetica 13 F
GS
[1 0 0 1 0 0] CT
0 0 moveto 
1 -1 scale
(10) t 
GR
GR
GS
[0.75 0 0 0.75 225 292.5] CT
0.4 GC
/Helvetica 11 F
GS
[1 0 0 1 0 0] CT
0 0 moveto 
1 -1 scale
(0) t 
GR
GR
GS
[0.75 0 0 0.75 293.25 297] CT
0.4 GC
/Helvetica 13 F
GS
[1 0 0 1 0 0] CT
0 0 moveto 
1 -1 scale
(10) t 
GR
GR
GS
[0.75 0 0 0.75 304.5 292.5] CT
0.4 GC
/Helvetica 11 F
GS
[1 0 0 1 0 0] CT
0 0 moveto 
1 -1 scale
(2) t 
GR
GR
GS
[0.75 0 0 0.75 372 297] CT
0.4 GC
/Helvetica 13 F
GS
[1 0 0 1 0 0] CT
0 0 moveto 
1 -1 scale
(10) t 
GR
GR
GS
[0.75 0 0 0.75 383.25 292.5] CT
0.4 GC
/Helvetica 11 F
GS
[1 0 0 1 0 0] CT
0 0 moveto 
1 -1 scale
(4) t 
GR
GR
GS
[0.75 0 0 0.75 0 0] CT
0.4 GC
2 setlinecap
1 LJ
0.667 LW
N
85 374 M
85 51 L
S
GR
GS
[0.75 0 0 0.75 0 0] CT
0.4 GC
2 setlinecap
1 LJ
0.667 LW
N
507 374 M
507 51 L
S
GR
GS
[0.75 0 0 0.75 0 0] CT
0.4 GC
2 setlinecap
1 LJ
0.667 LW
N
85 374 M
89.22 374 L
S
GR
GS
[0.75 0 0 0.75 0 0] CT
0.4 GC
2 setlinecap
1 LJ
0.667 LW
N
85 320.167 M
89.22 320.167 L
S
GR
GS
[0.75 0 0 0.75 0 0] CT
0.4 GC
2 setlinecap
1 LJ
0.667 LW
N
85 266.333 M
89.22 266.333 L
S
GR
GS
[0.75 0 0 0.75 0 0] CT
0.4 GC
2 setlinecap
1 LJ
0.667 LW
N
85 212.5 M
89.22 212.5 L
S
GR
GS
[0.75 0 0 0.75 0 0] CT
0.4 GC
2 setlinecap
1 LJ
0.667 LW
N
85 158.667 M
89.22 158.667 L
S
GR
GS
[0.75 0 0 0.75 0 0] CT
0.4 GC
2 setlinecap
1 LJ
0.667 LW
N
85 104.833 M
89.22 104.833 L
S
GR
GS
[0.75 0 0 0.75 0 0] CT
0.4 GC
2 setlinecap
1 LJ
0.667 LW
N
85 51 M
89.22 51 L
S
GR
GS
[0.75 0 0 0.75 0 0] CT
0.4 GC
2 setlinecap
1 LJ
0.667 LW
N
507 374 M
502.78 374 L
S
GR
GS
[0.75 0 0 0.75 0 0] CT
0.4 GC
2 setlinecap
1 LJ
0.667 LW
N
507 320.167 M
502.78 320.167 L
S
GR
GS
[0.75 0 0 0.75 0 0] CT
0.4 GC
2 setlinecap
1 LJ
0.667 LW
N
507 266.333 M
502.78 266.333 L
S
GR
GS
[0.75 0 0 0.75 0 0] CT
0.4 GC
2 setlinecap
1 LJ
0.667 LW
N
507 212.5 M
502.78 212.5 L
S
GR
GS
[0.75 0 0 0.75 0 0] CT
0.4 GC
2 setlinecap
1 LJ
0.667 LW
N
507 158.667 M
502.78 158.667 L
S
GR
GS
[0.75 0 0 0.75 0 0] CT
0.4 GC
2 setlinecap
1 LJ
0.667 LW
N
507 104.833 M
502.78 104.833 L
S
GR
GS
[0.75 0 0 0.75 0 0] CT
0.4 GC
2 setlinecap
1 LJ
0.667 LW
N
507 51 M
502.78 51 L
S
GR
GS
[0.75 0 0 0.75 59.75 280.5] CT
0.4 GC
/Helvetica 13 F
GS
[1 0 0 1 0 0] CT
-27 5 moveto 
1 -1 scale
(-150) t 
GR
GR
GS
[0.75 0 0 0.75 59.75 240.12499] CT
0.4 GC
/Helvetica 13 F
GS
[1 0 0 1 0 0] CT
-27 5 moveto 
1 -1 scale
(-100) t 
GR
GR
GS
[0.75 0 0 0.75 59.75 199.75001] CT
0.4 GC
/Helvetica 13 F
GS
[1 0 0 1 0 0] CT
-19 5 moveto 
1 -1 scale
(-50) t 
GR
GR
GS
[0.75 0 0 0.75 59.75 159.375] CT
0.4 GC
/Helvetica 13 F
GS
[1 0 0 1 0 0] CT
-8 5 moveto 
1 -1 scale
(0) t 
GR
GR
GS
[0.75 0 0 0.75 59.75 118.99999] CT
0.4 GC
/Helvetica 13 F
GS
[1 0 0 1 0 0] CT
-15 5 moveto 
1 -1 scale
(50) t 
GR
GR
GS
[0.75 0 0 0.75 59.75 78.62501] CT
0.4 GC
/Helvetica 13 F
GS
[1 0 0 1 0 0] CT
-22 5 moveto 
1 -1 scale
(100) t 
GR
GR
GS
[0.75 0 0 0.75 59.75 38.25] CT
0.4 GC
/Helvetica 13 F
GS
[1 0 0 1 0 0] CT
-22 5 moveto 
1 -1 scale
(150) t 
GR
GR
GS
[0.75 0 0 0.75 0 0] CT
0 0 1 RC
1 LJ
0.667 LW
N
84.958 174.161 M
109.534 174.16 L
113.053 174.159 L
116.571 174.158 L
120.089 174.157 L
123.607 174.156 L
127.126 174.154 L
130.644 174.151 L
134.162 174.147 L
137.68 174.141 L
141.198 174.134 L
144.717 174.124 L
148.235 174.11 L
151.753 174.092 L
155.271 174.067 L
158.79 174.034 L
162.308 173.989 L
165.826 173.928 L
169.344 173.847 L
172.862 173.739 L
176.381 173.596 L
179.899 173.409 L
183.417 173.166 L
186.935 172.855 L
190.453 172.463 L
193.972 171.979 L
197.49 171.393 L
201.008 170.702 L
204.526 169.904 L
208.045 169.006 L
211.563 168.017 L
215.081 166.951 L
218.599 165.824 L
222.117 164.651 L
225.636 163.449 L
229.154 162.233 L
232.672 161.017 L
236.19 159.816 L
239.709 158.64 L
243.227 157.499 L
246.745 156.399 L
250.263 155.341 L
253.781 154.32 L
257.3 153.328 L
260.818 152.35 L
264.336 151.37 L
267.854 150.374 L
271.372 149.349 L
274.891 148.285 L
278.409 147.177 L
S
GR
GS
[0.75 0 0 0.75 0 0] CT
0 0 1 RC
1 LJ
0.667 LW
N
274.891 148.285 M
278.409 147.177 L
281.927 146.023 L
285.445 144.824 L
288.964 143.583 L
292.482 142.306 L
296 140.997 L
299.518 139.661 L
303.036 138.303 L
306.555 136.927 L
310.073 135.538 L
313.591 134.138 L
317.109 132.73 L
320.628 131.316 L
324.146 129.898 L
327.664 128.477 L
331.182 127.054 L
334.7 125.632 L
338.219 124.211 L
341.737 122.792 L
345.255 121.377 L
348.773 119.969 L
352.292 118.569 L
355.81 117.181 L
359.328 115.809 L
362.846 114.458 L
366.364 113.135 L
369.883 111.848 L
373.401 110.608 L
376.919 109.425 L
380.437 108.312 L
383.955 107.283 L
387.474 106.349 L
390.992 105.519 L
394.51 104.798 L
398.028 104.186 L
401.547 103.679 L
405.065 103.267 L
408.583 102.939 L
412.101 102.683 L
415.619 102.484 L
419.138 102.333 L
422.656 102.218 L
426.174 102.132 L
429.692 102.068 L
433.21 102.02 L
436.729 101.985 L
440.247 101.958 L
443.765 101.939 L
447.283 101.924 L
450.802 101.914 L
454.32 101.906 L
S
GR
GS
[0.75 0 0 0.75 0 0] CT
0 0 1 RC
1 LJ
0.667 LW
N
450.802 101.914 M
454.32 101.906 L
457.838 101.9 L
461.356 101.896 L
464.874 101.893 L
468.393 101.891 L
471.911 101.889 L
475.429 101.888 L
478.947 101.887 L
482.466 101.886 L
507.042 101.885 L
S
GR
GS
[0.75 0 0 0.75 0 0] CT
0 0 1 RC
1 LJ
0.667 LW
N
84.958 185.411 M
109.534 185.41 L
113.053 185.409 L
116.571 185.408 L
120.089 185.407 L
123.607 185.406 L
127.126 185.404 L
130.644 185.401 L
134.162 185.397 L
137.68 185.391 L
141.198 185.384 L
144.717 185.374 L
148.235 185.361 L
151.753 185.343 L
155.271 185.318 L
158.79 185.285 L
162.308 185.24 L
165.826 185.18 L
169.344 185.1 L
172.862 184.993 L
176.381 184.851 L
179.899 184.665 L
183.417 184.424 L
186.935 184.114 L
190.453 183.724 L
193.972 183.24 L
197.49 182.654 L
201.008 181.96 L
204.526 181.155 L
208.045 180.244 L
211.563 179.234 L
215.081 178.136 L
218.599 176.962 L
222.117 175.724 L
225.636 174.433 L
229.154 173.098 L
232.672 171.726 L
236.19 170.322 L
239.709 168.89 L
243.227 167.431 L
246.745 165.946 L
250.263 164.435 L
253.781 162.896 L
257.3 161.332 L
260.818 159.744 L
264.336 158.134 L
267.854 156.507 L
271.372 154.869 L
274.891 153.226 L
278.409 151.582 L
S
GR
GS
[0.75 0 0 0.75 0 0] CT
0 0 1 RC
1 LJ
0.667 LW
N
274.891 153.226 M
278.409 151.582 L
281.927 149.944 L
285.445 148.314 L
288.964 146.698 L
292.482 145.096 L
296 143.513 L
299.518 141.948 L
303.036 140.402 L
306.555 138.876 L
310.073 137.367 L
313.591 135.873 L
317.109 134.393 L
320.628 132.923 L
324.146 131.464 L
327.664 130.012 L
331.182 128.566 L
334.7 127.127 L
338.219 125.695 L
341.737 124.268 L
345.255 122.849 L
348.773 121.439 L
352.292 120.04 L
355.81 118.656 L
359.328 117.29 L
362.846 115.949 L
366.364 114.639 L
369.883 113.37 L
373.401 112.153 L
376.919 110.999 L
380.437 109.921 L
383.955 108.931 L
387.474 108.041 L
390.992 107.258 L
394.51 106.585 L
398.028 106.019 L
401.547 105.555 L
405.065 105.181 L
408.583 104.886 L
412.101 104.656 L
415.619 104.479 L
419.138 104.345 L
422.656 104.244 L
426.174 104.168 L
429.692 104.111 L
433.21 104.069 L
436.729 104.038 L
440.247 104.015 L
443.765 103.998 L
447.283 103.985 L
450.802 103.976 L
454.32 103.969 L
S
GR
GS
[0.75 0 0 0.75 0 0] CT
0 0 1 RC
1 LJ
0.667 LW
N
450.802 103.976 M
454.32 103.969 L
457.838 103.964 L
461.356 103.961 L
464.874 103.958 L
468.393 103.956 L
471.911 103.954 L
475.429 103.953 L
478.947 103.952 L
482.466 103.952 L
507.042 103.951 L
S
GR
GS
[0.75 0 0 0.75 0 0] CT
1 0 0 RC
1 LJ
0.667 LW
N
84.958 239.589 M
109.534 239.59 L
113.096 239.591 L
116.658 239.592 L
120.219 239.593 L
123.781 239.594 L
127.342 239.597 L
130.904 239.6 L
134.465 239.604 L
138.027 239.609 L
141.588 239.617 L
145.15 239.627 L
148.711 239.641 L
152.273 239.66 L
155.835 239.686 L
159.396 239.722 L
162.958 239.769 L
166.519 239.834 L
170.081 239.92 L
173.642 240.035 L
177.204 240.188 L
180.765 240.389 L
184.327 240.649 L
187.888 240.983 L
191.45 241.403 L
195.011 241.922 L
198.573 242.548 L
202.135 243.286 L
205.696 244.137 L
209.258 245.094 L
212.819 246.149 L
216.381 247.29 L
219.942 248.504 L
223.504 249.779 L
227.065 251.105 L
230.627 252.472 L
234.188 253.875 L
237.75 255.309 L
241.312 256.771 L
244.873 258.26 L
248.435 259.776 L
251.996 261.32 L
255.558 262.89 L
259.119 264.487 L
262.681 266.107 L
266.242 267.746 L
269.804 269.4 L
273.365 271.062 L
276.927 272.726 L
280.489 274.387 L
S
GR
GS
[0.75 0 0 0.75 0 0] CT
1 0 0 RC
1 LJ
0.667 LW
N
276.927 272.726 M
280.489 274.387 L
284.05 276.041 L
287.612 277.683 L
291.173 279.311 L
294.735 280.921 L
298.296 282.512 L
301.858 284.084 L
305.419 285.636 L
308.981 287.17 L
312.542 288.688 L
316.104 290.192 L
319.665 291.685 L
323.227 293.168 L
326.789 294.644 L
330.35 296.115 L
333.912 297.581 L
337.473 299.045 L
341.035 300.505 L
344.596 301.964 L
348.158 303.422 L
351.719 304.879 L
355.281 306.334 L
358.842 307.79 L
362.404 309.245 L
365.966 310.699 L
369.527 312.154 L
373.089 313.608 L
376.65 315.062 L
380.212 316.516 L
432.962 338.05 L
507.042 368.291 L
S
GR
GS
[0.75 0 0 0.75 0 0] CT
1 0 0 RC
1 LJ
0.667 LW
N
84.958 250.839 M
109.534 250.84 L
113.096 250.841 L
116.658 250.842 L
120.219 250.843 L
123.781 250.844 L
127.342 250.847 L
130.904 250.85 L
134.465 250.854 L
138.027 250.859 L
141.588 250.867 L
145.15 250.878 L
148.711 250.892 L
152.273 250.911 L
155.835 250.937 L
159.396 250.973 L
162.958 251.021 L
166.519 251.086 L
170.081 251.173 L
173.642 251.289 L
177.204 251.443 L
180.765 251.645 L
184.327 251.908 L
187.888 252.243 L
191.45 252.665 L
195.011 253.183 L
198.573 253.808 L
202.135 254.542 L
205.696 255.384 L
209.258 256.325 L
212.819 257.355 L
216.381 258.459 L
219.942 259.619 L
223.504 260.82 L
227.065 262.045 L
230.627 263.277 L
234.188 264.503 L
237.75 265.709 L
241.312 266.885 L
244.873 268.021 L
248.435 269.114 L
251.996 270.166 L
255.558 271.184 L
259.119 272.179 L
262.681 273.168 L
266.242 274.166 L
269.804 275.189 L
273.365 276.249 L
276.927 277.351 L
280.489 278.5 L
S
GR
GS
[0.75 0 0 0.75 0 0] CT
1 0 0 RC
1 LJ
0.667 LW
N
276.927 277.351 M
280.489 278.5 L
284.05 279.696 L
287.612 280.936 L
291.173 282.216 L
294.735 283.53 L
298.296 284.874 L
301.858 286.242 L
305.419 287.629 L
308.981 289.033 L
312.542 290.448 L
316.104 291.873 L
319.665 293.305 L
323.227 294.743 L
326.789 296.184 L
330.35 297.629 L
333.912 299.077 L
337.473 300.526 L
341.035 301.976 L
344.596 303.427 L
348.158 304.879 L
351.719 306.332 L
355.281 307.784 L
358.842 309.238 L
362.404 310.691 L
365.966 312.144 L
369.527 313.598 L
373.089 315.052 L
376.65 316.505 L
380.212 317.959 L
432.962 339.492 L
507.042 369.733 L
S
GR
GS
[0.75 0 0 0.75 0 0] CT
0.749 0 0.749 RC
1 LJ
0.667 LW
N
84.958 205.338 M
109.813 205.338 L
162.563 205.339 L
166.109 205.339 L
169.655 205.34 L
173.202 205.341 L
176.748 205.342 L
180.294 205.344 L
183.84 205.346 L
187.386 205.349 L
190.932 205.353 L
194.478 205.359 L
198.025 205.366 L
201.571 205.377 L
205.117 205.391 L
208.663 205.41 L
212.209 205.435 L
215.755 205.47 L
219.301 205.516 L
222.847 205.578 L
226.394 205.66 L
229.94 205.768 L
233.486 205.907 L
237.032 206.084 L
240.578 206.305 L
244.124 206.576 L
247.67 206.897 L
251.216 207.265 L
254.763 207.674 L
258.309 208.111 L
261.855 208.56 L
265.401 209.006 L
268.947 209.432 L
272.493 209.827 L
276.039 210.184 L
279.585 210.499 L
283.132 210.772 L
286.678 211.006 L
290.224 211.206 L
293.77 211.376 L
297.316 211.522 L
300.862 211.648 L
304.408 211.757 L
307.955 211.852 L
311.501 211.936 L
315.047 212.01 L
318.593 212.074 L
322.139 212.131 L
325.685 212.181 L
329.231 212.224 L
S
GR
GS
[0.75 0 0 0.75 0 0] CT
0.749 0 0.749 RC
1 LJ
0.667 LW
N
325.685 212.181 M
329.231 212.224 L
332.777 212.262 L
336.324 212.295 L
339.87 212.323 L
343.416 212.348 L
346.962 212.369 L
350.508 212.388 L
354.054 212.403 L
357.6 212.417 L
361.146 212.429 L
364.693 212.439 L
368.239 212.448 L
371.785 212.455 L
375.331 212.461 L
378.877 212.467 L
382.423 212.472 L
435.173 212.497 L
507.042 212.499 L
S
GR
GS
[0.75 0 0 0.75 0 0] CT
0.749 0 0.749 RC
1 LJ
0.667 LW
N
84.958 216.516 M
109.813 216.516 L
162.563 216.516 L
166.109 216.515 L
169.655 216.515 L
173.202 216.515 L
176.748 216.515 L
180.294 216.515 L
183.84 216.514 L
187.386 216.514 L
190.932 216.513 L
194.478 216.512 L
198.025 216.511 L
201.571 216.509 L
205.117 216.506 L
208.663 216.503 L
212.209 216.498 L
215.755 216.492 L
219.301 216.483 L
222.847 216.471 L
226.394 216.456 L
229.94 216.435 L
233.486 216.407 L
237.032 216.37 L
240.578 216.321 L
244.124 216.259 L
247.67 216.18 L
251.216 216.082 L
254.763 215.963 L
258.309 215.822 L
261.855 215.66 L
265.401 215.48 L
268.947 215.285 L
272.493 215.081 L
276.039 214.871 L
279.585 214.66 L
283.132 214.452 L
286.678 214.25 L
290.224 214.055 L
293.77 213.871 L
297.316 213.7 L
300.862 213.543 L
304.408 213.401 L
307.955 213.275 L
311.501 213.164 L
315.047 213.068 L
318.593 212.985 L
322.139 212.914 L
325.685 212.853 L
329.231 212.801 L
S
GR
GS
[0.75 0 0 0.75 0 0] CT
0.749 0 0.749 RC
1 LJ
0.667 LW
N
325.685 212.853 M
329.231 212.801 L
332.777 212.757 L
336.324 212.719 L
339.87 212.687 L
343.416 212.66 L
346.962 212.636 L
350.508 212.617 L
354.054 212.6 L
357.6 212.585 L
361.146 212.573 L
364.693 212.562 L
368.239 212.553 L
371.785 212.546 L
375.331 212.539 L
378.877 212.533 L
382.423 212.529 L
435.173 212.503 L
507.042 212.501 L
S
GR
GS
[0.75 0 0 0.75 0 0] CT
1 GC
N
94 113 M
94 61 L
179 61 L
179 113 L
cp
f
GR
GS
[0.75 0 0 0.75 109.5 53.42419] CT
/Helvetica 12 F
GS
[1 0 0 1 0 0] CT
0 4.5 moveto 
1 -1 scale
(R 4.4) t 
GR
GR
GS
[0.75 0 0 0.75 0 0] CT
0 0 1 RC
1 LJ
0.667 LW
N
102 71.232 M
142 71.232 L
S
GR
GS
[0.75 0 0 0.75 109.5 65.25] CT
/Helvetica 12 F
GS
[1 0 0 1 0 0] CT
0 4.5 moveto 
1 -1 scale
(R 4.5) t 
GR
GR
GS
[0.75 0 0 0.75 0 0] CT
1 0 0 RC
1 LJ
0.667 LW
N
102 87 M
142 87 L
S
GR
GS
[0.75 0 0 0.75 109.5 77.0758] CT
/Helvetica 12 F
GS
[1 0 0 1 0 0] CT
0 4.5 moveto 
1 -1 scale
(R 4.6) t 
GR
GR
GS
[0.75 0 0 0.75 0 0] CT
0.749 0 0.749 RC
1 LJ
0.667 LW
N
102 102.768 M
142 102.768 L
S
GR
GS
[0.75 0 0 0.75 0 0] CT
0.149 GC
10.0 ML
0.667 LW
N
94 113 M
94 61 L
179 61 L
179 113 L
cp
S
GR
GS
[0.75 0 0 0.75 221.25 33.52501] CT
/any-Bold 15 F
GS
[1 0 0 1 0 0] CT
-56.5 -4 moveto 
1 -1 scale
(Singular Values) t 
GR
GR
GS
[0.75 0 0 0.75 221.25 298.99999] CT
/Helvetica 15 F
GS
[1 0 0 1 0 0] CT
-59.5 14 moveto 
1 -1 scale
(Frequency \(rad/s\)) t 
GR
GR
GS
[0 -0.75 0.75 0 36.5 160.3875] CT
/Helvetica 15 F
GS
[1 0 0 1 0 0] CT
-69 -4 moveto 
1 -1 scale
(Singular Values \(dB\)) t 
GR
GR
%%Trailer
%%Pages: 1
%%EOF
