%!PS-Adobe-3.0 EPSF-3.0
%%Creator: MATLAB, The MathWorks, Inc. Version 8.2.0.701 (R2013b). Operating System: Microsoft Windows 8.
%%Title: C:\Users\Tomas\Documents\Dokumenty\Skola\RLS\SP\pics\SP6\robust_stability.eps
%%CreationDate: 03/20/2017  23:24:21
%%DocumentNeededFonts: Helvetica
%%DocumentProcessColors: Cyan Magenta Yellow Black
%%LanguageLevel: 2
%%Pages: 1
%%BoundingBox:    87   262   507   578
%%EndComments

%%BeginProlog
% MathWorks dictionary
/MathWorks 160 dict begin
% definition operators
/bdef {bind def} bind def
/ldef {load def} bind def
/xdef {exch def} bdef
/xstore {exch store} bdef
% operator abbreviations
/c  /clip ldef
/cc /concat ldef
/cp /closepath ldef
/gr /grestore ldef
/gs /gsave ldef
/mt /moveto ldef
/np /newpath ldef
/cm /currentmatrix ldef
/sm /setmatrix ldef
/rm /rmoveto ldef
/rl /rlineto ldef
/s {show newpath} bdef
/sc {setcmykcolor} bdef
/sr /setrgbcolor ldef
/sg /setgray ldef
/w /setlinewidth ldef
/j /setlinejoin ldef
/cap /setlinecap ldef
/rc {rectclip} bdef
/rf {rectfill} bdef
% page state control
/pgsv () def
/bpage {/pgsv save def} bdef
/epage {pgsv restore} bdef
/bplot /gsave ldef
/eplot {stroke grestore} bdef
% orientation switch
/portraitMode 0 def /landscapeMode 1 def /rotateMode 2 def
% coordinate system mappings
/dpi2point 0 def
% font control
/FontSize 0 def
/FMS {/FontSize xstore findfont [FontSize 0 0 FontSize neg 0 0]
  makefont setfont} bdef
/ISOLatin1Encoding where {pop /WindowsLatin1Encoding 256 array bdef
ISOLatin1Encoding WindowsLatin1Encoding copy pop
/.notdef/.notdef/quotesinglbase/florin/quotedblbase/ellipsis/dagger
/daggerdbl/circumflex/perthousand/Scaron/guilsinglleft/OE/.notdef/.notdef
/.notdef/.notdef/quoteleft/quoteright/quotedblleft/quotedblright/bullet
/endash/emdash/tilde/trademark/scaron/guilsinglright/oe/.notdef/.notdef
/Ydieresis WindowsLatin1Encoding 128 32 getinterval astore pop}
{/WindowsLatin1Encoding StandardEncoding bdef} ifelse
/reencode {exch dup where {pop load} {pop StandardEncoding} ifelse
  exch dup 3 1 roll findfont dup length dict begin
  { 1 index /FID ne {def}{pop pop} ifelse } forall
  /Encoding exch def currentdict end definefont pop} bdef
/isroman {findfont /CharStrings get /Agrave known} bdef
/FMSR {3 1 roll 1 index dup isroman {reencode} {pop pop} ifelse
  exch FMS} bdef
/csm {1 dpi2point div -1 dpi2point div scale neg translate
 dup landscapeMode eq {pop -90 rotate}
  {rotateMode eq {90 rotate} if} ifelse} bdef
% line types: solid, dotted, dashed, dotdash
/SO { [] 0 setdash } bdef
/DO { [.5 dpi2point mul 4 dpi2point mul] 0 setdash } bdef
/DA { [6 dpi2point mul] 0 setdash } bdef
/DD { [.5 dpi2point mul 4 dpi2point mul 6 dpi2point mul 4
  dpi2point mul] 0 setdash } bdef
% macros for lines and objects
/L {lineto stroke} bdef
/MP {3 1 roll moveto 1 sub {rlineto} repeat} bdef
/AP {{rlineto} repeat} bdef
/PDlw -1 def
/W {/PDlw currentlinewidth def setlinewidth} def
/PP {closepath eofill} bdef
/DP {closepath stroke} bdef
/MR {4 -2 roll moveto dup  0 exch rlineto exch 0 rlineto
  neg 0 exch rlineto closepath} bdef
/FR {MR stroke} bdef
/PR {MR fill} bdef
/L1i {{currentfile picstr readhexstring pop} image} bdef
/tMatrix matrix def
/MakeOval {newpath tMatrix currentmatrix pop translate scale
0 0 1 0 360 arc tMatrix setmatrix} bdef
/FO {MakeOval stroke} bdef
/PO {MakeOval fill} bdef
/PD {currentlinewidth 2 div 0 360 arc fill
   PDlw -1 eq not {PDlw w /PDlw -1 def} if} def
/FA {newpath tMatrix currentmatrix pop translate scale
  0 0 1 5 -2 roll arc tMatrix setmatrix stroke} bdef
/PA {newpath tMatrix currentmatrix pop	translate 0 0 moveto scale
  0 0 1 5 -2 roll arc closepath tMatrix setmatrix fill} bdef
/FAn {newpath tMatrix currentmatrix pop translate scale
  0 0 1 5 -2 roll arcn tMatrix setmatrix stroke} bdef
/PAn {newpath tMatrix currentmatrix pop translate 0 0 moveto scale
  0 0 1 5 -2 roll arcn closepath tMatrix setmatrix fill} bdef
/vradius 0 def /hradius 0 def /lry 0 def
/lrx 0 def /uly 0 def /ulx 0 def /rad 0 def
/MRR {/vradius xdef /hradius xdef /lry xdef /lrx xdef /uly xdef
  /ulx xdef newpath tMatrix currentmatrix pop ulx hradius add uly
  vradius add translate hradius vradius scale 0 0 1 180 270 arc 
  tMatrix setmatrix lrx hradius sub uly vradius add translate
  hradius vradius scale 0 0 1 270 360 arc tMatrix setmatrix
  lrx hradius sub lry vradius sub translate hradius vradius scale
  0 0 1 0 90 arc tMatrix setmatrix ulx hradius add lry vradius sub
  translate hradius vradius scale 0 0 1 90 180 arc tMatrix setmatrix
  closepath} bdef
/FRR {MRR stroke } bdef
/PRR {MRR fill } bdef
/MlrRR {/lry xdef /lrx xdef /uly xdef /ulx xdef /rad lry uly sub 2 div def
  newpath tMatrix currentmatrix pop ulx rad add uly rad add translate
  rad rad scale 0 0 1 90 270 arc tMatrix setmatrix lrx rad sub lry rad
  sub translate rad rad scale 0 0 1 270 90 arc tMatrix setmatrix
  closepath} bdef
/FlrRR {MlrRR stroke } bdef
/PlrRR {MlrRR fill } bdef
/MtbRR {/lry xdef /lrx xdef /uly xdef /ulx xdef /rad lrx ulx sub 2 div def
  newpath tMatrix currentmatrix pop ulx rad add uly rad add translate
  rad rad scale 0 0 1 180 360 arc tMatrix setmatrix lrx rad sub lry rad
  sub translate rad rad scale 0 0 1 0 180 arc tMatrix setmatrix
  closepath} bdef
/FtbRR {MtbRR stroke } bdef
/PtbRR {MtbRR fill } bdef
/stri 6 array def /dtri 6 array def
/smat 6 array def /dmat 6 array def
/tmat1 6 array def /tmat2 6 array def /dif 3 array def
/asub {/ind2 exch def /ind1 exch def dup dup
  ind1 get exch ind2 get sub exch } bdef
/tri_to_matrix {
  2 0 asub 3 1 asub 4 0 asub 5 1 asub
  dup 0 get exch 1 get 7 -1 roll astore } bdef
/compute_transform {
  dmat dtri tri_to_matrix tmat1 invertmatrix 
  smat stri tri_to_matrix tmat2 concatmatrix } bdef
/ds {stri astore pop} bdef
/dt {dtri astore pop} bdef
/db {2 copy /cols xdef /rows xdef mul dup 3 mul string
  currentfile 
  3 index 0 eq {/ASCIIHexDecode filter}
  {/ASCII85Decode filter 3 index 2 eq {/RunLengthDecode filter} if }
  ifelse exch readstring pop
  dup 0 3 index getinterval /rbmap xdef
  dup 2 index dup getinterval /gbmap xdef
  1 index dup 2 mul exch getinterval /bbmap xdef pop pop}bdef
/it {gs np dtri aload pop moveto lineto lineto cp c
  cols rows 8 compute_transform 
  rbmap gbmap bbmap true 3 colorimage gr}bdef
/il {newpath moveto lineto stroke}bdef
currentdict end def
%%EndProlog

%%BeginSetup
MathWorks begin

0 cap

end
%%EndSetup

%%Page: 1 1
%%BeginPageSetup
%%PageBoundingBox:    87   262   507   578
MathWorks begin
bpage
%%EndPageSetup

%%BeginObject: obj1
bplot

/dpi2point 12 def
portraitMode 1044 6936 csm

    0     0  5045  3782 rc
85 dict begin %Colortable dictionary
/c0 { 0.000000 0.000000 0.000000 sr} bdef
/c1 { 1.000000 1.000000 1.000000 sr} bdef
/c2 { 0.900000 0.000000 0.000000 sr} bdef
/c3 { 0.000000 0.820000 0.000000 sr} bdef
/c4 { 0.000000 0.000000 0.800000 sr} bdef
/c5 { 0.910000 0.820000 0.320000 sr} bdef
/c6 { 1.000000 0.260000 0.820000 sr} bdef
/c7 { 0.000000 0.820000 0.820000 sr} bdef
c0
1 j
1 sg
   0    0 5046 3783 rf
6 w
0 3082 3910 0 0 -3082 656 3366 4 MP
PP
-3910 0 0 3082 3910 0 0 -3082 656 3366 5 MP stroke
4 w
DO
SO
6 w
0 sg
 656  284 mt 4566  284 L
 656 3366 mt 4566 3366 L
4566 3366 mt 4566  284 L
 656 3366 mt  656  284 L
 656 3366 mt 4566 3366 L
 656 3366 mt  656  284 L
 656 3366 mt  656 3346 L
 656  284 mt  656  303 L
 656 3366 mt  656 3326 L
 656  284 mt  656  323 L
%%IncludeResource: font Helvetica
/Helvetica /WindowsLatin1Encoding 120 FMSR

 544 3548 mt 
(10) s
%%IncludeResource: font Helvetica
/Helvetica /WindowsLatin1Encoding 80 FMSR

 677 3474 mt 
(-3) s
 852 3366 mt  852 3346 L
 852  284 mt  852  303 L
 966 3366 mt  966 3346 L
 966  284 mt  966  303 L
1048 3366 mt 1048 3346 L
1048  284 mt 1048  303 L
1111 3366 mt 1111 3346 L
1111  284 mt 1111  303 L
1163 3366 mt 1163 3346 L
1163  284 mt 1163  303 L
1206 3366 mt 1206 3346 L
1206  284 mt 1206  303 L
1244 3366 mt 1244 3346 L
1244  284 mt 1244  303 L
1277 3366 mt 1277 3346 L
1277  284 mt 1277  303 L
1307 3366 mt 1307 3346 L
1307  284 mt 1307  303 L
1307 3366 mt 1307 3326 L
1307  284 mt 1307  323 L
%%IncludeResource: font Helvetica
/Helvetica /WindowsLatin1Encoding 120 FMSR

1195 3548 mt 
(10) s
%%IncludeResource: font Helvetica
/Helvetica /WindowsLatin1Encoding 80 FMSR

1328 3474 mt 
(-2) s
1503 3366 mt 1503 3346 L
1503  284 mt 1503  303 L
1618 3366 mt 1618 3346 L
1618  284 mt 1618  303 L
1700 3366 mt 1700 3346 L
1700  284 mt 1700  303 L
1763 3366 mt 1763 3346 L
1763  284 mt 1763  303 L
1814 3366 mt 1814 3346 L
1814  284 mt 1814  303 L
1858 3366 mt 1858 3346 L
1858  284 mt 1858  303 L
1896 3366 mt 1896 3346 L
1896  284 mt 1896  303 L
1929 3366 mt 1929 3346 L
1929  284 mt 1929  303 L
1959 3366 mt 1959 3346 L
1959  284 mt 1959  303 L
1959 3366 mt 1959 3326 L
1959  284 mt 1959  323 L
%%IncludeResource: font Helvetica
/Helvetica /WindowsLatin1Encoding 120 FMSR

1847 3548 mt 
(10) s
%%IncludeResource: font Helvetica
/Helvetica /WindowsLatin1Encoding 80 FMSR

1980 3474 mt 
(-1) s
2155 3366 mt 2155 3346 L
2155  284 mt 2155  303 L
2270 3366 mt 2270 3346 L
2270  284 mt 2270  303 L
2351 3366 mt 2351 3346 L
2351  284 mt 2351  303 L
2414 3366 mt 2414 3346 L
2414  284 mt 2414  303 L
2466 3366 mt 2466 3346 L
2466  284 mt 2466  303 L
2510 3366 mt 2510 3346 L
2510  284 mt 2510  303 L
2547 3366 mt 2547 3346 L
2547  284 mt 2547  303 L
2581 3366 mt 2581 3346 L
2581  284 mt 2581  303 L
2611 3366 mt 2611 3346 L
2611  284 mt 2611  303 L
2611 3366 mt 2611 3326 L
2611  284 mt 2611  323 L
%%IncludeResource: font Helvetica
/Helvetica /WindowsLatin1Encoding 120 FMSR

2523 3548 mt 
(10) s
%%IncludeResource: font Helvetica
/Helvetica /WindowsLatin1Encoding 80 FMSR

2656 3474 mt 
(0) s
2807 3366 mt 2807 3346 L
2807  284 mt 2807  303 L
2921 3366 mt 2921 3346 L
2921  284 mt 2921  303 L
3003 3366 mt 3003 3346 L
3003  284 mt 3003  303 L
3066 3366 mt 3066 3346 L
3066  284 mt 3066  303 L
3118 3366 mt 3118 3346 L
3118  284 mt 3118  303 L
3161 3366 mt 3161 3346 L
3161  284 mt 3161  303 L
3199 3366 mt 3199 3346 L
3199  284 mt 3199  303 L
3232 3366 mt 3232 3346 L
3232  284 mt 3232  303 L
3262 3366 mt 3262 3346 L
3262  284 mt 3262  303 L
3262 3366 mt 3262 3326 L
3262  284 mt 3262  323 L
%%IncludeResource: font Helvetica
/Helvetica /WindowsLatin1Encoding 120 FMSR

3174 3548 mt 
(10) s
%%IncludeResource: font Helvetica
/Helvetica /WindowsLatin1Encoding 80 FMSR

3307 3474 mt 
(1) s
3458 3366 mt 3458 3346 L
3458  284 mt 3458  303 L
3573 3366 mt 3573 3346 L
3573  284 mt 3573  303 L
3655 3366 mt 3655 3346 L
3655  284 mt 3655  303 L
3718 3366 mt 3718 3346 L
3718  284 mt 3718  303 L
3769 3366 mt 3769 3346 L
3769  284 mt 3769  303 L
3813 3366 mt 3813 3346 L
3813  284 mt 3813  303 L
3851 3366 mt 3851 3346 L
3851  284 mt 3851  303 L
3884 3366 mt 3884 3346 L
3884  284 mt 3884  303 L
3914 3366 mt 3914 3346 L
3914  284 mt 3914  303 L
3914 3366 mt 3914 3326 L
3914  284 mt 3914  323 L
%%IncludeResource: font Helvetica
/Helvetica /WindowsLatin1Encoding 120 FMSR

3826 3548 mt 
(10) s
%%IncludeResource: font Helvetica
/Helvetica /WindowsLatin1Encoding 80 FMSR

3959 3474 mt 
(2) s
4110 3366 mt 4110 3346 L
4110  284 mt 4110  303 L
4225 3366 mt 4225 3346 L
4225  284 mt 4225  303 L
4306 3366 mt 4306 3346 L
4306  284 mt 4306  303 L
4369 3366 mt 4369 3346 L
4369  284 mt 4369  303 L
4421 3366 mt 4421 3346 L
4421  284 mt 4421  303 L
4465 3366 mt 4465 3346 L
4465  284 mt 4465  303 L
4502 3366 mt 4502 3346 L
4502  284 mt 4502  303 L
4536 3366 mt 4536 3346 L
4536  284 mt 4536  303 L
4566 3366 mt 4566 3346 L
4566  284 mt 4566  303 L
4566 3366 mt 4566 3326 L
4566  284 mt 4566  323 L
%%IncludeResource: font Helvetica
/Helvetica /WindowsLatin1Encoding 120 FMSR

4478 3548 mt 
(10) s
%%IncludeResource: font Helvetica
/Helvetica /WindowsLatin1Encoding 80 FMSR

4611 3474 mt 
(3) s
 656 3366 mt  656 3366 L
 656 3366 mt  656 3366 L
 656 3366 mt  656 3366 L
 656 3366 mt  656 3366 L
 656 3366 mt  656 3366 L
 656 3366 mt  656 3366 L
 656 3366 mt  656 3366 L
 656 3366 mt  656 3366 L
 656 3366 mt  656 3366 L
 656 3366 mt  656 3366 L
 656 3366 mt  656 3366 L
 656 3366 mt  656 3366 L
 656 3366 mt  656 3366 L
 656 3366 mt  656 3366 L
 656 3366 mt  656 3366 L
 656 3366 mt  656 3366 L
 656 3366 mt  656 3366 L
 656 3366 mt  656 3366 L
 656 3366 mt  695 3366 L
4566 3366 mt 4526 3366 L
%%IncludeResource: font Helvetica
/Helvetica /WindowsLatin1Encoding 120 FMSR

 353 3410 mt 
(10) s
%%IncludeResource: font Helvetica
/Helvetica /WindowsLatin1Encoding 80 FMSR

 486 3336 mt 
(-12) s
 656 3366 mt  656 3366 L
 656 3366 mt  656 3366 L
 656 3366 mt  656 3366 L
 656 3366 mt  656 3366 L
 656 3366 mt  656 3366 L
 656 3366 mt  656 3366 L
 656 3366 mt  656 3366 L
 656 3366 mt  656 3366 L
 656 3366 mt  656 3366 L
 656 3366 mt  656 3366 L
 656 3366 mt  656 3366 L
 656 3366 mt  656 3366 L
 656 3366 mt  656 3366 L
 656 3366 mt  656 3366 L
 656 3366 mt  656 3366 L
 656 3366 mt  656 3366 L
 656 3366 mt  656 3366 L
 656 3366 mt  656 3366 L
 656 2852 mt  695 2852 L
4566 2852 mt 4526 2852 L
%%IncludeResource: font Helvetica
/Helvetica /WindowsLatin1Encoding 120 FMSR

 353 2896 mt 
(10) s
%%IncludeResource: font Helvetica
/Helvetica /WindowsLatin1Encoding 80 FMSR

 486 2822 mt 
(-10) s
 656 3366 mt  656 3366 L
 656 3366 mt  656 3366 L
 656 3366 mt  656 3366 L
 656 3366 mt  656 3366 L
 656 3366 mt  656 3366 L
 656 3366 mt  656 3366 L
 656 3366 mt  656 3366 L
 656 3366 mt  656 3366 L
 656 3366 mt  656 3366 L
 656 3366 mt  656 3366 L
 656 3366 mt  656 3366 L
 656 3366 mt  656 3366 L
 656 3366 mt  656 3366 L
 656 3366 mt  656 3366 L
 656 3366 mt  656 3366 L
 656 3366 mt  656 3366 L
 656 3366 mt  656 3366 L
 656 3366 mt  656 3366 L
 656 2338 mt  695 2338 L
4566 2338 mt 4526 2338 L
%%IncludeResource: font Helvetica
/Helvetica /WindowsLatin1Encoding 120 FMSR

 353 2382 mt 
(10) s
%%IncludeResource: font Helvetica
/Helvetica /WindowsLatin1Encoding 80 FMSR

 486 2308 mt 
(-8) s
 656 3366 mt  656 3366 L
 656 3366 mt  656 3366 L
 656 3366 mt  656 3366 L
 656 3366 mt  656 3366 L
 656 3366 mt  656 3366 L
 656 3366 mt  656 3366 L
 656 3366 mt  656 3366 L
 656 3366 mt  656 3366 L
 656 3366 mt  656 3366 L
 656 3366 mt  656 3366 L
 656 3366 mt  656 3366 L
 656 3366 mt  656 3366 L
 656 3366 mt  656 3366 L
 656 3366 mt  656 3366 L
 656 3366 mt  656 3366 L
 656 3366 mt  656 3366 L
 656 3366 mt  656 3366 L
 656 3366 mt  656 3366 L
 656 1825 mt  695 1825 L
4566 1825 mt 4526 1825 L
%%IncludeResource: font Helvetica
/Helvetica /WindowsLatin1Encoding 120 FMSR

 353 1869 mt 
(10) s
%%IncludeResource: font Helvetica
/Helvetica /WindowsLatin1Encoding 80 FMSR

 486 1795 mt 
(-6) s
 656 3366 mt  656 3366 L
 656 3366 mt  656 3366 L
 656 3366 mt  656 3366 L
 656 3366 mt  656 3366 L
 656 3366 mt  656 3366 L
 656 3366 mt  656 3366 L
 656 3366 mt  656 3366 L
 656 3366 mt  656 3366 L
 656 3366 mt  656 3366 L
 656 3366 mt  656 3366 L
 656 3366 mt  656 3366 L
 656 3366 mt  656 3366 L
 656 3366 mt  656 3366 L
 656 3366 mt  656 3366 L
 656 3366 mt  656 3366 L
 656 3366 mt  656 3366 L
 656 3366 mt  656 3366 L
 656 3366 mt  656 3366 L
 656 1311 mt  695 1311 L
4566 1311 mt 4526 1311 L
%%IncludeResource: font Helvetica
/Helvetica /WindowsLatin1Encoding 120 FMSR

 353 1355 mt 
(10) s
%%IncludeResource: font Helvetica
/Helvetica /WindowsLatin1Encoding 80 FMSR

 486 1281 mt 
(-4) s
 656 3366 mt  656 3366 L
 656 3366 mt  656 3366 L
 656 3366 mt  656 3366 L
 656 3366 mt  656 3366 L
 656 3366 mt  656 3366 L
 656 3366 mt  656 3366 L
 656 3366 mt  656 3366 L
 656 3366 mt  656 3366 L
 656 3366 mt  656 3366 L
 656 3366 mt  656 3366 L
 656 3366 mt  656 3366 L
 656 3366 mt  656 3366 L
 656 3366 mt  656 3366 L
 656 3366 mt  656 3366 L
 656 3366 mt  656 3366 L
 656 3366 mt  656 3366 L
 656 3366 mt  656 3366 L
 656 3366 mt  656 3366 L
 656  797 mt  695  797 L
4566  797 mt 4526  797 L
%%IncludeResource: font Helvetica
/Helvetica /WindowsLatin1Encoding 120 FMSR

 353  841 mt 
(10) s
%%IncludeResource: font Helvetica
/Helvetica /WindowsLatin1Encoding 80 FMSR

 486  767 mt 
(-2) s
 656 3366 mt  656 3366 L
 656 3366 mt  656 3366 L
 656 3366 mt  656 3366 L
 656 3366 mt  656 3366 L
 656 3366 mt  656 3366 L
 656 3366 mt  656 3366 L
 656 3366 mt  656 3366 L
 656 3366 mt  656 3366 L
 656 3366 mt  656 3366 L
 656 3366 mt  656 3366 L
 656 3366 mt  656 3366 L
 656 3366 mt  656 3366 L
 656 3366 mt  656 3366 L
 656 3366 mt  656 3366 L
 656 3366 mt  656 3366 L
 656 3366 mt  656 3366 L
 656 3366 mt  656 3366 L
 656 3366 mt  656 3366 L
 656  284 mt  695  284 L
4566  284 mt 4526  284 L
%%IncludeResource: font Helvetica
/Helvetica /WindowsLatin1Encoding 120 FMSR

 353  328 mt 
(10) s
%%IncludeResource: font Helvetica
/Helvetica /WindowsLatin1Encoding 80 FMSR

 486  254 mt 
(0) s
 656 3366 mt  656 3366 L
 656 3366 mt  656 3366 L
 656 3366 mt  656 3366 L
 656 3366 mt  656 3366 L
 656 3366 mt  656 3366 L
 656 3366 mt  656 3366 L
 656 3366 mt  656 3366 L
 656 3366 mt  656 3366 L
 656 3366 mt  656 3366 L
 656 3366 mt  656 3366 L
 656 3366 mt  656 3366 L
 656 3366 mt  656 3366 L
 656 3366 mt  656 3366 L
 656 3366 mt  656 3366 L
 656 3366 mt  656 3366 L
 656 3366 mt  656 3366 L
 656 3366 mt  656 3366 L
 656 3366 mt  656 3366 L
 656  284 mt 4566  284 L
 656 3366 mt 4566 3366 L
4566 3366 mt 4566  284 L
 656 3366 mt  656  284 L
gs 656 284 3911 3083 rc
/c8 { 1.000000 0.000000 0.000000 sr} bdef
c8
2 3 2 2 2 2 2 2 2 3 2 2 2 2 2 2 
2 3 2 2 2 2 2 2 2 3 2 2 2 2 2 2 
2 3 2 2 2 2 2 2 2 3 2 2 1 2 2 3 
2 2 2 2 2 2 2 3 2 2 2 2 2 2 2 3 
2 2 2 2 2 2 2 3 2 2 2 2 2 2 2 3 
2 2 2 2 2 3 2 2 2 2 1 2 2 3 2 2 
2 2 2 2 2 3 2 2 2 2 2 3 2 2 2 2 
2 2 2 3 2 2 2 2 2 2 2 3 2 2 2 2 
2 2 2 3 2 2 2 2 1 3 2 2 2 2 2 2 
2 3 2 2 2 2 2 2 2 3 2 2 2 2 2 2 
2 3 2 2 2 2 2 2 2 3 2 2 2 2 2 3 
2 2 2 2 1 2 2 3 2 2 2 2 2 2 2 3 
2 2 2 2 2 2 2 3 2 2 2 2 2 2 2 3 
2 2 2 2 2 2 2 3 2 2 2 2 2 2 2 3 
2 2 1 2 2 3 2 2 2 2 2 2 2 3 2 2 
2 2 2 2 2 3 2 2 2 2 2 2 2 2 2 3 
2 2 2 2 2 2 2 3 2 2 2 2 2 2 2 3 
1 2 2 2 2 2 2 3 2 2 2 2 2 2 2 3 
2 2 2 2 2 2 2 2 2 3 2 2 2 2 2 2 
2 3 2 2 2 2 2 2 2 2 2 3 2 2 1 2 
2 2 2 3 2 2 2 2 2 2 2 2 2 3 2 2 
2 2 2 2 2 2 2 3 2 2 2 2 2 2 2 2 
2 3 2 2 2 2 2 2 2 2 1 3 2 2 2 2 
2 2 2 2 2 3 2 2 2 2 2 2 2 2 2 2 
2 3 2 2 2 2 2 2 2 2 2 3 2 2 2 2 
2 2 2 2 2 2 2 3 1 2 2 2 2 2 2 2 
2 2 2 2 2 3 2 2 2 2 2 2 2 2 2 2 
2 2 2 3 2 2 2 2 2 2 2 2 2 2 2 2 
2 2 2 3 2 2 1 2 2 2 2 2 2 2 2 2 
2 2 2 2 2 3 2 2 2 2 2 2 2 2 2 2 
2 2 2 2 2 2 2 2 2 2 2 3 2 2 2 2 
2 2 1 2 2 2 2 2 2 2 2 2 2 2 2 2 
2 2 2 2 2 2 2 2 2 2 2 2 2 3 2 2 
2 2 2 2 2 2 2 2 2 2 2 2 2 2 2 2 
1 2 2 2 2 2 2 2 2 2 2 2 2 2 2 2 
2 2 2 2 2 2 2 2 2 2 2 2 2 2 2 2 
2 2 2 2 2 2 2 2 2 1 2 2 2 2 1 2 
2 2 2 2 2 2 3981 1563 300 MP stroke
2 2 2 2 2 2 2 2 2 2 2 2 2 2 2 2 
2 2 2 1 2 2 2 2 2 2 2 2 2 2 2 2 
2 2 2 2 2 2 1 2 2 1 2 2 2 2 2 2 
2 2 2 2 2 2 2 2 2 1 2 2 2 2 2 2 
2 2 2 2 2 2 2 1 2 2 2 2 2 2 2 2 
2 2 1 1 2 2 2 2 2 2 2 2 2 2 2 1 
2 2 2 2 2 2 2 2 2 1 2 2 2 2 2 2 
2 2 2 1 2 2 2 2 2 2 2 2 2 1 2 2 
1 2 2 2 2 1 2 2 2 2 2 2 2 1 2 2 
2 2 2 2 2 1 2 2 2 2 2 2 2 1 2 2 
2 2 2 2 2 1 2 2 2 2 2 2 2 1 1 2 
2 2 2 1 2 2 2 2 2 2 2 1 2 2 2 2 
2 1 2 2 2 2 2 2 2 1 2 2 2 2 2 1 
2 2 2 2 2 1 2 2 2 2 1 1 2 2 2 2 
2 1 2 2 2 2 2 1 2 2 2 2 2 1 2 2 
2 2 2 1 2 2 2 2 2 1 2 2 2 2 2 1 
2 2 2 2 2 1 2 2 1 1 2 2 2 2 2 1 
2 2 2 2 2 1 2 2 2 1 2 2 2 2 2 1 
2 2 2 2 2 1 2 2 2 1 2 2 2 2 2 1 
2 2 2 1 2 2 1 2 2 1 2 2 2 1 2 2 
2 2 2 1 2 2 2 1 2 2 2 2 2 1 2 2 
2 1 2 2 2 1 2 2 2 2 2 1 2 2 2 1 
2 2 2 1 1 2 2 2 2 1 2 2 2 1 2 2 
2 1 2 2 2 1 2 2 2 2 2 1 2 2 2 1 
2 2 2 1 2 2 2 1 2 2 2 2 2 1 2 2 
1 1 2 2 2 1 2 2 2 1 2 2 2 1 2 2 
2 1 2 2 2 1 2 2 2 1 2 2 2 1 2 2 
2 2 2 1 2 2 2 1 2 2 2 1 2 2 1 1 
2 2 2 1 2 2 2 1 2 2 2 1 2 2 2 1 
2 2 2 1 2 2 2 1 2 2 2 1 2 1 2 2 
2 1 2 2 2 1 2 2 2 1 2 2 1 1 2 2 
2 1 2 2 2 1 2 2 2 1 2 2 2 1 2 1 
2 2 2 1 2 2 2 1 2 2 2 1 2 2 2 1 
2 1 2 2 2 1 2 2 1 1 2 2 2 1 2 2 
2 1 2 1 2 2 2 1 2 2 2 1 2 1 2 2 
2 1 2 2 2 1 2 2 2 1 2 1 2 2 2 1 
2 2 2 1 2 1 1 2 2 1 2 1 2 2 2 1 
2 2 2 1 2 1 3396 1076 300 MP stroke
2 2 2 1 2 2 2 1 2 1 2 2 2 1 2 1 
2 2 2 1 2 1 2 2 2 1 2 1 2 2 1 1 
2 1 2 2 2 1 2 1 2 2 2 1 2 1 2 2 
2 1 2 1 2 2 2 1 2 1 2 2 2 1 2 1 
2 2 2 1 2 1 2 1 2 2 2 1 1 1 2 2 
2 1 2 1 2 1 2 2 2 1 2 1 2 2 2 1 
2 1 2 1 2 2 2 1 2 1 2 1 2 2 2 1 
2 1 2 1 2 2 2 1 1 1 2 1 2 1 2 2 
2 1 2 1 2 1 2 2 2 1 2 1 2 1 2 1 
2 2 2 1 2 1 2 1 2 1 2 1 2 2 2 1 
2 1 2 1 2 1 1 2 2 1 2 1 2 1 2 1 
2 1 2 1 2 2 2 1 2 1 2 1 2 1 2 1 
2 1 2 2 2 1 2 1 2 1 2 1 2 1 2 1 
2 1 2 2 1 1 2 1 2 1 2 1 2 1 2 1 
2 1 2 1 2 1 2 1 2 2 2 1 2 1 2 1 
2 1 2 1 2 1 2 1 2 1 2 1 2 1 2 1 
1 1 2 1 2 1 2 1 2 1 2 1 2 1 2 1 
2 2 2 1 2 1 2 1 2 1 2 1 2 1 2 1 
2 1 2 1 2 1 2 1 2 1 2 1 2 1 1 1 
2 1 2 1 2 1 2 1 2 1 2 1 2 0 2 1 
2 1 2 1 2 1 2 1 2 1 2 1 2 1 2 1 
2 1 2 1 2 1 2 1 2 1 2 1 1 1 2 1 
2 1 2 1 2 1 2 0 2 1 2 1 2 1 2 1 
2 1 2 1 2 1 2 1 2 1 2 1 2 1 2 0 
2 1 2 1 2 1 2 1 2 1 1 1 2 1 2 1 
2 1 2 0 2 1 2 1 2 1 2 1 2 1 2 1 
2 1 2 1 2 0 2 1 2 1 2 1 2 1 2 1 
2 1 2 1 2 0 1 1 2 1 2 1 2 1 2 1 
2 1 2 0 2 1 2 1 2 1 2 1 2 1 2 1 
2 0 2 1 2 1 2 1 2 1 2 1 2 0 2 1 
2 1 2 1 1 1 2 1 2 0 2 1 2 1 2 1 
2 1 2 1 2 0 2 1 2 1 2 1 2 1 2 1 
2 0 2 1 2 1 2 1 2 1 2 0 2 1 2 1 
2 1 1 1 2 0 2 1 2 1 2 1 2 1 2 0 
2 1 2 1 2 1 2 1 2 0 2 1 2 1 2 1 
2 1 2 0 2 1 2 1 2 1 2 1 2 0 1 1 
2 1 2 1 2 0 2 1 2 1 2 1 2 1 2 0 
2 1 2 1 2 1 2811 768 300 MP stroke
2 0 2 1 2 1 2 1 2 1 2 0 2 1 2 1 
2 1 2 0 2 1 1 1 2 1 2 0 2 1 2 1 
2 1 2 1 2 0 2 1 2 1 2 1 2 0 2 1 
2 1 2 1 2 0 2 1 2 1 2 1 2 0 2 1 
2 1 2 1 1 0 2 1 2 1 2 1 2 0 2 1 
2 1 2 0 2 1 2 1 2 1 2 0 2 1 2 1 
2 1 2 0 2 1 2 1 2 1 2 0 2 1 2 1 
2 0 1 1 2 1 2 1 2 0 2 1 2 1 2 1 
2 0 2 1 2 1 2 0 2 1 2 1 2 1 2 0 
2 1 2 1 2 0 2 1 2 1 2 1 2 0 1 1 
2 1 2 0 2 1 2 1 2 1 2 0 2 1 2 1 
2 0 2 1 2 1 2 0 2 1 2 1 2 1 2 0 
2 1 2 1 2 0 2 1 2 1 2 0 1 1 2 1 
2 0 2 1 2 1 2 0 2 1 2 1 2 1 2 0 
2 1 2 1 2 0 2 1 2 1 2 0 2 1 2 1 
2 0 2 1 2 1 2 0 2 1 1 1 2 0 2 1 
2 1 2 0 2 1 2 1 2 0 2 1 2 1 2 0 
2 1 2 1 2 0 2 1 2 1 2 0 2 1 2 1 
2 0 2 1 2 1 1 0 2 1 2 1 2 0 2 1 
2 1 2 0 2 1 2 1 2 0 2 1 2 1 2 0 
2 1 2 1 2 0 2 1 2 0 2 1 2 1 2 0 
2 1 2 1 1 0 2 1 2 1 2 0 2 1 2 1 
2 0 2 1 2 0 2 1 2 1 2 0 2 1 2 1 
2 0 2 1 2 1 2 0 2 1 2 0 2 1 2 1 
2 0 1 1 2 1 2 0 2 1 2 0 2 1 2 1 
2 0 2 1 2 1 2 0 2 1 2 0 2 1 2 1 
2 0 2 1 2 1 2 0 2 1 2 0 2 1 2 1 
1 0 2 1 2 0 2 1 2 1 2 0 2 1 2 1 
2 0 2 1 2 0 2 1 2 1 2 0 2 1 2 0 
2 1 2 1 2 0 2 1 2 0 2 1 1 1 2 0 
2 1 2 0 2 1 2 1 2 0 2 1 2 0 2 1 
2 1 2 0 2 1 2 0 2 1 2 0 2 1 2 1 
2 0 2 1 2 0 2 1 2 1 1 0 2 1 2 0 
2 1 2 0 2 1 2 1 2 0 2 1 2 0 2 1 
2 0 2 1 2 1 2 0 2 1 2 0 2 1 2 0 
2 1 2 1 2 0 2 1 1 0 2 1 2 0 2 1 
2 0 2 1 2 1 2 0 2 1 2 0 2 1 2 0 
2 1 2 0 2 1 2226 571 300 MP stroke
2 1 2 0 2 1 2 0 2 1 2 0 2 1 1 0 
2 1 2 0 2 1 2 1 2 0 2 1 2 0 2 1 
2 0 2 1 2 0 2 1 2 0 2 1 2 1 2 0 
2 1 2 0 2 1 2 0 2 1 2 0 1 1 2 0 
2 1 2 0 2 1 2 0 2 1 2 1 2 0 2 1 
2 0 2 1 2 0 2 1 2 0 2 1 2 0 2 1 
2 0 2 1 2 0 2 1 2 0 1 1 2 1 2 0 
2 1 2 0 2 1 2 0 2 1 2 0 2 1 2 0 
2 1 2 0 2 1 2 0 2 1 2 0 2 1 2 1 
2 0 2 1 2 0 2 1 1 0 2 1 2 0 2 1 
2 0 2 1 2 0 2 1 2 0 2 1 2 1 2 0 
2 1 2 0 2 1 2 0 2 1 2 0 2 1 2 0 
2 1 2 1 1 0 2 1 2 0 2 1 2 0 2 1 
2 0 2 1 2 0 2 1 2 1 2 0 2 1 2 0 
2 1 2 0 2 1 2 0 2 1 2 1 2 0 2 1 
2 0 1 1 2 0 2 1 2 0 2 1 2 1 2 0 
2 1 2 0 2 1 2 0 2 1 2 1 2 0 2 1 
2 0 2 1 2 0 2 1 2 1 2 0 2 1 2 0 
1 1 2 1 2 0 2 1 2 0 2 1 2 0 2 1 
2 1 2 0 2 1 2 0 2 1 2 1 2 0 2 1 
2 0 2 1 2 1 2 0 2 1 2 0 1 1 2 1 
2 0 2 1 2 0 2 1 2 1 2 0 2 1 2 0 
2 1 2 1 2 0 2 1 2 1 2 0 2 1 2 0 
2 1 2 1 2 0 2 1 2 0 1 1 2 1 2 0 
2 1 2 1 2 0 2 1 2 1 2 0 2 1 2 0 
2 1 2 1 2 0 2 1 2 1 2 0 2 1 2 1 
2 0 2 1 2 1 2 0 1 1 2 0 2 1 2 1 
2 0 2 1 2 1 2 1 2 0 2 1 2 1 2 0 
2 1 2 1 2 0 2 1 2 1 2 1 2 0 2 1 
2 1 2 1 2 0 1 1 2 1 2 1 2 0 2 1 
2 1 2 1 2 1 2 1 2 0 2 1 2 1 2 1 
2 1 2 1 2 1 2 1 2 1 2 1 2 1 2 0 
2 1 1 1 2 1 2 1 2 1 2 1 2 1 2 1 
2 1 2 1 2 1 2 1 2 1 2 1 2 1 2 0 
2 1 2 1 2 1 2 1 2 1 2 1 2 1 2 1 
1 0 2 1 2 1 2 1 2 1 2 1 2 1 2 0 
2 1 2 1 2 1 2 1 2 0 2 1 2 1 2 1 
2 0 2 1 2 1 1641 379 300 MP stroke
2 1 2 0 2 1 2 1 1 1 2 0 2 1 2 1 
2 0 2 1 2 1 2 0 2 1 2 0 2 1 2 1 
2 0 2 1 2 1 2 0 2 1 2 0 2 1 2 0 
2 1 2 0 1 1 2 1 2 0 2 1 2 0 2 1 
2 0 2 1 2 0 2 0 2 1 2 0 2 1 2 0 
2 1 2 0 2 1 2 0 2 0 2 1 2 0 2 1 
2 0 1 0 2 1 2 0 2 0 2 1 2 0 2 1 
2 0 2 0 2 1 2 0 2 0 2 0 2 1 2 0 
2 0 2 1 2 0 2 0 2 1 2 0 2 0 2 0 
1 1 2 0 2 0 2 0 2 1 2 0 2 0 2 0 
2 1 2 0 2 0 2 0 2 0 2 1 2 0 2 0 
2 0 2 0 2 1 2 0 2 0 2 0 2 0 1 1 
2 0 2 0 2 0 2 0 2 0 2 1 2 0 2 0 
2 0 2 0 2 0 2 0 2 1 2 0 2 0 2 0 
2 0 2 0 2 0 2 1 2 0 1 0 2 0 2 0 
2 0 2 0 2 0 2 0 2 1 2 0 2 0 2 0 
2 0 2 0 2 0 2 0 2 0 2 0 2 1 2 0 
2 0 2 0 2 0 2 0 1 0 2 0 2 0 2 0 
2 0 2 0 2 1 2 0 2 0 2 0 2 0 2 0 
2 0 2 0 2 0 2 0 2 0 2 0 2 0 2 0 
2 0 2 1 2 0 1 0 2 0 2 0 2 0 2 0 
2 0 2 0 2 0 2 0 2 0 2 0 2 0 2 0 
2 0 2 0 2 0 2 0 2 0 2 0 2 1 2 0 
2 0 1 0 2 0 2 0 2 0 2 0 2 0 2 0 
2 0 2 0 2 0 2 0 2 0 2 0 2 0 2 0 
2 0 2 0 2 0 2 0 2 0 2 0 2 0 2 0 
1 0 2 0 2 0 2 0 2 1 2 0 2 0 2 0 
2 0 2 0 2 0 2 0 2 0 2 0 2 0 2 0 
2 0 2 0 2 0 2 0 2 0 2 0 2 0 1 0 
2 0 2 0 2 0 2 0 2 0 2 0 2 0 2 0 
2 0 2 0 2 0 2 0 2 0 2 0 2 0 2 0 
2 0 2 0 2 0 2 0 2 0 2 0 1 0 2 0 
2 0 2 0 2 0 2 0 2 0 2 0 2 0 2 0 
2 0 2 0 2 0 2 0 2 0 2 0 2 0 2 1 
2 0 2 0 2 0 2 0 1 0 2 0 2 0 2 0 
2 0 2 0 2 0 2 0 2 0 2 0 2 0 2 0 
2 0 2 0 2 0 2 0 2 0 2 0 2 0 2 0 
2 0 2 0 2 0 1056 329 300 MP stroke
1 0 2 0 2 0 2 0 2 0 2 0 2 0 2 0 
2 0 2 0 2 0 2 0 2 0 2 0 2 0 2 0 
2 0 2 0 2 0 2 0 2 0 2 0 2 0 1 0 
2 0 2 0 2 0 2 0 2 0 2 0 2 0 2 0 
2 0 2 0 2 0 2 0 2 0 2 0 2 0 2 0 
2 0 2 0 2 0 2 0 2 0 1 0 2 0 2 0 
2 0 2 0 2 0 2 0 2 0 2 0 2 0 2 0 
2 0 2 0 2 0 2 0 2 0 2 0 2 0 2 0 
2 0 2 0 2 0 2 0 1 0 2 0 2 0 2 0 
2 0 2 0 2 0 2 0 2 0 2 0 2 0 2 0 
2 0 2 0 2 0 2 0 2 0 2 0 2 0 2 0 
2 0 2 0 2 0 1 0 2 0 2 0 2 0 2 0 
2 0 2 0 2 0 2 0 2 0 2 0 2 0 2 0 
2 0 2 0 2 0 2 0 2 0 2 0 2 0 2 0 
2 0 2 0 1 0 2 0 2 0 2 0 2 0 2 0 
2 0 2 0 2 0 2 0 2 0 2 0 2 0 2 0 
2 0 2 0 2 0 2 0 2 0 2 0 2 0 2 0 
1 0 2 0 2 0 2 0 2 0 2 0 2 0 2 0 
2 0 2 0 2 0 2 0 2 0 2 0 2 0 2 0 
2 0 2 0 2 0 2 0 2 0 2 0 2 0 1 0 
2 0 2 0 2 0 2 0 2 0 2 0 2 0 2 0 
2 0 2 0 2 0 2 0 2 0 2 0 2 0 2 0 
2 0 2 0 2 0 2 0 2 0 2 0 1 0 2 0 
2 0 2 0 2 0 2 0 2 0 2 0 2 0 2 0 
2 0 2 0 2 0 2 0 2 0 2 0 2 0 2 0 
2 0 2 0 2 0 2 0 1 0 656 329 206 MP stroke
2 2 2 3 2 2 2 2 2 2 2 3 2 2 2 2 
2 3 2 2 2 2 2 2 2 3 2 2 2 2 2 2 
2 3 2 2 2 2 2 2 2 3 2 2 1 2 2 2 
2 3 2 2 2 2 2 3 2 2 2 2 2 2 2 3 
2 2 2 2 2 2 2 3 2 2 2 2 2 2 2 3 
2 2 2 2 2 3 2 2 2 2 1 2 2 3 2 2 
2 2 2 2 2 3 2 2 2 2 2 2 2 3 2 2 
2 2 2 3 2 2 2 2 2 2 2 3 2 2 2 2 
2 2 2 3 2 2 2 2 1 2 2 3 2 2 2 2 
2 3 2 2 2 2 2 2 2 3 2 2 2 2 2 2 
2 3 2 2 2 2 2 2 2 3 2 2 2 2 2 2 
2 3 2 2 1 2 2 3 2 2 2 2 2 2 2 3 
2 2 2 2 2 2 2 3 2 2 2 2 2 2 2 3 
2 2 2 2 2 2 2 3 2 2 2 2 2 2 2 3 
2 2 1 2 2 2 2 3 2 2 2 2 2 2 2 3 
2 2 2 2 2 2 2 3 2 2 2 2 2 2 2 3 
2 2 2 2 2 2 2 3 2 2 2 2 2 2 2 3 
1 2 2 2 2 2 2 3 2 2 2 2 2 2 2 3 
2 2 2 2 2 2 2 2 2 3 2 2 2 2 2 2 
2 3 2 2 2 2 2 2 2 2 2 3 2 2 1 2 
2 2 2 3 2 2 2 2 2 2 2 2 2 3 2 2 
2 2 2 2 2 2 2 3 2 2 2 2 2 2 2 2 
2 3 2 2 2 2 2 2 2 2 1 3 2 2 2 2 
2 2 2 2 2 3 2 2 2 2 2 2 2 2 2 2 
2 3 2 2 2 2 2 2 2 2 2 3 2 2 2 2 
2 2 2 2 2 2 2 3 1 2 2 2 2 2 2 2 
2 2 2 2 2 3 2 2 2 2 2 2 2 2 2 2 
2 2 2 3 2 2 2 2 2 2 2 2 2 2 2 2 
2 2 2 3 2 2 1 2 2 2 2 2 2 2 2 2 
2 2 2 3 2 2 2 2 2 2 2 2 2 2 2 2 
2 2 2 2 2 2 2 2 2 3 2 2 2 2 2 2 
2 2 1 2 2 2 2 2 2 2 2 2 2 2 2 2 
2 2 2 2 2 2 2 2 2 3 2 2 2 2 2 2 
2 2 2 2 2 2 2 2 2 2 2 2 2 2 2 2 
1 2 2 2 2 2 2 2 2 2 2 2 2 2 2 2 
2 2 2 2 2 2 2 2 2 2 2 2 2 2 2 2 
2 2 2 2 2 2 2 2 2 2 2 2 2 2 1 2 
2 2 2 1 2 2 3981 2259 300 MP stroke
2 2 2 2 2 2 2 2 2 2 2 2 2 2 2 2 
2 2 2 2 2 2 2 2 2 1 2 2 2 2 2 2 
2 2 2 2 2 2 1 2 2 2 2 2 2 1 2 2 
2 2 2 2 2 2 2 2 2 2 2 2 2 1 2 2 
2 2 2 2 2 2 2 2 2 2 2 1 2 2 2 2 
2 2 1 2 2 2 2 2 2 1 2 2 2 2 2 2 
2 2 2 1 2 2 2 2 2 2 2 2 2 2 2 1 
2 2 2 2 2 2 2 2 2 1 2 2 2 2 2 2 
1 1 2 2 2 2 2 2 2 2 2 1 2 2 2 2 
2 2 2 1 2 2 2 2 2 2 2 1 2 2 2 2 
2 2 2 1 2 2 2 2 2 2 2 1 2 2 1 2 
2 2 2 1 2 2 2 2 2 2 2 1 2 2 2 2 
2 1 2 2 2 2 2 2 2 1 2 2 2 2 2 1 
2 2 2 2 2 1 2 2 2 2 1 2 2 1 2 2 
2 2 2 1 2 2 2 2 2 1 2 2 2 2 2 1 
2 2 2 2 2 1 2 2 2 2 2 1 2 2 2 2 
2 1 2 2 2 2 2 1 1 2 2 2 2 1 2 2 
2 2 2 1 2 2 2 2 2 1 2 2 2 2 2 1 
2 2 2 2 2 1 2 2 2 1 2 2 2 2 2 1 
2 2 2 2 2 1 1 2 2 1 2 2 2 2 2 1 
2 2 2 2 2 1 2 2 2 1 2 2 2 2 2 1 
2 2 2 2 2 1 2 2 2 1 2 2 2 2 2 1 
2 2 2 1 1 2 2 2 2 1 2 2 2 2 2 1 
2 2 2 1 2 2 2 2 2 1 2 2 2 1 2 2 
2 2 2 1 2 2 2 1 2 2 2 1 2 2 2 2 
1 1 2 2 2 1 2 2 2 2 2 1 2 2 2 1 
2 2 2 2 2 1 2 2 2 1 2 2 2 2 2 1 
2 2 2 1 2 2 2 1 2 2 2 2 2 1 1 2 
2 1 2 2 2 1 2 2 2 2 2 1 2 2 2 1 
2 2 2 2 2 1 2 2 2 1 2 2 2 1 2 2 
2 2 2 1 2 2 2 1 2 2 2 1 1 2 2 2 
2 1 2 2 2 1 2 2 2 1 2 2 2 1 2 2 
2 2 2 1 2 2 2 1 2 2 2 1 2 2 2 2 
2 1 2 2 2 1 2 2 1 1 2 2 2 2 2 1 
2 2 2 1 2 2 2 1 2 2 2 1 2 2 2 2 
2 1 2 2 2 1 2 2 2 1 2 2 2 1 2 2 
2 2 2 1 2 2 1 1 2 2 2 1 2 2 2 1 
2 2 2 2 2 1 3396 1757 300 MP stroke
2 2 2 1 2 2 2 1 2 2 2 1 2 2 2 2 
2 1 2 2 2 1 2 2 2 1 2 2 2 1 1 2 
2 2 2 1 2 2 2 1 2 2 2 1 2 2 2 1 
2 2 2 2 2 1 2 2 2 1 2 2 2 1 2 2 
2 1 2 2 2 2 2 1 2 2 2 1 1 2 2 1 
2 2 2 1 2 2 2 2 2 1 2 2 2 1 2 2 
2 1 2 2 2 1 2 2 2 1 2 2 2 2 2 1 
2 2 2 1 2 2 2 1 1 2 2 1 2 2 2 2 
2 1 2 2 2 1 2 2 2 1 2 2 2 1 2 2 
2 1 2 2 2 2 2 1 2 2 2 1 2 2 2 1 
2 2 2 1 2 2 1 2 2 1 2 2 2 1 2 2 
2 1 2 2 2 1 2 2 2 1 2 2 2 2 2 1 
2 2 2 1 2 2 2 1 2 2 2 1 2 2 2 1 
2 2 2 2 1 1 2 2 2 1 2 2 2 1 2 2 
2 1 2 2 2 2 2 1 2 2 2 1 2 2 2 1 
2 2 2 1 2 2 2 1 2 2 2 2 2 1 2 2 
1 1 2 2 2 1 2 2 2 1 2 2 2 2 2 1 
2 2 2 1 2 2 2 1 2 2 2 1 2 2 2 1 
2 2 2 2 2 1 2 2 2 1 2 2 2 1 1 2 
2 1 2 2 2 2 2 1 2 2 2 1 2 2 2 1 
2 2 2 1 2 2 2 2 2 1 2 2 2 1 2 2 
2 1 2 2 2 1 2 2 2 1 2 2 1 2 2 1 
2 2 2 1 2 2 2 1 2 2 2 1 2 2 2 2 
2 1 2 2 2 1 2 2 2 1 2 2 2 1 2 2 
2 2 2 1 2 2 2 1 2 2 1 1 2 2 2 1 
2 2 2 2 2 1 2 2 2 1 2 2 2 1 2 2 
2 1 2 2 2 2 2 1 2 2 2 1 2 2 2 1 
2 2 2 2 2 1 1 2 2 1 2 2 2 1 2 2 
2 1 2 2 2 2 2 1 2 2 2 1 2 2 2 1 
2 2 2 2 2 1 2 2 2 1 2 2 2 1 2 2 
2 2 2 1 1 2 2 1 2 2 2 1 2 2 2 1 
2 2 2 2 2 1 2 2 2 1 2 2 2 1 2 2 
2 2 2 1 2 2 2 1 2 2 2 1 2 2 2 2 
2 1 1 2 2 1 2 2 2 2 2 1 2 2 2 1 
2 2 2 1 2 2 2 2 2 1 2 2 2 1 2 2 
2 1 2 2 2 2 2 1 2 2 2 1 2 2 1 2 
2 1 2 2 2 1 2 2 2 1 2 2 2 2 2 1 
2 2 2 1 2 2 2811 1291 300 MP stroke
2 2 2 1 2 2 2 1 2 2 2 2 2 1 2 2 
2 1 2 2 2 2 1 1 2 2 2 1 2 2 2 1 
2 2 2 2 2 1 2 2 2 1 2 2 2 2 2 1 
2 2 2 1 2 2 2 2 2 1 2 2 2 2 2 1 
2 2 2 1 1 2 2 2 2 1 2 2 2 1 2 2 
2 2 2 1 2 2 2 1 2 2 2 2 2 1 2 2 
2 2 2 1 2 2 2 1 2 2 2 2 2 1 2 2 
2 1 1 2 2 2 2 1 2 2 2 2 2 1 2 2 
2 1 2 2 2 2 2 1 2 2 2 2 2 1 2 2 
2 2 2 1 2 2 2 1 2 2 2 2 2 1 1 2 
2 2 2 1 2 2 2 1 2 2 2 2 2 1 2 2 
2 2 2 1 2 2 2 2 2 1 2 2 2 2 2 1 
2 2 2 1 2 2 2 2 2 1 2 2 1 2 2 1 
2 2 2 2 2 1 2 2 2 2 2 1 2 2 2 2 
2 1 2 2 2 1 2 2 2 2 2 1 2 2 2 2 
2 1 2 2 2 2 2 1 2 2 1 2 2 1 2 2 
2 2 2 1 2 2 2 2 2 1 2 2 2 2 2 1 
2 2 2 1 2 2 2 2 2 1 2 2 2 2 2 1 
2 2 2 2 2 1 1 2 2 2 2 1 2 2 2 2 
2 1 2 2 2 2 2 1 2 2 2 2 2 1 2 2 
2 2 2 1 2 2 2 2 2 1 2 2 2 2 2 1 
2 2 2 2 1 1 2 2 2 1 2 2 2 2 2 1 
2 2 2 2 2 1 2 2 2 2 2 1 2 2 2 2 
2 1 2 2 2 2 2 1 2 2 2 2 2 1 2 2 
2 2 1 1 2 2 2 1 2 2 2 2 2 1 2 2 
2 2 2 1 2 2 2 2 2 1 2 2 2 2 2 1 
2 2 2 2 2 1 2 2 2 1 2 2 2 2 2 1 
1 2 2 2 2 1 2 2 2 2 2 1 2 2 2 2 
2 1 2 2 2 1 2 2 2 2 2 1 2 2 2 2 
2 1 2 2 2 2 2 1 2 2 2 1 1 2 2 2 
2 1 2 2 2 2 2 1 2 2 2 2 2 1 2 2 
2 1 2 2 2 2 2 1 2 2 2 2 2 1 2 2 
2 1 2 2 2 2 2 1 2 2 1 2 2 1 2 2 
2 1 2 2 2 2 2 1 2 2 2 2 2 1 2 2 
2 1 2 2 2 2 2 1 2 2 2 2 2 1 2 2 
2 1 2 2 2 2 2 1 1 2 2 2 2 1 2 2 
2 1 2 2 2 2 2 1 2 2 2 1 2 2 2 2 
2 1 2 2 2 2 2226 802 300 MP stroke
2 1 2 2 2 1 2 2 2 2 2 1 2 2 1 1 
2 2 2 2 2 1 2 2 2 2 2 1 2 2 2 1 
2 2 2 2 2 1 2 2 2 1 2 2 2 2 2 1 
2 2 2 1 2 2 2 2 2 1 2 2 1 2 2 1 
2 2 2 1 2 2 2 2 2 1 2 2 2 1 2 2 
2 2 2 1 2 2 2 1 2 2 2 2 2 1 2 2 
2 1 2 2 2 2 2 1 2 2 1 1 2 2 2 2 
2 1 2 2 2 1 2 2 2 2 2 1 2 2 2 1 
2 2 2 2 2 1 2 2 2 1 2 2 2 2 2 1 
2 2 2 1 2 2 2 2 1 1 2 2 2 1 2 2 
2 1 2 2 2 2 2 1 2 2 2 1 2 2 2 2 
2 1 2 2 2 1 2 2 2 1 2 2 2 2 2 1 
2 2 2 1 1 2 2 2 2 1 2 2 2 1 2 2 
2 1 2 2 2 1 2 2 2 2 2 1 2 2 2 1 
2 2 2 1 2 2 2 2 2 1 2 2 2 1 2 2 
2 1 1 2 2 1 2 2 2 2 2 1 2 2 2 1 
2 2 2 1 2 2 2 1 2 2 2 1 2 2 2 1 
2 2 2 2 2 1 2 2 2 1 2 2 2 1 2 2 
1 1 2 2 2 1 2 2 2 1 2 2 2 1 2 2 
2 1 2 2 2 1 2 2 2 1 2 2 2 1 2 2 
2 1 2 2 2 1 2 2 2 1 2 2 1 1 2 2 
2 1 2 2 2 1 2 2 2 1 2 1 2 2 2 1 
2 2 2 1 2 2 2 1 2 2 2 1 2 1 2 2 
2 1 2 2 2 1 2 2 2 1 1 1 2 2 2 1 
2 2 2 1 2 1 2 2 2 1 2 1 2 2 2 1 
2 2 2 1 2 1 2 2 2 1 2 1 2 2 2 1 
2 1 2 2 2 1 2 1 1 1 2 2 2 1 2 1 
2 2 2 1 2 1 2 1 2 2 2 1 2 1 2 1 
2 1 2 2 2 1 2 1 2 1 2 1 2 1 2 2 
2 1 2 1 2 1 1 1 2 1 2 1 2 1 2 1 
2 1 2 1 2 1 2 1 2 1 2 1 2 1 2 0 
2 1 2 1 2 1 2 1 2 1 2 0 2 1 2 1 
2 1 1 0 2 1 2 1 2 1 2 0 2 1 2 1 
2 0 2 1 2 1 2 0 2 1 2 1 2 0 2 1 
2 1 2 0 2 1 2 0 2 1 2 1 2 0 2 1 
1 1 2 0 2 1 2 0 2 1 2 1 2 0 2 1 
2 0 2 1 2 0 2 1 2 1 2 0 2 1 2 0 
2 1 2 0 2 1 1641 403 300 MP stroke
2 1 2 0 2 1 2 0 1 1 2 0 2 1 2 0 
2 1 2 1 2 0 2 1 2 0 2 1 2 0 2 1 
2 0 2 1 2 0 2 1 2 0 2 1 2 0 2 1 
2 0 2 1 1 0 2 1 2 0 2 1 2 0 2 1 
2 0 2 1 2 0 2 1 2 0 2 1 2 0 2 1 
2 0 2 1 2 0 2 1 2 0 2 0 2 1 2 0 
2 1 1 0 2 1 2 0 2 1 2 0 2 0 2 1 
2 0 2 1 2 0 2 1 2 0 2 0 2 1 2 0 
2 1 2 0 2 0 2 1 2 0 2 1 2 0 2 0 
1 1 2 0 2 1 2 0 2 0 2 1 2 0 2 0 
2 1 2 0 2 1 2 0 2 0 2 1 2 0 2 0 
2 1 2 0 2 0 2 1 2 0 2 0 2 1 1 0 
2 0 2 1 2 0 2 0 2 1 2 0 2 0 2 1 
2 0 2 0 2 0 2 1 2 0 2 0 2 1 2 0 
2 0 2 1 2 0 2 0 2 0 1 1 2 0 2 0 
2 0 2 1 2 0 2 0 2 0 2 1 2 0 2 0 
2 1 2 0 2 0 2 0 2 0 2 1 2 0 2 0 
2 0 2 1 2 0 2 0 1 0 2 1 2 0 2 0 
2 0 2 0 2 1 2 0 2 0 2 0 2 0 2 1 
2 0 2 0 2 0 2 0 2 1 2 0 2 0 2 0 
2 0 2 0 2 1 1 0 2 0 2 0 2 0 2 1 
2 0 2 0 2 0 2 0 2 0 2 1 2 0 2 0 
2 0 2 0 2 0 2 0 2 1 2 0 2 0 2 0 
2 0 1 0 2 0 2 1 2 0 2 0 2 0 2 0 
2 0 2 0 2 0 2 1 2 0 2 0 2 0 2 0 
2 0 2 0 2 0 2 1 2 0 2 0 2 0 2 0 
1 0 2 0 2 0 2 0 2 0 2 1 2 0 2 0 
2 0 2 0 2 0 2 0 2 0 2 0 2 0 2 0 
2 1 2 0 2 0 2 0 2 0 2 0 2 0 1 0 
2 0 2 0 2 0 2 0 2 1 2 0 2 0 2 0 
2 0 2 0 2 0 2 0 2 0 2 0 2 0 2 0 
2 0 2 0 2 1 2 0 2 0 2 0 1 0 2 0 
2 0 2 0 2 0 2 0 2 0 2 0 2 0 2 0 
2 0 2 0 2 0 2 0 2 1 2 0 2 0 2 0 
2 0 2 0 2 0 2 0 1 0 2 0 2 0 2 0 
2 0 2 0 2 0 2 0 2 0 2 0 2 0 2 0 
2 0 2 0 2 0 2 1 2 0 2 0 2 0 2 0 
2 0 2 0 2 0 1056 331 300 MP stroke
1 0 2 0 2 0 2 0 2 0 2 0 2 0 2 0 
2 0 2 0 2 0 2 0 2 0 2 0 2 0 2 0 
2 0 2 0 2 0 2 0 2 0 2 0 2 0 1 0 
2 0 2 0 2 1 2 0 2 0 2 0 2 0 2 0 
2 0 2 0 2 0 2 0 2 0 2 0 2 0 2 0 
2 0 2 0 2 0 2 0 2 0 1 0 2 0 2 0 
2 0 2 0 2 0 2 0 2 0 2 0 2 0 2 0 
2 0 2 0 2 0 2 0 2 0 2 0 2 0 2 0 
2 0 2 0 2 0 2 0 1 0 2 0 2 0 2 0 
2 0 2 0 2 0 2 0 2 0 2 0 2 0 2 0 
2 0 2 0 2 0 2 0 2 0 2 0 2 0 2 0 
2 1 2 0 2 0 1 0 2 0 2 0 2 0 2 0 
2 0 2 0 2 0 2 0 2 0 2 0 2 0 2 0 
2 0 2 0 2 0 2 0 2 0 2 0 2 0 2 0 
2 0 2 0 1 0 2 0 2 0 2 0 2 0 2 0 
2 0 2 0 2 0 2 0 2 0 2 0 2 0 2 0 
2 0 2 0 2 0 2 0 2 0 2 0 2 0 2 0 
1 0 2 0 2 0 2 0 2 0 2 0 2 0 2 0 
2 0 2 0 2 0 2 0 2 0 2 0 2 0 2 0 
2 0 2 0 2 0 2 0 2 0 2 0 2 0 1 0 
2 0 2 0 2 0 2 0 2 0 2 0 2 0 2 0 
2 0 2 0 2 0 2 0 2 0 2 0 2 0 2 0 
2 0 2 0 2 0 2 0 2 0 2 0 1 0 2 0 
2 0 2 0 2 0 2 0 2 0 2 0 2 0 2 0 
2 0 2 0 2 0 2 0 2 0 2 0 2 0 2 0 
2 0 2 0 2 0 2 0 1 0 656 329 206 MP stroke
gr

c8
0 sg
%%IncludeResource: font Helvetica
/Helvetica /WindowsLatin1Encoding 120 FMSR

2140 3691 mt 
(Frequency \(rad/s\)) s
 271 2331 mt  -90 rotate
(Singular values \(B\)) s
90 rotate
1827  189 mt 
(Robust stability - uncertainity) s
 639 3409 mt 
( ) s
4550  326 mt 
( ) s
1 sg
0 188 779 0 0 -188 3728 532 4 MP
PP
-779 0 0 188 779 0 0 -188 3728 532 5 MP stroke
4 w
DO
SO
6 w
0 sg
3728  344 mt 4507  344 L
3728  532 mt 4507  532 L
4507  532 mt 4507  344 L
3728  532 mt 3728  344 L
3728  532 mt 4507  532 L
3728  532 mt 3728  344 L
3728  344 mt 4507  344 L
3728  532 mt 4507  532 L
4507  532 mt 4507  344 L
3728  532 mt 3728  344 L
4200  481 mt 
(wo*T) s
gs 3728 344 780 189 rc
c8
362 0 3800 438 2 MP stroke
gr

c8

end %%Color Dict

eplot
%%EndObject

epage
end

showpage

%%Trailer
%%EOF
