%!PS-Adobe-3.0 EPSF-3.0
%%Creator: (MATLAB, The Mathworks, Inc. Version 8.6.0.267246 \(R2015b\). Operating System: Windows 8)
%%Title: E:/Projects/skola/rls/pics/SP2/state_reg_i_rek_y.eps
%%CreationDate: 2017-03-06T10:39:31
%%Pages: (atend)
%%BoundingBox: 0 0 420 315
%%LanguageLevel: 2
%%EndComments
%%BeginProlog
%%BeginResource: procset (Apache XML Graphics Std ProcSet) 1.2 0
%%Version: 1.2 0
%%Copyright: (Copyright 2001-2003,2010 The Apache Software Foundation. License terms: http://www.apache.org/licenses/LICENSE-2.0)
/bd{bind def}bind def
/ld{load def}bd
/GR/grestore ld
/M/moveto ld
/LJ/setlinejoin ld
/C/curveto ld
/f/fill ld
/LW/setlinewidth ld
/GC/setgray ld
/t/show ld
/N/newpath ld
/CT/concat ld
/cp/closepath ld
/S/stroke ld
/L/lineto ld
/CC/setcmykcolor ld
/A/ashow ld
/GS/gsave ld
/RC/setrgbcolor ld
/RM/rmoveto ld
/ML/setmiterlimit ld
/re {4 2 roll M
1 index 0 rlineto
0 exch rlineto
neg 0 rlineto
cp } bd
/_ctm matrix def
/_tm matrix def
/BT { _ctm currentmatrix pop matrix _tm copy pop 0 0 moveto } bd
/ET { _ctm setmatrix } bd
/iTm { _ctm setmatrix _tm concat } bd
/Tm { _tm astore pop iTm 0 0 moveto } bd
/ux 0.0 def
/uy 0.0 def
/F {
  /Tp exch def
  /Tf exch def
  Tf findfont Tp scalefont setfont
  /cf Tf def  /cs Tp def
} bd
/ULS {currentpoint /uy exch def /ux exch def} bd
/ULE {
  /Tcx currentpoint pop def
  gsave
  newpath
  cf findfont cs scalefont dup
  /FontMatrix get 0 get /Ts exch def /FontInfo get dup
  /UnderlinePosition get Ts mul /To exch def
  /UnderlineThickness get Ts mul /Tt exch def
  ux uy To add moveto  Tcx uy To add lineto
  Tt setlinewidth stroke
  grestore
} bd
/OLE {
  /Tcx currentpoint pop def
  gsave
  newpath
  cf findfont cs scalefont dup
  /FontMatrix get 0 get /Ts exch def /FontInfo get dup
  /UnderlinePosition get Ts mul /To exch def
  /UnderlineThickness get Ts mul /Tt exch def
  ux uy To add cs add moveto Tcx uy To add cs add lineto
  Tt setlinewidth stroke
  grestore
} bd
/SOE {
  /Tcx currentpoint pop def
  gsave
  newpath
  cf findfont cs scalefont dup
  /FontMatrix get 0 get /Ts exch def /FontInfo get dup
  /UnderlinePosition get Ts mul /To exch def
  /UnderlineThickness get Ts mul /Tt exch def
  ux uy To add cs 10 mul 26 idiv add moveto Tcx uy To add cs 10 mul 26 idiv add lineto
  Tt setlinewidth stroke
  grestore
} bd
/QT {
/Y22 exch store
/X22 exch store
/Y21 exch store
/X21 exch store
currentpoint
/Y21 load 2 mul add 3 div exch
/X21 load 2 mul add 3 div exch
/X21 load 2 mul /X22 load add 3 div
/Y21 load 2 mul /Y22 load add 3 div
/X22 load /Y22 load curveto
} bd
/SSPD {
dup length /d exch dict def
{
/v exch def
/k exch def
currentpagedevice k known {
/cpdv currentpagedevice k get def
v cpdv ne {
/upd false def
/nullv v type /nulltype eq def
/nullcpdv cpdv type /nulltype eq def
nullv nullcpdv or
{
/upd true def
} {
/sametype v type cpdv type eq def
sametype {
v type /arraytype eq {
/vlen v length def
/cpdvlen cpdv length def
vlen cpdvlen eq {
0 1 vlen 1 sub {
/i exch def
/obj v i get def
/cpdobj cpdv i get def
obj cpdobj ne {
/upd true def
exit
} if
} for
} {
/upd true def
} ifelse
} {
v type /dicttype eq {
v {
/dv exch def
/dk exch def
/cpddv cpdv dk get def
dv cpddv ne {
/upd true def
exit
} if
} forall
} {
/upd true def
} ifelse
} ifelse
} if
} ifelse
upd true eq {
d k v put
} if
} if
} if
} forall
d length 0 gt {
d setpagedevice
} if
} bd
%%EndResource
%%BeginResource: procset (Apache XML Graphics EPS ProcSet) 1.0 0
%%Version: 1.0 0
%%Copyright: (Copyright 2002-2003 The Apache Software Foundation. License terms: http://www.apache.org/licenses/LICENSE-2.0)
/BeginEPSF { %def
/b4_Inc_state save def         % Save state for cleanup
/dict_count countdictstack def % Count objects on dict stack
/op_count count 1 sub def      % Count objects on operand stack
userdict begin                 % Push userdict on dict stack
/showpage { } def              % Redefine showpage, { } = null proc
0 setgray 0 setlinecap         % Prepare graphics state
1 setlinewidth 0 setlinejoin
10 setmiterlimit [ ] 0 setdash newpath
/languagelevel where           % If level not equal to 1 then
{pop languagelevel             % set strokeadjust and
1 ne                           % overprint to their defaults.
{false setstrokeadjust false setoverprint
} if
} if
} bd
/EndEPSF { %def
count op_count sub {pop} repeat            % Clean up stacks
countdictstack dict_count sub {end} repeat
b4_Inc_state restore
} bd
%%EndResource
%FOPBeginFontDict
%%IncludeResource: font Courier-Bold
%%IncludeResource: font Helvetica
%%IncludeResource: font Courier-BoldOblique
%%IncludeResource: font Courier-Oblique
%%IncludeResource: font Times-Roman
%%IncludeResource: font Helvetica-BoldOblique
%%IncludeResource: font Helvetica-Bold
%%IncludeResource: font Helvetica-Oblique
%%IncludeResource: font Times-BoldItalic
%%IncludeResource: font Courier
%%IncludeResource: font Times-Italic
%%IncludeResource: font Times-Bold
%%IncludeResource: font Symbol
%%IncludeResource: font ZapfDingbats
%FOPEndFontDict
%%BeginResource: encoding WinAnsiEncoding
/WinAnsiEncoding [
/.notdef /.notdef /.notdef /.notdef /.notdef
/.notdef /.notdef /.notdef /.notdef /.notdef
/.notdef /.notdef /.notdef /.notdef /.notdef
/.notdef /.notdef /.notdef /.notdef /.notdef
/.notdef /.notdef /.notdef /.notdef /.notdef
/.notdef /.notdef /.notdef /.notdef /.notdef
/.notdef /.notdef /space /exclam /quotedbl
/numbersign /dollar /percent /ampersand /quotesingle
/parenleft /parenright /asterisk /plus /comma
/hyphen /period /slash /zero /one
/two /three /four /five /six
/seven /eight /nine /colon /semicolon
/less /equal /greater /question /at
/A /B /C /D /E
/F /G /H /I /J
/K /L /M /N /O
/P /Q /R /S /T
/U /V /W /X /Y
/Z /bracketleft /backslash /bracketright /asciicircum
/underscore /quoteleft /a /b /c
/d /e /f /g /h
/i /j /k /l /m
/n /o /p /q /r
/s /t /u /v /w
/x /y /z /braceleft /bar
/braceright /asciitilde /bullet /Euro /bullet
/quotesinglbase /florin /quotedblbase /ellipsis /dagger
/daggerdbl /circumflex /perthousand /Scaron /guilsinglleft
/OE /bullet /Zcaron /bullet /bullet
/quoteleft /quoteright /quotedblleft /quotedblright /bullet
/endash /emdash /asciitilde /trademark /scaron
/guilsinglright /oe /bullet /zcaron /Ydieresis
/space /exclamdown /cent /sterling /currency
/yen /brokenbar /section /dieresis /copyright
/ordfeminine /guillemotleft /logicalnot /sfthyphen /registered
/macron /degree /plusminus /twosuperior /threesuperior
/acute /mu /paragraph /middot /cedilla
/onesuperior /ordmasculine /guillemotright /onequarter /onehalf
/threequarters /questiondown /Agrave /Aacute /Acircumflex
/Atilde /Adieresis /Aring /AE /Ccedilla
/Egrave /Eacute /Ecircumflex /Edieresis /Igrave
/Iacute /Icircumflex /Idieresis /Eth /Ntilde
/Ograve /Oacute /Ocircumflex /Otilde /Odieresis
/multiply /Oslash /Ugrave /Uacute /Ucircumflex
/Udieresis /Yacute /Thorn /germandbls /agrave
/aacute /acircumflex /atilde /adieresis /aring
/ae /ccedilla /egrave /eacute /ecircumflex
/edieresis /igrave /iacute /icircumflex /idieresis
/eth /ntilde /ograve /oacute /ocircumflex
/otilde /odieresis /divide /oslash /ugrave
/uacute /ucircumflex /udieresis /yacute /thorn
/ydieresis
] def
%%EndResource
%FOPBeginFontReencode
/Courier-Bold findfont
dup length dict begin
  {1 index /FID ne {def} {pop pop} ifelse} forall
  /Encoding WinAnsiEncoding def
  currentdict
end
/Courier-Bold exch definefont pop
/Helvetica findfont
dup length dict begin
  {1 index /FID ne {def} {pop pop} ifelse} forall
  /Encoding WinAnsiEncoding def
  currentdict
end
/Helvetica exch definefont pop
/Courier-BoldOblique findfont
dup length dict begin
  {1 index /FID ne {def} {pop pop} ifelse} forall
  /Encoding WinAnsiEncoding def
  currentdict
end
/Courier-BoldOblique exch definefont pop
/Courier-Oblique findfont
dup length dict begin
  {1 index /FID ne {def} {pop pop} ifelse} forall
  /Encoding WinAnsiEncoding def
  currentdict
end
/Courier-Oblique exch definefont pop
/Times-Roman findfont
dup length dict begin
  {1 index /FID ne {def} {pop pop} ifelse} forall
  /Encoding WinAnsiEncoding def
  currentdict
end
/Times-Roman exch definefont pop
/Helvetica-BoldOblique findfont
dup length dict begin
  {1 index /FID ne {def} {pop pop} ifelse} forall
  /Encoding WinAnsiEncoding def
  currentdict
end
/Helvetica-BoldOblique exch definefont pop
/Helvetica-Bold findfont
dup length dict begin
  {1 index /FID ne {def} {pop pop} ifelse} forall
  /Encoding WinAnsiEncoding def
  currentdict
end
/Helvetica-Bold exch definefont pop
/Helvetica-Oblique findfont
dup length dict begin
  {1 index /FID ne {def} {pop pop} ifelse} forall
  /Encoding WinAnsiEncoding def
  currentdict
end
/Helvetica-Oblique exch definefont pop
/Times-BoldItalic findfont
dup length dict begin
  {1 index /FID ne {def} {pop pop} ifelse} forall
  /Encoding WinAnsiEncoding def
  currentdict
end
/Times-BoldItalic exch definefont pop
/Courier findfont
dup length dict begin
  {1 index /FID ne {def} {pop pop} ifelse} forall
  /Encoding WinAnsiEncoding def
  currentdict
end
/Courier exch definefont pop
/Times-Italic findfont
dup length dict begin
  {1 index /FID ne {def} {pop pop} ifelse} forall
  /Encoding WinAnsiEncoding def
  currentdict
end
/Times-Italic exch definefont pop
/Times-Bold findfont
dup length dict begin
  {1 index /FID ne {def} {pop pop} ifelse} forall
  /Encoding WinAnsiEncoding def
  currentdict
end
/Times-Bold exch definefont pop
%FOPEndFontReencode
%%EndProlog
%%Page: 1 1
%%PageBoundingBox: 0 0 420 315
%%BeginPageSetup
[1 0 0 -1 0 315] CT
%%EndPageSetup
GS
[0.75 0 0 0.75 0 0] CT
1 GC
N
0 0 560 420 re
f
GR
GS
[0.75 0 0 0.75 0 0] CT
1 GC
N
0 0 560 420 re
f
GR
GS
[0.75 0 0 0.75 0 0] CT
1 GC
N
73 374 M
507 374 L
507 31 L
73 31 L
cp
f
GR
GS
[0.75 0 0 0.75 0 0] CT
0.149 GC
2 setlinecap
1 LJ
0.667 LW
N
73 374 M
507 374 L
S
GR
GS
[0.75 0 0 0.75 0 0] CT
0.149 GC
2 setlinecap
1 LJ
0.667 LW
N
73 374 M
73 369.66 L
S
GR
GS
[0.75 0 0 0.75 0 0] CT
0.149 GC
2 setlinecap
1 LJ
0.667 LW
N
116.4 374 M
116.4 369.66 L
S
GR
GS
[0.75 0 0 0.75 0 0] CT
0.149 GC
2 setlinecap
1 LJ
0.667 LW
N
159.8 374 M
159.8 369.66 L
S
GR
GS
[0.75 0 0 0.75 0 0] CT
0.149 GC
2 setlinecap
1 LJ
0.667 LW
N
203.2 374 M
203.2 369.66 L
S
GR
GS
[0.75 0 0 0.75 0 0] CT
0.149 GC
2 setlinecap
1 LJ
0.667 LW
N
246.6 374 M
246.6 369.66 L
S
GR
GS
[0.75 0 0 0.75 0 0] CT
0.149 GC
2 setlinecap
1 LJ
0.667 LW
N
290 374 M
290 369.66 L
S
GR
GS
[0.75 0 0 0.75 0 0] CT
0.149 GC
2 setlinecap
1 LJ
0.667 LW
N
333.4 374 M
333.4 369.66 L
S
GR
GS
[0.75 0 0 0.75 0 0] CT
0.149 GC
2 setlinecap
1 LJ
0.667 LW
N
376.8 374 M
376.8 369.66 L
S
GR
GS
[0.75 0 0 0.75 0 0] CT
0.149 GC
2 setlinecap
1 LJ
0.667 LW
N
420.2 374 M
420.2 369.66 L
S
GR
GS
[0.75 0 0 0.75 0 0] CT
0.149 GC
2 setlinecap
1 LJ
0.667 LW
N
463.6 374 M
463.6 369.66 L
S
GR
GS
[0.75 0 0 0.75 0 0] CT
0.149 GC
2 setlinecap
1 LJ
0.667 LW
N
507 374 M
507 369.66 L
S
GR
GS
[0.75 0 0 0.75 54.75 284.50001] CT
0.149 GC
/Helvetica 13 F
GS
[1 0 0 1 0 0] CT
-4 13 moveto 
1 -1 scale
(0) t 
GR
GR
GS
[0.75 0 0 0.75 87.3 284.50001] CT
0.149 GC
/Helvetica 13 F
GS
[1 0 0 1 0 0] CT
-11 13 moveto 
1 -1 scale
(100) t 
GR
GR
GS
[0.75 0 0 0.75 119.85 284.50001] CT
0.149 GC
/Helvetica 13 F
GS
[1 0 0 1 0 0] CT
-11 13 moveto 
1 -1 scale
(200) t 
GR
GR
GS
[0.75 0 0 0.75 152.4 284.50001] CT
0.149 GC
/Helvetica 13 F
GS
[1 0 0 1 0 0] CT
-11 13 moveto 
1 -1 scale
(300) t 
GR
GR
GS
[0.75 0 0 0.75 184.95 284.50001] CT
0.149 GC
/Helvetica 13 F
GS
[1 0 0 1 0 0] CT
-11 13 moveto 
1 -1 scale
(400) t 
GR
GR
GS
[0.75 0 0 0.75 217.5 284.50001] CT
0.149 GC
/Helvetica 13 F
GS
[1 0 0 1 0 0] CT
-11 13 moveto 
1 -1 scale
(500) t 
GR
GR
GS
[0.75 0 0 0.75 250.05 284.50001] CT
0.149 GC
/Helvetica 13 F
GS
[1 0 0 1 0 0] CT
-11 13 moveto 
1 -1 scale
(600) t 
GR
GR
GS
[0.75 0 0 0.75 282.59999 284.50001] CT
0.149 GC
/Helvetica 13 F
GS
[1 0 0 1 0 0] CT
-11 13 moveto 
1 -1 scale
(700) t 
GR
GR
GS
[0.75 0 0 0.75 315.15001 284.50001] CT
0.149 GC
/Helvetica 13 F
GS
[1 0 0 1 0 0] CT
-11 13 moveto 
1 -1 scale
(800) t 
GR
GR
GS
[0.75 0 0 0.75 347.7 284.50001] CT
0.149 GC
/Helvetica 13 F
GS
[1 0 0 1 0 0] CT
-11 13 moveto 
1 -1 scale
(900) t 
GR
GR
GS
[0.75 0 0 0.75 380.25 284.50001] CT
0.149 GC
/Helvetica 13 F
GS
[1 0 0 1 0 0] CT
-14.5 13 moveto 
1 -1 scale
(1000) t 
GR
GR
GS
[0.75 0 0 0.75 217.50016 297.49999] CT
0.149 GC
/Helvetica 15 F
GS
[1 0 0 1 0 0] CT
-11 14 moveto 
1 -1 scale
(t\(s\)) t 
GR
GR
GS
[0.75 0 0 0.75 0 0] CT
0.149 GC
2 setlinecap
1 LJ
0.667 LW
N
73 374 M
73 31 L
S
GR
GS
[0.75 0 0 0.75 0 0] CT
0.149 GC
2 setlinecap
1 LJ
0.667 LW
N
73 374 M
77.34 374 L
S
GR
GS
[0.75 0 0 0.75 0 0] CT
0.149 GC
2 setlinecap
1 LJ
0.667 LW
N
73 335.889 M
77.34 335.889 L
S
GR
GS
[0.75 0 0 0.75 0 0] CT
0.149 GC
2 setlinecap
1 LJ
0.667 LW
N
73 297.778 M
77.34 297.778 L
S
GR
GS
[0.75 0 0 0.75 0 0] CT
0.149 GC
2 setlinecap
1 LJ
0.667 LW
N
73 259.667 M
77.34 259.667 L
S
GR
GS
[0.75 0 0 0.75 0 0] CT
0.149 GC
2 setlinecap
1 LJ
0.667 LW
N
73 221.556 M
77.34 221.556 L
S
GR
GS
[0.75 0 0 0.75 0 0] CT
0.149 GC
2 setlinecap
1 LJ
0.667 LW
N
73 183.444 M
77.34 183.444 L
S
GR
GS
[0.75 0 0 0.75 0 0] CT
0.149 GC
2 setlinecap
1 LJ
0.667 LW
N
73 145.333 M
77.34 145.333 L
S
GR
GS
[0.75 0 0 0.75 0 0] CT
0.149 GC
2 setlinecap
1 LJ
0.667 LW
N
73 107.222 M
77.34 107.222 L
S
GR
GS
[0.75 0 0 0.75 0 0] CT
0.149 GC
2 setlinecap
1 LJ
0.667 LW
N
73 69.111 M
77.34 69.111 L
S
GR
GS
[0.75 0 0 0.75 0 0] CT
0.149 GC
2 setlinecap
1 LJ
0.667 LW
N
73 31 M
77.34 31 L
S
GR
GS
[0.75 0 0 0.75 50.75 280.5] CT
0.149 GC
/Helvetica 13 F
GS
[1 0 0 1 0 0] CT
-30 5 moveto 
1 -1 scale
(-0.06) t 
GR
GR
GS
[0.75 0 0 0.75 50.75 251.91666] CT
0.149 GC
/Helvetica 13 F
GS
[1 0 0 1 0 0] CT
-30 5 moveto 
1 -1 scale
(-0.04) t 
GR
GR
GS
[0.75 0 0 0.75 50.75 223.33333] CT
0.149 GC
/Helvetica 13 F
GS
[1 0 0 1 0 0] CT
-30 5 moveto 
1 -1 scale
(-0.02) t 
GR
GR
GS
[0.75 0 0 0.75 50.75 194.74999] CT
0.149 GC
/Helvetica 13 F
GS
[1 0 0 1 0 0] CT
-8 5 moveto 
1 -1 scale
(0) t 
GR
GR
GS
[0.75 0 0 0.75 50.75 166.16667] CT
0.149 GC
/Helvetica 13 F
GS
[1 0 0 1 0 0] CT
-26 5 moveto 
1 -1 scale
(0.02) t 
GR
GR
GS
[0.75 0 0 0.75 50.75 137.58333] CT
0.149 GC
/Helvetica 13 F
GS
[1 0 0 1 0 0] CT
-26 5 moveto 
1 -1 scale
(0.04) t 
GR
GR
GS
[0.75 0 0 0.75 50.75 109.00001] CT
0.149 GC
/Helvetica 13 F
GS
[1 0 0 1 0 0] CT
-26 5 moveto 
1 -1 scale
(0.06) t 
GR
GR
GS
[0.75 0 0 0.75 50.75 80.41667] CT
0.149 GC
/Helvetica 13 F
GS
[1 0 0 1 0 0] CT
-26 5 moveto 
1 -1 scale
(0.08) t 
GR
GR
GS
[0.75 0 0 0.75 50.75 51.83333] CT
0.149 GC
/Helvetica 13 F
GS
[1 0 0 1 0 0] CT
-19 5 moveto 
1 -1 scale
(0.1) t 
GR
GR
GS
[0.75 0 0 0.75 50.75 23.25] CT
0.149 GC
/Helvetica 13 F
GS
[1 0 0 1 0 0] CT
-26 5 moveto 
1 -1 scale
(0.12) t 
GR
GR
GS
[0.75 0 0 0.75 217.50021 21.18751] CT
/any-Bold 15 F
GS
[1 0 0 1 0 0] CT
-141 -4 moveto 
1 -1 scale
(Response of system with reconstructor) t 
GR
GR
GS
[0.75 0 0 0.75 0 0] CT
0 0 1 RC
1 LJ
0.667 LW
N
73 259.667 M
73.434 259.667 L
73.434 69.111 L
73.434 69.111 L
73.868 69.111 L
74.302 69.111 L
74.849 69.111 L
75.423 69.111 L
76.033 69.111 L
76.737 69.111 L
77.526 69.111 L
78.38 69.111 L
79.306 69.111 L
80.31 69.111 L
81.403 69.111 L
82.601 69.111 L
83.925 69.111 L
85.414 69.111 L
87.087 69.111 L
88.93 69.111 L
91.03 69.111 L
93.348 69.111 L
95.678 69.111 L
98.189 69.111 L
100.878 69.111 L
103.637 69.111 L
106.581 69.111 L
109.815 69.111 L
113.507 69.111 L
118.04 69.111 L
123.123 69.111 L
128.57 69.111 L
134.147 69.111 L
140.419 69.111 L
147.598 69.111 L
155.042 69.111 L
163.502 69.111 L
167.819 69.111 L
172.137 69.111 L
177.449 69.111 L
182.924 69.111 L
187.429 69.111 L
191.146 69.111 L
195.041 69.111 L
199.887 69.111 L
205.485 69.111 L
209.484 69.111 L
213.483 69.111 L
218.332 69.111 L
223.805 69.111 L
S
GR
GS
[0.75 0 0 0.75 0 0] CT
0 0 1 RC
1 LJ
0.667 LW
N
218.332 69.111 M
223.805 69.111 L
228.776 69.111 L
232.811 69.111 L
236.573 69.111 L
240.962 69.111 L
246.269 69.111 L
251.652 69.111 L
256.104 69.111 L
259.852 69.111 L
263.825 69.111 L
268.719 69.111 L
274.267 69.111 L
278.246 69.111 L
282.226 69.111 L
287.064 69.111 L
290 69.111 L
290 69.111 L
291.218 69.111 L
292.436 69.111 L
294.143 69.111 L
295.92 69.111 L
297.811 69.111 L
299.889 69.111 L
302.215 69.111 L
304.88 69.111 L
308.028 69.111 L
311.968 69.111 L
317.635 69.111 L
323.588 69.111 L
329.989 69.111 L
335.004 69.111 L
340.018 69.111 L
344.779 69.111 L
349.054 69.111 L
353.187 69.111 L
357.682 69.111 L
362.665 69.111 L
367.654 69.111 L
372.13 69.111 L
376.219 69.111 L
380.469 69.111 L
385.274 69.111 L
390.399 69.111 L
395.158 69.111 L
399.337 69.111 L
403.396 69.111 L
407.924 69.111 L
413.024 69.111 L
418.07 69.111 L
422.478 69.111 L
426.466 69.111 L
S
GR
GS
[0.75 0 0 0.75 0 0] CT
0 0 1 RC
1 LJ
0.667 LW
N
422.478 69.111 M
426.466 69.111 L
430.694 69.111 L
435.59 69.111 L
440.822 69.111 L
445.566 69.111 L
449.641 69.111 L
453.63 69.111 L
458.199 69.111 L
463.421 69.111 L
468.517 69.111 L
472.85 69.111 L
476.738 69.111 L
480.95 69.111 L
485.941 69.111 L
491.275 69.111 L
495.996 69.111 L
499.972 69.111 L
503.898 69.111 L
507 69.111 L
S
GR
GS
[0.75 0 0 0.75 0 0] CT
0 1 1 RC
1 LJ
0.667 LW
N
73 259.667 M
73.434 259.667 L
73.434 69.111 L
73.434 69.111 L
73.868 69.111 L
74.302 69.111 L
74.849 69.111 L
75.423 69.111 L
76.033 69.111 L
76.737 69.111 L
77.526 69.111 L
78.38 69.111 L
79.306 69.111 L
80.31 69.111 L
81.403 69.111 L
82.601 69.111 L
83.925 69.111 L
85.414 69.111 L
87.087 69.111 L
88.93 69.111 L
91.03 69.111 L
93.348 69.111 L
95.678 69.111 L
98.189 69.111 L
100.878 69.111 L
103.637 69.111 L
106.581 69.111 L
109.815 69.111 L
113.507 69.111 L
118.04 69.111 L
123.123 69.111 L
128.57 69.111 L
134.147 69.111 L
140.419 69.111 L
147.598 69.111 L
155.042 69.111 L
163.502 69.111 L
167.819 69.111 L
172.137 69.111 L
177.449 69.111 L
182.924 69.111 L
187.429 69.111 L
191.146 69.111 L
195.041 69.111 L
199.887 69.111 L
205.485 69.111 L
209.484 69.111 L
213.483 69.111 L
218.332 69.111 L
223.805 69.111 L
S
GR
GS
[0.75 0 0 0.75 0 0] CT
0 1 1 RC
1 LJ
0.667 LW
N
218.332 69.111 M
223.805 69.111 L
228.776 69.111 L
232.811 69.111 L
236.573 69.111 L
240.962 69.111 L
246.269 69.111 L
251.652 69.111 L
256.104 69.111 L
259.852 69.111 L
263.825 69.111 L
268.719 69.111 L
274.267 69.111 L
278.246 69.111 L
282.226 69.111 L
287.064 69.111 L
290 69.111 L
290 69.111 L
291.218 69.111 L
292.436 69.111 L
294.143 69.111 L
295.92 69.111 L
297.811 69.111 L
299.889 69.111 L
302.215 69.111 L
304.88 69.111 L
308.028 69.111 L
311.968 69.111 L
317.635 69.111 L
323.588 69.111 L
329.989 69.111 L
335.004 69.111 L
340.018 69.111 L
344.779 69.111 L
349.054 69.111 L
353.187 69.111 L
357.682 69.111 L
362.665 69.111 L
367.654 69.111 L
372.13 69.111 L
376.219 69.111 L
380.469 69.111 L
385.274 69.111 L
390.399 69.111 L
395.158 69.111 L
399.337 69.111 L
403.396 69.111 L
407.924 69.111 L
413.024 69.111 L
418.07 69.111 L
422.478 69.111 L
426.466 69.111 L
S
GR
GS
[0.75 0 0 0.75 0 0] CT
0 1 1 RC
1 LJ
0.667 LW
N
422.478 69.111 M
426.466 69.111 L
430.694 69.111 L
435.59 69.111 L
440.822 69.111 L
445.566 69.111 L
449.641 69.111 L
453.63 69.111 L
458.199 69.111 L
463.421 69.111 L
468.517 69.111 L
472.85 69.111 L
476.738 69.111 L
480.95 69.111 L
485.941 69.111 L
491.275 69.111 L
495.996 69.111 L
499.972 69.111 L
503.898 69.111 L
507 69.111 L
S
GR
GS
[0.75 0 0 0.75 0 0] CT
1 1 0 RC
1 LJ
0.667 LW
N
73 259.667 M
73.434 259.667 L
73.434 259.667 L
73.434 259.667 L
73.868 259.667 L
74.302 259.667 L
74.849 259.667 L
75.423 259.667 L
76.033 259.667 L
76.737 259.667 L
77.526 259.667 L
78.38 259.667 L
79.306 259.667 L
80.31 259.667 L
81.403 259.667 L
82.601 259.667 L
83.925 259.667 L
85.414 259.667 L
87.087 259.667 L
88.93 259.667 L
91.03 259.667 L
93.348 259.667 L
95.678 259.667 L
98.189 259.667 L
100.878 259.667 L
103.637 259.667 L
106.581 259.667 L
109.815 259.667 L
113.507 259.667 L
118.04 259.667 L
123.123 259.667 L
128.57 259.667 L
134.147 259.667 L
140.419 259.667 L
147.598 259.667 L
155.042 259.667 L
163.502 259.667 L
167.819 259.667 L
172.137 259.667 L
177.449 259.667 L
182.924 259.667 L
187.429 259.667 L
191.146 259.667 L
195.041 259.667 L
199.887 259.667 L
205.485 259.667 L
209.484 259.667 L
213.483 259.667 L
218.332 259.667 L
223.805 259.667 L
S
GR
GS
[0.75 0 0 0.75 0 0] CT
1 1 0 RC
1 LJ
0.667 LW
N
218.332 259.667 M
223.805 259.667 L
228.776 259.667 L
232.811 259.667 L
236.573 259.667 L
240.962 259.667 L
246.269 259.667 L
251.652 259.667 L
256.104 259.667 L
259.852 259.667 L
263.825 259.667 L
268.719 259.667 L
274.267 259.667 L
278.246 259.667 L
282.226 259.667 L
287.064 259.667 L
290 259.667 L
290 354.944 L
291.218 354.944 L
292.436 354.944 L
294.143 354.944 L
295.92 354.944 L
297.811 354.944 L
299.889 354.944 L
302.215 354.944 L
304.88 354.944 L
308.028 354.944 L
311.968 354.944 L
317.635 354.944 L
323.588 354.944 L
329.989 354.944 L
335.004 354.944 L
340.018 354.944 L
344.779 354.944 L
349.054 354.944 L
353.187 354.944 L
357.682 354.944 L
362.665 354.944 L
367.654 354.944 L
372.13 354.944 L
376.219 354.944 L
380.469 354.944 L
385.274 354.944 L
390.399 354.944 L
395.158 354.944 L
399.337 354.944 L
403.396 354.944 L
407.924 354.944 L
413.024 354.944 L
418.07 354.944 L
422.478 354.944 L
426.466 354.944 L
S
GR
GS
[0.75 0 0 0.75 0 0] CT
1 1 0 RC
1 LJ
0.667 LW
N
422.478 354.944 M
426.466 354.944 L
430.694 354.944 L
435.59 354.944 L
440.822 354.944 L
445.566 354.944 L
449.641 354.944 L
453.63 354.944 L
458.199 354.944 L
463.421 354.944 L
468.517 354.944 L
472.85 354.944 L
476.738 354.944 L
480.95 354.944 L
485.941 354.944 L
491.275 354.944 L
495.996 354.944 L
499.972 354.944 L
503.898 354.944 L
507 354.944 L
S
GR
GS
[0.75 0 0 0.75 0 0] CT
0 1 0 RC
1 LJ
0.667 LW
N
73 259.667 M
73.434 259.667 L
73.434 259.667 L
73.434 259.667 L
73.868 259.667 L
74.302 259.667 L
74.849 259.667 L
75.423 259.667 L
76.033 259.667 L
76.737 259.667 L
77.526 259.667 L
78.38 259.667 L
79.306 259.667 L
80.31 259.667 L
81.403 259.667 L
82.601 259.667 L
83.925 259.667 L
85.414 259.667 L
87.087 259.667 L
88.93 259.667 L
91.03 259.667 L
93.348 259.667 L
95.678 259.667 L
98.189 259.667 L
100.878 259.667 L
103.637 259.667 L
106.581 259.667 L
109.815 259.667 L
113.507 259.667 L
118.04 259.667 L
123.123 259.667 L
128.57 259.667 L
134.147 259.667 L
140.419 259.667 L
147.598 259.667 L
155.042 259.667 L
163.502 259.667 L
167.819 259.667 L
172.137 259.667 L
177.449 259.667 L
182.924 259.667 L
187.429 259.667 L
191.146 259.667 L
195.041 259.667 L
199.887 259.667 L
205.485 259.667 L
209.484 259.667 L
213.483 259.667 L
218.332 259.667 L
223.805 259.667 L
S
GR
GS
[0.75 0 0 0.75 0 0] CT
0 1 0 RC
1 LJ
0.667 LW
N
218.332 259.667 M
223.805 259.667 L
228.776 259.667 L
232.811 259.667 L
236.573 259.667 L
240.962 259.667 L
246.269 259.667 L
251.652 259.667 L
256.104 259.667 L
259.852 259.667 L
263.825 259.667 L
268.719 259.667 L
274.267 259.667 L
278.246 259.667 L
282.226 259.667 L
287.064 259.667 L
290 259.667 L
290 354.944 L
291.218 354.944 L
292.436 354.944 L
294.143 354.944 L
295.92 354.944 L
297.811 354.944 L
299.889 354.944 L
302.215 354.944 L
304.88 354.944 L
308.028 354.944 L
311.968 354.944 L
317.635 354.944 L
323.588 354.944 L
329.989 354.944 L
335.004 354.944 L
340.018 354.944 L
344.779 354.944 L
349.054 354.944 L
353.187 354.944 L
357.682 354.944 L
362.665 354.944 L
367.654 354.944 L
372.13 354.944 L
376.219 354.944 L
380.469 354.944 L
385.274 354.944 L
390.399 354.944 L
395.158 354.944 L
399.337 354.944 L
403.396 354.944 L
407.924 354.944 L
413.024 354.944 L
418.07 354.944 L
422.478 354.944 L
426.466 354.944 L
S
GR
GS
[0.75 0 0 0.75 0 0] CT
0 1 0 RC
1 LJ
0.667 LW
N
422.478 354.944 M
426.466 354.944 L
430.694 354.944 L
435.59 354.944 L
440.822 354.944 L
445.566 354.944 L
449.641 354.944 L
453.63 354.944 L
458.199 354.944 L
463.421 354.944 L
468.517 354.944 L
472.85 354.944 L
476.738 354.944 L
480.95 354.944 L
485.941 354.944 L
491.275 354.944 L
495.996 354.944 L
499.972 354.944 L
503.898 354.944 L
507 354.944 L
S
GR
GS
[0.75 0 0 0.75 0 0] CT
1 0 0 RC
1 LJ
0.667 LW
N
73 259.667 M
73.434 259.667 L
73.434 259.667 L
73.434 259.667 L
73.868 259.527 L
74.302 259.097 L
74.849 258.128 L
75.423 256.599 L
76.033 254.407 L
76.737 251.197 L
77.526 246.802 L
78.38 241.23 L
79.306 234.41 L
80.31 226.311 L
81.403 216.936 L
82.601 206.318 L
83.925 194.503 L
85.414 181.508 L
87.087 167.648 L
88.93 153.602 L
91.03 139.37 L
93.348 125.908 L
95.678 114.608 L
98.189 104.67 L
100.878 96.219 L
103.637 89.489 L
106.581 84.038 L
109.815 79.638 L
113.507 76.121 L
118.04 73.325 L
123.123 71.47 L
128.57 70.369 L
134.147 69.769 L
140.419 69.428 L
147.598 69.248 L
155.042 69.168 L
163.502 69.132 L
167.819 69.124 L
172.137 69.119 L
177.449 69.115 L
182.924 69.113 L
187.429 69.112 L
191.146 69.112 L
195.041 69.112 L
199.887 69.111 L
205.485 69.111 L
209.484 69.111 L
213.483 69.111 L
218.332 69.111 L
223.805 69.111 L
S
GR
GS
[0.75 0 0 0.75 0 0] CT
1 0 0 RC
1 LJ
0.667 LW
N
218.332 69.111 M
223.805 69.111 L
228.776 69.111 L
232.811 69.111 L
236.573 69.111 L
240.962 69.111 L
246.269 69.111 L
251.652 69.111 L
256.104 69.111 L
259.852 69.111 L
263.825 69.111 L
268.719 69.111 L
274.267 69.111 L
278.246 69.111 L
282.226 69.111 L
287.064 69.111 L
290 69.111 L
290 69.111 L
291.218 69.232 L
292.436 69.385 L
294.143 69.592 L
295.92 69.76 L
297.811 69.868 L
299.889 69.913 L
302.215 69.894 L
304.88 69.818 L
308.028 69.698 L
311.968 69.547 L
317.635 69.375 L
323.588 69.258 L
329.989 69.186 L
335.004 69.155 L
340.018 69.136 L
344.779 69.126 L
349.054 69.12 L
353.187 69.117 L
357.682 69.114 L
362.665 69.113 L
367.654 69.112 L
372.13 69.112 L
376.219 69.112 L
380.469 69.111 L
385.274 69.111 L
390.399 69.111 L
395.158 69.111 L
399.337 69.111 L
403.396 69.111 L
407.924 69.111 L
413.024 69.111 L
418.07 69.111 L
422.478 69.111 L
426.466 69.111 L
S
GR
GS
[0.75 0 0 0.75 0 0] CT
1 0 0 RC
1 LJ
0.667 LW
N
422.478 69.111 M
426.466 69.111 L
430.694 69.111 L
435.59 69.111 L
440.822 69.111 L
445.566 69.111 L
449.641 69.111 L
453.63 69.111 L
458.199 69.111 L
463.421 69.111 L
468.517 69.111 L
472.85 69.111 L
476.738 69.111 L
480.95 69.111 L
485.941 69.111 L
491.275 69.111 L
495.996 69.111 L
499.972 69.111 L
503.898 69.111 L
507 69.111 L
S
GR
GS
[0.75 0 0 0.75 0 0] CT
1 0 1 RC
1 LJ
0.667 LW
N
73 259.667 M
73.434 259.667 L
73.434 259.667 L
73.434 259.667 L
73.868 259.621 L
74.302 259.457 L
74.849 259.022 L
75.423 258.238 L
76.033 256.986 L
76.737 254.973 L
77.526 251.973 L
78.38 247.873 L
79.306 242.507 L
80.31 235.738 L
81.403 227.459 L
82.601 217.592 L
83.925 206.086 L
85.414 192.872 L
87.087 178.22 L
88.93 162.873 L
91.03 146.919 L
93.348 131.576 L
95.678 118.627 L
98.189 107.296 L
100.878 97.8 L
103.637 90.401 L
106.581 84.56 L
109.815 79.968 L
113.507 76.384 L
118.04 73.575 L
123.123 71.705 L
128.57 70.565 L
134.147 69.915 L
140.419 69.524 L
147.598 69.303 L
155.042 69.198 L
163.502 69.146 L
167.819 69.133 L
172.137 69.125 L
177.449 69.119 L
182.924 69.116 L
187.429 69.114 L
191.146 69.113 L
195.041 69.112 L
199.887 69.112 L
205.485 69.112 L
209.484 69.111 L
213.483 69.111 L
218.332 69.111 L
223.805 69.111 L
S
GR
GS
[0.75 0 0 0.75 0 0] CT
1 0 1 RC
1 LJ
0.667 LW
N
218.332 69.111 M
223.805 69.111 L
228.776 69.111 L
232.811 69.111 L
236.573 69.111 L
240.962 69.111 L
246.269 69.111 L
251.652 69.111 L
256.104 69.111 L
259.852 69.111 L
263.825 69.111 L
268.719 69.111 L
274.267 69.111 L
278.246 69.111 L
282.226 69.111 L
287.064 69.111 L
290 69.111 L
290 69.111 L
291.218 69.196 L
292.436 69.301 L
294.143 69.447 L
295.92 69.572 L
297.811 69.66 L
299.889 69.705 L
302.215 69.702 L
304.88 69.653 L
308.028 69.564 L
311.968 69.446 L
317.635 69.308 L
323.588 69.217 L
329.989 69.164 L
335.004 69.141 L
340.018 69.129 L
344.779 69.122 L
349.054 69.118 L
353.187 69.115 L
357.682 69.114 L
362.665 69.113 L
367.654 69.112 L
372.13 69.112 L
376.219 69.111 L
380.469 69.111 L
385.274 69.111 L
390.399 69.111 L
395.158 69.111 L
399.337 69.111 L
403.396 69.111 L
407.924 69.111 L
413.024 69.111 L
418.07 69.111 L
422.478 69.111 L
426.466 69.111 L
S
GR
GS
[0.75 0 0 0.75 0 0] CT
1 0 1 RC
1 LJ
0.667 LW
N
422.478 69.111 M
426.466 69.111 L
430.694 69.111 L
435.59 69.111 L
440.822 69.111 L
445.566 69.111 L
449.641 69.111 L
453.63 69.111 L
458.199 69.111 L
463.421 69.111 L
468.517 69.111 L
472.85 69.111 L
476.738 69.111 L
480.95 69.111 L
485.941 69.111 L
491.275 69.111 L
495.996 69.111 L
499.972 69.111 L
503.898 69.111 L
507 69.111 L
S
GR
GS
[0.75 0 0 0.75 0 0] CT
1 GC
N
421 143 M
421 44 L
494 44 L
494 143 L
cp
f
GR
GS
[0.75 0 0 0.75 354.75 40.65076] CT
/Helvetica 12 F
GS
[1 0 0 1 0 0] CT
0 4.5 moveto 
1 -1 scale
(w1) t 
GR
GR
GS
[0.75 0 0 0.75 0 0] CT
0 0 1 RC
1 LJ
0.667 LW
N
429 54.201 M
469 54.201 L
S
GR
GS
[0.75 0 0 0.75 354.75 52.44046] CT
/Helvetica 12 F
GS
[1 0 0 1 0 0] CT
0 4.5 moveto 
1 -1 scale
(w2) t 
GR
GR
GS
[0.75 0 0 0.75 0 0] CT
0 1 1 RC
1 LJ
0.667 LW
N
429 69.921 M
469 69.921 L
S
GR
GS
[0.75 0 0 0.75 354.75 64.23015] CT
/Helvetica 12 F
GS
[1 0 0 1 0 0] CT
0 4.5 moveto 
1 -1 scale
(di1) t 
GR
GR
GS
[0.75 0 0 0.75 0 0] CT
1 1 0 RC
1 LJ
0.667 LW
N
429 85.64 M
469 85.64 L
S
GR
GS
[0.75 0 0 0.75 354.75 76.01985] CT
/Helvetica 12 F
GS
[1 0 0 1 0 0] CT
0 4.5 moveto 
1 -1 scale
(di2) t 
GR
GR
GS
[0.75 0 0 0.75 0 0] CT
0 1 0 RC
1 LJ
0.667 LW
N
429 101.36 M
469 101.36 L
S
GR
GS
[0.75 0 0 0.75 354.75 87.80954] CT
/Helvetica 12 F
GS
[1 0 0 1 0 0] CT
0 4.5 moveto 
1 -1 scale
(y1) t 
GR
GR
GS
[0.75 0 0 0.75 0 0] CT
1 0 0 RC
1 LJ
0.667 LW
N
429 117.079 M
469 117.079 L
S
GR
GS
[0.75 0 0 0.75 354.75 99.59924] CT
/Helvetica 12 F
GS
[1 0 0 1 0 0] CT
0 4.5 moveto 
1 -1 scale
(y2) t 
GR
GR
GS
[0.75 0 0 0.75 0 0] CT
1 0 1 RC
1 LJ
0.667 LW
N
429 132.799 M
469 132.799 L
S
GR
GS
[0.75 0 0 0.75 0 0] CT
0.149 GC
10.0 ML
0.667 LW
N
421 143 M
421 44 L
494 44 L
494 143 L
cp
S
GR
%%Trailer
%%Pages: 1
%%EOF
