%!PS-Adobe-3.0 EPSF-3.0
%%Creator: MATLAB, The MathWorks, Inc. Version 8.2.0.701 (R2013b). Operating System: Microsoft Windows 8.
%%Title: C:\Users\Tomas\Documents\Dokumenty\Skola\RLS\SP\pics\SP2\state_reg_u.eps
%%CreationDate: 03/05/2017  11:32:17
%%DocumentNeededFonts: Helvetica
%%DocumentProcessColors: Cyan Magenta Yellow Black
%%LanguageLevel: 2
%%Pages: 1
%%BoundingBox:    87   262   507   578
%%EndComments

%%BeginProlog
% MathWorks dictionary
/MathWorks 160 dict begin
% definition operators
/bdef {bind def} bind def
/ldef {load def} bind def
/xdef {exch def} bdef
/xstore {exch store} bdef
% operator abbreviations
/c  /clip ldef
/cc /concat ldef
/cp /closepath ldef
/gr /grestore ldef
/gs /gsave ldef
/mt /moveto ldef
/np /newpath ldef
/cm /currentmatrix ldef
/sm /setmatrix ldef
/rm /rmoveto ldef
/rl /rlineto ldef
/s {show newpath} bdef
/sc {setcmykcolor} bdef
/sr /setrgbcolor ldef
/sg /setgray ldef
/w /setlinewidth ldef
/j /setlinejoin ldef
/cap /setlinecap ldef
/rc {rectclip} bdef
/rf {rectfill} bdef
% page state control
/pgsv () def
/bpage {/pgsv save def} bdef
/epage {pgsv restore} bdef
/bplot /gsave ldef
/eplot {stroke grestore} bdef
% orientation switch
/portraitMode 0 def /landscapeMode 1 def /rotateMode 2 def
% coordinate system mappings
/dpi2point 0 def
% font control
/FontSize 0 def
/FMS {/FontSize xstore findfont [FontSize 0 0 FontSize neg 0 0]
  makefont setfont} bdef
/ISOLatin1Encoding where {pop /WindowsLatin1Encoding 256 array bdef
ISOLatin1Encoding WindowsLatin1Encoding copy pop
/.notdef/.notdef/quotesinglbase/florin/quotedblbase/ellipsis/dagger
/daggerdbl/circumflex/perthousand/Scaron/guilsinglleft/OE/.notdef/.notdef
/.notdef/.notdef/quoteleft/quoteright/quotedblleft/quotedblright/bullet
/endash/emdash/tilde/trademark/scaron/guilsinglright/oe/.notdef/.notdef
/Ydieresis WindowsLatin1Encoding 128 32 getinterval astore pop}
{/WindowsLatin1Encoding StandardEncoding bdef} ifelse
/reencode {exch dup where {pop load} {pop StandardEncoding} ifelse
  exch dup 3 1 roll findfont dup length dict begin
  { 1 index /FID ne {def}{pop pop} ifelse } forall
  /Encoding exch def currentdict end definefont pop} bdef
/isroman {findfont /CharStrings get /Agrave known} bdef
/FMSR {3 1 roll 1 index dup isroman {reencode} {pop pop} ifelse
  exch FMS} bdef
/csm {1 dpi2point div -1 dpi2point div scale neg translate
 dup landscapeMode eq {pop -90 rotate}
  {rotateMode eq {90 rotate} if} ifelse} bdef
% line types: solid, dotted, dashed, dotdash
/SO { [] 0 setdash } bdef
/DO { [.5 dpi2point mul 4 dpi2point mul] 0 setdash } bdef
/DA { [6 dpi2point mul] 0 setdash } bdef
/DD { [.5 dpi2point mul 4 dpi2point mul 6 dpi2point mul 4
  dpi2point mul] 0 setdash } bdef
% macros for lines and objects
/L {lineto stroke} bdef
/MP {3 1 roll moveto 1 sub {rlineto} repeat} bdef
/AP {{rlineto} repeat} bdef
/PDlw -1 def
/W {/PDlw currentlinewidth def setlinewidth} def
/PP {closepath eofill} bdef
/DP {closepath stroke} bdef
/MR {4 -2 roll moveto dup  0 exch rlineto exch 0 rlineto
  neg 0 exch rlineto closepath} bdef
/FR {MR stroke} bdef
/PR {MR fill} bdef
/L1i {{currentfile picstr readhexstring pop} image} bdef
/tMatrix matrix def
/MakeOval {newpath tMatrix currentmatrix pop translate scale
0 0 1 0 360 arc tMatrix setmatrix} bdef
/FO {MakeOval stroke} bdef
/PO {MakeOval fill} bdef
/PD {currentlinewidth 2 div 0 360 arc fill
   PDlw -1 eq not {PDlw w /PDlw -1 def} if} def
/FA {newpath tMatrix currentmatrix pop translate scale
  0 0 1 5 -2 roll arc tMatrix setmatrix stroke} bdef
/PA {newpath tMatrix currentmatrix pop	translate 0 0 moveto scale
  0 0 1 5 -2 roll arc closepath tMatrix setmatrix fill} bdef
/FAn {newpath tMatrix currentmatrix pop translate scale
  0 0 1 5 -2 roll arcn tMatrix setmatrix stroke} bdef
/PAn {newpath tMatrix currentmatrix pop translate 0 0 moveto scale
  0 0 1 5 -2 roll arcn closepath tMatrix setmatrix fill} bdef
/vradius 0 def /hradius 0 def /lry 0 def
/lrx 0 def /uly 0 def /ulx 0 def /rad 0 def
/MRR {/vradius xdef /hradius xdef /lry xdef /lrx xdef /uly xdef
  /ulx xdef newpath tMatrix currentmatrix pop ulx hradius add uly
  vradius add translate hradius vradius scale 0 0 1 180 270 arc 
  tMatrix setmatrix lrx hradius sub uly vradius add translate
  hradius vradius scale 0 0 1 270 360 arc tMatrix setmatrix
  lrx hradius sub lry vradius sub translate hradius vradius scale
  0 0 1 0 90 arc tMatrix setmatrix ulx hradius add lry vradius sub
  translate hradius vradius scale 0 0 1 90 180 arc tMatrix setmatrix
  closepath} bdef
/FRR {MRR stroke } bdef
/PRR {MRR fill } bdef
/MlrRR {/lry xdef /lrx xdef /uly xdef /ulx xdef /rad lry uly sub 2 div def
  newpath tMatrix currentmatrix pop ulx rad add uly rad add translate
  rad rad scale 0 0 1 90 270 arc tMatrix setmatrix lrx rad sub lry rad
  sub translate rad rad scale 0 0 1 270 90 arc tMatrix setmatrix
  closepath} bdef
/FlrRR {MlrRR stroke } bdef
/PlrRR {MlrRR fill } bdef
/MtbRR {/lry xdef /lrx xdef /uly xdef /ulx xdef /rad lrx ulx sub 2 div def
  newpath tMatrix currentmatrix pop ulx rad add uly rad add translate
  rad rad scale 0 0 1 180 360 arc tMatrix setmatrix lrx rad sub lry rad
  sub translate rad rad scale 0 0 1 0 180 arc tMatrix setmatrix
  closepath} bdef
/FtbRR {MtbRR stroke } bdef
/PtbRR {MtbRR fill } bdef
/stri 6 array def /dtri 6 array def
/smat 6 array def /dmat 6 array def
/tmat1 6 array def /tmat2 6 array def /dif 3 array def
/asub {/ind2 exch def /ind1 exch def dup dup
  ind1 get exch ind2 get sub exch } bdef
/tri_to_matrix {
  2 0 asub 3 1 asub 4 0 asub 5 1 asub
  dup 0 get exch 1 get 7 -1 roll astore } bdef
/compute_transform {
  dmat dtri tri_to_matrix tmat1 invertmatrix 
  smat stri tri_to_matrix tmat2 concatmatrix } bdef
/ds {stri astore pop} bdef
/dt {dtri astore pop} bdef
/db {2 copy /cols xdef /rows xdef mul dup 3 mul string
  currentfile 
  3 index 0 eq {/ASCIIHexDecode filter}
  {/ASCII85Decode filter 3 index 2 eq {/RunLengthDecode filter} if }
  ifelse exch readstring pop
  dup 0 3 index getinterval /rbmap xdef
  dup 2 index dup getinterval /gbmap xdef
  1 index dup 2 mul exch getinterval /bbmap xdef pop pop}bdef
/it {gs np dtri aload pop moveto lineto lineto cp c
  cols rows 8 compute_transform 
  rbmap gbmap bbmap true 3 colorimage gr}bdef
/il {newpath moveto lineto stroke}bdef
currentdict end def
%%EndProlog

%%BeginSetup
MathWorks begin

0 cap

end
%%EndSetup

%%Page: 1 1
%%BeginPageSetup
%%PageBoundingBox:    87   262   507   578
MathWorks begin
bpage
%%EndPageSetup

%%BeginObject: obj1
bplot

/dpi2point 12 def
portraitMode 1044 6936 csm

    0     0  5045  3782 rc
86 dict begin %Colortable dictionary
/c0 { 0.000000 0.000000 0.000000 sr} bdef
/c1 { 1.000000 1.000000 1.000000 sr} bdef
/c2 { 0.900000 0.000000 0.000000 sr} bdef
/c3 { 0.000000 0.820000 0.000000 sr} bdef
/c4 { 0.000000 0.000000 0.800000 sr} bdef
/c5 { 0.910000 0.820000 0.320000 sr} bdef
/c6 { 1.000000 0.260000 0.820000 sr} bdef
/c7 { 0.000000 0.820000 0.820000 sr} bdef
c0
1 j
1 sg
   0    0 5046 3783 rf
6 w
0 3082 3910 0 0 -3082 656 3366 4 MP
PP
-3910 0 0 3082 3910 0 0 -3082 656 3366 5 MP stroke
4 w
DO
SO
6 w
0 sg
 656 3366 mt 4566 3366 L
 656 3366 mt  656  284 L
 656 3366 mt  656 3326 L
%%IncludeResource: font Helvetica
/Helvetica /WindowsLatin1Encoding 120 FMSR

 623 3511 mt 
(0) s
1307 3366 mt 1307 3326 L
1241 3511 mt 
(50) s
1959 3366 mt 1959 3326 L
1859 3511 mt 
(100) s
2611 3366 mt 2611 3326 L
2511 3511 mt 
(150) s
3262 3366 mt 3262 3326 L
3162 3511 mt 
(200) s
3914 3366 mt 3914 3326 L
3814 3511 mt 
(250) s
4566 3366 mt 4566 3326 L
4466 3511 mt 
(300) s
 656 3366 mt  695 3366 L
 455 3410 mt 
(0.1) s
 656 2852 mt  695 2852 L
 388 2896 mt 
(0.12) s
 656 2338 mt  695 2338 L
 388 2382 mt 
(0.14) s
 656 1825 mt  695 1825 L
 388 1869 mt 
(0.16) s
 656 1311 mt  695 1311 L
 388 1355 mt 
(0.18) s
 656  797 mt  695  797 L
 455  841 mt 
(0.2) s
 656  284 mt  695  284 L
 388  328 mt 
(0.22) s
gs 656 284 3911 3083 rc
/c8 { 1.000000 0.000000 0.000000 sr} bdef
c8
14 0 13 0 13 0 13 0 13 0 13 0 13 0 13 0 
13 0 13 0 13 0 13 0 13 0 13 0 13 0 13 0 
13 0 13 0 13 0 13 0 13 0 13 0 13 0 13 0 
13 0 13 0 13 0 13 0 13 0 13 0 14 0 13 0 
13 0 13 0 13 0 13 0 13 0 13 0 13 0 13 0 
13 0 13 0 13 0 13 0 13 0 13 0 13 0 13 0 
13 0 13 0 13 0 13 0 13 0 13 0 13 0 13 0 
13 0 13 0 13 0 13 0 14 0 13 0 13 0 13 0 
13 0 13 0 13 0 13 0 13 0 13 0 13 0 13 0 
13 0 13 0 13 0 13 0 13 0 13 0 13 0 13 0 
13 0 13 0 13 1 13 0 13 0 13 0 13 0 13 0 
13 0 13 0 14 0 13 0 13 0 13 0 13 0 13 0 
13 0 13 0 13 0 13 0 13 0 13 0 13 0 13 0 
13 0 13 0 13 0 13 0 13 0 13 1 13 0 13 0 
13 0 13 0 13 0 13 0 13 0 13 0 13 0 13 0 
14 1 13 0 13 0 13 0 13 0 13 0 13 0 13 0 
13 1 13 0 13 0 13 0 13 0 13 1 13 0 13 0 
13 0 13 1 13 0 13 0 13 0 13 1 13 0 13 0 
13 1 13 0 13 0 13 1 13 0 13 1 14 0 13 1 
13 0 13 1 13 0 13 1 13 0 13 1 13 1 13 0 
13 1 13 1 13 1 13 0 13 1 13 1 13 1 13 1 
13 1 13 1 13 1 13 2 13 1 13 1 13 2 13 1 
13 1 13 2 13 2 13 1 14 2 13 2 13 2 13 2 
13 2 13 2 13 3 13 2 13 3 13 2 13 3 13 3 
13 3 13 3 13 4 13 3 13 4 13 3 13 4 13 4 
13 4 13 5 13 5 13 4 13 5 13 6 13 5 13 6 
13 6 13 6 14 6 13 7 13 7 13 7 13 8 13 7 
13 9 13 8 13 9 13 9 13 9 13 10 13 11 13 10 
13 11 13 12 13 12 13 12 13 13 13 13 13 14 13 14 
13 15 13 15 13 16 13 16 13 17 13 17 13 18 13 18 
14 19 13 20 13 20 13 21 13 22 13 22 13 22 13 23 
13 24 13 25 13 24 13 26 13 26 13 27 13 27 13 27 
13 28 13 29 13 28 13 29 13 30 13 29 13 30 13 30 
13 29 13 30 13 29 13 29 13 28 13 28 14 27 13 26 
13 24 13 23 13 22 13 20 13 17 13 15 13 12 13 9 
13 5 13 1 13 -4 13 -9 13 -14 13 -20 13 -28 13 -35 
13 -44 13 -53 13 -63 13 -74 13 -86 13 -100 13 -114 13 -130 
13 -148 13 -167 13 -187 669 3156 300 MP stroke
13 -209 656 3365 2 MP stroke
/c9 { 1.000000 0.000000 1.000000 sr} bdef
c9
14 0 13 0 13 0 13 0 13 0 13 0 13 0 13 0 
13 0 13 0 13 0 13 0 13 0 13 0 13 0 13 0 
13 0 13 0 13 0 13 0 13 0 13 0 13 0 13 0 
13 0 13 0 13 0 13 0 13 0 13 0 14 0 13 0 
13 0 13 0 13 0 13 0 13 0 13 0 13 0 13 0 
13 0 13 0 13 0 13 0 13 0 13 0 13 0 13 0 
13 0 13 0 13 0 13 0 13 0 13 0 13 0 13 0 
13 0 13 0 13 0 13 0 14 0 13 0 13 0 13 0 
13 0 13 0 13 0 13 0 13 0 13 0 13 0 13 0 
13 0 13 0 13 0 13 0 13 0 13 0 13 0 13 0 
13 0 13 0 13 0 13 0 13 0 13 0 13 1 13 0 
13 0 13 0 14 0 13 0 13 0 13 0 13 0 13 0 
13 0 13 0 13 0 13 0 13 0 13 0 13 0 13 0 
13 1 13 0 13 0 13 0 13 0 13 0 13 0 13 0 
13 0 13 1 13 0 13 0 13 0 13 0 13 0 13 0 
14 1 13 0 13 0 13 0 13 0 13 1 13 0 13 0 
13 0 13 1 13 0 13 0 13 1 13 0 13 0 13 1 
13 0 13 0 13 1 13 0 13 1 13 0 13 1 13 0 
13 1 13 0 13 1 13 1 13 0 13 1 14 1 13 1 
13 0 13 1 13 1 13 1 13 1 13 1 13 1 13 1 
13 1 13 2 13 1 13 1 13 2 13 1 13 2 13 1 
13 2 13 2 13 2 13 1 13 2 13 3 13 2 13 2 
13 2 13 3 13 3 13 2 14 3 13 3 13 3 13 4 
13 3 13 4 13 3 13 4 13 4 13 5 13 4 13 5 
13 5 13 5 13 5 13 6 13 5 13 6 13 7 13 6 
13 7 13 7 13 7 13 8 13 8 13 9 13 8 13 9 
13 10 13 10 14 10 13 11 13 11 13 12 13 12 13 12 
13 13 13 14 13 14 13 14 13 16 13 15 13 17 13 17 
13 18 13 18 13 19 13 20 13 20 13 21 13 22 13 23 
13 23 13 25 13 25 13 26 13 26 13 28 13 29 13 29 
14 30 13 32 13 32 13 33 13 34 13 35 13 36 13 36 
13 38 13 39 13 39 13 41 13 41 13 42 13 42 13 44 
13 44 13 44 13 46 13 45 13 46 13 46 13 46 13 47 
13 46 13 45 13 45 13 45 13 43 13 42 14 41 13 39 
13 37 13 34 13 31 13 28 13 25 13 19 13 15 13 10 
13 3 13 -3 13 -11 13 -20 13 -30 13 -39 13 -52 13 -64 
13 -78 13 -94 13 -111 13 -129 13 -149 13 -172 13 -196 13 -222 
13 -252 13 -282 13 -317 669 3012 300 MP stroke
13 -354 656 3366 2 MP stroke
gr

c9
0 sg
2593 3654 mt 
(t) s
 306 1916 mt  -90 rotate
(u\(t\)) s
90 rotate
1411  189 mt 
(Step response of the closed system - control) s
 639 3409 mt 
( ) s
4550  326 mt 
( ) s
1 sg
0 334 640 0 0 -334 3867 678 4 MP
PP
-640 0 0 334 640 0 0 -334 3867 678 5 MP stroke
4 w
DO
SO
6 w
0 sg
3867  344 mt 4507  344 L
3867  678 mt 4507  678 L
4507  678 mt 4507  344 L
3867  678 mt 3867  344 L
3867  678 mt 4507  678 L
3867  678 mt 3867  344 L
3867  344 mt 4507  344 L
3867  678 mt 4507  678 L
4507  678 mt 4507  344 L
3867  678 mt 3867  344 L
4330  479 mt 
(u1) s
gs 3867 344 641 335 rc
c8
355 0 3938 436 2 MP stroke
gr

c8
0 sg
4330  628 mt 
(u2) s
gs 3867 344 641 335 rc
c9
355 0 3938 585 2 MP stroke
gr

c9

end %%Color Dict

eplot
%%EndObject

epage
end

showpage

%%Trailer
%%EOF
