%!PS-Adobe-3.0 EPSF-3.0
%%Creator: (MATLAB, The Mathworks, Inc. Version 8.6.0.267246 \(R2015b\). Operating System: Windows 8)
%%Title: E:/Projects/skola/rls/pics/SP2/state_reg_static_gain_y.eps
%%CreationDate: 2017-03-06T10:17:34
%%Pages: (atend)
%%BoundingBox: 0 0 420 315
%%LanguageLevel: 2
%%EndComments
%%BeginProlog
%%BeginResource: procset (Apache XML Graphics Std ProcSet) 1.2 0
%%Version: 1.2 0
%%Copyright: (Copyright 2001-2003,2010 The Apache Software Foundation. License terms: http://www.apache.org/licenses/LICENSE-2.0)
/bd{bind def}bind def
/ld{load def}bd
/GR/grestore ld
/M/moveto ld
/LJ/setlinejoin ld
/C/curveto ld
/f/fill ld
/LW/setlinewidth ld
/GC/setgray ld
/t/show ld
/N/newpath ld
/CT/concat ld
/cp/closepath ld
/S/stroke ld
/L/lineto ld
/CC/setcmykcolor ld
/A/ashow ld
/GS/gsave ld
/RC/setrgbcolor ld
/RM/rmoveto ld
/ML/setmiterlimit ld
/re {4 2 roll M
1 index 0 rlineto
0 exch rlineto
neg 0 rlineto
cp } bd
/_ctm matrix def
/_tm matrix def
/BT { _ctm currentmatrix pop matrix _tm copy pop 0 0 moveto } bd
/ET { _ctm setmatrix } bd
/iTm { _ctm setmatrix _tm concat } bd
/Tm { _tm astore pop iTm 0 0 moveto } bd
/ux 0.0 def
/uy 0.0 def
/F {
  /Tp exch def
  /Tf exch def
  Tf findfont Tp scalefont setfont
  /cf Tf def  /cs Tp def
} bd
/ULS {currentpoint /uy exch def /ux exch def} bd
/ULE {
  /Tcx currentpoint pop def
  gsave
  newpath
  cf findfont cs scalefont dup
  /FontMatrix get 0 get /Ts exch def /FontInfo get dup
  /UnderlinePosition get Ts mul /To exch def
  /UnderlineThickness get Ts mul /Tt exch def
  ux uy To add moveto  Tcx uy To add lineto
  Tt setlinewidth stroke
  grestore
} bd
/OLE {
  /Tcx currentpoint pop def
  gsave
  newpath
  cf findfont cs scalefont dup
  /FontMatrix get 0 get /Ts exch def /FontInfo get dup
  /UnderlinePosition get Ts mul /To exch def
  /UnderlineThickness get Ts mul /Tt exch def
  ux uy To add cs add moveto Tcx uy To add cs add lineto
  Tt setlinewidth stroke
  grestore
} bd
/SOE {
  /Tcx currentpoint pop def
  gsave
  newpath
  cf findfont cs scalefont dup
  /FontMatrix get 0 get /Ts exch def /FontInfo get dup
  /UnderlinePosition get Ts mul /To exch def
  /UnderlineThickness get Ts mul /Tt exch def
  ux uy To add cs 10 mul 26 idiv add moveto Tcx uy To add cs 10 mul 26 idiv add lineto
  Tt setlinewidth stroke
  grestore
} bd
/QT {
/Y22 exch store
/X22 exch store
/Y21 exch store
/X21 exch store
currentpoint
/Y21 load 2 mul add 3 div exch
/X21 load 2 mul add 3 div exch
/X21 load 2 mul /X22 load add 3 div
/Y21 load 2 mul /Y22 load add 3 div
/X22 load /Y22 load curveto
} bd
/SSPD {
dup length /d exch dict def
{
/v exch def
/k exch def
currentpagedevice k known {
/cpdv currentpagedevice k get def
v cpdv ne {
/upd false def
/nullv v type /nulltype eq def
/nullcpdv cpdv type /nulltype eq def
nullv nullcpdv or
{
/upd true def
} {
/sametype v type cpdv type eq def
sametype {
v type /arraytype eq {
/vlen v length def
/cpdvlen cpdv length def
vlen cpdvlen eq {
0 1 vlen 1 sub {
/i exch def
/obj v i get def
/cpdobj cpdv i get def
obj cpdobj ne {
/upd true def
exit
} if
} for
} {
/upd true def
} ifelse
} {
v type /dicttype eq {
v {
/dv exch def
/dk exch def
/cpddv cpdv dk get def
dv cpddv ne {
/upd true def
exit
} if
} forall
} {
/upd true def
} ifelse
} ifelse
} if
} ifelse
upd true eq {
d k v put
} if
} if
} if
} forall
d length 0 gt {
d setpagedevice
} if
} bd
%%EndResource
%%BeginResource: procset (Apache XML Graphics EPS ProcSet) 1.0 0
%%Version: 1.0 0
%%Copyright: (Copyright 2002-2003 The Apache Software Foundation. License terms: http://www.apache.org/licenses/LICENSE-2.0)
/BeginEPSF { %def
/b4_Inc_state save def         % Save state for cleanup
/dict_count countdictstack def % Count objects on dict stack
/op_count count 1 sub def      % Count objects on operand stack
userdict begin                 % Push userdict on dict stack
/showpage { } def              % Redefine showpage, { } = null proc
0 setgray 0 setlinecap         % Prepare graphics state
1 setlinewidth 0 setlinejoin
10 setmiterlimit [ ] 0 setdash newpath
/languagelevel where           % If level not equal to 1 then
{pop languagelevel             % set strokeadjust and
1 ne                           % overprint to their defaults.
{false setstrokeadjust false setoverprint
} if
} if
} bd
/EndEPSF { %def
count op_count sub {pop} repeat            % Clean up stacks
countdictstack dict_count sub {end} repeat
b4_Inc_state restore
} bd
%%EndResource
%FOPBeginFontDict
%%IncludeResource: font Courier-Bold
%%IncludeResource: font Helvetica
%%IncludeResource: font Courier-BoldOblique
%%IncludeResource: font Courier-Oblique
%%IncludeResource: font Times-Roman
%%IncludeResource: font Helvetica-BoldOblique
%%IncludeResource: font Helvetica-Bold
%%IncludeResource: font Helvetica-Oblique
%%IncludeResource: font Times-BoldItalic
%%IncludeResource: font Courier
%%IncludeResource: font Times-Italic
%%IncludeResource: font Times-Bold
%%IncludeResource: font Symbol
%%IncludeResource: font ZapfDingbats
%FOPEndFontDict
%%BeginResource: encoding WinAnsiEncoding
/WinAnsiEncoding [
/.notdef /.notdef /.notdef /.notdef /.notdef
/.notdef /.notdef /.notdef /.notdef /.notdef
/.notdef /.notdef /.notdef /.notdef /.notdef
/.notdef /.notdef /.notdef /.notdef /.notdef
/.notdef /.notdef /.notdef /.notdef /.notdef
/.notdef /.notdef /.notdef /.notdef /.notdef
/.notdef /.notdef /space /exclam /quotedbl
/numbersign /dollar /percent /ampersand /quotesingle
/parenleft /parenright /asterisk /plus /comma
/hyphen /period /slash /zero /one
/two /three /four /five /six
/seven /eight /nine /colon /semicolon
/less /equal /greater /question /at
/A /B /C /D /E
/F /G /H /I /J
/K /L /M /N /O
/P /Q /R /S /T
/U /V /W /X /Y
/Z /bracketleft /backslash /bracketright /asciicircum
/underscore /quoteleft /a /b /c
/d /e /f /g /h
/i /j /k /l /m
/n /o /p /q /r
/s /t /u /v /w
/x /y /z /braceleft /bar
/braceright /asciitilde /bullet /Euro /bullet
/quotesinglbase /florin /quotedblbase /ellipsis /dagger
/daggerdbl /circumflex /perthousand /Scaron /guilsinglleft
/OE /bullet /Zcaron /bullet /bullet
/quoteleft /quoteright /quotedblleft /quotedblright /bullet
/endash /emdash /asciitilde /trademark /scaron
/guilsinglright /oe /bullet /zcaron /Ydieresis
/space /exclamdown /cent /sterling /currency
/yen /brokenbar /section /dieresis /copyright
/ordfeminine /guillemotleft /logicalnot /sfthyphen /registered
/macron /degree /plusminus /twosuperior /threesuperior
/acute /mu /paragraph /middot /cedilla
/onesuperior /ordmasculine /guillemotright /onequarter /onehalf
/threequarters /questiondown /Agrave /Aacute /Acircumflex
/Atilde /Adieresis /Aring /AE /Ccedilla
/Egrave /Eacute /Ecircumflex /Edieresis /Igrave
/Iacute /Icircumflex /Idieresis /Eth /Ntilde
/Ograve /Oacute /Ocircumflex /Otilde /Odieresis
/multiply /Oslash /Ugrave /Uacute /Ucircumflex
/Udieresis /Yacute /Thorn /germandbls /agrave
/aacute /acircumflex /atilde /adieresis /aring
/ae /ccedilla /egrave /eacute /ecircumflex
/edieresis /igrave /iacute /icircumflex /idieresis
/eth /ntilde /ograve /oacute /ocircumflex
/otilde /odieresis /divide /oslash /ugrave
/uacute /ucircumflex /udieresis /yacute /thorn
/ydieresis
] def
%%EndResource
%FOPBeginFontReencode
/Courier-Bold findfont
dup length dict begin
  {1 index /FID ne {def} {pop pop} ifelse} forall
  /Encoding WinAnsiEncoding def
  currentdict
end
/Courier-Bold exch definefont pop
/Helvetica findfont
dup length dict begin
  {1 index /FID ne {def} {pop pop} ifelse} forall
  /Encoding WinAnsiEncoding def
  currentdict
end
/Helvetica exch definefont pop
/Courier-BoldOblique findfont
dup length dict begin
  {1 index /FID ne {def} {pop pop} ifelse} forall
  /Encoding WinAnsiEncoding def
  currentdict
end
/Courier-BoldOblique exch definefont pop
/Courier-Oblique findfont
dup length dict begin
  {1 index /FID ne {def} {pop pop} ifelse} forall
  /Encoding WinAnsiEncoding def
  currentdict
end
/Courier-Oblique exch definefont pop
/Times-Roman findfont
dup length dict begin
  {1 index /FID ne {def} {pop pop} ifelse} forall
  /Encoding WinAnsiEncoding def
  currentdict
end
/Times-Roman exch definefont pop
/Helvetica-BoldOblique findfont
dup length dict begin
  {1 index /FID ne {def} {pop pop} ifelse} forall
  /Encoding WinAnsiEncoding def
  currentdict
end
/Helvetica-BoldOblique exch definefont pop
/Helvetica-Bold findfont
dup length dict begin
  {1 index /FID ne {def} {pop pop} ifelse} forall
  /Encoding WinAnsiEncoding def
  currentdict
end
/Helvetica-Bold exch definefont pop
/Helvetica-Oblique findfont
dup length dict begin
  {1 index /FID ne {def} {pop pop} ifelse} forall
  /Encoding WinAnsiEncoding def
  currentdict
end
/Helvetica-Oblique exch definefont pop
/Times-BoldItalic findfont
dup length dict begin
  {1 index /FID ne {def} {pop pop} ifelse} forall
  /Encoding WinAnsiEncoding def
  currentdict
end
/Times-BoldItalic exch definefont pop
/Courier findfont
dup length dict begin
  {1 index /FID ne {def} {pop pop} ifelse} forall
  /Encoding WinAnsiEncoding def
  currentdict
end
/Courier exch definefont pop
/Times-Italic findfont
dup length dict begin
  {1 index /FID ne {def} {pop pop} ifelse} forall
  /Encoding WinAnsiEncoding def
  currentdict
end
/Times-Italic exch definefont pop
/Times-Bold findfont
dup length dict begin
  {1 index /FID ne {def} {pop pop} ifelse} forall
  /Encoding WinAnsiEncoding def
  currentdict
end
/Times-Bold exch definefont pop
%FOPEndFontReencode
%%EndProlog
%%Page: 1 1
%%PageBoundingBox: 0 0 420 315
%%BeginPageSetup
[1 0 0 -1 0 315] CT
%%EndPageSetup
GS
[0.75 0 0 0.75 0 0] CT
1 GC
N
0 0 560 420 re
f
GR
GS
[0.75 0 0 0.75 0 0] CT
1 GC
N
0 0 560 420 re
f
GR
GS
[0.75 0 0 0.75 0 0] CT
1 GC
N
73 374 M
507 374 L
507 31 L
73 31 L
cp
f
GR
GS
[0.75 0 0 0.75 0 0] CT
0.149 GC
2 setlinecap
1 LJ
0.667 LW
N
73 374 M
507 374 L
S
GR
GS
[0.75 0 0 0.75 0 0] CT
0.149 GC
2 setlinecap
1 LJ
0.667 LW
N
73 374 M
73 369.66 L
S
GR
GS
[0.75 0 0 0.75 0 0] CT
0.149 GC
2 setlinecap
1 LJ
0.667 LW
N
145.333 374 M
145.333 369.66 L
S
GR
GS
[0.75 0 0 0.75 0 0] CT
0.149 GC
2 setlinecap
1 LJ
0.667 LW
N
217.667 374 M
217.667 369.66 L
S
GR
GS
[0.75 0 0 0.75 0 0] CT
0.149 GC
2 setlinecap
1 LJ
0.667 LW
N
290 374 M
290 369.66 L
S
GR
GS
[0.75 0 0 0.75 0 0] CT
0.149 GC
2 setlinecap
1 LJ
0.667 LW
N
362.333 374 M
362.333 369.66 L
S
GR
GS
[0.75 0 0 0.75 0 0] CT
0.149 GC
2 setlinecap
1 LJ
0.667 LW
N
434.667 374 M
434.667 369.66 L
S
GR
GS
[0.75 0 0 0.75 0 0] CT
0.149 GC
2 setlinecap
1 LJ
0.667 LW
N
507 374 M
507 369.66 L
S
GR
GS
[0.75 0 0 0.75 54.75 284.50001] CT
0.149 GC
/Helvetica 13 F
GS
[1 0 0 1 0 0] CT
-4 13 moveto 
1 -1 scale
(0) t 
GR
GR
GS
[0.75 0 0 0.75 109 284.50001] CT
0.149 GC
/Helvetica 13 F
GS
[1 0 0 1 0 0] CT
-7.5 13 moveto 
1 -1 scale
(50) t 
GR
GR
GS
[0.75 0 0 0.75 163.25 284.50001] CT
0.149 GC
/Helvetica 13 F
GS
[1 0 0 1 0 0] CT
-11 13 moveto 
1 -1 scale
(100) t 
GR
GR
GS
[0.75 0 0 0.75 217.5 284.50001] CT
0.149 GC
/Helvetica 13 F
GS
[1 0 0 1 0 0] CT
-11 13 moveto 
1 -1 scale
(150) t 
GR
GR
GS
[0.75 0 0 0.75 271.75001 284.50001] CT
0.149 GC
/Helvetica 13 F
GS
[1 0 0 1 0 0] CT
-11 13 moveto 
1 -1 scale
(200) t 
GR
GR
GS
[0.75 0 0 0.75 325.99999 284.50001] CT
0.149 GC
/Helvetica 13 F
GS
[1 0 0 1 0 0] CT
-11 13 moveto 
1 -1 scale
(250) t 
GR
GR
GS
[0.75 0 0 0.75 380.25 284.50001] CT
0.149 GC
/Helvetica 13 F
GS
[1 0 0 1 0 0] CT
-11 13 moveto 
1 -1 scale
(300) t 
GR
GR
GS
[0.75 0 0 0.75 217.50016 297.49999] CT
0.149 GC
/Helvetica 15 F
GS
[1 0 0 1 0 0] CT
-2.5 14 moveto 
1 -1 scale
(t) t 
GR
GR
GS
[0.75 0 0 0.75 0 0] CT
0.149 GC
2 setlinecap
1 LJ
0.667 LW
N
73 374 M
73 31 L
S
GR
GS
[0.75 0 0 0.75 0 0] CT
0.149 GC
2 setlinecap
1 LJ
0.667 LW
N
73 374 M
77.34 374 L
S
GR
GS
[0.75 0 0 0.75 0 0] CT
0.149 GC
2 setlinecap
1 LJ
0.667 LW
N
73 339.7 M
77.34 339.7 L
S
GR
GS
[0.75 0 0 0.75 0 0] CT
0.149 GC
2 setlinecap
1 LJ
0.667 LW
N
73 305.4 M
77.34 305.4 L
S
GR
GS
[0.75 0 0 0.75 0 0] CT
0.149 GC
2 setlinecap
1 LJ
0.667 LW
N
73 271.1 M
77.34 271.1 L
S
GR
GS
[0.75 0 0 0.75 0 0] CT
0.149 GC
2 setlinecap
1 LJ
0.667 LW
N
73 236.8 M
77.34 236.8 L
S
GR
GS
[0.75 0 0 0.75 0 0] CT
0.149 GC
2 setlinecap
1 LJ
0.667 LW
N
73 202.5 M
77.34 202.5 L
S
GR
GS
[0.75 0 0 0.75 0 0] CT
0.149 GC
2 setlinecap
1 LJ
0.667 LW
N
73 168.2 M
77.34 168.2 L
S
GR
GS
[0.75 0 0 0.75 0 0] CT
0.149 GC
2 setlinecap
1 LJ
0.667 LW
N
73 133.9 M
77.34 133.9 L
S
GR
GS
[0.75 0 0 0.75 0 0] CT
0.149 GC
2 setlinecap
1 LJ
0.667 LW
N
73 99.6 M
77.34 99.6 L
S
GR
GS
[0.75 0 0 0.75 0 0] CT
0.149 GC
2 setlinecap
1 LJ
0.667 LW
N
73 65.3 M
77.34 65.3 L
S
GR
GS
[0.75 0 0 0.75 0 0] CT
0.149 GC
2 setlinecap
1 LJ
0.667 LW
N
73 31 M
77.34 31 L
S
GR
GS
[0.75 0 0 0.75 50.75 280.5] CT
0.149 GC
/Helvetica 13 F
GS
[1 0 0 1 0 0] CT
-8 5 moveto 
1 -1 scale
(0) t 
GR
GR
GS
[0.75 0 0 0.75 50.75 254.77501] CT
0.149 GC
/Helvetica 13 F
GS
[1 0 0 1 0 0] CT
-26 5 moveto 
1 -1 scale
(0.01) t 
GR
GR
GS
[0.75 0 0 0.75 50.75 229.05] CT
0.149 GC
/Helvetica 13 F
GS
[1 0 0 1 0 0] CT
-26 5 moveto 
1 -1 scale
(0.02) t 
GR
GR
GS
[0.75 0 0 0.75 50.75 203.325] CT
0.149 GC
/Helvetica 13 F
GS
[1 0 0 1 0 0] CT
-26 5 moveto 
1 -1 scale
(0.03) t 
GR
GR
GS
[0.75 0 0 0.75 50.75 177.6] CT
0.149 GC
/Helvetica 13 F
GS
[1 0 0 1 0 0] CT
-26 5 moveto 
1 -1 scale
(0.04) t 
GR
GR
GS
[0.75 0 0 0.75 50.75 151.875] CT
0.149 GC
/Helvetica 13 F
GS
[1 0 0 1 0 0] CT
-26 5 moveto 
1 -1 scale
(0.05) t 
GR
GR
GS
[0.75 0 0 0.75 50.75 126.15001] CT
0.149 GC
/Helvetica 13 F
GS
[1 0 0 1 0 0] CT
-26 5 moveto 
1 -1 scale
(0.06) t 
GR
GR
GS
[0.75 0 0 0.75 50.75 100.425] CT
0.149 GC
/Helvetica 13 F
GS
[1 0 0 1 0 0] CT
-26 5 moveto 
1 -1 scale
(0.07) t 
GR
GR
GS
[0.75 0 0 0.75 50.75 74.7] CT
0.149 GC
/Helvetica 13 F
GS
[1 0 0 1 0 0] CT
-26 5 moveto 
1 -1 scale
(0.08) t 
GR
GR
GS
[0.75 0 0 0.75 50.75 48.97499] CT
0.149 GC
/Helvetica 13 F
GS
[1 0 0 1 0 0] CT
-26 5 moveto 
1 -1 scale
(0.09) t 
GR
GR
GS
[0.75 0 0 0.75 50.75 23.25] CT
0.149 GC
/Helvetica 13 F
GS
[1 0 0 1 0 0] CT
-19 5 moveto 
1 -1 scale
(0.1) t 
GR
GR
GS
[0 -0.75 0.75 0 28.25 151.87487] CT
0.149 GC
/Helvetica 15 F
GS
[1 0 0 1 0 0] CT
-11 -4 moveto 
1 -1 scale
(y\(t\)) t 
GR
GR
GS
[0.75 0 0 0.75 217.50021 21.1875] CT
/any-Bold 15 F
GS
[1 0 0 1 0 0] CT
-195.5 -4 moveto 
1 -1 scale
(Step response of system with compensated static gain) t 
GR
GR
GS
[0.75 0 0 0.75 0 0] CT
0 0 1 RC
1 LJ
0.667 LW
N
73 31 M
74.447 31 L
75.893 31 L
77.34 31 L
78.787 31 L
80.233 31 L
81.68 31 L
83.127 31 L
84.573 31 L
86.02 31 L
87.467 31 L
88.913 31 L
90.36 31 L
91.807 31 L
93.253 31 L
94.7 31 L
96.147 31 L
97.593 31 L
99.04 31 L
100.487 31 L
101.933 31 L
103.38 31 L
104.827 31 L
106.273 31 L
107.72 31 L
109.167 31 L
110.613 31 L
112.06 31 L
113.507 31 L
114.953 31 L
116.4 31 L
117.847 31 L
119.293 31 L
120.74 31 L
122.187 31 L
123.633 31 L
125.08 31 L
126.527 31 L
127.973 31 L
129.42 31 L
130.867 31 L
132.313 31 L
133.76 31 L
135.207 31 L
136.653 31 L
138.1 31 L
139.547 31 L
140.993 31 L
142.44 31 L
143.887 31 L
S
GR
GS
[0.75 0 0 0.75 0 0] CT
0 0 1 RC
1 LJ
0.667 LW
N
142.44 31 M
143.887 31 L
145.333 31 L
146.78 31 L
148.227 31 L
149.673 31 L
151.12 31 L
152.567 31 L
154.013 31 L
155.46 31 L
156.907 31 L
158.353 31 L
159.8 31 L
161.247 31 L
162.693 31 L
164.14 31 L
165.587 31 L
167.033 31 L
168.48 31 L
169.927 31 L
171.373 31 L
172.82 31 L
174.267 31 L
175.713 31 L
177.16 31 L
178.607 31 L
180.053 31 L
181.5 31 L
182.947 31 L
184.393 31 L
185.84 31 L
187.287 31 L
188.733 31 L
190.18 31 L
191.627 31 L
193.073 31 L
194.52 31 L
195.967 31 L
197.413 31 L
198.86 31 L
200.307 31 L
201.753 31 L
203.2 31 L
204.647 31 L
206.093 31 L
207.54 31 L
208.987 31 L
210.433 31 L
211.88 31 L
213.327 31 L
214.773 31 L
216.22 31 L
S
GR
GS
[0.75 0 0 0.75 0 0] CT
0 0 1 RC
1 LJ
0.667 LW
N
214.773 31 M
216.22 31 L
217.667 31 L
219.113 31 L
220.56 31 L
222.007 31 L
223.453 31 L
224.9 31 L
226.347 31 L
227.793 31 L
229.24 31 L
230.687 31 L
232.133 31 L
233.58 31 L
235.027 31 L
236.473 31 L
237.92 31 L
239.367 31 L
240.813 31 L
242.26 31 L
243.707 31 L
245.153 31 L
246.6 31 L
248.047 31 L
249.493 31 L
250.94 31 L
252.387 31 L
253.833 31 L
255.28 31 L
256.727 31 L
258.173 31 L
259.62 31 L
261.067 31 L
262.513 31 L
263.96 31 L
265.407 31 L
266.853 31 L
268.3 31 L
269.747 31 L
271.193 31 L
272.64 31 L
274.087 31 L
275.533 31 L
276.98 31 L
278.427 31 L
279.873 31 L
281.32 31 L
282.767 31 L
284.213 31 L
285.66 31 L
287.107 31 L
288.553 31 L
S
GR
GS
[0.75 0 0 0.75 0 0] CT
0 0 1 RC
1 LJ
0.667 LW
N
287.107 31 M
288.553 31 L
290 31 L
291.447 31 L
292.893 31 L
294.34 31 L
295.787 31 L
297.233 31 L
298.68 31 L
300.127 31 L
301.573 31 L
303.02 31 L
304.467 31 L
305.913 31 L
307.36 31 L
308.807 31 L
310.253 31 L
311.7 31 L
313.147 31 L
314.593 31 L
316.04 31 L
317.487 31 L
318.933 31 L
320.38 31 L
321.827 31 L
323.273 31 L
324.72 31 L
326.167 31 L
327.613 31 L
329.06 31 L
330.507 31 L
331.953 31 L
333.4 31 L
334.847 31 L
336.293 31 L
337.74 31 L
339.187 31 L
340.633 31 L
342.08 31 L
343.527 31 L
344.973 31 L
346.42 31 L
347.867 31 L
349.313 31 L
350.76 31 L
352.207 31 L
353.653 31 L
355.1 31 L
356.547 31 L
357.993 31 L
359.44 31 L
360.887 31 L
S
GR
GS
[0.75 0 0 0.75 0 0] CT
0 0 1 RC
1 LJ
0.667 LW
N
359.44 31 M
360.887 31 L
362.333 31 L
363.78 31 L
365.227 31 L
366.673 31 L
368.12 31 L
369.567 31 L
371.013 31 L
372.46 31 L
373.907 31 L
375.353 31 L
376.8 31 L
378.247 31 L
379.693 31 L
381.14 31 L
382.587 31 L
384.033 31 L
385.48 31 L
386.927 31 L
388.373 31 L
389.82 31 L
391.267 31 L
392.713 31 L
394.16 31 L
395.607 31 L
397.053 31 L
398.5 31 L
399.947 31 L
401.393 31 L
402.84 31 L
404.287 31 L
405.733 31 L
407.18 31 L
408.627 31 L
410.073 31 L
411.52 31 L
412.967 31 L
414.413 31 L
415.86 31 L
417.307 31 L
418.753 31 L
420.2 31 L
421.647 31 L
423.093 31 L
424.54 31 L
425.987 31 L
427.433 31 L
428.88 31 L
430.327 31 L
431.773 31 L
433.22 31 L
S
GR
GS
[0.75 0 0 0.75 0 0] CT
0 0 1 RC
1 LJ
0.667 LW
N
431.773 31 M
433.22 31 L
434.667 31 L
436.113 31 L
437.56 31 L
439.007 31 L
440.453 31 L
441.9 31 L
443.347 31 L
444.793 31 L
446.24 31 L
447.687 31 L
449.133 31 L
450.58 31 L
452.027 31 L
453.473 31 L
454.92 31 L
456.367 31 L
457.813 31 L
459.26 31 L
460.707 31 L
462.153 31 L
463.6 31 L
465.047 31 L
466.493 31 L
467.94 31 L
469.387 31 L
470.833 31 L
472.28 31 L
473.727 31 L
475.173 31 L
476.62 31 L
478.067 31 L
479.513 31 L
480.96 31 L
482.407 31 L
483.853 31 L
485.3 31 L
486.747 31 L
488.193 31 L
489.64 31 L
491.087 31 L
492.533 31 L
493.98 31 L
495.427 31 L
496.873 31 L
498.32 31 L
499.767 31 L
501.213 31 L
502.66 31 L
504.107 31 L
505.553 31 L
S
GR
GS
[0.75 0 0 0.75 0 0] CT
0 0 1 RC
1 LJ
0.667 LW
N
504.107 31 M
505.553 31 L
507 31 L
S
GR
GS
[0.75 0 0 0.75 0 0] CT
0 1 1 RC
1 LJ
0.667 LW
N
73 31 M
74.447 31 L
75.893 31 L
77.34 31 L
78.787 31 L
80.233 31 L
81.68 31 L
83.127 31 L
84.573 31 L
86.02 31 L
87.467 31 L
88.913 31 L
90.36 31 L
91.807 31 L
93.253 31 L
94.7 31 L
96.147 31 L
97.593 31 L
99.04 31 L
100.487 31 L
101.933 31 L
103.38 31 L
104.827 31 L
106.273 31 L
107.72 31 L
109.167 31 L
110.613 31 L
112.06 31 L
113.507 31 L
114.953 31 L
116.4 31 L
117.847 31 L
119.293 31 L
120.74 31 L
122.187 31 L
123.633 31 L
125.08 31 L
126.527 31 L
127.973 31 L
129.42 31 L
130.867 31 L
132.313 31 L
133.76 31 L
135.207 31 L
136.653 31 L
138.1 31 L
139.547 31 L
140.993 31 L
142.44 31 L
143.887 31 L
S
GR
GS
[0.75 0 0 0.75 0 0] CT
0 1 1 RC
1 LJ
0.667 LW
N
142.44 31 M
143.887 31 L
145.333 31 L
146.78 31 L
148.227 31 L
149.673 31 L
151.12 31 L
152.567 31 L
154.013 31 L
155.46 31 L
156.907 31 L
158.353 31 L
159.8 31 L
161.247 31 L
162.693 31 L
164.14 31 L
165.587 31 L
167.033 31 L
168.48 31 L
169.927 31 L
171.373 31 L
172.82 31 L
174.267 31 L
175.713 31 L
177.16 31 L
178.607 31 L
180.053 31 L
181.5 31 L
182.947 31 L
184.393 31 L
185.84 31 L
187.287 31 L
188.733 31 L
190.18 31 L
191.627 31 L
193.073 31 L
194.52 31 L
195.967 31 L
197.413 31 L
198.86 31 L
200.307 31 L
201.753 31 L
203.2 31 L
204.647 31 L
206.093 31 L
207.54 31 L
208.987 31 L
210.433 31 L
211.88 31 L
213.327 31 L
214.773 31 L
216.22 31 L
S
GR
GS
[0.75 0 0 0.75 0 0] CT
0 1 1 RC
1 LJ
0.667 LW
N
214.773 31 M
216.22 31 L
217.667 31 L
219.113 31 L
220.56 31 L
222.007 31 L
223.453 31 L
224.9 31 L
226.347 31 L
227.793 31 L
229.24 31 L
230.687 31 L
232.133 31 L
233.58 31 L
235.027 31 L
236.473 31 L
237.92 31 L
239.367 31 L
240.813 31 L
242.26 31 L
243.707 31 L
245.153 31 L
246.6 31 L
248.047 31 L
249.493 31 L
250.94 31 L
252.387 31 L
253.833 31 L
255.28 31 L
256.727 31 L
258.173 31 L
259.62 31 L
261.067 31 L
262.513 31 L
263.96 31 L
265.407 31 L
266.853 31 L
268.3 31 L
269.747 31 L
271.193 31 L
272.64 31 L
274.087 31 L
275.533 31 L
276.98 31 L
278.427 31 L
279.873 31 L
281.32 31 L
282.767 31 L
284.213 31 L
285.66 31 L
287.107 31 L
288.553 31 L
S
GR
GS
[0.75 0 0 0.75 0 0] CT
0 1 1 RC
1 LJ
0.667 LW
N
287.107 31 M
288.553 31 L
290 31 L
291.447 31 L
292.893 31 L
294.34 31 L
295.787 31 L
297.233 31 L
298.68 31 L
300.127 31 L
301.573 31 L
303.02 31 L
304.467 31 L
305.913 31 L
307.36 31 L
308.807 31 L
310.253 31 L
311.7 31 L
313.147 31 L
314.593 31 L
316.04 31 L
317.487 31 L
318.933 31 L
320.38 31 L
321.827 31 L
323.273 31 L
324.72 31 L
326.167 31 L
327.613 31 L
329.06 31 L
330.507 31 L
331.953 31 L
333.4 31 L
334.847 31 L
336.293 31 L
337.74 31 L
339.187 31 L
340.633 31 L
342.08 31 L
343.527 31 L
344.973 31 L
346.42 31 L
347.867 31 L
349.313 31 L
350.76 31 L
352.207 31 L
353.653 31 L
355.1 31 L
356.547 31 L
357.993 31 L
359.44 31 L
360.887 31 L
S
GR
GS
[0.75 0 0 0.75 0 0] CT
0 1 1 RC
1 LJ
0.667 LW
N
359.44 31 M
360.887 31 L
362.333 31 L
363.78 31 L
365.227 31 L
366.673 31 L
368.12 31 L
369.567 31 L
371.013 31 L
372.46 31 L
373.907 31 L
375.353 31 L
376.8 31 L
378.247 31 L
379.693 31 L
381.14 31 L
382.587 31 L
384.033 31 L
385.48 31 L
386.927 31 L
388.373 31 L
389.82 31 L
391.267 31 L
392.713 31 L
394.16 31 L
395.607 31 L
397.053 31 L
398.5 31 L
399.947 31 L
401.393 31 L
402.84 31 L
404.287 31 L
405.733 31 L
407.18 31 L
408.627 31 L
410.073 31 L
411.52 31 L
412.967 31 L
414.413 31 L
415.86 31 L
417.307 31 L
418.753 31 L
420.2 31 L
421.647 31 L
423.093 31 L
424.54 31 L
425.987 31 L
427.433 31 L
428.88 31 L
430.327 31 L
431.773 31 L
433.22 31 L
S
GR
GS
[0.75 0 0 0.75 0 0] CT
0 1 1 RC
1 LJ
0.667 LW
N
431.773 31 M
433.22 31 L
434.667 31 L
436.113 31 L
437.56 31 L
439.007 31 L
440.453 31 L
441.9 31 L
443.347 31 L
444.793 31 L
446.24 31 L
447.687 31 L
449.133 31 L
450.58 31 L
452.027 31 L
453.473 31 L
454.92 31 L
456.367 31 L
457.813 31 L
459.26 31 L
460.707 31 L
462.153 31 L
463.6 31 L
465.047 31 L
466.493 31 L
467.94 31 L
469.387 31 L
470.833 31 L
472.28 31 L
473.727 31 L
475.173 31 L
476.62 31 L
478.067 31 L
479.513 31 L
480.96 31 L
482.407 31 L
483.853 31 L
485.3 31 L
486.747 31 L
488.193 31 L
489.64 31 L
491.087 31 L
492.533 31 L
493.98 31 L
495.427 31 L
496.873 31 L
498.32 31 L
499.767 31 L
501.213 31 L
502.66 31 L
504.107 31 L
505.553 31 L
S
GR
GS
[0.75 0 0 0.75 0 0] CT
0 1 1 RC
1 LJ
0.667 LW
N
504.107 31 M
505.553 31 L
507 31 L
S
GR
GS
[0.75 0 0 0.75 0 0] CT
1 0 0 RC
1 LJ
0.667 LW
N
73 374 M
74.447 370.587 L
75.893 366.566 L
77.34 362.01 L
78.787 356.989 L
80.233 351.565 L
81.68 345.795 L
83.127 339.732 L
84.573 333.424 L
86.02 326.914 L
87.467 320.242 L
88.913 313.444 L
90.36 306.551 L
91.807 299.594 L
93.253 292.598 L
94.7 285.588 L
96.147 278.586 L
97.593 271.609 L
99.04 264.676 L
100.487 257.802 L
101.933 250.999 L
103.38 244.28 L
104.827 237.655 L
106.273 231.134 L
107.72 224.723 L
109.167 218.43 L
110.613 212.26 L
112.06 206.218 L
113.507 200.308 L
114.953 194.532 L
116.4 188.894 L
117.847 183.394 L
119.293 178.035 L
120.74 172.816 L
122.187 167.738 L
123.633 162.801 L
125.08 158.003 L
126.527 153.345 L
127.973 148.824 L
129.42 144.44 L
130.867 140.19 L
132.313 136.073 L
133.76 132.086 L
135.207 128.227 L
136.653 124.494 L
138.1 120.885 L
139.547 117.396 L
140.993 114.025 L
142.44 110.77 L
143.887 107.627 L
S
GR
GS
[0.75 0 0 0.75 0 0] CT
1 0 0 RC
1 LJ
0.667 LW
N
142.44 110.77 M
143.887 107.627 L
145.333 104.594 L
146.78 101.667 L
148.227 98.845 L
149.673 96.124 L
151.12 93.502 L
152.567 90.975 L
154.013 88.541 L
155.46 86.198 L
156.907 83.941 L
158.353 81.769 L
159.8 79.68 L
161.247 77.669 L
162.693 75.736 L
164.14 73.877 L
165.587 72.09 L
167.033 70.372 L
168.48 68.721 L
169.927 67.135 L
171.373 65.612 L
172.82 64.149 L
174.267 62.744 L
175.713 61.396 L
177.16 60.102 L
178.607 58.859 L
180.053 57.667 L
181.5 56.524 L
182.947 55.427 L
184.393 54.375 L
185.84 53.366 L
187.287 52.399 L
188.733 51.472 L
190.18 50.583 L
191.627 49.731 L
193.073 48.915 L
194.52 48.132 L
195.967 47.383 L
197.413 46.665 L
198.86 45.978 L
200.307 45.319 L
201.753 44.689 L
203.2 44.085 L
204.647 43.507 L
206.093 42.954 L
207.54 42.424 L
208.987 41.917 L
210.433 41.432 L
211.88 40.968 L
213.327 40.524 L
214.773 40.099 L
216.22 39.692 L
S
GR
GS
[0.75 0 0 0.75 0 0] CT
1 0 0 RC
1 LJ
0.667 LW
N
214.773 40.099 M
216.22 39.692 L
217.667 39.303 L
219.113 38.931 L
220.56 38.576 L
222.007 38.235 L
223.453 37.91 L
224.9 37.599 L
226.347 37.302 L
227.793 37.017 L
229.24 36.746 L
230.687 36.486 L
232.133 36.237 L
233.58 36 L
235.027 35.773 L
236.473 35.557 L
237.92 35.349 L
239.367 35.152 L
240.813 34.963 L
242.26 34.782 L
243.707 34.609 L
245.153 34.445 L
246.6 34.287 L
248.047 34.137 L
249.493 33.993 L
250.94 33.856 L
252.387 33.725 L
253.833 33.6 L
255.28 33.48 L
256.727 33.366 L
258.173 33.258 L
259.62 33.154 L
261.067 33.054 L
262.513 32.96 L
263.96 32.869 L
265.407 32.783 L
266.853 32.7 L
268.3 32.622 L
269.747 32.547 L
271.193 32.475 L
272.64 32.407 L
274.087 32.342 L
275.533 32.279 L
276.98 32.22 L
278.427 32.163 L
279.873 32.109 L
281.32 32.058 L
282.767 32.008 L
284.213 31.961 L
285.66 31.917 L
287.107 31.874 L
288.553 31.833 L
S
GR
GS
[0.75 0 0 0.75 0 0] CT
1 0 0 RC
1 LJ
0.667 LW
N
287.107 31.874 M
288.553 31.833 L
290 31.794 L
291.447 31.757 L
292.893 31.722 L
294.34 31.688 L
295.787 31.656 L
297.233 31.625 L
298.68 31.596 L
300.127 31.568 L
301.573 31.541 L
303.02 31.516 L
304.467 31.492 L
305.913 31.469 L
307.36 31.447 L
308.807 31.426 L
310.253 31.406 L
311.7 31.387 L
313.147 31.368 L
314.593 31.351 L
316.04 31.335 L
317.487 31.319 L
318.933 31.304 L
320.38 31.289 L
321.827 31.276 L
323.273 31.263 L
324.72 31.25 L
326.167 31.239 L
327.613 31.227 L
329.06 31.217 L
330.507 31.206 L
331.953 31.197 L
333.4 31.187 L
334.847 31.178 L
336.293 31.17 L
337.74 31.162 L
339.187 31.154 L
340.633 31.147 L
342.08 31.14 L
343.527 31.133 L
344.973 31.127 L
346.42 31.121 L
347.867 31.115 L
349.313 31.11 L
350.76 31.105 L
352.207 31.1 L
353.653 31.095 L
355.1 31.09 L
356.547 31.086 L
357.993 31.082 L
359.44 31.078 L
360.887 31.074 L
S
GR
GS
[0.75 0 0 0.75 0 0] CT
1 0 0 RC
1 LJ
0.667 LW
N
359.44 31.078 M
360.887 31.074 L
362.333 31.071 L
363.78 31.067 L
365.227 31.064 L
366.673 31.061 L
368.12 31.058 L
369.567 31.055 L
371.013 31.053 L
372.46 31.05 L
373.907 31.048 L
375.353 31.046 L
376.8 31.043 L
378.247 31.041 L
379.693 31.039 L
381.14 31.038 L
382.587 31.036 L
384.033 31.034 L
385.48 31.032 L
386.927 31.031 L
388.373 31.029 L
389.82 31.028 L
391.267 31.027 L
392.713 31.025 L
394.16 31.024 L
395.607 31.023 L
397.053 31.022 L
398.5 31.021 L
399.947 31.02 L
401.393 31.019 L
402.84 31.018 L
404.287 31.017 L
405.733 31.016 L
407.18 31.016 L
408.627 31.015 L
410.073 31.014 L
411.52 31.013 L
412.967 31.013 L
414.413 31.012 L
415.86 31.012 L
417.307 31.011 L
418.753 31.01 L
420.2 31.01 L
421.647 31.009 L
423.093 31.009 L
424.54 31.009 L
425.987 31.008 L
427.433 31.008 L
428.88 31.007 L
430.327 31.007 L
431.773 31.007 L
433.22 31.006 L
S
GR
GS
[0.75 0 0 0.75 0 0] CT
1 0 0 RC
1 LJ
0.667 LW
N
431.773 31.007 M
433.22 31.006 L
434.667 31.006 L
436.113 31.006 L
437.56 31.006 L
439.007 31.005 L
440.453 31.005 L
441.9 31.005 L
443.347 31.005 L
444.793 31.004 L
446.24 31.004 L
447.687 31.004 L
449.133 31.004 L
450.58 31.004 L
452.027 31.003 L
453.473 31.003 L
454.92 31.003 L
456.367 31.003 L
457.813 31.003 L
459.26 31.003 L
460.707 31.002 L
462.153 31.002 L
463.6 31.002 L
465.047 31.002 L
466.493 31.002 L
467.94 31.002 L
469.387 31.002 L
470.833 31.002 L
472.28 31.002 L
473.727 31.002 L
475.173 31.002 L
476.62 31.001 L
478.067 31.001 L
479.513 31.001 L
480.96 31.001 L
482.407 31.001 L
483.853 31.001 L
485.3 31.001 L
486.747 31.001 L
488.193 31.001 L
489.64 31.001 L
491.087 31.001 L
492.533 31.001 L
493.98 31.001 L
495.427 31.001 L
496.873 31.001 L
498.32 31.001 L
499.767 31.001 L
501.213 31.001 L
502.66 31.001 L
504.107 31.001 L
505.553 31.001 L
S
GR
GS
[0.75 0 0 0.75 0 0] CT
1 0 0 RC
1 LJ
0.667 LW
N
504.107 31.001 M
505.553 31.001 L
507 31.001 L
S
GR
GS
[0.75 0 0 0.75 0 0] CT
1 0 1 RC
1 LJ
0.667 LW
N
73 374 M
74.447 372.713 L
75.893 370.59 L
77.34 367.724 L
78.787 364.199 L
80.233 360.096 L
81.68 355.485 L
83.127 350.433 L
84.573 345 L
86.02 339.241 L
87.467 333.206 L
88.913 326.942 L
90.36 320.49 L
91.807 313.888 L
93.253 307.17 L
94.7 300.367 L
96.147 293.508 L
97.593 286.618 L
99.04 279.719 L
100.487 272.833 L
101.933 265.977 L
103.38 259.168 L
104.827 252.42 L
106.273 245.746 L
107.72 239.158 L
109.167 232.664 L
110.613 226.275 L
112.06 219.996 L
113.507 213.834 L
114.953 207.795 L
116.4 201.883 L
117.847 196.102 L
119.293 190.453 L
120.74 184.941 L
122.187 179.565 L
123.633 174.327 L
125.08 169.228 L
126.527 164.267 L
127.973 159.445 L
129.42 154.76 L
130.867 150.212 L
132.313 145.798 L
133.76 141.519 L
135.207 137.371 L
136.653 133.353 L
138.1 129.464 L
139.547 125.699 L
140.993 122.058 L
142.44 118.537 L
143.887 115.135 L
S
GR
GS
[0.75 0 0 0.75 0 0] CT
1 0 1 RC
1 LJ
0.667 LW
N
142.44 118.537 M
143.887 115.135 L
145.333 111.848 L
146.78 108.674 L
148.227 105.61 L
149.673 102.653 L
151.12 99.8 L
152.567 97.05 L
154.013 94.398 L
155.46 91.842 L
156.907 89.38 L
158.353 87.009 L
159.8 84.725 L
161.247 82.527 L
162.693 80.411 L
164.14 78.376 L
165.587 76.417 L
167.033 74.534 L
168.48 72.724 L
169.927 70.983 L
171.373 69.31 L
172.82 67.703 L
174.267 66.159 L
175.713 64.676 L
177.16 63.251 L
178.607 61.884 L
180.053 60.571 L
181.5 59.311 L
182.947 58.102 L
184.393 56.942 L
185.84 55.829 L
187.287 54.761 L
188.733 53.737 L
190.18 52.755 L
191.627 51.814 L
193.073 50.911 L
194.52 50.047 L
195.967 49.218 L
197.413 48.423 L
198.86 47.662 L
200.307 46.933 L
201.753 46.235 L
203.2 45.566 L
204.647 44.925 L
206.093 44.312 L
207.54 43.724 L
208.987 43.162 L
210.433 42.624 L
211.88 42.108 L
213.327 41.615 L
214.773 41.143 L
216.22 40.692 L
S
GR
GS
[0.75 0 0 0.75 0 0] CT
1 0 1 RC
1 LJ
0.667 LW
N
214.773 41.143 M
216.22 40.692 L
217.667 40.26 L
219.113 39.847 L
220.56 39.451 L
222.007 39.073 L
223.453 38.711 L
224.9 38.365 L
226.347 38.034 L
227.793 37.718 L
229.24 37.415 L
230.687 37.126 L
232.133 36.85 L
233.58 36.586 L
235.027 36.333 L
236.473 36.091 L
237.92 35.861 L
239.367 35.64 L
240.813 35.429 L
242.26 35.228 L
243.707 35.036 L
245.153 34.852 L
246.6 34.676 L
248.047 34.508 L
249.493 34.348 L
250.94 34.195 L
252.387 34.049 L
253.833 33.909 L
255.28 33.776 L
256.727 33.649 L
258.173 33.527 L
259.62 33.411 L
261.067 33.3 L
262.513 33.194 L
263.96 33.093 L
265.407 32.997 L
266.853 32.905 L
268.3 32.817 L
269.747 32.733 L
271.193 32.653 L
272.64 32.576 L
274.087 32.503 L
275.533 32.434 L
276.98 32.367 L
278.427 32.304 L
279.873 32.243 L
281.32 32.186 L
282.767 32.13 L
284.213 32.078 L
285.66 32.028 L
287.107 31.98 L
288.553 31.934 L
S
GR
GS
[0.75 0 0 0.75 0 0] CT
1 0 1 RC
1 LJ
0.667 LW
N
287.107 31.98 M
288.553 31.934 L
290 31.891 L
291.447 31.849 L
292.893 31.81 L
294.34 31.772 L
295.787 31.736 L
297.233 31.701 L
298.68 31.669 L
300.127 31.637 L
301.573 31.607 L
303.02 31.579 L
304.467 31.552 L
305.913 31.526 L
307.36 31.501 L
308.807 31.478 L
310.253 31.455 L
311.7 31.434 L
313.147 31.414 L
314.593 31.394 L
316.04 31.376 L
317.487 31.358 L
318.933 31.341 L
320.38 31.325 L
321.827 31.31 L
323.273 31.295 L
324.72 31.281 L
326.167 31.268 L
327.613 31.255 L
329.06 31.243 L
330.507 31.232 L
331.953 31.221 L
333.4 31.21 L
334.847 31.2 L
336.293 31.191 L
337.74 31.182 L
339.187 31.173 L
340.633 31.165 L
342.08 31.157 L
343.527 31.15 L
344.973 31.143 L
346.42 31.136 L
347.867 31.13 L
349.313 31.123 L
350.76 31.118 L
352.207 31.112 L
353.653 31.107 L
355.1 31.102 L
356.547 31.097 L
357.993 31.092 L
359.44 31.088 L
360.887 31.084 L
S
GR
GS
[0.75 0 0 0.75 0 0] CT
1 0 1 RC
1 LJ
0.667 LW
N
359.44 31.088 M
360.887 31.084 L
362.333 31.08 L
363.78 31.076 L
365.227 31.072 L
366.673 31.069 L
368.12 31.065 L
369.567 31.062 L
371.013 31.059 L
372.46 31.057 L
373.907 31.054 L
375.353 31.051 L
376.8 31.049 L
378.247 31.047 L
379.693 31.044 L
381.14 31.042 L
382.587 31.04 L
384.033 31.038 L
385.48 31.036 L
386.927 31.035 L
388.373 31.033 L
389.82 31.031 L
391.267 31.03 L
392.713 31.029 L
394.16 31.027 L
395.607 31.026 L
397.053 31.025 L
398.5 31.023 L
399.947 31.022 L
401.393 31.021 L
402.84 31.02 L
404.287 31.019 L
405.733 31.018 L
407.18 31.017 L
408.627 31.017 L
410.073 31.016 L
411.52 31.015 L
412.967 31.014 L
414.413 31.014 L
415.86 31.013 L
417.307 31.012 L
418.753 31.012 L
420.2 31.011 L
421.647 31.011 L
423.093 31.01 L
424.54 31.01 L
425.987 31.009 L
427.433 31.009 L
428.88 31.008 L
430.327 31.008 L
431.773 31.008 L
433.22 31.007 L
S
GR
GS
[0.75 0 0 0.75 0 0] CT
1 0 1 RC
1 LJ
0.667 LW
N
431.773 31.008 M
433.22 31.007 L
434.667 31.007 L
436.113 31.007 L
437.56 31.006 L
439.007 31.006 L
440.453 31.006 L
441.9 31.005 L
443.347 31.005 L
444.793 31.005 L
446.24 31.005 L
447.687 31.004 L
449.133 31.004 L
450.58 31.004 L
452.027 31.004 L
453.473 31.004 L
454.92 31.003 L
456.367 31.003 L
457.813 31.003 L
459.26 31.003 L
460.707 31.003 L
462.153 31.003 L
463.6 31.003 L
465.047 31.002 L
466.493 31.002 L
467.94 31.002 L
469.387 31.002 L
470.833 31.002 L
472.28 31.002 L
473.727 31.002 L
475.173 31.002 L
476.62 31.002 L
478.067 31.002 L
479.513 31.001 L
480.96 31.001 L
482.407 31.001 L
483.853 31.001 L
485.3 31.001 L
486.747 31.001 L
488.193 31.001 L
489.64 31.001 L
491.087 31.001 L
492.533 31.001 L
493.98 31.001 L
495.427 31.001 L
496.873 31.001 L
498.32 31.001 L
499.767 31.001 L
501.213 31.001 L
502.66 31.001 L
504.107 31.001 L
505.553 31.001 L
S
GR
GS
[0.75 0 0 0.75 0 0] CT
1 0 1 RC
1 LJ
0.667 LW
N
504.107 31.001 M
505.553 31.001 L
507 31.001 L
S
GR
GS
[0.75 0 0 0.75 0 0] CT
1 GC
N
422 112 M
422 44 L
494 44 L
494 112 L
cp
f
GR
GS
[0.75 0 0 0.75 355.5 40.7005] CT
/Helvetica 12 F
GS
[1 0 0 1 0 0] CT
0 4.5 moveto 
1 -1 scale
(w1) t 
GR
GR
GS
[0.75 0 0 0.75 0 0] CT
0 0 1 RC
1 LJ
0.667 LW
N
430 54.267 M
470 54.267 L
S
GR
GS
[0.75 0 0 0.75 355.5 52.56683] CT
/Helvetica 12 F
GS
[1 0 0 1 0 0] CT
0 4.5 moveto 
1 -1 scale
(w2) t 
GR
GR
GS
[0.75 0 0 0.75 0 0] CT
0 1 1 RC
1 LJ
0.667 LW
N
430 70.089 M
470 70.089 L
S
GR
GS
[0.75 0 0 0.75 355.5 64.43317] CT
/Helvetica 12 F
GS
[1 0 0 1 0 0] CT
0 4.5 moveto 
1 -1 scale
(y1) t 
GR
GR
GS
[0.75 0 0 0.75 0 0] CT
1 0 0 RC
1 LJ
0.667 LW
N
430 85.911 M
470 85.911 L
S
GR
GS
[0.75 0 0 0.75 355.5 76.29951] CT
/Helvetica 12 F
GS
[1 0 0 1 0 0] CT
0 4.5 moveto 
1 -1 scale
(y2) t 
GR
GR
GS
[0.75 0 0 0.75 0 0] CT
1 0 1 RC
1 LJ
0.667 LW
N
430 101.733 M
470 101.733 L
S
GR
GS
[0.75 0 0 0.75 0 0] CT
0.149 GC
10.0 ML
0.667 LW
N
422 112 M
422 44 L
494 44 L
494 112 L
cp
S
GR
%%Trailer
%%Pages: 1
%%EOF
