%!PS-Adobe-3.0 EPSF-3.0
%%Creator: (MATLAB, The Mathworks, Inc. Version 8.6.0.267246 \(R2015b\). Operating System: Windows 8)
%%Title: E:/Projects/skola/rls/pics/SP2/state_jfa_u.eps
%%CreationDate: 2017-03-15T10:29:53
%%Pages: (atend)
%%BoundingBox: 0 0 420 315
%%LanguageLevel: 2
%%EndComments
%%BeginProlog
%%BeginResource: procset (Apache XML Graphics Std ProcSet) 1.2 0
%%Version: 1.2 0
%%Copyright: (Copyright 2001-2003,2010 The Apache Software Foundation. License terms: http://www.apache.org/licenses/LICENSE-2.0)
/bd{bind def}bind def
/ld{load def}bd
/GR/grestore ld
/M/moveto ld
/LJ/setlinejoin ld
/C/curveto ld
/f/fill ld
/LW/setlinewidth ld
/GC/setgray ld
/t/show ld
/N/newpath ld
/CT/concat ld
/cp/closepath ld
/S/stroke ld
/L/lineto ld
/CC/setcmykcolor ld
/A/ashow ld
/GS/gsave ld
/RC/setrgbcolor ld
/RM/rmoveto ld
/ML/setmiterlimit ld
/re {4 2 roll M
1 index 0 rlineto
0 exch rlineto
neg 0 rlineto
cp } bd
/_ctm matrix def
/_tm matrix def
/BT { _ctm currentmatrix pop matrix _tm copy pop 0 0 moveto } bd
/ET { _ctm setmatrix } bd
/iTm { _ctm setmatrix _tm concat } bd
/Tm { _tm astore pop iTm 0 0 moveto } bd
/ux 0.0 def
/uy 0.0 def
/F {
  /Tp exch def
  /Tf exch def
  Tf findfont Tp scalefont setfont
  /cf Tf def  /cs Tp def
} bd
/ULS {currentpoint /uy exch def /ux exch def} bd
/ULE {
  /Tcx currentpoint pop def
  gsave
  newpath
  cf findfont cs scalefont dup
  /FontMatrix get 0 get /Ts exch def /FontInfo get dup
  /UnderlinePosition get Ts mul /To exch def
  /UnderlineThickness get Ts mul /Tt exch def
  ux uy To add moveto  Tcx uy To add lineto
  Tt setlinewidth stroke
  grestore
} bd
/OLE {
  /Tcx currentpoint pop def
  gsave
  newpath
  cf findfont cs scalefont dup
  /FontMatrix get 0 get /Ts exch def /FontInfo get dup
  /UnderlinePosition get Ts mul /To exch def
  /UnderlineThickness get Ts mul /Tt exch def
  ux uy To add cs add moveto Tcx uy To add cs add lineto
  Tt setlinewidth stroke
  grestore
} bd
/SOE {
  /Tcx currentpoint pop def
  gsave
  newpath
  cf findfont cs scalefont dup
  /FontMatrix get 0 get /Ts exch def /FontInfo get dup
  /UnderlinePosition get Ts mul /To exch def
  /UnderlineThickness get Ts mul /Tt exch def
  ux uy To add cs 10 mul 26 idiv add moveto Tcx uy To add cs 10 mul 26 idiv add lineto
  Tt setlinewidth stroke
  grestore
} bd
/QT {
/Y22 exch store
/X22 exch store
/Y21 exch store
/X21 exch store
currentpoint
/Y21 load 2 mul add 3 div exch
/X21 load 2 mul add 3 div exch
/X21 load 2 mul /X22 load add 3 div
/Y21 load 2 mul /Y22 load add 3 div
/X22 load /Y22 load curveto
} bd
/SSPD {
dup length /d exch dict def
{
/v exch def
/k exch def
currentpagedevice k known {
/cpdv currentpagedevice k get def
v cpdv ne {
/upd false def
/nullv v type /nulltype eq def
/nullcpdv cpdv type /nulltype eq def
nullv nullcpdv or
{
/upd true def
} {
/sametype v type cpdv type eq def
sametype {
v type /arraytype eq {
/vlen v length def
/cpdvlen cpdv length def
vlen cpdvlen eq {
0 1 vlen 1 sub {
/i exch def
/obj v i get def
/cpdobj cpdv i get def
obj cpdobj ne {
/upd true def
exit
} if
} for
} {
/upd true def
} ifelse
} {
v type /dicttype eq {
v {
/dv exch def
/dk exch def
/cpddv cpdv dk get def
dv cpddv ne {
/upd true def
exit
} if
} forall
} {
/upd true def
} ifelse
} ifelse
} if
} ifelse
upd true eq {
d k v put
} if
} if
} if
} forall
d length 0 gt {
d setpagedevice
} if
} bd
%%EndResource
%%BeginResource: procset (Apache XML Graphics EPS ProcSet) 1.0 0
%%Version: 1.0 0
%%Copyright: (Copyright 2002-2003 The Apache Software Foundation. License terms: http://www.apache.org/licenses/LICENSE-2.0)
/BeginEPSF { %def
/b4_Inc_state save def         % Save state for cleanup
/dict_count countdictstack def % Count objects on dict stack
/op_count count 1 sub def      % Count objects on operand stack
userdict begin                 % Push userdict on dict stack
/showpage { } def              % Redefine showpage, { } = null proc
0 setgray 0 setlinecap         % Prepare graphics state
1 setlinewidth 0 setlinejoin
10 setmiterlimit [ ] 0 setdash newpath
/languagelevel where           % If level not equal to 1 then
{pop languagelevel             % set strokeadjust and
1 ne                           % overprint to their defaults.
{false setstrokeadjust false setoverprint
} if
} if
} bd
/EndEPSF { %def
count op_count sub {pop} repeat            % Clean up stacks
countdictstack dict_count sub {end} repeat
b4_Inc_state restore
} bd
%%EndResource
%FOPBeginFontDict
%%IncludeResource: font Courier-Bold
%%IncludeResource: font Helvetica
%%IncludeResource: font Courier-BoldOblique
%%IncludeResource: font Courier-Oblique
%%IncludeResource: font Times-Roman
%%IncludeResource: font Helvetica-BoldOblique
%%IncludeResource: font Helvetica-Bold
%%IncludeResource: font Helvetica-Oblique
%%IncludeResource: font Times-BoldItalic
%%IncludeResource: font Courier
%%IncludeResource: font Times-Italic
%%IncludeResource: font Times-Bold
%%IncludeResource: font Symbol
%%IncludeResource: font ZapfDingbats
%FOPEndFontDict
%%BeginResource: encoding WinAnsiEncoding
/WinAnsiEncoding [
/.notdef /.notdef /.notdef /.notdef /.notdef
/.notdef /.notdef /.notdef /.notdef /.notdef
/.notdef /.notdef /.notdef /.notdef /.notdef
/.notdef /.notdef /.notdef /.notdef /.notdef
/.notdef /.notdef /.notdef /.notdef /.notdef
/.notdef /.notdef /.notdef /.notdef /.notdef
/.notdef /.notdef /space /exclam /quotedbl
/numbersign /dollar /percent /ampersand /quotesingle
/parenleft /parenright /asterisk /plus /comma
/hyphen /period /slash /zero /one
/two /three /four /five /six
/seven /eight /nine /colon /semicolon
/less /equal /greater /question /at
/A /B /C /D /E
/F /G /H /I /J
/K /L /M /N /O
/P /Q /R /S /T
/U /V /W /X /Y
/Z /bracketleft /backslash /bracketright /asciicircum
/underscore /quoteleft /a /b /c
/d /e /f /g /h
/i /j /k /l /m
/n /o /p /q /r
/s /t /u /v /w
/x /y /z /braceleft /bar
/braceright /asciitilde /bullet /Euro /bullet
/quotesinglbase /florin /quotedblbase /ellipsis /dagger
/daggerdbl /circumflex /perthousand /Scaron /guilsinglleft
/OE /bullet /Zcaron /bullet /bullet
/quoteleft /quoteright /quotedblleft /quotedblright /bullet
/endash /emdash /asciitilde /trademark /scaron
/guilsinglright /oe /bullet /zcaron /Ydieresis
/space /exclamdown /cent /sterling /currency
/yen /brokenbar /section /dieresis /copyright
/ordfeminine /guillemotleft /logicalnot /sfthyphen /registered
/macron /degree /plusminus /twosuperior /threesuperior
/acute /mu /paragraph /middot /cedilla
/onesuperior /ordmasculine /guillemotright /onequarter /onehalf
/threequarters /questiondown /Agrave /Aacute /Acircumflex
/Atilde /Adieresis /Aring /AE /Ccedilla
/Egrave /Eacute /Ecircumflex /Edieresis /Igrave
/Iacute /Icircumflex /Idieresis /Eth /Ntilde
/Ograve /Oacute /Ocircumflex /Otilde /Odieresis
/multiply /Oslash /Ugrave /Uacute /Ucircumflex
/Udieresis /Yacute /Thorn /germandbls /agrave
/aacute /acircumflex /atilde /adieresis /aring
/ae /ccedilla /egrave /eacute /ecircumflex
/edieresis /igrave /iacute /icircumflex /idieresis
/eth /ntilde /ograve /oacute /ocircumflex
/otilde /odieresis /divide /oslash /ugrave
/uacute /ucircumflex /udieresis /yacute /thorn
/ydieresis
] def
%%EndResource
%FOPBeginFontReencode
/Courier-Bold findfont
dup length dict begin
  {1 index /FID ne {def} {pop pop} ifelse} forall
  /Encoding WinAnsiEncoding def
  currentdict
end
/Courier-Bold exch definefont pop
/Helvetica findfont
dup length dict begin
  {1 index /FID ne {def} {pop pop} ifelse} forall
  /Encoding WinAnsiEncoding def
  currentdict
end
/Helvetica exch definefont pop
/Courier-BoldOblique findfont
dup length dict begin
  {1 index /FID ne {def} {pop pop} ifelse} forall
  /Encoding WinAnsiEncoding def
  currentdict
end
/Courier-BoldOblique exch definefont pop
/Courier-Oblique findfont
dup length dict begin
  {1 index /FID ne {def} {pop pop} ifelse} forall
  /Encoding WinAnsiEncoding def
  currentdict
end
/Courier-Oblique exch definefont pop
/Times-Roman findfont
dup length dict begin
  {1 index /FID ne {def} {pop pop} ifelse} forall
  /Encoding WinAnsiEncoding def
  currentdict
end
/Times-Roman exch definefont pop
/Helvetica-BoldOblique findfont
dup length dict begin
  {1 index /FID ne {def} {pop pop} ifelse} forall
  /Encoding WinAnsiEncoding def
  currentdict
end
/Helvetica-BoldOblique exch definefont pop
/Helvetica-Bold findfont
dup length dict begin
  {1 index /FID ne {def} {pop pop} ifelse} forall
  /Encoding WinAnsiEncoding def
  currentdict
end
/Helvetica-Bold exch definefont pop
/Helvetica-Oblique findfont
dup length dict begin
  {1 index /FID ne {def} {pop pop} ifelse} forall
  /Encoding WinAnsiEncoding def
  currentdict
end
/Helvetica-Oblique exch definefont pop
/Times-BoldItalic findfont
dup length dict begin
  {1 index /FID ne {def} {pop pop} ifelse} forall
  /Encoding WinAnsiEncoding def
  currentdict
end
/Times-BoldItalic exch definefont pop
/Courier findfont
dup length dict begin
  {1 index /FID ne {def} {pop pop} ifelse} forall
  /Encoding WinAnsiEncoding def
  currentdict
end
/Courier exch definefont pop
/Times-Italic findfont
dup length dict begin
  {1 index /FID ne {def} {pop pop} ifelse} forall
  /Encoding WinAnsiEncoding def
  currentdict
end
/Times-Italic exch definefont pop
/Times-Bold findfont
dup length dict begin
  {1 index /FID ne {def} {pop pop} ifelse} forall
  /Encoding WinAnsiEncoding def
  currentdict
end
/Times-Bold exch definefont pop
%FOPEndFontReencode
%%EndProlog
%%Page: 1 1
%%PageBoundingBox: 0 0 420 315
%%BeginPageSetup
[1 0 0 -1 0 315] CT
%%EndPageSetup
GS
[0.75 0 0 0.75 0 0] CT
1 GC
N
0 0 560 420 re
f
GR
GS
[0.75 0 0 0.75 0 0] CT
1 GC
N
0 0 560 420 re
f
GR
GS
[0.75 0 0 0.75 0 0] CT
1 GC
N
73 374 M
507 374 L
507 31 L
73 31 L
cp
f
GR
GS
[0.75 0 0 0.75 0 0] CT
0.149 GC
2 setlinecap
1 LJ
0.667 LW
N
73 374 M
507 374 L
S
GR
GS
[0.75 0 0 0.75 0 0] CT
0.149 GC
2 setlinecap
1 LJ
0.667 LW
N
73 374 M
73 369.66 L
S
GR
GS
[0.75 0 0 0.75 0 0] CT
0.149 GC
2 setlinecap
1 LJ
0.667 LW
N
116.4 374 M
116.4 369.66 L
S
GR
GS
[0.75 0 0 0.75 0 0] CT
0.149 GC
2 setlinecap
1 LJ
0.667 LW
N
159.8 374 M
159.8 369.66 L
S
GR
GS
[0.75 0 0 0.75 0 0] CT
0.149 GC
2 setlinecap
1 LJ
0.667 LW
N
203.2 374 M
203.2 369.66 L
S
GR
GS
[0.75 0 0 0.75 0 0] CT
0.149 GC
2 setlinecap
1 LJ
0.667 LW
N
246.6 374 M
246.6 369.66 L
S
GR
GS
[0.75 0 0 0.75 0 0] CT
0.149 GC
2 setlinecap
1 LJ
0.667 LW
N
290 374 M
290 369.66 L
S
GR
GS
[0.75 0 0 0.75 0 0] CT
0.149 GC
2 setlinecap
1 LJ
0.667 LW
N
333.4 374 M
333.4 369.66 L
S
GR
GS
[0.75 0 0 0.75 0 0] CT
0.149 GC
2 setlinecap
1 LJ
0.667 LW
N
376.8 374 M
376.8 369.66 L
S
GR
GS
[0.75 0 0 0.75 0 0] CT
0.149 GC
2 setlinecap
1 LJ
0.667 LW
N
420.2 374 M
420.2 369.66 L
S
GR
GS
[0.75 0 0 0.75 0 0] CT
0.149 GC
2 setlinecap
1 LJ
0.667 LW
N
463.6 374 M
463.6 369.66 L
S
GR
GS
[0.75 0 0 0.75 0 0] CT
0.149 GC
2 setlinecap
1 LJ
0.667 LW
N
507 374 M
507 369.66 L
S
GR
GS
[0.75 0 0 0.75 54.75 284.50001] CT
0.149 GC
/Helvetica 13 F
GS
[1 0 0 1 0 0] CT
-4 13 moveto 
1 -1 scale
(0) t 
GR
GR
GS
[0.75 0 0 0.75 87.3 284.50001] CT
0.149 GC
/Helvetica 13 F
GS
[1 0 0 1 0 0] CT
-11 13 moveto 
1 -1 scale
(100) t 
GR
GR
GS
[0.75 0 0 0.75 119.85 284.50001] CT
0.149 GC
/Helvetica 13 F
GS
[1 0 0 1 0 0] CT
-11 13 moveto 
1 -1 scale
(200) t 
GR
GR
GS
[0.75 0 0 0.75 152.4 284.50001] CT
0.149 GC
/Helvetica 13 F
GS
[1 0 0 1 0 0] CT
-11 13 moveto 
1 -1 scale
(300) t 
GR
GR
GS
[0.75 0 0 0.75 184.95 284.50001] CT
0.149 GC
/Helvetica 13 F
GS
[1 0 0 1 0 0] CT
-11 13 moveto 
1 -1 scale
(400) t 
GR
GR
GS
[0.75 0 0 0.75 217.5 284.50001] CT
0.149 GC
/Helvetica 13 F
GS
[1 0 0 1 0 0] CT
-11 13 moveto 
1 -1 scale
(500) t 
GR
GR
GS
[0.75 0 0 0.75 250.05 284.50001] CT
0.149 GC
/Helvetica 13 F
GS
[1 0 0 1 0 0] CT
-11 13 moveto 
1 -1 scale
(600) t 
GR
GR
GS
[0.75 0 0 0.75 282.59999 284.50001] CT
0.149 GC
/Helvetica 13 F
GS
[1 0 0 1 0 0] CT
-11 13 moveto 
1 -1 scale
(700) t 
GR
GR
GS
[0.75 0 0 0.75 315.15001 284.50001] CT
0.149 GC
/Helvetica 13 F
GS
[1 0 0 1 0 0] CT
-11 13 moveto 
1 -1 scale
(800) t 
GR
GR
GS
[0.75 0 0 0.75 347.7 284.50001] CT
0.149 GC
/Helvetica 13 F
GS
[1 0 0 1 0 0] CT
-11 13 moveto 
1 -1 scale
(900) t 
GR
GR
GS
[0.75 0 0 0.75 380.25 284.50001] CT
0.149 GC
/Helvetica 13 F
GS
[1 0 0 1 0 0] CT
-14.5 13 moveto 
1 -1 scale
(1000) t 
GR
GR
GS
[0.75 0 0 0.75 217.50016 297.49999] CT
0.149 GC
/Helvetica 15 F
GS
[1 0 0 1 0 0] CT
-11 14 moveto 
1 -1 scale
(t\(s\)) t 
GR
GR
GS
[0.75 0 0 0.75 0 0] CT
0.149 GC
2 setlinecap
1 LJ
0.667 LW
N
73 374 M
73 31 L
S
GR
GS
[0.75 0 0 0.75 0 0] CT
0.149 GC
2 setlinecap
1 LJ
0.667 LW
N
73 374 M
77.34 374 L
S
GR
GS
[0.75 0 0 0.75 0 0] CT
0.149 GC
2 setlinecap
1 LJ
0.667 LW
N
73 316.833 M
77.34 316.833 L
S
GR
GS
[0.75 0 0 0.75 0 0] CT
0.149 GC
2 setlinecap
1 LJ
0.667 LW
N
73 259.667 M
77.34 259.667 L
S
GR
GS
[0.75 0 0 0.75 0 0] CT
0.149 GC
2 setlinecap
1 LJ
0.667 LW
N
73 202.5 M
77.34 202.5 L
S
GR
GS
[0.75 0 0 0.75 0 0] CT
0.149 GC
2 setlinecap
1 LJ
0.667 LW
N
73 145.333 M
77.34 145.333 L
S
GR
GS
[0.75 0 0 0.75 0 0] CT
0.149 GC
2 setlinecap
1 LJ
0.667 LW
N
73 88.167 M
77.34 88.167 L
S
GR
GS
[0.75 0 0 0.75 0 0] CT
0.149 GC
2 setlinecap
1 LJ
0.667 LW
N
73 31 M
77.34 31 L
S
GR
GS
[0.75 0 0 0.75 50.75 280.5] CT
0.149 GC
/Helvetica 13 F
GS
[1 0 0 1 0 0] CT
-27 5 moveto 
1 -1 scale
(-300) t 
GR
GR
GS
[0.75 0 0 0.75 50.75 237.62501] CT
0.149 GC
/Helvetica 13 F
GS
[1 0 0 1 0 0] CT
-27 5 moveto 
1 -1 scale
(-200) t 
GR
GR
GS
[0.75 0 0 0.75 50.75 194.74999] CT
0.149 GC
/Helvetica 13 F
GS
[1 0 0 1 0 0] CT
-27 5 moveto 
1 -1 scale
(-100) t 
GR
GR
GS
[0.75 0 0 0.75 50.75 151.875] CT
0.149 GC
/Helvetica 13 F
GS
[1 0 0 1 0 0] CT
-8 5 moveto 
1 -1 scale
(0) t 
GR
GR
GS
[0.75 0 0 0.75 50.75 109] CT
0.149 GC
/Helvetica 13 F
GS
[1 0 0 1 0 0] CT
-22 5 moveto 
1 -1 scale
(100) t 
GR
GR
GS
[0.75 0 0 0.75 50.75 66.125] CT
0.149 GC
/Helvetica 13 F
GS
[1 0 0 1 0 0] CT
-22 5 moveto 
1 -1 scale
(200) t 
GR
GR
GS
[0.75 0 0 0.75 50.75 23.25] CT
0.149 GC
/Helvetica 13 F
GS
[1 0 0 1 0 0] CT
-22 5 moveto 
1 -1 scale
(300) t 
GR
GR
GS
[0.75 0 0 0.75 217.50021 21.1875] CT
/any-Bold 15 F
GS
[1 0 0 1 0 0] CT
-204 -4 moveto 
1 -1 scale
(Response of system with static output feedback - control) t 
GR
GR
GS
[0.75 0 0 0.75 0 0] CT
0 0 1 RC
1 LJ
0.667 LW
N
73 202.443 M
73 202.443 L
73 202.443 L
73 202.443 L
73.001 202.443 L
73.003 202.443 L
73.013 202.443 L
73.067 202.443 L
73.335 202.443 L
73.769 202.443 L
74.203 202.443 L
74.637 202.443 L
75.071 202.443 L
75.505 202.443 L
75.939 202.443 L
76.373 202.443 L
76.807 202.443 L
77.241 202.443 L
77.675 202.443 L
78.109 202.443 L
78.543 202.443 L
78.977 202.443 L
79.411 202.443 L
79.845 202.443 L
80.279 202.443 L
80.713 202.443 L
81.147 202.443 L
81.581 202.443 L
82.015 202.443 L
82.449 202.443 L
82.883 202.443 L
83.317 202.443 L
83.751 202.443 L
84.185 202.443 L
84.619 202.443 L
85.053 202.443 L
85.487 202.443 L
85.921 202.443 L
86.355 202.443 L
86.789 202.443 L
87.223 202.443 L
87.657 202.443 L
88.091 202.443 L
88.525 202.443 L
88.959 202.443 L
89.393 202.443 L
89.827 202.443 L
90.261 202.443 L
90.695 202.443 L
91.129 202.443 L
S
GR
GS
[0.75 0 0 0.75 0 0] CT
0 0 1 RC
1 LJ
0.667 LW
N
90.695 202.443 M
91.129 202.443 L
91.563 202.443 L
91.997 202.443 L
92.431 202.443 L
92.865 202.443 L
93.299 202.443 L
93.733 202.443 L
94.167 202.443 L
94.601 202.443 L
95.035 202.443 L
95.469 202.443 L
95.903 202.443 L
96.337 202.443 L
96.771 202.443 L
97.205 202.443 L
97.639 202.443 L
98.073 202.443 L
98.507 202.443 L
98.941 202.443 L
99.375 202.443 L
99.809 202.443 L
100.243 202.443 L
100.677 202.443 L
101.111 202.443 L
101.545 202.443 L
101.979 202.443 L
102.413 202.443 L
102.847 202.443 L
103.281 202.443 L
103.715 202.443 L
104.149 202.443 L
104.583 202.443 L
105.017 202.443 L
105.451 202.443 L
105.885 202.443 L
106.319 202.443 L
106.753 202.443 L
107.187 202.443 L
107.621 202.443 L
108.055 202.443 L
108.489 202.443 L
108.923 202.443 L
109.357 202.443 L
109.791 202.443 L
110.225 202.443 L
110.659 202.443 L
111.093 202.443 L
111.527 202.443 L
111.961 202.443 L
112.395 202.443 L
112.829 202.443 L
S
GR
GS
[0.75 0 0 0.75 0 0] CT
0 0 1 RC
1 LJ
0.667 LW
N
112.395 202.443 M
112.829 202.443 L
113.263 202.443 L
113.697 202.443 L
114.131 202.443 L
114.565 202.443 L
114.999 202.443 L
115.433 202.443 L
115.867 202.443 L
116.301 202.443 L
116.735 202.443 L
117.169 202.443 L
117.603 202.443 L
118.037 202.443 L
118.471 202.443 L
118.905 202.443 L
119.339 202.443 L
119.773 202.443 L
120.207 202.443 L
120.641 202.443 L
121.075 202.443 L
121.509 202.443 L
121.943 202.443 L
122.377 202.443 L
122.811 202.443 L
123.245 202.443 L
123.679 202.443 L
124.113 202.443 L
124.547 202.443 L
124.981 202.443 L
125.415 202.443 L
125.849 202.443 L
126.283 202.443 L
126.717 202.443 L
127.151 202.443 L
127.585 202.443 L
128.019 202.443 L
128.453 202.443 L
128.887 202.443 L
129.321 202.443 L
129.755 202.443 L
130.189 202.443 L
130.623 202.443 L
131.057 202.443 L
131.491 202.443 L
131.925 202.443 L
132.359 202.443 L
132.793 202.443 L
133.227 202.443 L
133.661 202.443 L
134.095 202.443 L
134.529 202.443 L
S
GR
GS
[0.75 0 0 0.75 0 0] CT
0 0 1 RC
1 LJ
0.667 LW
N
134.095 202.443 M
134.529 202.443 L
134.963 202.443 L
135.397 202.443 L
135.831 202.443 L
136.265 202.443 L
136.699 202.443 L
137.133 202.443 L
137.567 202.443 L
138.001 202.443 L
138.435 202.443 L
138.869 202.443 L
139.303 202.443 L
139.737 202.443 L
140.171 202.443 L
140.605 202.443 L
141.039 202.443 L
141.473 202.443 L
141.907 202.443 L
142.341 202.443 L
142.775 202.443 L
143.209 202.443 L
143.643 202.443 L
144.077 202.443 L
144.511 202.443 L
144.945 202.443 L
145.379 202.443 L
145.813 202.443 L
146.247 202.443 L
146.681 202.443 L
147.115 202.443 L
147.549 202.443 L
147.983 202.443 L
148.417 202.443 L
148.851 202.443 L
149.285 202.443 L
149.719 202.443 L
150.153 202.443 L
150.587 202.443 L
151.021 202.443 L
151.455 202.443 L
151.889 202.443 L
152.323 202.443 L
152.757 202.443 L
153.191 202.443 L
153.625 202.443 L
154.059 202.443 L
154.493 202.443 L
154.927 202.443 L
155.361 202.443 L
155.795 202.443 L
156.229 202.443 L
S
GR
GS
[0.75 0 0 0.75 0 0] CT
0 0 1 RC
1 LJ
0.667 LW
N
155.795 202.443 M
156.229 202.443 L
156.663 202.443 L
157.097 202.443 L
157.531 202.443 L
157.965 202.443 L
158.399 202.443 L
158.833 202.443 L
159.267 202.443 L
159.701 202.443 L
160.135 202.443 L
160.569 202.443 L
161.003 202.443 L
161.437 202.443 L
161.871 202.443 L
162.305 202.443 L
162.739 202.443 L
163.173 202.443 L
163.607 202.443 L
164.041 202.443 L
164.475 202.443 L
164.909 202.443 L
165.343 202.443 L
165.777 202.443 L
166.211 202.443 L
166.645 202.443 L
167.079 202.443 L
167.513 202.443 L
167.947 202.443 L
168.381 202.443 L
168.815 202.443 L
169.249 202.443 L
169.683 202.443 L
170.117 202.443 L
170.551 202.443 L
170.985 202.443 L
171.419 202.443 L
171.853 202.443 L
172.287 202.443 L
172.721 202.443 L
173.155 202.443 L
173.589 202.443 L
174.023 202.443 L
174.457 202.443 L
174.891 202.443 L
175.325 202.443 L
175.759 202.443 L
176.193 202.443 L
176.627 202.443 L
177.061 202.443 L
177.495 202.443 L
177.929 202.443 L
S
GR
GS
[0.75 0 0 0.75 0 0] CT
0 0 1 RC
1 LJ
0.667 LW
N
177.495 202.443 M
177.929 202.443 L
178.363 202.443 L
178.797 202.443 L
179.231 202.443 L
179.665 202.443 L
180.099 202.443 L
180.533 202.443 L
180.967 202.443 L
181.401 202.443 L
181.835 202.443 L
182.269 202.443 L
182.703 202.443 L
183.137 202.443 L
183.571 202.443 L
184.005 202.443 L
184.439 202.443 L
184.873 202.443 L
185.307 202.443 L
185.741 202.443 L
186.175 202.443 L
186.609 202.443 L
187.043 202.443 L
187.477 202.443 L
187.911 202.443 L
188.345 202.443 L
188.779 202.443 L
189.213 202.443 L
189.647 202.443 L
190.081 202.443 L
190.515 202.443 L
190.949 202.443 L
191.383 202.443 L
191.817 202.443 L
192.251 202.443 L
192.685 202.443 L
193.119 202.443 L
193.553 202.443 L
193.987 202.443 L
194.421 202.443 L
194.855 202.443 L
195.289 202.443 L
195.723 202.443 L
196.157 202.443 L
196.591 202.443 L
197.025 202.443 L
197.459 202.443 L
197.893 202.443 L
198.327 202.443 L
198.761 202.443 L
199.195 202.443 L
199.629 202.443 L
S
GR
GS
[0.75 0 0 0.75 0 0] CT
0 0 1 RC
1 LJ
0.667 LW
N
199.195 202.443 M
199.629 202.443 L
200.063 202.443 L
200.497 202.443 L
200.931 202.443 L
201.365 202.443 L
201.799 202.443 L
202.233 202.443 L
202.667 202.443 L
203.101 202.443 L
203.535 202.443 L
203.969 202.443 L
204.403 202.443 L
204.837 202.443 L
205.271 202.443 L
205.705 202.443 L
206.139 202.443 L
206.573 202.443 L
207.007 202.443 L
207.441 202.443 L
207.875 202.443 L
208.309 202.443 L
208.743 202.443 L
209.177 202.443 L
209.611 202.443 L
210.045 202.443 L
210.479 202.443 L
210.913 202.443 L
211.347 202.443 L
211.781 202.443 L
212.215 202.443 L
212.649 202.443 L
213.083 202.443 L
213.517 202.443 L
213.951 202.443 L
214.385 202.443 L
214.819 202.443 L
215.253 202.443 L
215.687 202.443 L
216.121 202.443 L
216.555 202.443 L
216.989 202.443 L
217.423 202.443 L
217.857 202.443 L
218.291 202.443 L
218.725 202.443 L
219.159 202.443 L
219.593 202.443 L
220.027 202.443 L
220.461 202.443 L
220.895 202.443 L
221.329 202.443 L
S
GR
GS
[0.75 0 0 0.75 0 0] CT
0 0 1 RC
1 LJ
0.667 LW
N
220.895 202.443 M
221.329 202.443 L
221.763 202.443 L
222.197 202.443 L
222.631 202.443 L
223.065 202.443 L
223.499 202.443 L
223.933 202.443 L
224.367 202.443 L
224.801 202.443 L
225.235 202.443 L
225.669 202.443 L
226.103 202.443 L
226.537 202.443 L
226.971 202.443 L
227.405 202.443 L
227.839 202.443 L
228.273 202.443 L
228.707 202.443 L
229.141 202.443 L
229.575 202.443 L
230.009 202.443 L
230.443 202.443 L
230.877 202.443 L
231.311 202.443 L
231.745 202.443 L
232.179 202.443 L
232.613 202.443 L
233.047 202.443 L
233.481 202.443 L
233.915 202.443 L
234.349 202.443 L
234.783 202.443 L
235.217 202.443 L
235.651 202.443 L
236.085 202.443 L
236.519 202.443 L
236.953 202.443 L
237.387 202.443 L
237.821 202.443 L
238.255 202.443 L
238.689 202.443 L
239.123 202.443 L
239.557 202.443 L
239.991 202.443 L
240.425 202.443 L
240.859 202.443 L
241.293 202.443 L
241.727 202.443 L
242.161 202.443 L
242.595 202.443 L
243.029 202.443 L
S
GR
GS
[0.75 0 0 0.75 0 0] CT
0 0 1 RC
1 LJ
0.667 LW
N
242.595 202.443 M
243.029 202.443 L
243.463 202.443 L
243.897 202.443 L
244.331 202.443 L
244.765 202.443 L
245.199 202.443 L
245.633 202.443 L
246.067 202.443 L
246.501 202.443 L
246.935 202.443 L
247.369 202.443 L
247.803 202.443 L
248.237 202.443 L
248.671 202.443 L
249.105 202.443 L
249.539 202.443 L
249.973 202.443 L
250.407 202.443 L
250.841 202.443 L
251.275 202.443 L
251.709 202.443 L
252.143 202.443 L
252.577 202.443 L
253.011 202.443 L
253.445 202.443 L
253.879 202.443 L
254.313 202.443 L
254.747 202.443 L
255.181 202.443 L
255.615 202.443 L
256.049 202.443 L
256.483 202.443 L
256.917 202.443 L
257.351 202.443 L
257.785 202.443 L
258.219 202.443 L
258.653 202.443 L
259.087 202.443 L
259.521 202.443 L
259.955 202.443 L
260.389 202.443 L
260.823 202.443 L
261.257 202.443 L
261.691 202.443 L
262.125 202.443 L
262.559 202.443 L
262.993 202.443 L
263.427 202.443 L
263.861 202.443 L
264.295 202.443 L
264.729 202.443 L
S
GR
GS
[0.75 0 0 0.75 0 0] CT
0 0 1 RC
1 LJ
0.667 LW
N
264.295 202.443 M
264.729 202.443 L
265.163 202.443 L
265.597 202.443 L
266.031 202.443 L
266.465 202.443 L
266.899 202.443 L
267.333 202.443 L
267.767 202.443 L
268.201 202.443 L
268.635 202.443 L
269.069 202.443 L
269.503 202.443 L
269.937 202.443 L
270.371 202.443 L
270.805 202.443 L
271.239 202.443 L
271.673 202.443 L
272.107 202.443 L
272.541 202.443 L
272.975 202.443 L
273.409 202.443 L
273.843 202.443 L
274.277 202.443 L
274.711 202.443 L
275.145 202.443 L
275.579 202.443 L
276.013 202.443 L
276.447 202.443 L
276.881 202.443 L
277.315 202.443 L
277.749 202.443 L
278.183 202.443 L
278.617 202.443 L
279.051 202.443 L
279.485 202.443 L
279.919 202.443 L
280.353 202.443 L
280.787 202.443 L
281.221 202.443 L
281.655 202.443 L
282.089 202.443 L
282.523 202.443 L
282.957 202.443 L
283.391 202.443 L
283.825 202.443 L
284.259 202.443 L
284.693 202.443 L
285.127 202.443 L
285.561 202.443 L
285.995 202.443 L
286.429 202.443 L
S
GR
GS
[0.75 0 0 0.75 0 0] CT
0 0 1 RC
1 LJ
0.667 LW
N
285.995 202.443 M
286.429 202.443 L
286.863 202.443 L
287.297 202.443 L
287.731 202.443 L
288.165 202.443 L
288.599 202.443 L
289.033 202.443 L
289.467 202.443 L
289.901 202.443 L
290.335 202.443 L
290.769 202.443 L
291.203 202.443 L
291.637 202.443 L
292.071 202.443 L
292.505 202.443 L
292.939 202.443 L
293.373 202.443 L
293.807 202.443 L
294.241 202.443 L
294.675 202.443 L
295.109 202.443 L
295.543 202.443 L
295.977 202.443 L
296.411 202.443 L
296.845 202.443 L
297.279 202.443 L
297.713 202.443 L
298.147 202.443 L
298.581 202.443 L
299.015 202.443 L
299.449 202.443 L
299.883 202.443 L
300.317 202.443 L
300.751 202.443 L
301.185 202.443 L
301.619 202.443 L
302.053 202.443 L
302.487 202.443 L
302.921 202.443 L
303.355 202.443 L
303.789 202.443 L
304.223 202.443 L
304.657 202.443 L
305.091 202.443 L
305.525 202.443 L
305.959 202.443 L
306.393 202.443 L
306.827 202.443 L
307.261 202.443 L
307.695 202.443 L
308.129 202.443 L
S
GR
GS
[0.75 0 0 0.75 0 0] CT
0 0 1 RC
1 LJ
0.667 LW
N
307.695 202.443 M
308.129 202.443 L
308.563 202.443 L
308.997 202.443 L
309.431 202.443 L
309.865 202.443 L
310.299 202.443 L
310.733 202.443 L
311.167 202.443 L
311.601 202.443 L
312.035 202.443 L
312.469 202.443 L
312.903 202.443 L
313.337 202.443 L
313.771 202.443 L
314.205 202.443 L
314.639 202.443 L
315.073 202.443 L
315.507 202.443 L
315.941 202.443 L
316.375 202.443 L
316.809 202.443 L
317.243 202.443 L
317.677 202.443 L
318.111 202.443 L
318.545 202.443 L
318.979 202.443 L
319.413 202.443 L
319.847 202.443 L
320.281 202.443 L
320.715 202.443 L
321.149 202.443 L
321.583 202.443 L
322.017 202.443 L
322.451 202.443 L
322.885 202.443 L
323.319 202.443 L
323.753 202.443 L
324.187 202.443 L
324.621 202.443 L
325.055 202.443 L
325.489 202.443 L
325.923 202.443 L
326.357 202.443 L
326.791 202.443 L
327.225 202.443 L
327.659 202.443 L
328.093 202.443 L
328.527 202.443 L
328.961 202.443 L
329.395 202.443 L
329.829 202.443 L
S
GR
GS
[0.75 0 0 0.75 0 0] CT
0 0 1 RC
1 LJ
0.667 LW
N
329.395 202.443 M
329.829 202.443 L
330.263 202.443 L
330.697 202.443 L
331.131 202.443 L
331.565 202.443 L
331.999 202.443 L
332.433 202.443 L
332.867 202.443 L
333.301 202.443 L
333.735 202.443 L
334.169 202.443 L
334.603 202.443 L
335.037 202.443 L
335.471 202.443 L
335.905 202.443 L
336.339 202.443 L
336.773 202.443 L
337.207 202.443 L
337.641 202.443 L
338.075 202.443 L
338.509 202.443 L
338.943 202.443 L
339.377 202.443 L
339.811 202.443 L
340.245 202.443 L
340.679 202.443 L
341.113 202.443 L
341.547 202.443 L
341.981 202.443 L
342.415 202.443 L
342.849 202.443 L
343.283 202.443 L
343.717 202.443 L
344.151 202.443 L
344.585 202.443 L
345.019 202.443 L
345.453 202.443 L
345.887 202.443 L
346.321 202.443 L
346.755 202.443 L
347.189 202.443 L
347.623 202.443 L
348.057 202.443 L
348.491 202.443 L
348.925 202.443 L
349.359 202.443 L
349.793 202.443 L
350.227 202.443 L
350.661 202.443 L
351.095 202.443 L
351.529 202.443 L
S
GR
GS
[0.75 0 0 0.75 0 0] CT
0 0 1 RC
1 LJ
0.667 LW
N
351.095 202.443 M
351.529 202.443 L
351.963 202.443 L
352.397 202.443 L
352.831 202.443 L
353.265 202.443 L
353.699 202.443 L
354.133 202.443 L
354.567 202.443 L
355.001 202.443 L
355.435 202.443 L
355.869 202.443 L
356.303 202.443 L
356.737 202.443 L
357.171 202.443 L
357.605 202.443 L
358.039 202.443 L
358.473 202.443 L
358.907 202.443 L
359.341 202.443 L
359.775 202.443 L
360.209 202.443 L
360.643 202.443 L
361.077 202.443 L
361.511 202.443 L
361.945 202.443 L
362.379 202.443 L
362.813 202.443 L
363.247 202.443 L
363.681 202.443 L
364.115 202.443 L
364.549 202.443 L
364.983 202.443 L
365.417 202.443 L
365.851 202.443 L
366.285 202.443 L
366.719 202.443 L
367.153 202.443 L
367.587 202.443 L
368.021 202.443 L
368.455 202.443 L
368.889 202.443 L
369.323 202.443 L
369.757 202.443 L
370.191 202.443 L
370.625 202.443 L
371.059 202.443 L
371.493 202.443 L
371.927 202.443 L
372.361 202.443 L
372.795 202.443 L
373.229 202.443 L
S
GR
GS
[0.75 0 0 0.75 0 0] CT
0 0 1 RC
1 LJ
0.667 LW
N
372.795 202.443 M
373.229 202.443 L
373.663 202.443 L
374.097 202.443 L
374.531 202.443 L
374.965 202.443 L
375.399 202.443 L
375.833 202.443 L
376.267 202.443 L
376.701 202.443 L
377.135 202.443 L
377.569 202.443 L
378.003 202.443 L
378.437 202.443 L
378.871 202.443 L
379.305 202.443 L
379.739 202.443 L
380.173 202.443 L
380.607 202.443 L
381.041 202.443 L
381.475 202.443 L
381.909 202.443 L
382.343 202.443 L
382.777 202.443 L
383.211 202.443 L
383.645 202.443 L
384.079 202.443 L
384.513 202.443 L
384.947 202.443 L
385.381 202.443 L
385.815 202.443 L
386.249 202.443 L
386.683 202.443 L
387.117 202.443 L
387.551 202.443 L
387.985 202.443 L
388.419 202.443 L
388.853 202.443 L
389.287 202.443 L
389.721 202.443 L
390.155 202.443 L
390.589 202.443 L
391.023 202.443 L
391.457 202.443 L
391.891 202.443 L
392.325 202.443 L
392.759 202.443 L
393.193 202.443 L
393.627 202.443 L
394.061 202.443 L
394.495 202.443 L
394.929 202.443 L
S
GR
GS
[0.75 0 0 0.75 0 0] CT
0 0 1 RC
1 LJ
0.667 LW
N
394.495 202.443 M
394.929 202.443 L
395.363 202.443 L
395.797 202.443 L
396.231 202.443 L
396.665 202.443 L
397.099 202.443 L
397.533 202.443 L
397.967 202.443 L
398.401 202.443 L
398.835 202.443 L
399.269 202.443 L
399.703 202.443 L
400.137 202.443 L
400.571 202.443 L
401.005 202.443 L
401.439 202.443 L
401.873 202.443 L
402.307 202.443 L
402.741 202.443 L
403.175 202.443 L
403.609 202.443 L
404.043 202.443 L
404.477 202.443 L
404.911 202.443 L
405.345 202.443 L
405.779 202.443 L
406.213 202.443 L
406.647 202.443 L
407.081 202.443 L
407.515 202.443 L
407.949 202.443 L
408.383 202.443 L
408.817 202.443 L
409.251 202.443 L
409.685 202.443 L
410.119 202.443 L
410.553 202.443 L
410.987 202.443 L
411.421 202.443 L
411.855 202.443 L
412.289 202.443 L
412.723 202.443 L
413.157 202.443 L
413.591 202.443 L
414.025 202.443 L
414.459 202.443 L
414.893 202.443 L
415.327 202.443 L
415.761 202.443 L
416.195 202.443 L
416.629 202.443 L
S
GR
GS
[0.75 0 0 0.75 0 0] CT
0 0 1 RC
1 LJ
0.667 LW
N
416.195 202.443 M
416.629 202.443 L
417.063 202.443 L
417.497 202.443 L
417.931 202.443 L
418.365 202.443 L
418.799 202.443 L
419.233 202.443 L
419.667 202.443 L
420.101 202.443 L
420.535 202.443 L
420.969 202.443 L
421.403 202.443 L
421.837 202.443 L
422.271 202.443 L
422.705 202.443 L
423.139 202.443 L
423.573 202.443 L
424.007 202.443 L
424.441 202.443 L
424.875 202.443 L
425.309 202.443 L
425.743 202.443 L
426.177 202.443 L
426.611 202.443 L
427.045 202.443 L
427.479 202.443 L
427.913 202.443 L
428.347 202.443 L
428.781 202.443 L
429.215 202.443 L
429.649 202.443 L
430.083 202.443 L
430.517 202.443 L
430.951 202.443 L
431.385 202.443 L
431.819 202.443 L
432.253 202.443 L
432.687 202.443 L
433.121 202.443 L
433.555 202.443 L
433.989 202.443 L
434.423 202.443 L
434.857 202.443 L
435.291 202.443 L
435.725 202.443 L
436.159 202.443 L
436.593 202.443 L
437.027 202.443 L
437.461 202.443 L
437.895 202.443 L
438.329 202.443 L
S
GR
GS
[0.75 0 0 0.75 0 0] CT
0 0 1 RC
1 LJ
0.667 LW
N
437.895 202.443 M
438.329 202.443 L
438.763 202.443 L
439.197 202.443 L
439.631 202.443 L
440.065 202.443 L
440.499 202.443 L
440.933 202.443 L
441.367 202.443 L
441.801 202.443 L
442.235 202.443 L
442.669 202.443 L
443.103 202.443 L
443.537 202.443 L
443.971 202.443 L
444.405 202.443 L
444.839 202.443 L
445.273 202.443 L
445.707 202.443 L
446.141 202.443 L
446.575 202.443 L
447.009 202.443 L
447.443 202.443 L
447.877 202.443 L
448.311 202.443 L
448.745 202.443 L
449.179 202.443 L
449.613 202.443 L
450.047 202.443 L
450.481 202.443 L
450.915 202.443 L
451.349 202.443 L
451.783 202.443 L
452.217 202.443 L
452.651 202.443 L
453.085 202.443 L
453.519 202.443 L
453.953 202.443 L
454.387 202.443 L
454.821 202.443 L
455.255 202.443 L
455.689 202.443 L
456.123 202.443 L
456.557 202.443 L
456.991 202.443 L
457.425 202.443 L
457.859 202.443 L
458.293 202.443 L
458.727 202.443 L
459.161 202.443 L
459.595 202.443 L
460.029 202.443 L
S
GR
GS
[0.75 0 0 0.75 0 0] CT
0 0 1 RC
1 LJ
0.667 LW
N
459.595 202.443 M
460.029 202.443 L
460.463 202.443 L
460.897 202.443 L
461.331 202.443 L
461.765 202.443 L
462.199 202.443 L
462.633 202.443 L
463.067 202.443 L
463.501 202.443 L
463.935 202.443 L
464.369 202.443 L
464.803 202.443 L
465.237 202.443 L
465.671 202.443 L
466.105 202.443 L
466.539 202.443 L
466.973 202.443 L
467.407 202.443 L
467.841 202.443 L
468.275 202.443 L
468.709 202.443 L
469.143 202.443 L
469.577 202.443 L
470.011 202.443 L
470.445 202.443 L
470.879 202.443 L
471.313 202.443 L
471.747 202.443 L
472.181 202.443 L
472.615 202.443 L
473.049 202.443 L
473.483 202.443 L
473.917 202.443 L
474.351 202.443 L
474.785 202.443 L
475.219 202.443 L
475.653 202.443 L
476.087 202.443 L
476.521 202.443 L
476.955 202.443 L
477.389 202.443 L
477.823 202.443 L
478.257 202.443 L
478.691 202.443 L
479.125 202.443 L
479.559 202.443 L
479.993 202.443 L
480.427 202.443 L
480.861 202.443 L
481.295 202.443 L
481.729 202.443 L
S
GR
GS
[0.75 0 0 0.75 0 0] CT
0 0 1 RC
1 LJ
0.667 LW
N
481.295 202.443 M
481.729 202.443 L
482.163 202.443 L
482.597 202.443 L
483.031 202.443 L
483.465 202.443 L
483.899 202.443 L
484.333 202.443 L
484.767 202.443 L
485.201 202.443 L
485.635 202.443 L
486.069 202.443 L
486.503 202.443 L
486.937 202.443 L
487.371 202.443 L
487.805 202.443 L
488.239 202.443 L
488.673 202.443 L
489.107 202.443 L
489.541 202.443 L
489.975 202.443 L
490.409 202.443 L
490.843 202.443 L
491.277 202.443 L
491.711 202.443 L
492.145 202.443 L
492.579 202.443 L
493.013 202.443 L
493.447 202.443 L
493.881 202.443 L
494.315 202.443 L
494.749 202.443 L
495.183 202.443 L
495.617 202.443 L
496.051 202.443 L
496.485 202.443 L
496.919 202.443 L
497.353 202.443 L
497.787 202.443 L
498.221 202.443 L
498.655 202.443 L
499.089 202.443 L
499.523 202.443 L
499.957 202.443 L
500.391 202.443 L
500.825 202.443 L
501.259 202.443 L
501.693 202.443 L
502.127 202.443 L
502.561 202.443 L
502.995 202.443 L
503.429 202.443 L
S
GR
GS
[0.75 0 0 0.75 0 0] CT
0 0 1 RC
1 LJ
0.667 LW
N
502.995 202.443 M
503.429 202.443 L
503.863 202.443 L
504.297 202.443 L
504.731 202.443 L
505.165 202.443 L
505.599 202.443 L
506.033 202.443 L
506.467 202.443 L
506.901 202.443 L
507 202.443 L
S
GR
GS
[0.75 0 0 0.75 0 0] CT
0 1 1 RC
1 LJ
0.667 LW
N
73 202.443 M
73 202.443 L
73 202.443 L
73 202.443 L
73.001 202.443 L
73.003 202.443 L
73.013 202.443 L
73.067 202.443 L
73.335 202.443 L
73.769 202.443 L
74.203 202.443 L
74.637 202.443 L
75.071 202.443 L
75.505 202.443 L
75.939 202.443 L
76.373 202.443 L
76.807 202.443 L
77.241 202.443 L
77.675 202.443 L
78.109 202.443 L
78.543 202.443 L
78.977 202.443 L
79.411 202.443 L
79.845 202.443 L
80.279 202.443 L
80.713 202.443 L
81.147 202.443 L
81.581 202.443 L
82.015 202.443 L
82.449 202.443 L
82.883 202.443 L
83.317 202.443 L
83.751 202.443 L
84.185 202.443 L
84.619 202.443 L
85.053 202.443 L
85.487 202.443 L
85.921 202.443 L
86.355 202.443 L
86.789 202.443 L
87.223 202.443 L
87.657 202.443 L
88.091 202.443 L
88.525 202.443 L
88.959 202.443 L
89.393 202.443 L
89.827 202.443 L
90.261 202.443 L
90.695 202.443 L
91.129 202.443 L
S
GR
GS
[0.75 0 0 0.75 0 0] CT
0 1 1 RC
1 LJ
0.667 LW
N
90.695 202.443 M
91.129 202.443 L
91.563 202.443 L
91.997 202.443 L
92.431 202.443 L
92.865 202.443 L
93.299 202.443 L
93.733 202.443 L
94.167 202.443 L
94.601 202.443 L
95.035 202.443 L
95.469 202.443 L
95.903 202.443 L
96.337 202.443 L
96.771 202.443 L
97.205 202.443 L
97.639 202.443 L
98.073 202.443 L
98.507 202.443 L
98.941 202.443 L
99.375 202.443 L
99.809 202.443 L
100.243 202.443 L
100.677 202.443 L
101.111 202.443 L
101.545 202.443 L
101.979 202.443 L
102.413 202.443 L
102.847 202.443 L
103.281 202.443 L
103.715 202.443 L
104.149 202.443 L
104.583 202.443 L
105.017 202.443 L
105.451 202.443 L
105.885 202.443 L
106.319 202.443 L
106.753 202.443 L
107.187 202.443 L
107.621 202.443 L
108.055 202.443 L
108.489 202.443 L
108.923 202.443 L
109.357 202.443 L
109.791 202.443 L
110.225 202.443 L
110.659 202.443 L
111.093 202.443 L
111.527 202.443 L
111.961 202.443 L
112.395 202.443 L
112.829 202.443 L
S
GR
GS
[0.75 0 0 0.75 0 0] CT
0 1 1 RC
1 LJ
0.667 LW
N
112.395 202.443 M
112.829 202.443 L
113.263 202.443 L
113.697 202.443 L
114.131 202.443 L
114.565 202.443 L
114.999 202.443 L
115.433 202.443 L
115.867 202.443 L
116.301 202.443 L
116.735 202.443 L
117.169 202.443 L
117.603 202.443 L
118.037 202.443 L
118.471 202.443 L
118.905 202.443 L
119.339 202.443 L
119.773 202.443 L
120.207 202.443 L
120.641 202.443 L
121.075 202.443 L
121.509 202.443 L
121.943 202.443 L
122.377 202.443 L
122.811 202.443 L
123.245 202.443 L
123.679 202.443 L
124.113 202.443 L
124.547 202.443 L
124.981 202.443 L
125.415 202.443 L
125.849 202.443 L
126.283 202.443 L
126.717 202.443 L
127.151 202.443 L
127.585 202.443 L
128.019 202.443 L
128.453 202.443 L
128.887 202.443 L
129.321 202.443 L
129.755 202.443 L
130.189 202.443 L
130.623 202.443 L
131.057 202.443 L
131.491 202.443 L
131.925 202.443 L
132.359 202.443 L
132.793 202.443 L
133.227 202.443 L
133.661 202.443 L
134.095 202.443 L
134.529 202.443 L
S
GR
GS
[0.75 0 0 0.75 0 0] CT
0 1 1 RC
1 LJ
0.667 LW
N
134.095 202.443 M
134.529 202.443 L
134.963 202.443 L
135.397 202.443 L
135.831 202.443 L
136.265 202.443 L
136.699 202.443 L
137.133 202.443 L
137.567 202.443 L
138.001 202.443 L
138.435 202.443 L
138.869 202.443 L
139.303 202.443 L
139.737 202.443 L
140.171 202.443 L
140.605 202.443 L
141.039 202.443 L
141.473 202.443 L
141.907 202.443 L
142.341 202.443 L
142.775 202.443 L
143.209 202.443 L
143.643 202.443 L
144.077 202.443 L
144.511 202.443 L
144.945 202.443 L
145.379 202.443 L
145.813 202.443 L
146.247 202.443 L
146.681 202.443 L
147.115 202.443 L
147.549 202.443 L
147.983 202.443 L
148.417 202.443 L
148.851 202.443 L
149.285 202.443 L
149.719 202.443 L
150.153 202.443 L
150.587 202.443 L
151.021 202.443 L
151.455 202.443 L
151.889 202.443 L
152.323 202.443 L
152.757 202.443 L
153.191 202.443 L
153.625 202.443 L
154.059 202.443 L
154.493 202.443 L
154.927 202.443 L
155.361 202.443 L
155.795 202.443 L
156.229 202.443 L
S
GR
GS
[0.75 0 0 0.75 0 0] CT
0 1 1 RC
1 LJ
0.667 LW
N
155.795 202.443 M
156.229 202.443 L
156.663 202.443 L
157.097 202.443 L
157.531 202.443 L
157.965 202.443 L
158.399 202.443 L
158.833 202.443 L
159.267 202.443 L
159.701 202.443 L
160.135 202.443 L
160.569 202.443 L
161.003 202.443 L
161.437 202.443 L
161.871 202.443 L
162.305 202.443 L
162.739 202.443 L
163.173 202.443 L
163.607 202.443 L
164.041 202.443 L
164.475 202.443 L
164.909 202.443 L
165.343 202.443 L
165.777 202.443 L
166.211 202.443 L
166.645 202.443 L
167.079 202.443 L
167.513 202.443 L
167.947 202.443 L
168.381 202.443 L
168.815 202.443 L
169.249 202.443 L
169.683 202.443 L
170.117 202.443 L
170.551 202.443 L
170.985 202.443 L
171.419 202.443 L
171.853 202.443 L
172.287 202.443 L
172.721 202.443 L
173.155 202.443 L
173.589 202.443 L
174.023 202.443 L
174.457 202.443 L
174.891 202.443 L
175.325 202.443 L
175.759 202.443 L
176.193 202.443 L
176.627 202.443 L
177.061 202.443 L
177.495 202.443 L
177.929 202.443 L
S
GR
GS
[0.75 0 0 0.75 0 0] CT
0 1 1 RC
1 LJ
0.667 LW
N
177.495 202.443 M
177.929 202.443 L
178.363 202.443 L
178.797 202.443 L
179.231 202.443 L
179.665 202.443 L
180.099 202.443 L
180.533 202.443 L
180.967 202.443 L
181.401 202.443 L
181.835 202.443 L
182.269 202.443 L
182.703 202.443 L
183.137 202.443 L
183.571 202.443 L
184.005 202.443 L
184.439 202.443 L
184.873 202.443 L
185.307 202.443 L
185.741 202.443 L
186.175 202.443 L
186.609 202.443 L
187.043 202.443 L
187.477 202.443 L
187.911 202.443 L
188.345 202.443 L
188.779 202.443 L
189.213 202.443 L
189.647 202.443 L
190.081 202.443 L
190.515 202.443 L
190.949 202.443 L
191.383 202.443 L
191.817 202.443 L
192.251 202.443 L
192.685 202.443 L
193.119 202.443 L
193.553 202.443 L
193.987 202.443 L
194.421 202.443 L
194.855 202.443 L
195.289 202.443 L
195.723 202.443 L
196.157 202.443 L
196.591 202.443 L
197.025 202.443 L
197.459 202.443 L
197.893 202.443 L
198.327 202.443 L
198.761 202.443 L
199.195 202.443 L
199.629 202.443 L
S
GR
GS
[0.75 0 0 0.75 0 0] CT
0 1 1 RC
1 LJ
0.667 LW
N
199.195 202.443 M
199.629 202.443 L
200.063 202.443 L
200.497 202.443 L
200.931 202.443 L
201.365 202.443 L
201.799 202.443 L
202.233 202.443 L
202.667 202.443 L
203.101 202.443 L
203.535 202.443 L
203.969 202.443 L
204.403 202.443 L
204.837 202.443 L
205.271 202.443 L
205.705 202.443 L
206.139 202.443 L
206.573 202.443 L
207.007 202.443 L
207.441 202.443 L
207.875 202.443 L
208.309 202.443 L
208.743 202.443 L
209.177 202.443 L
209.611 202.443 L
210.045 202.443 L
210.479 202.443 L
210.913 202.443 L
211.347 202.443 L
211.781 202.443 L
212.215 202.443 L
212.649 202.443 L
213.083 202.443 L
213.517 202.443 L
213.951 202.443 L
214.385 202.443 L
214.819 202.443 L
215.253 202.443 L
215.687 202.443 L
216.121 202.443 L
216.555 202.443 L
216.989 202.443 L
217.423 202.443 L
217.857 202.443 L
218.291 202.443 L
218.725 202.443 L
219.159 202.443 L
219.593 202.443 L
220.027 202.443 L
220.461 202.443 L
220.895 202.443 L
221.329 202.443 L
S
GR
GS
[0.75 0 0 0.75 0 0] CT
0 1 1 RC
1 LJ
0.667 LW
N
220.895 202.443 M
221.329 202.443 L
221.763 202.443 L
222.197 202.443 L
222.631 202.443 L
223.065 202.443 L
223.499 202.443 L
223.933 202.443 L
224.367 202.443 L
224.801 202.443 L
225.235 202.443 L
225.669 202.443 L
226.103 202.443 L
226.537 202.443 L
226.971 202.443 L
227.405 202.443 L
227.839 202.443 L
228.273 202.443 L
228.707 202.443 L
229.141 202.443 L
229.575 202.443 L
230.009 202.443 L
230.443 202.443 L
230.877 202.443 L
231.311 202.443 L
231.745 202.443 L
232.179 202.443 L
232.613 202.443 L
233.047 202.443 L
233.481 202.443 L
233.915 202.443 L
234.349 202.443 L
234.783 202.443 L
235.217 202.443 L
235.651 202.443 L
236.085 202.443 L
236.519 202.443 L
236.953 202.443 L
237.387 202.443 L
237.821 202.443 L
238.255 202.443 L
238.689 202.443 L
239.123 202.443 L
239.557 202.443 L
239.991 202.443 L
240.425 202.443 L
240.859 202.443 L
241.293 202.443 L
241.727 202.443 L
242.161 202.443 L
242.595 202.443 L
243.029 202.443 L
S
GR
GS
[0.75 0 0 0.75 0 0] CT
0 1 1 RC
1 LJ
0.667 LW
N
242.595 202.443 M
243.029 202.443 L
243.463 202.443 L
243.897 202.443 L
244.331 202.443 L
244.765 202.443 L
245.199 202.443 L
245.633 202.443 L
246.067 202.443 L
246.501 202.443 L
246.935 202.443 L
247.369 202.443 L
247.803 202.443 L
248.237 202.443 L
248.671 202.443 L
249.105 202.443 L
249.539 202.443 L
249.973 202.443 L
250.407 202.443 L
250.841 202.443 L
251.275 202.443 L
251.709 202.443 L
252.143 202.443 L
252.577 202.443 L
253.011 202.443 L
253.445 202.443 L
253.879 202.443 L
254.313 202.443 L
254.747 202.443 L
255.181 202.443 L
255.615 202.443 L
256.049 202.443 L
256.483 202.443 L
256.917 202.443 L
257.351 202.443 L
257.785 202.443 L
258.219 202.443 L
258.653 202.443 L
259.087 202.443 L
259.521 202.443 L
259.955 202.443 L
260.389 202.443 L
260.823 202.443 L
261.257 202.443 L
261.691 202.443 L
262.125 202.443 L
262.559 202.443 L
262.993 202.443 L
263.427 202.443 L
263.861 202.443 L
264.295 202.443 L
264.729 202.443 L
S
GR
GS
[0.75 0 0 0.75 0 0] CT
0 1 1 RC
1 LJ
0.667 LW
N
264.295 202.443 M
264.729 202.443 L
265.163 202.443 L
265.597 202.443 L
266.031 202.443 L
266.465 202.443 L
266.899 202.443 L
267.333 202.443 L
267.767 202.443 L
268.201 202.443 L
268.635 202.443 L
269.069 202.443 L
269.503 202.443 L
269.937 202.443 L
270.371 202.443 L
270.805 202.443 L
271.239 202.443 L
271.673 202.443 L
272.107 202.443 L
272.541 202.443 L
272.975 202.443 L
273.409 202.443 L
273.843 202.443 L
274.277 202.443 L
274.711 202.443 L
275.145 202.443 L
275.579 202.443 L
276.013 202.443 L
276.447 202.443 L
276.881 202.443 L
277.315 202.443 L
277.749 202.443 L
278.183 202.443 L
278.617 202.443 L
279.051 202.443 L
279.485 202.443 L
279.919 202.443 L
280.353 202.443 L
280.787 202.443 L
281.221 202.443 L
281.655 202.443 L
282.089 202.443 L
282.523 202.443 L
282.957 202.443 L
283.391 202.443 L
283.825 202.443 L
284.259 202.443 L
284.693 202.443 L
285.127 202.443 L
285.561 202.443 L
285.995 202.443 L
286.429 202.443 L
S
GR
GS
[0.75 0 0 0.75 0 0] CT
0 1 1 RC
1 LJ
0.667 LW
N
285.995 202.443 M
286.429 202.443 L
286.863 202.443 L
287.297 202.443 L
287.731 202.443 L
288.165 202.443 L
288.599 202.443 L
289.033 202.443 L
289.467 202.443 L
289.901 202.443 L
290.335 202.443 L
290.769 202.443 L
291.203 202.443 L
291.637 202.443 L
292.071 202.443 L
292.505 202.443 L
292.939 202.443 L
293.373 202.443 L
293.807 202.443 L
294.241 202.443 L
294.675 202.443 L
295.109 202.443 L
295.543 202.443 L
295.977 202.443 L
296.411 202.443 L
296.845 202.443 L
297.279 202.443 L
297.713 202.443 L
298.147 202.443 L
298.581 202.443 L
299.015 202.443 L
299.449 202.443 L
299.883 202.443 L
300.317 202.443 L
300.751 202.443 L
301.185 202.443 L
301.619 202.443 L
302.053 202.443 L
302.487 202.443 L
302.921 202.443 L
303.355 202.443 L
303.789 202.443 L
304.223 202.443 L
304.657 202.443 L
305.091 202.443 L
305.525 202.443 L
305.959 202.443 L
306.393 202.443 L
306.827 202.443 L
307.261 202.443 L
307.695 202.443 L
308.129 202.443 L
S
GR
GS
[0.75 0 0 0.75 0 0] CT
0 1 1 RC
1 LJ
0.667 LW
N
307.695 202.443 M
308.129 202.443 L
308.563 202.443 L
308.997 202.443 L
309.431 202.443 L
309.865 202.443 L
310.299 202.443 L
310.733 202.443 L
311.167 202.443 L
311.601 202.443 L
312.035 202.443 L
312.469 202.443 L
312.903 202.443 L
313.337 202.443 L
313.771 202.443 L
314.205 202.443 L
314.639 202.443 L
315.073 202.443 L
315.507 202.443 L
315.941 202.443 L
316.375 202.443 L
316.809 202.443 L
317.243 202.443 L
317.677 202.443 L
318.111 202.443 L
318.545 202.443 L
318.979 202.443 L
319.413 202.443 L
319.847 202.443 L
320.281 202.443 L
320.715 202.443 L
321.149 202.443 L
321.583 202.443 L
322.017 202.443 L
322.451 202.443 L
322.885 202.443 L
323.319 202.443 L
323.753 202.443 L
324.187 202.443 L
324.621 202.443 L
325.055 202.443 L
325.489 202.443 L
325.923 202.443 L
326.357 202.443 L
326.791 202.443 L
327.225 202.443 L
327.659 202.443 L
328.093 202.443 L
328.527 202.443 L
328.961 202.443 L
329.395 202.443 L
329.829 202.443 L
S
GR
GS
[0.75 0 0 0.75 0 0] CT
0 1 1 RC
1 LJ
0.667 LW
N
329.395 202.443 M
329.829 202.443 L
330.263 202.443 L
330.697 202.443 L
331.131 202.443 L
331.565 202.443 L
331.999 202.443 L
332.433 202.443 L
332.867 202.443 L
333.301 202.443 L
333.735 202.443 L
334.169 202.443 L
334.603 202.443 L
335.037 202.443 L
335.471 202.443 L
335.905 202.443 L
336.339 202.443 L
336.773 202.443 L
337.207 202.443 L
337.641 202.443 L
338.075 202.443 L
338.509 202.443 L
338.943 202.443 L
339.377 202.443 L
339.811 202.443 L
340.245 202.443 L
340.679 202.443 L
341.113 202.443 L
341.547 202.443 L
341.981 202.443 L
342.415 202.443 L
342.849 202.443 L
343.283 202.443 L
343.717 202.443 L
344.151 202.443 L
344.585 202.443 L
345.019 202.443 L
345.453 202.443 L
345.887 202.443 L
346.321 202.443 L
346.755 202.443 L
347.189 202.443 L
347.623 202.443 L
348.057 202.443 L
348.491 202.443 L
348.925 202.443 L
349.359 202.443 L
349.793 202.443 L
350.227 202.443 L
350.661 202.443 L
351.095 202.443 L
351.529 202.443 L
S
GR
GS
[0.75 0 0 0.75 0 0] CT
0 1 1 RC
1 LJ
0.667 LW
N
351.095 202.443 M
351.529 202.443 L
351.963 202.443 L
352.397 202.443 L
352.831 202.443 L
353.265 202.443 L
353.699 202.443 L
354.133 202.443 L
354.567 202.443 L
355.001 202.443 L
355.435 202.443 L
355.869 202.443 L
356.303 202.443 L
356.737 202.443 L
357.171 202.443 L
357.605 202.443 L
358.039 202.443 L
358.473 202.443 L
358.907 202.443 L
359.341 202.443 L
359.775 202.443 L
360.209 202.443 L
360.643 202.443 L
361.077 202.443 L
361.511 202.443 L
361.945 202.443 L
362.379 202.443 L
362.813 202.443 L
363.247 202.443 L
363.681 202.443 L
364.115 202.443 L
364.549 202.443 L
364.983 202.443 L
365.417 202.443 L
365.851 202.443 L
366.285 202.443 L
366.719 202.443 L
367.153 202.443 L
367.587 202.443 L
368.021 202.443 L
368.455 202.443 L
368.889 202.443 L
369.323 202.443 L
369.757 202.443 L
370.191 202.443 L
370.625 202.443 L
371.059 202.443 L
371.493 202.443 L
371.927 202.443 L
372.361 202.443 L
372.795 202.443 L
373.229 202.443 L
S
GR
GS
[0.75 0 0 0.75 0 0] CT
0 1 1 RC
1 LJ
0.667 LW
N
372.795 202.443 M
373.229 202.443 L
373.663 202.443 L
374.097 202.443 L
374.531 202.443 L
374.965 202.443 L
375.399 202.443 L
375.833 202.443 L
376.267 202.443 L
376.701 202.443 L
377.135 202.443 L
377.569 202.443 L
378.003 202.443 L
378.437 202.443 L
378.871 202.443 L
379.305 202.443 L
379.739 202.443 L
380.173 202.443 L
380.607 202.443 L
381.041 202.443 L
381.475 202.443 L
381.909 202.443 L
382.343 202.443 L
382.777 202.443 L
383.211 202.443 L
383.645 202.443 L
384.079 202.443 L
384.513 202.443 L
384.947 202.443 L
385.381 202.443 L
385.815 202.443 L
386.249 202.443 L
386.683 202.443 L
387.117 202.443 L
387.551 202.443 L
387.985 202.443 L
388.419 202.443 L
388.853 202.443 L
389.287 202.443 L
389.721 202.443 L
390.155 202.443 L
390.589 202.443 L
391.023 202.443 L
391.457 202.443 L
391.891 202.443 L
392.325 202.443 L
392.759 202.443 L
393.193 202.443 L
393.627 202.443 L
394.061 202.443 L
394.495 202.443 L
394.929 202.443 L
S
GR
GS
[0.75 0 0 0.75 0 0] CT
0 1 1 RC
1 LJ
0.667 LW
N
394.495 202.443 M
394.929 202.443 L
395.363 202.443 L
395.797 202.443 L
396.231 202.443 L
396.665 202.443 L
397.099 202.443 L
397.533 202.443 L
397.967 202.443 L
398.401 202.443 L
398.835 202.443 L
399.269 202.443 L
399.703 202.443 L
400.137 202.443 L
400.571 202.443 L
401.005 202.443 L
401.439 202.443 L
401.873 202.443 L
402.307 202.443 L
402.741 202.443 L
403.175 202.443 L
403.609 202.443 L
404.043 202.443 L
404.477 202.443 L
404.911 202.443 L
405.345 202.443 L
405.779 202.443 L
406.213 202.443 L
406.647 202.443 L
407.081 202.443 L
407.515 202.443 L
407.949 202.443 L
408.383 202.443 L
408.817 202.443 L
409.251 202.443 L
409.685 202.443 L
410.119 202.443 L
410.553 202.443 L
410.987 202.443 L
411.421 202.443 L
411.855 202.443 L
412.289 202.443 L
412.723 202.443 L
413.157 202.443 L
413.591 202.443 L
414.025 202.443 L
414.459 202.443 L
414.893 202.443 L
415.327 202.443 L
415.761 202.443 L
416.195 202.443 L
416.629 202.443 L
S
GR
GS
[0.75 0 0 0.75 0 0] CT
0 1 1 RC
1 LJ
0.667 LW
N
416.195 202.443 M
416.629 202.443 L
417.063 202.443 L
417.497 202.443 L
417.931 202.443 L
418.365 202.443 L
418.799 202.443 L
419.233 202.443 L
419.667 202.443 L
420.101 202.443 L
420.535 202.443 L
420.969 202.443 L
421.403 202.443 L
421.837 202.443 L
422.271 202.443 L
422.705 202.443 L
423.139 202.443 L
423.573 202.443 L
424.007 202.443 L
424.441 202.443 L
424.875 202.443 L
425.309 202.443 L
425.743 202.443 L
426.177 202.443 L
426.611 202.443 L
427.045 202.443 L
427.479 202.443 L
427.913 202.443 L
428.347 202.443 L
428.781 202.443 L
429.215 202.443 L
429.649 202.443 L
430.083 202.443 L
430.517 202.443 L
430.951 202.443 L
431.385 202.443 L
431.819 202.443 L
432.253 202.443 L
432.687 202.443 L
433.121 202.443 L
433.555 202.443 L
433.989 202.443 L
434.423 202.443 L
434.857 202.443 L
435.291 202.443 L
435.725 202.443 L
436.159 202.443 L
436.593 202.443 L
437.027 202.443 L
437.461 202.443 L
437.895 202.443 L
438.329 202.443 L
S
GR
GS
[0.75 0 0 0.75 0 0] CT
0 1 1 RC
1 LJ
0.667 LW
N
437.895 202.443 M
438.329 202.443 L
438.763 202.443 L
439.197 202.443 L
439.631 202.443 L
440.065 202.443 L
440.499 202.443 L
440.933 202.443 L
441.367 202.443 L
441.801 202.443 L
442.235 202.443 L
442.669 202.443 L
443.103 202.443 L
443.537 202.443 L
443.971 202.443 L
444.405 202.443 L
444.839 202.443 L
445.273 202.443 L
445.707 202.443 L
446.141 202.443 L
446.575 202.443 L
447.009 202.443 L
447.443 202.443 L
447.877 202.443 L
448.311 202.443 L
448.745 202.443 L
449.179 202.443 L
449.613 202.443 L
450.047 202.443 L
450.481 202.443 L
450.915 202.443 L
451.349 202.443 L
451.783 202.443 L
452.217 202.443 L
452.651 202.443 L
453.085 202.443 L
453.519 202.443 L
453.953 202.443 L
454.387 202.443 L
454.821 202.443 L
455.255 202.443 L
455.689 202.443 L
456.123 202.443 L
456.557 202.443 L
456.991 202.443 L
457.425 202.443 L
457.859 202.443 L
458.293 202.443 L
458.727 202.443 L
459.161 202.443 L
459.595 202.443 L
460.029 202.443 L
S
GR
GS
[0.75 0 0 0.75 0 0] CT
0 1 1 RC
1 LJ
0.667 LW
N
459.595 202.443 M
460.029 202.443 L
460.463 202.443 L
460.897 202.443 L
461.331 202.443 L
461.765 202.443 L
462.199 202.443 L
462.633 202.443 L
463.067 202.443 L
463.501 202.443 L
463.935 202.443 L
464.369 202.443 L
464.803 202.443 L
465.237 202.443 L
465.671 202.443 L
466.105 202.443 L
466.539 202.443 L
466.973 202.443 L
467.407 202.443 L
467.841 202.443 L
468.275 202.443 L
468.709 202.443 L
469.143 202.443 L
469.577 202.443 L
470.011 202.443 L
470.445 202.443 L
470.879 202.443 L
471.313 202.443 L
471.747 202.443 L
472.181 202.443 L
472.615 202.443 L
473.049 202.443 L
473.483 202.443 L
473.917 202.443 L
474.351 202.443 L
474.785 202.443 L
475.219 202.443 L
475.653 202.443 L
476.087 202.443 L
476.521 202.443 L
476.955 202.443 L
477.389 202.443 L
477.823 202.443 L
478.257 202.443 L
478.691 202.443 L
479.125 202.443 L
479.559 202.443 L
479.993 202.443 L
480.427 202.443 L
480.861 202.443 L
481.295 202.443 L
481.729 202.443 L
S
GR
GS
[0.75 0 0 0.75 0 0] CT
0 1 1 RC
1 LJ
0.667 LW
N
481.295 202.443 M
481.729 202.443 L
482.163 202.443 L
482.597 202.443 L
483.031 202.443 L
483.465 202.443 L
483.899 202.443 L
484.333 202.443 L
484.767 202.443 L
485.201 202.443 L
485.635 202.443 L
486.069 202.443 L
486.503 202.443 L
486.937 202.443 L
487.371 202.443 L
487.805 202.443 L
488.239 202.443 L
488.673 202.443 L
489.107 202.443 L
489.541 202.443 L
489.975 202.443 L
490.409 202.443 L
490.843 202.443 L
491.277 202.443 L
491.711 202.443 L
492.145 202.443 L
492.579 202.443 L
493.013 202.443 L
493.447 202.443 L
493.881 202.443 L
494.315 202.443 L
494.749 202.443 L
495.183 202.443 L
495.617 202.443 L
496.051 202.443 L
496.485 202.443 L
496.919 202.443 L
497.353 202.443 L
497.787 202.443 L
498.221 202.443 L
498.655 202.443 L
499.089 202.443 L
499.523 202.443 L
499.957 202.443 L
500.391 202.443 L
500.825 202.443 L
501.259 202.443 L
501.693 202.443 L
502.127 202.443 L
502.561 202.443 L
502.995 202.443 L
503.429 202.443 L
S
GR
GS
[0.75 0 0 0.75 0 0] CT
0 1 1 RC
1 LJ
0.667 LW
N
502.995 202.443 M
503.429 202.443 L
503.863 202.443 L
504.297 202.443 L
504.731 202.443 L
505.165 202.443 L
505.599 202.443 L
506.033 202.443 L
506.467 202.443 L
506.901 202.443 L
507 202.443 L
S
GR
GS
[0.75 0 0 0.75 0 0] CT
1 0 0 RC
1 LJ
0.667 LW
N
73 263.839 M
73 263.839 L
73 263.839 L
73 263.842 L
73.001 263.856 L
73.003 263.926 L
73.013 264.273 L
73.067 265.999 L
73.335 274.399 L
73.769 287.182 L
74.203 298.932 L
74.637 309.645 L
75.071 319.327 L
75.505 327.994 L
75.939 335.667 L
76.373 342.376 L
76.807 348.151 L
77.241 353.031 L
77.675 357.055 L
78.109 360.264 L
78.543 362.702 L
78.977 364.414 L
79.411 365.444 L
79.845 365.837 L
80.279 365.638 L
80.713 364.891 L
81.147 363.64 L
81.581 361.926 L
82.015 359.79 L
82.449 357.272 L
82.883 354.409 L
83.317 351.239 L
83.751 347.796 L
84.185 344.113 L
84.619 340.222 L
85.053 336.152 L
85.487 331.93 L
85.921 327.584 L
86.355 323.138 L
86.789 318.614 L
87.223 314.035 L
87.657 309.419 L
88.091 304.786 L
88.525 300.151 L
88.959 295.53 L
89.393 290.938 L
89.827 286.387 L
90.261 281.889 L
90.695 277.453 L
91.129 273.09 L
S
GR
GS
[0.75 0 0 0.75 0 0] CT
1 0 0 RC
1 LJ
0.667 LW
N
90.695 277.453 M
91.129 273.09 L
91.563 268.808 L
91.997 264.614 L
92.431 260.515 L
92.865 256.515 L
93.299 252.621 L
93.733 248.835 L
94.167 245.161 L
94.601 241.602 L
95.035 238.159 L
95.469 234.835 L
95.903 231.63 L
96.337 228.545 L
96.771 225.58 L
97.205 222.734 L
97.639 220.007 L
98.073 217.398 L
98.507 214.905 L
98.941 212.528 L
99.375 210.263 L
99.809 208.11 L
100.243 206.066 L
100.677 204.129 L
101.111 202.296 L
101.545 200.564 L
101.979 198.932 L
102.413 197.396 L
102.847 195.953 L
103.281 194.601 L
103.715 193.337 L
104.149 192.157 L
104.583 191.059 L
105.017 190.04 L
105.451 189.097 L
105.885 188.227 L
106.319 187.427 L
106.753 186.694 L
107.187 186.026 L
107.621 185.419 L
108.055 184.871 L
108.489 184.379 L
108.923 183.941 L
109.357 183.554 L
109.791 183.215 L
110.225 182.923 L
110.659 182.674 L
111.093 182.466 L
111.527 182.298 L
111.961 182.166 L
112.395 182.069 L
112.829 182.006 L
S
GR
GS
[0.75 0 0 0.75 0 0] CT
1 0 0 RC
1 LJ
0.667 LW
N
112.395 182.069 M
112.829 182.006 L
113.263 181.972 L
113.697 181.968 L
114.131 181.991 L
114.565 182.039 L
114.999 182.111 L
115.433 182.205 L
115.867 182.319 L
116.301 182.453 L
116.735 182.604 L
117.169 182.771 L
117.603 182.953 L
118.037 183.148 L
118.471 183.357 L
118.905 183.576 L
119.339 183.806 L
119.773 184.045 L
120.207 184.292 L
120.641 184.546 L
121.075 184.807 L
121.509 185.074 L
121.943 185.345 L
122.377 185.621 L
122.811 185.9 L
123.245 186.182 L
123.679 186.466 L
124.113 186.751 L
124.547 187.038 L
124.981 187.325 L
125.415 187.613 L
125.849 187.9 L
126.283 188.186 L
126.717 188.471 L
127.151 188.755 L
127.585 189.037 L
128.019 189.316 L
128.453 189.594 L
128.887 189.868 L
129.321 190.14 L
129.755 190.409 L
130.189 190.675 L
130.623 190.937 L
131.057 191.195 L
131.491 191.45 L
131.925 191.701 L
132.359 191.947 L
132.793 192.19 L
133.227 192.429 L
133.661 192.663 L
134.095 192.893 L
134.529 193.119 L
S
GR
GS
[0.75 0 0 0.75 0 0] CT
1 0 0 RC
1 LJ
0.667 LW
N
134.095 192.893 M
134.529 193.119 L
134.963 193.341 L
135.397 193.558 L
135.831 193.77 L
136.265 193.978 L
136.699 194.182 L
137.133 194.381 L
137.567 194.576 L
138.001 194.767 L
138.435 194.953 L
138.869 195.135 L
139.303 195.312 L
139.737 195.486 L
140.171 195.655 L
140.605 195.82 L
141.039 195.98 L
141.473 196.137 L
141.907 196.29 L
142.341 196.438 L
142.775 196.583 L
143.209 196.724 L
143.643 196.861 L
144.077 196.994 L
144.511 197.124 L
144.945 197.25 L
145.379 197.372 L
145.813 197.492 L
146.247 197.607 L
146.681 197.72 L
147.115 197.829 L
147.549 197.935 L
147.983 198.038 L
148.417 198.137 L
148.851 198.234 L
149.285 198.328 L
149.719 198.419 L
150.153 198.508 L
150.587 198.593 L
151.021 198.676 L
151.455 198.756 L
151.889 198.834 L
152.323 198.91 L
152.757 198.983 L
153.191 199.054 L
153.625 199.122 L
154.059 199.188 L
154.493 199.253 L
154.927 199.315 L
155.361 199.375 L
155.795 199.433 L
156.229 199.489 L
S
GR
GS
[0.75 0 0 0.75 0 0] CT
1 0 0 RC
1 LJ
0.667 LW
N
155.795 199.433 M
156.229 199.489 L
156.663 199.543 L
157.097 199.596 L
157.531 199.647 L
157.965 199.696 L
158.399 199.743 L
158.833 199.789 L
159.267 199.833 L
159.701 199.876 L
160.135 199.917 L
160.569 199.957 L
161.003 199.996 L
161.437 200.033 L
161.871 200.069 L
162.305 200.104 L
162.739 200.137 L
163.173 200.169 L
163.607 200.2 L
164.041 200.23 L
164.475 200.259 L
164.909 200.287 L
165.343 200.314 L
165.777 200.34 L
166.211 200.366 L
166.645 200.39 L
167.079 200.413 L
167.513 200.435 L
167.947 200.457 L
168.381 200.478 L
168.815 200.498 L
169.249 200.518 L
169.683 200.536 L
170.117 200.554 L
170.551 200.572 L
170.985 200.588 L
171.419 200.604 L
171.853 200.62 L
172.287 200.635 L
172.721 200.649 L
173.155 200.663 L
173.589 200.676 L
174.023 200.689 L
174.457 200.701 L
174.891 200.713 L
175.325 200.725 L
175.759 200.736 L
176.193 200.746 L
176.627 200.756 L
177.061 200.766 L
177.495 200.775 L
177.929 200.784 L
S
GR
GS
[0.75 0 0 0.75 0 0] CT
1 0 0 RC
1 LJ
0.667 LW
N
177.495 200.775 M
177.929 200.784 L
178.363 200.793 L
178.797 200.802 L
179.231 200.81 L
179.665 200.817 L
180.099 200.825 L
180.533 200.832 L
180.967 200.839 L
181.401 200.845 L
181.835 200.852 L
182.269 200.858 L
182.703 200.864 L
183.137 200.869 L
183.571 200.875 L
184.005 200.88 L
184.439 200.885 L
184.873 200.89 L
185.307 200.895 L
185.741 200.899 L
186.175 200.903 L
186.609 200.907 L
187.043 200.911 L
187.477 200.915 L
187.911 200.919 L
188.345 200.922 L
188.779 200.926 L
189.213 200.929 L
189.647 200.932 L
190.081 200.935 L
190.515 200.938 L
190.949 200.94 L
191.383 200.943 L
191.817 200.945 L
192.251 200.948 L
192.685 200.95 L
193.119 200.952 L
193.553 200.955 L
193.987 200.957 L
194.421 200.959 L
194.855 200.96 L
195.289 200.962 L
195.723 200.964 L
196.157 200.966 L
196.591 200.967 L
197.025 200.969 L
197.459 200.97 L
197.893 200.972 L
198.327 200.973 L
198.761 200.974 L
199.195 200.976 L
199.629 200.977 L
S
GR
GS
[0.75 0 0 0.75 0 0] CT
1 0 0 RC
1 LJ
0.667 LW
N
199.195 200.976 M
199.629 200.977 L
200.063 200.978 L
200.497 200.979 L
200.931 200.98 L
201.365 200.981 L
201.799 200.982 L
202.233 200.983 L
202.667 200.984 L
203.101 200.985 L
203.535 200.986 L
203.969 200.986 L
204.403 200.987 L
204.837 200.988 L
205.271 200.989 L
205.705 200.989 L
206.139 200.99 L
206.573 200.99 L
207.007 200.991 L
207.441 200.992 L
207.875 200.992 L
208.309 200.993 L
208.743 200.993 L
209.177 200.994 L
209.611 200.994 L
210.045 200.994 L
210.479 200.995 L
210.913 200.995 L
211.347 200.996 L
211.781 200.996 L
212.215 200.996 L
212.649 200.997 L
213.083 200.997 L
213.517 200.997 L
213.951 200.998 L
214.385 200.998 L
214.819 200.998 L
215.253 200.998 L
215.687 200.999 L
216.121 200.999 L
216.555 200.999 L
216.989 200.999 L
217.423 201 L
217.857 201 L
218.291 201 L
218.725 201 L
219.159 201 L
219.593 201 L
220.027 201.001 L
220.461 201.001 L
220.895 201.001 L
221.329 201.001 L
S
GR
GS
[0.75 0 0 0.75 0 0] CT
1 0 0 RC
1 LJ
0.667 LW
N
220.895 201.001 M
221.329 201.001 L
221.763 201.001 L
222.197 201.001 L
222.631 201.001 L
223.065 201.002 L
223.499 201.002 L
223.933 201.002 L
224.367 201.002 L
224.801 201.002 L
225.235 201.002 L
225.669 201.002 L
226.103 201.002 L
226.537 201.002 L
226.971 201.002 L
227.405 201.003 L
227.839 201.003 L
228.273 201.003 L
228.707 201.003 L
229.141 201.003 L
229.575 201.003 L
230.009 201.003 L
230.443 201.003 L
230.877 201.003 L
231.311 201.003 L
231.745 201.003 L
232.179 201.003 L
232.613 201.003 L
233.047 201.003 L
233.481 201.003 L
233.915 201.003 L
234.349 201.003 L
234.783 201.003 L
235.217 201.003 L
235.651 201.003 L
236.085 201.003 L
236.519 201.004 L
236.953 201.004 L
237.387 201.004 L
237.821 201.004 L
238.255 201.004 L
238.689 201.004 L
239.123 201.004 L
239.557 201.004 L
239.991 201.004 L
240.425 201.004 L
240.859 201.004 L
241.293 201.004 L
241.727 201.004 L
242.161 201.004 L
242.595 201.004 L
243.029 201.004 L
S
GR
GS
[0.75 0 0 0.75 0 0] CT
1 0 0 RC
1 LJ
0.667 LW
N
242.595 201.004 M
243.029 201.004 L
243.463 201.004 L
243.897 201.004 L
244.331 201.004 L
244.765 201.004 L
245.199 201.004 L
245.633 201.004 L
246.067 201.004 L
246.501 201.004 L
246.935 201.004 L
247.369 201.004 L
247.803 201.004 L
248.237 201.004 L
248.671 201.004 L
249.105 201.004 L
249.539 201.004 L
249.973 201.004 L
250.407 201.004 L
250.841 201.004 L
251.275 201.004 L
251.709 201.004 L
252.143 201.004 L
252.577 201.004 L
253.011 201.004 L
253.445 201.004 L
253.879 201.004 L
254.313 201.004 L
254.747 201.004 L
255.181 201.004 L
255.615 201.004 L
256.049 201.004 L
256.483 201.004 L
256.917 201.004 L
257.351 201.004 L
257.785 201.004 L
258.219 201.004 L
258.653 201.004 L
259.087 201.004 L
259.521 201.004 L
259.955 201.004 L
260.389 201.004 L
260.823 201.004 L
261.257 201.004 L
261.691 201.004 L
262.125 201.004 L
262.559 201.004 L
262.993 201.004 L
263.427 201.004 L
263.861 201.004 L
264.295 201.004 L
264.729 201.004 L
S
GR
GS
[0.75 0 0 0.75 0 0] CT
1 0 0 RC
1 LJ
0.667 LW
N
264.295 201.004 M
264.729 201.004 L
265.163 201.004 L
265.597 201.004 L
266.031 201.004 L
266.465 201.004 L
266.899 201.004 L
267.333 201.004 L
267.767 201.004 L
268.201 201.004 L
268.635 201.004 L
269.069 201.004 L
269.503 201.004 L
269.937 201.004 L
270.371 201.004 L
270.805 201.004 L
271.239 201.004 L
271.673 201.004 L
272.107 201.004 L
272.541 201.004 L
272.975 201.004 L
273.409 201.004 L
273.843 201.004 L
274.277 201.004 L
274.711 201.004 L
275.145 201.004 L
275.579 201.004 L
276.013 201.004 L
276.447 201.004 L
276.881 201.004 L
277.315 201.004 L
277.749 201.004 L
278.183 201.004 L
278.617 201.004 L
279.051 201.004 L
279.485 201.004 L
279.919 201.004 L
280.353 201.004 L
280.787 201.004 L
281.221 201.004 L
281.655 201.004 L
282.089 201.004 L
282.523 201.004 L
282.957 201.004 L
283.391 201.004 L
283.825 201.004 L
284.259 201.004 L
284.693 201.004 L
285.127 201.004 L
285.561 201.004 L
285.995 201.004 L
286.429 201.004 L
S
GR
GS
[0.75 0 0 0.75 0 0] CT
1 0 0 RC
1 LJ
0.667 LW
N
285.995 201.004 M
286.429 201.004 L
286.863 201.004 L
287.297 201.004 L
287.731 201.004 L
288.165 201.004 L
288.599 201.004 L
289.033 201.004 L
289.467 201.004 L
289.901 201.004 L
290.335 201.004 L
290.769 201.004 L
291.203 201.004 L
291.637 201.004 L
292.071 201.004 L
292.505 201.004 L
292.939 201.004 L
293.373 201.004 L
293.807 201.004 L
294.241 201.004 L
294.675 201.004 L
295.109 201.004 L
295.543 201.004 L
295.977 201.004 L
296.411 201.004 L
296.845 201.004 L
297.279 201.004 L
297.713 201.004 L
298.147 201.004 L
298.581 201.004 L
299.015 201.004 L
299.449 201.004 L
299.883 201.004 L
300.317 201.004 L
300.751 201.004 L
301.185 201.004 L
301.619 201.004 L
302.053 201.004 L
302.487 201.004 L
302.921 201.004 L
303.355 201.004 L
303.789 201.004 L
304.223 201.004 L
304.657 201.004 L
305.091 201.004 L
305.525 201.004 L
305.959 201.004 L
306.393 201.004 L
306.827 201.004 L
307.261 201.004 L
307.695 201.004 L
308.129 201.004 L
S
GR
GS
[0.75 0 0 0.75 0 0] CT
1 0 0 RC
1 LJ
0.667 LW
N
307.695 201.004 M
308.129 201.004 L
308.563 201.004 L
308.997 201.004 L
309.431 201.004 L
309.865 201.004 L
310.299 201.004 L
310.733 201.004 L
311.167 201.004 L
311.601 201.004 L
312.035 201.004 L
312.469 201.004 L
312.903 201.004 L
313.337 201.004 L
313.771 201.004 L
314.205 201.004 L
314.639 201.004 L
315.073 201.004 L
315.507 201.004 L
315.941 201.004 L
316.375 201.004 L
316.809 201.004 L
317.243 201.004 L
317.677 201.004 L
318.111 201.004 L
318.545 201.004 L
318.979 201.004 L
319.413 201.004 L
319.847 201.004 L
320.281 201.004 L
320.715 201.004 L
321.149 201.004 L
321.583 201.004 L
322.017 201.004 L
322.451 201.004 L
322.885 201.004 L
323.319 201.004 L
323.753 201.004 L
324.187 201.004 L
324.621 201.004 L
325.055 201.004 L
325.489 201.004 L
325.923 201.004 L
326.357 201.004 L
326.791 201.004 L
327.225 201.004 L
327.659 201.004 L
328.093 201.004 L
328.527 201.004 L
328.961 201.004 L
329.395 201.004 L
329.829 201.004 L
S
GR
GS
[0.75 0 0 0.75 0 0] CT
1 0 0 RC
1 LJ
0.667 LW
N
329.395 201.004 M
329.829 201.004 L
330.263 201.004 L
330.697 201.004 L
331.131 201.004 L
331.565 201.004 L
331.999 201.004 L
332.433 201.004 L
332.867 201.004 L
333.301 201.004 L
333.735 201.004 L
334.169 201.004 L
334.603 201.004 L
335.037 201.004 L
335.471 201.004 L
335.905 201.004 L
336.339 201.004 L
336.773 201.004 L
337.207 201.004 L
337.641 201.004 L
338.075 201.004 L
338.509 201.004 L
338.943 201.004 L
339.377 201.004 L
339.811 201.004 L
340.245 201.004 L
340.679 201.004 L
341.113 201.004 L
341.547 201.004 L
341.981 201.004 L
342.415 201.004 L
342.849 201.004 L
343.283 201.004 L
343.717 201.004 L
344.151 201.004 L
344.585 201.004 L
345.019 201.004 L
345.453 201.004 L
345.887 201.004 L
346.321 201.004 L
346.755 201.004 L
347.189 201.004 L
347.623 201.004 L
348.057 201.004 L
348.491 201.004 L
348.925 201.004 L
349.359 201.004 L
349.793 201.004 L
350.227 201.004 L
350.661 201.004 L
351.095 201.004 L
351.529 201.004 L
S
GR
GS
[0.75 0 0 0.75 0 0] CT
1 0 0 RC
1 LJ
0.667 LW
N
351.095 201.004 M
351.529 201.004 L
351.963 201.004 L
352.397 201.004 L
352.831 201.004 L
353.265 201.004 L
353.699 201.004 L
354.133 201.004 L
354.567 201.004 L
355.001 201.004 L
355.435 201.004 L
355.869 201.004 L
356.303 201.004 L
356.737 201.004 L
357.171 201.004 L
357.605 201.004 L
358.039 201.004 L
358.473 201.004 L
358.907 201.004 L
359.341 201.004 L
359.775 201.004 L
360.209 201.004 L
360.643 201.004 L
361.077 201.004 L
361.511 201.004 L
361.945 201.004 L
362.379 201.004 L
362.813 201.004 L
363.247 201.004 L
363.681 201.004 L
364.115 201.004 L
364.549 201.004 L
364.983 201.004 L
365.417 201.004 L
365.851 201.004 L
366.285 201.004 L
366.719 201.004 L
367.153 201.004 L
367.587 201.004 L
368.021 201.004 L
368.455 201.004 L
368.889 201.004 L
369.323 201.004 L
369.757 201.004 L
370.191 201.004 L
370.625 201.004 L
371.059 201.004 L
371.493 201.004 L
371.927 201.004 L
372.361 201.004 L
372.795 201.004 L
373.229 201.004 L
S
GR
GS
[0.75 0 0 0.75 0 0] CT
1 0 0 RC
1 LJ
0.667 LW
N
372.795 201.004 M
373.229 201.004 L
373.663 201.004 L
374.097 201.004 L
374.531 201.004 L
374.965 201.004 L
375.399 201.004 L
375.833 201.004 L
376.267 201.004 L
376.701 201.004 L
377.135 201.004 L
377.569 201.004 L
378.003 201.004 L
378.437 201.004 L
378.871 201.004 L
379.305 201.004 L
379.739 201.004 L
380.173 201.004 L
380.607 201.004 L
381.041 201.004 L
381.475 201.004 L
381.909 201.004 L
382.343 201.004 L
382.777 201.004 L
383.211 201.004 L
383.645 201.004 L
384.079 201.004 L
384.513 201.004 L
384.947 201.004 L
385.381 201.004 L
385.815 201.004 L
386.249 201.004 L
386.683 201.004 L
387.117 201.004 L
387.551 201.004 L
387.985 201.004 L
388.419 201.004 L
388.853 201.004 L
389.287 201.004 L
389.721 201.004 L
390.155 201.004 L
390.589 201.004 L
391.023 201.004 L
391.457 201.004 L
391.891 201.004 L
392.325 201.004 L
392.759 201.004 L
393.193 201.004 L
393.627 201.004 L
394.061 201.004 L
394.495 201.004 L
394.929 201.004 L
S
GR
GS
[0.75 0 0 0.75 0 0] CT
1 0 0 RC
1 LJ
0.667 LW
N
394.495 201.004 M
394.929 201.004 L
395.363 201.004 L
395.797 201.004 L
396.231 201.004 L
396.665 201.004 L
397.099 201.004 L
397.533 201.004 L
397.967 201.004 L
398.401 201.004 L
398.835 201.004 L
399.269 201.004 L
399.703 201.004 L
400.137 201.004 L
400.571 201.004 L
401.005 201.004 L
401.439 201.004 L
401.873 201.004 L
402.307 201.004 L
402.741 201.004 L
403.175 201.004 L
403.609 201.004 L
404.043 201.004 L
404.477 201.004 L
404.911 201.004 L
405.345 201.004 L
405.779 201.004 L
406.213 201.004 L
406.647 201.004 L
407.081 201.004 L
407.515 201.004 L
407.949 201.004 L
408.383 201.004 L
408.817 201.004 L
409.251 201.004 L
409.685 201.004 L
410.119 201.004 L
410.553 201.004 L
410.987 201.004 L
411.421 201.004 L
411.855 201.004 L
412.289 201.004 L
412.723 201.004 L
413.157 201.004 L
413.591 201.004 L
414.025 201.004 L
414.459 201.004 L
414.893 201.004 L
415.327 201.004 L
415.761 201.004 L
416.195 201.004 L
416.629 201.004 L
S
GR
GS
[0.75 0 0 0.75 0 0] CT
1 0 0 RC
1 LJ
0.667 LW
N
416.195 201.004 M
416.629 201.004 L
417.063 201.004 L
417.497 201.004 L
417.931 201.004 L
418.365 201.004 L
418.799 201.004 L
419.233 201.004 L
419.667 201.004 L
420.101 201.004 L
420.535 201.004 L
420.969 201.004 L
421.403 201.004 L
421.837 201.004 L
422.271 201.004 L
422.705 201.004 L
423.139 201.004 L
423.573 201.004 L
424.007 201.004 L
424.441 201.004 L
424.875 201.004 L
425.309 201.004 L
425.743 201.004 L
426.177 201.004 L
426.611 201.004 L
427.045 201.004 L
427.479 201.004 L
427.913 201.004 L
428.347 201.004 L
428.781 201.004 L
429.215 201.004 L
429.649 201.004 L
430.083 201.004 L
430.517 201.004 L
430.951 201.004 L
431.385 201.004 L
431.819 201.004 L
432.253 201.004 L
432.687 201.004 L
433.121 201.004 L
433.555 201.004 L
433.989 201.004 L
434.423 201.004 L
434.857 201.004 L
435.291 201.004 L
435.725 201.004 L
436.159 201.004 L
436.593 201.004 L
437.027 201.004 L
437.461 201.004 L
437.895 201.004 L
438.329 201.004 L
S
GR
GS
[0.75 0 0 0.75 0 0] CT
1 0 0 RC
1 LJ
0.667 LW
N
437.895 201.004 M
438.329 201.004 L
438.763 201.004 L
439.197 201.004 L
439.631 201.004 L
440.065 201.004 L
440.499 201.004 L
440.933 201.004 L
441.367 201.004 L
441.801 201.004 L
442.235 201.004 L
442.669 201.004 L
443.103 201.004 L
443.537 201.004 L
443.971 201.004 L
444.405 201.004 L
444.839 201.004 L
445.273 201.004 L
445.707 201.004 L
446.141 201.004 L
446.575 201.004 L
447.009 201.004 L
447.443 201.004 L
447.877 201.004 L
448.311 201.004 L
448.745 201.004 L
449.179 201.004 L
449.613 201.004 L
450.047 201.004 L
450.481 201.004 L
450.915 201.004 L
451.349 201.004 L
451.783 201.004 L
452.217 201.004 L
452.651 201.004 L
453.085 201.004 L
453.519 201.004 L
453.953 201.004 L
454.387 201.004 L
454.821 201.004 L
455.255 201.004 L
455.689 201.004 L
456.123 201.004 L
456.557 201.004 L
456.991 201.004 L
457.425 201.004 L
457.859 201.004 L
458.293 201.004 L
458.727 201.004 L
459.161 201.004 L
459.595 201.004 L
460.029 201.004 L
S
GR
GS
[0.75 0 0 0.75 0 0] CT
1 0 0 RC
1 LJ
0.667 LW
N
459.595 201.004 M
460.029 201.004 L
460.463 201.004 L
460.897 201.004 L
461.331 201.004 L
461.765 201.004 L
462.199 201.004 L
462.633 201.004 L
463.067 201.004 L
463.501 201.004 L
463.935 201.004 L
464.369 201.004 L
464.803 201.004 L
465.237 201.004 L
465.671 201.004 L
466.105 201.004 L
466.539 201.004 L
466.973 201.004 L
467.407 201.004 L
467.841 201.004 L
468.275 201.004 L
468.709 201.004 L
469.143 201.004 L
469.577 201.004 L
470.011 201.004 L
470.445 201.004 L
470.879 201.004 L
471.313 201.004 L
471.747 201.004 L
472.181 201.004 L
472.615 201.004 L
473.049 201.004 L
473.483 201.004 L
473.917 201.004 L
474.351 201.004 L
474.785 201.004 L
475.219 201.004 L
475.653 201.004 L
476.087 201.004 L
476.521 201.004 L
476.955 201.004 L
477.389 201.004 L
477.823 201.004 L
478.257 201.004 L
478.691 201.004 L
479.125 201.004 L
479.559 201.004 L
479.993 201.004 L
480.427 201.004 L
480.861 201.004 L
481.295 201.004 L
481.729 201.004 L
S
GR
GS
[0.75 0 0 0.75 0 0] CT
1 0 0 RC
1 LJ
0.667 LW
N
481.295 201.004 M
481.729 201.004 L
482.163 201.004 L
482.597 201.004 L
483.031 201.004 L
483.465 201.004 L
483.899 201.004 L
484.333 201.004 L
484.767 201.004 L
485.201 201.004 L
485.635 201.004 L
486.069 201.004 L
486.503 201.004 L
486.937 201.004 L
487.371 201.004 L
487.805 201.004 L
488.239 201.004 L
488.673 201.004 L
489.107 201.004 L
489.541 201.004 L
489.975 201.004 L
490.409 201.004 L
490.843 201.004 L
491.277 201.004 L
491.711 201.004 L
492.145 201.004 L
492.579 201.004 L
493.013 201.004 L
493.447 201.004 L
493.881 201.004 L
494.315 201.004 L
494.749 201.004 L
495.183 201.004 L
495.617 201.004 L
496.051 201.004 L
496.485 201.004 L
496.919 201.004 L
497.353 201.004 L
497.787 201.004 L
498.221 201.004 L
498.655 201.004 L
499.089 201.004 L
499.523 201.004 L
499.957 201.004 L
500.391 201.004 L
500.825 201.004 L
501.259 201.004 L
501.693 201.004 L
502.127 201.004 L
502.561 201.004 L
502.995 201.004 L
503.429 201.004 L
S
GR
GS
[0.75 0 0 0.75 0 0] CT
1 0 0 RC
1 LJ
0.667 LW
N
502.995 201.004 M
503.429 201.004 L
503.863 201.004 L
504.297 201.004 L
504.731 201.004 L
505.165 201.004 L
505.599 201.004 L
506.033 201.004 L
506.467 201.004 L
506.901 201.004 L
507 201.004 L
S
GR
GS
[0.75 0 0 0.75 0 0] CT
1 0 1 RC
1 LJ
0.667 LW
N
73 155.974 M
73 155.974 L
73 155.974 L
73 155.972 L
73.001 155.962 L
73.003 155.911 L
73.013 155.657 L
73.067 154.394 L
73.335 148.249 L
73.769 138.898 L
74.203 130.303 L
74.637 122.467 L
75.071 115.386 L
75.505 109.048 L
75.939 103.437 L
76.373 98.533 L
76.807 94.311 L
77.241 90.745 L
77.675 87.806 L
78.109 85.463 L
78.543 83.684 L
78.977 82.437 L
79.411 81.689 L
79.845 81.407 L
80.279 81.558 L
80.713 82.11 L
81.147 83.032 L
81.581 84.292 L
82.015 85.86 L
82.449 87.708 L
82.883 89.808 L
83.317 92.133 L
83.751 94.657 L
84.185 97.357 L
84.619 100.209 L
85.053 103.192 L
85.487 106.286 L
85.921 109.47 L
86.355 112.727 L
86.789 116.041 L
87.223 119.396 L
87.657 122.776 L
88.091 126.17 L
88.525 129.564 L
88.959 132.948 L
89.393 136.31 L
89.827 139.643 L
90.261 142.936 L
90.695 146.183 L
91.129 149.377 L
S
GR
GS
[0.75 0 0 0.75 0 0] CT
1 0 1 RC
1 LJ
0.667 LW
N
90.695 146.183 M
91.129 149.377 L
91.563 152.512 L
91.997 155.582 L
92.431 158.582 L
92.865 161.509 L
93.299 164.359 L
93.733 167.13 L
94.167 169.818 L
94.601 172.422 L
95.035 174.941 L
95.469 177.372 L
95.903 179.717 L
96.337 181.973 L
96.771 184.142 L
97.205 186.223 L
97.639 188.217 L
98.073 190.125 L
98.507 191.947 L
98.941 193.685 L
99.375 195.34 L
99.809 196.914 L
100.243 198.407 L
100.677 199.823 L
101.111 201.162 L
101.545 202.426 L
101.979 203.619 L
102.413 204.74 L
102.847 205.793 L
103.281 206.78 L
103.715 207.703 L
104.149 208.563 L
104.583 209.364 L
105.017 210.107 L
105.451 210.794 L
105.885 211.428 L
106.319 212.011 L
106.753 212.544 L
107.187 213.03 L
107.621 213.472 L
108.055 213.87 L
108.489 214.227 L
108.923 214.544 L
109.357 214.825 L
109.791 215.07 L
110.225 215.281 L
110.659 215.461 L
111.093 215.61 L
111.527 215.731 L
111.961 215.824 L
112.395 215.892 L
112.829 215.936 L
S
GR
GS
[0.75 0 0 0.75 0 0] CT
1 0 1 RC
1 LJ
0.667 LW
N
112.395 215.892 M
112.829 215.936 L
113.263 215.958 L
113.697 215.959 L
114.131 215.939 L
114.565 215.902 L
114.999 215.847 L
115.433 215.775 L
115.867 215.689 L
116.301 215.589 L
116.735 215.477 L
117.169 215.352 L
117.603 215.217 L
118.037 215.071 L
118.471 214.917 L
118.905 214.754 L
119.339 214.584 L
119.773 214.407 L
120.207 214.224 L
120.641 214.036 L
121.075 213.843 L
121.509 213.646 L
121.943 213.446 L
122.377 213.242 L
122.811 213.036 L
123.245 212.828 L
123.679 212.619 L
124.113 212.408 L
124.547 212.197 L
124.981 211.985 L
125.415 211.773 L
125.849 211.562 L
126.283 211.351 L
126.717 211.141 L
127.151 210.932 L
127.585 210.724 L
128.019 210.518 L
128.453 210.314 L
128.887 210.112 L
129.321 209.911 L
129.755 209.714 L
130.189 209.518 L
130.623 209.325 L
131.057 209.135 L
131.491 208.948 L
131.925 208.763 L
132.359 208.582 L
132.793 208.403 L
133.227 208.227 L
133.661 208.055 L
134.095 207.886 L
134.529 207.72 L
S
GR
GS
[0.75 0 0 0.75 0 0] CT
1 0 1 RC
1 LJ
0.667 LW
N
134.095 207.886 M
134.529 207.72 L
134.963 207.557 L
135.397 207.397 L
135.831 207.241 L
136.265 207.088 L
136.699 206.938 L
137.133 206.791 L
137.567 206.648 L
138.001 206.508 L
138.435 206.371 L
138.869 206.237 L
139.303 206.107 L
139.737 205.979 L
140.171 205.855 L
140.605 205.734 L
141.039 205.616 L
141.473 205.501 L
141.907 205.389 L
142.341 205.279 L
142.775 205.173 L
143.209 205.069 L
143.643 204.969 L
144.077 204.871 L
144.511 204.775 L
144.945 204.683 L
145.379 204.593 L
145.813 204.505 L
146.247 204.42 L
146.681 204.337 L
147.115 204.257 L
147.549 204.179 L
147.983 204.104 L
148.417 204.031 L
148.851 203.959 L
149.285 203.89 L
149.719 203.823 L
150.153 203.759 L
150.587 203.696 L
151.021 203.635 L
151.455 203.576 L
151.889 203.518 L
152.323 203.463 L
152.757 203.409 L
153.191 203.357 L
153.625 203.307 L
154.059 203.258 L
154.493 203.211 L
154.927 203.166 L
155.361 203.122 L
155.795 203.079 L
156.229 203.038 L
S
GR
GS
[0.75 0 0 0.75 0 0] CT
1 0 1 RC
1 LJ
0.667 LW
N
155.795 203.079 M
156.229 203.038 L
156.663 202.998 L
157.097 202.959 L
157.531 202.922 L
157.965 202.886 L
158.399 202.851 L
158.833 202.817 L
159.267 202.785 L
159.701 202.753 L
160.135 202.723 L
160.569 202.694 L
161.003 202.665 L
161.437 202.638 L
161.871 202.612 L
162.305 202.586 L
162.739 202.562 L
163.173 202.538 L
163.607 202.515 L
164.041 202.493 L
164.475 202.472 L
164.909 202.451 L
165.343 202.431 L
165.777 202.412 L
166.211 202.394 L
166.645 202.376 L
167.079 202.359 L
167.513 202.342 L
167.947 202.327 L
168.381 202.311 L
168.815 202.296 L
169.249 202.282 L
169.683 202.268 L
170.117 202.255 L
170.551 202.243 L
170.985 202.23 L
171.419 202.218 L
171.853 202.207 L
172.287 202.196 L
172.721 202.186 L
173.155 202.175 L
173.589 202.166 L
174.023 202.156 L
174.457 202.147 L
174.891 202.139 L
175.325 202.13 L
175.759 202.122 L
176.193 202.114 L
176.627 202.107 L
177.061 202.1 L
177.495 202.093 L
177.929 202.086 L
S
GR
GS
[0.75 0 0 0.75 0 0] CT
1 0 1 RC
1 LJ
0.667 LW
N
177.495 202.093 M
177.929 202.086 L
178.363 202.08 L
178.797 202.074 L
179.231 202.068 L
179.665 202.062 L
180.099 202.057 L
180.533 202.051 L
180.967 202.046 L
181.401 202.041 L
181.835 202.037 L
182.269 202.032 L
182.703 202.028 L
183.137 202.024 L
183.571 202.02 L
184.005 202.016 L
184.439 202.012 L
184.873 202.009 L
185.307 202.005 L
185.741 202.002 L
186.175 201.999 L
186.609 201.996 L
187.043 201.993 L
187.477 201.99 L
187.911 201.988 L
188.345 201.985 L
188.779 201.983 L
189.213 201.98 L
189.647 201.978 L
190.081 201.976 L
190.515 201.974 L
190.949 201.972 L
191.383 201.97 L
191.817 201.968 L
192.251 201.966 L
192.685 201.964 L
193.119 201.963 L
193.553 201.961 L
193.987 201.96 L
194.421 201.958 L
194.855 201.957 L
195.289 201.956 L
195.723 201.954 L
196.157 201.953 L
196.591 201.952 L
197.025 201.951 L
197.459 201.95 L
197.893 201.949 L
198.327 201.948 L
198.761 201.947 L
199.195 201.946 L
199.629 201.945 L
S
GR
GS
[0.75 0 0 0.75 0 0] CT
1 0 1 RC
1 LJ
0.667 LW
N
199.195 201.946 M
199.629 201.945 L
200.063 201.944 L
200.497 201.943 L
200.931 201.943 L
201.365 201.942 L
201.799 201.941 L
202.233 201.94 L
202.667 201.94 L
203.101 201.939 L
203.535 201.939 L
203.969 201.938 L
204.403 201.937 L
204.837 201.937 L
205.271 201.936 L
205.705 201.936 L
206.139 201.935 L
206.573 201.935 L
207.007 201.935 L
207.441 201.934 L
207.875 201.934 L
208.309 201.933 L
208.743 201.933 L
209.177 201.933 L
209.611 201.932 L
210.045 201.932 L
210.479 201.932 L
210.913 201.931 L
211.347 201.931 L
211.781 201.931 L
212.215 201.931 L
212.649 201.93 L
213.083 201.93 L
213.517 201.93 L
213.951 201.93 L
214.385 201.929 L
214.819 201.929 L
215.253 201.929 L
215.687 201.929 L
216.121 201.929 L
216.555 201.929 L
216.989 201.928 L
217.423 201.928 L
217.857 201.928 L
218.291 201.928 L
218.725 201.928 L
219.159 201.928 L
219.593 201.928 L
220.027 201.927 L
220.461 201.927 L
220.895 201.927 L
221.329 201.927 L
S
GR
GS
[0.75 0 0 0.75 0 0] CT
1 0 1 RC
1 LJ
0.667 LW
N
220.895 201.927 M
221.329 201.927 L
221.763 201.927 L
222.197 201.927 L
222.631 201.927 L
223.065 201.927 L
223.499 201.927 L
223.933 201.927 L
224.367 201.927 L
224.801 201.926 L
225.235 201.926 L
225.669 201.926 L
226.103 201.926 L
226.537 201.926 L
226.971 201.926 L
227.405 201.926 L
227.839 201.926 L
228.273 201.926 L
228.707 201.926 L
229.141 201.926 L
229.575 201.926 L
230.009 201.926 L
230.443 201.926 L
230.877 201.926 L
231.311 201.926 L
231.745 201.926 L
232.179 201.926 L
232.613 201.926 L
233.047 201.926 L
233.481 201.926 L
233.915 201.925 L
234.349 201.925 L
234.783 201.925 L
235.217 201.925 L
235.651 201.925 L
236.085 201.925 L
236.519 201.925 L
236.953 201.925 L
237.387 201.925 L
237.821 201.925 L
238.255 201.925 L
238.689 201.925 L
239.123 201.925 L
239.557 201.925 L
239.991 201.925 L
240.425 201.925 L
240.859 201.925 L
241.293 201.925 L
241.727 201.925 L
242.161 201.925 L
242.595 201.925 L
243.029 201.925 L
S
GR
GS
[0.75 0 0 0.75 0 0] CT
1 0 1 RC
1 LJ
0.667 LW
N
242.595 201.925 M
243.029 201.925 L
243.463 201.925 L
243.897 201.925 L
244.331 201.925 L
244.765 201.925 L
245.199 201.925 L
245.633 201.925 L
246.067 201.925 L
246.501 201.925 L
246.935 201.925 L
247.369 201.925 L
247.803 201.925 L
248.237 201.925 L
248.671 201.925 L
249.105 201.925 L
249.539 201.925 L
249.973 201.925 L
250.407 201.925 L
250.841 201.925 L
251.275 201.925 L
251.709 201.925 L
252.143 201.925 L
252.577 201.925 L
253.011 201.925 L
253.445 201.925 L
253.879 201.925 L
254.313 201.925 L
254.747 201.925 L
255.181 201.925 L
255.615 201.925 L
256.049 201.925 L
256.483 201.925 L
256.917 201.925 L
257.351 201.925 L
257.785 201.925 L
258.219 201.925 L
258.653 201.925 L
259.087 201.925 L
259.521 201.925 L
259.955 201.925 L
260.389 201.925 L
260.823 201.925 L
261.257 201.925 L
261.691 201.925 L
262.125 201.925 L
262.559 201.925 L
262.993 201.925 L
263.427 201.925 L
263.861 201.925 L
264.295 201.925 L
264.729 201.925 L
S
GR
GS
[0.75 0 0 0.75 0 0] CT
1 0 1 RC
1 LJ
0.667 LW
N
264.295 201.925 M
264.729 201.925 L
265.163 201.925 L
265.597 201.925 L
266.031 201.925 L
266.465 201.925 L
266.899 201.925 L
267.333 201.925 L
267.767 201.925 L
268.201 201.925 L
268.635 201.925 L
269.069 201.925 L
269.503 201.925 L
269.937 201.925 L
270.371 201.925 L
270.805 201.925 L
271.239 201.925 L
271.673 201.925 L
272.107 201.925 L
272.541 201.925 L
272.975 201.925 L
273.409 201.925 L
273.843 201.925 L
274.277 201.925 L
274.711 201.925 L
275.145 201.925 L
275.579 201.925 L
276.013 201.925 L
276.447 201.925 L
276.881 201.925 L
277.315 201.925 L
277.749 201.925 L
278.183 201.925 L
278.617 201.925 L
279.051 201.925 L
279.485 201.925 L
279.919 201.925 L
280.353 201.925 L
280.787 201.925 L
281.221 201.925 L
281.655 201.925 L
282.089 201.925 L
282.523 201.925 L
282.957 201.925 L
283.391 201.925 L
283.825 201.925 L
284.259 201.925 L
284.693 201.925 L
285.127 201.925 L
285.561 201.925 L
285.995 201.925 L
286.429 201.925 L
S
GR
GS
[0.75 0 0 0.75 0 0] CT
1 0 1 RC
1 LJ
0.667 LW
N
285.995 201.925 M
286.429 201.925 L
286.863 201.925 L
287.297 201.925 L
287.731 201.925 L
288.165 201.925 L
288.599 201.925 L
289.033 201.925 L
289.467 201.925 L
289.901 201.925 L
290.335 201.925 L
290.769 201.925 L
291.203 201.925 L
291.637 201.925 L
292.071 201.925 L
292.505 201.925 L
292.939 201.925 L
293.373 201.925 L
293.807 201.925 L
294.241 201.925 L
294.675 201.925 L
295.109 201.925 L
295.543 201.925 L
295.977 201.925 L
296.411 201.925 L
296.845 201.925 L
297.279 201.925 L
297.713 201.925 L
298.147 201.925 L
298.581 201.925 L
299.015 201.925 L
299.449 201.925 L
299.883 201.925 L
300.317 201.925 L
300.751 201.925 L
301.185 201.925 L
301.619 201.925 L
302.053 201.925 L
302.487 201.925 L
302.921 201.925 L
303.355 201.925 L
303.789 201.925 L
304.223 201.925 L
304.657 201.925 L
305.091 201.925 L
305.525 201.925 L
305.959 201.925 L
306.393 201.925 L
306.827 201.925 L
307.261 201.925 L
307.695 201.925 L
308.129 201.925 L
S
GR
GS
[0.75 0 0 0.75 0 0] CT
1 0 1 RC
1 LJ
0.667 LW
N
307.695 201.925 M
308.129 201.925 L
308.563 201.925 L
308.997 201.925 L
309.431 201.925 L
309.865 201.925 L
310.299 201.925 L
310.733 201.925 L
311.167 201.925 L
311.601 201.925 L
312.035 201.925 L
312.469 201.925 L
312.903 201.925 L
313.337 201.925 L
313.771 201.925 L
314.205 201.925 L
314.639 201.925 L
315.073 201.925 L
315.507 201.925 L
315.941 201.925 L
316.375 201.925 L
316.809 201.925 L
317.243 201.925 L
317.677 201.925 L
318.111 201.925 L
318.545 201.925 L
318.979 201.925 L
319.413 201.925 L
319.847 201.925 L
320.281 201.925 L
320.715 201.925 L
321.149 201.925 L
321.583 201.925 L
322.017 201.925 L
322.451 201.925 L
322.885 201.925 L
323.319 201.925 L
323.753 201.925 L
324.187 201.925 L
324.621 201.925 L
325.055 201.925 L
325.489 201.925 L
325.923 201.925 L
326.357 201.925 L
326.791 201.925 L
327.225 201.925 L
327.659 201.925 L
328.093 201.925 L
328.527 201.925 L
328.961 201.925 L
329.395 201.925 L
329.829 201.925 L
S
GR
GS
[0.75 0 0 0.75 0 0] CT
1 0 1 RC
1 LJ
0.667 LW
N
329.395 201.925 M
329.829 201.925 L
330.263 201.925 L
330.697 201.925 L
331.131 201.925 L
331.565 201.925 L
331.999 201.925 L
332.433 201.925 L
332.867 201.925 L
333.301 201.925 L
333.735 201.925 L
334.169 201.925 L
334.603 201.925 L
335.037 201.925 L
335.471 201.925 L
335.905 201.925 L
336.339 201.925 L
336.773 201.925 L
337.207 201.925 L
337.641 201.925 L
338.075 201.925 L
338.509 201.925 L
338.943 201.925 L
339.377 201.925 L
339.811 201.925 L
340.245 201.925 L
340.679 201.925 L
341.113 201.925 L
341.547 201.925 L
341.981 201.925 L
342.415 201.925 L
342.849 201.925 L
343.283 201.925 L
343.717 201.925 L
344.151 201.925 L
344.585 201.925 L
345.019 201.925 L
345.453 201.925 L
345.887 201.925 L
346.321 201.925 L
346.755 201.925 L
347.189 201.925 L
347.623 201.925 L
348.057 201.925 L
348.491 201.925 L
348.925 201.925 L
349.359 201.925 L
349.793 201.925 L
350.227 201.925 L
350.661 201.925 L
351.095 201.925 L
351.529 201.925 L
S
GR
GS
[0.75 0 0 0.75 0 0] CT
1 0 1 RC
1 LJ
0.667 LW
N
351.095 201.925 M
351.529 201.925 L
351.963 201.925 L
352.397 201.925 L
352.831 201.925 L
353.265 201.925 L
353.699 201.925 L
354.133 201.925 L
354.567 201.925 L
355.001 201.925 L
355.435 201.925 L
355.869 201.925 L
356.303 201.925 L
356.737 201.925 L
357.171 201.925 L
357.605 201.925 L
358.039 201.925 L
358.473 201.925 L
358.907 201.925 L
359.341 201.925 L
359.775 201.925 L
360.209 201.925 L
360.643 201.925 L
361.077 201.925 L
361.511 201.925 L
361.945 201.925 L
362.379 201.925 L
362.813 201.925 L
363.247 201.925 L
363.681 201.925 L
364.115 201.925 L
364.549 201.925 L
364.983 201.925 L
365.417 201.925 L
365.851 201.925 L
366.285 201.925 L
366.719 201.925 L
367.153 201.925 L
367.587 201.925 L
368.021 201.925 L
368.455 201.925 L
368.889 201.925 L
369.323 201.925 L
369.757 201.925 L
370.191 201.925 L
370.625 201.925 L
371.059 201.925 L
371.493 201.925 L
371.927 201.925 L
372.361 201.925 L
372.795 201.925 L
373.229 201.925 L
S
GR
GS
[0.75 0 0 0.75 0 0] CT
1 0 1 RC
1 LJ
0.667 LW
N
372.795 201.925 M
373.229 201.925 L
373.663 201.925 L
374.097 201.925 L
374.531 201.925 L
374.965 201.925 L
375.399 201.925 L
375.833 201.925 L
376.267 201.925 L
376.701 201.925 L
377.135 201.925 L
377.569 201.925 L
378.003 201.925 L
378.437 201.925 L
378.871 201.925 L
379.305 201.925 L
379.739 201.925 L
380.173 201.925 L
380.607 201.925 L
381.041 201.925 L
381.475 201.925 L
381.909 201.925 L
382.343 201.925 L
382.777 201.925 L
383.211 201.925 L
383.645 201.925 L
384.079 201.925 L
384.513 201.925 L
384.947 201.925 L
385.381 201.925 L
385.815 201.925 L
386.249 201.925 L
386.683 201.925 L
387.117 201.925 L
387.551 201.925 L
387.985 201.925 L
388.419 201.925 L
388.853 201.925 L
389.287 201.925 L
389.721 201.925 L
390.155 201.925 L
390.589 201.925 L
391.023 201.925 L
391.457 201.925 L
391.891 201.925 L
392.325 201.925 L
392.759 201.925 L
393.193 201.925 L
393.627 201.925 L
394.061 201.925 L
394.495 201.925 L
394.929 201.925 L
S
GR
GS
[0.75 0 0 0.75 0 0] CT
1 0 1 RC
1 LJ
0.667 LW
N
394.495 201.925 M
394.929 201.925 L
395.363 201.925 L
395.797 201.925 L
396.231 201.925 L
396.665 201.925 L
397.099 201.925 L
397.533 201.925 L
397.967 201.925 L
398.401 201.925 L
398.835 201.925 L
399.269 201.925 L
399.703 201.925 L
400.137 201.925 L
400.571 201.925 L
401.005 201.925 L
401.439 201.925 L
401.873 201.925 L
402.307 201.925 L
402.741 201.925 L
403.175 201.925 L
403.609 201.925 L
404.043 201.925 L
404.477 201.925 L
404.911 201.925 L
405.345 201.925 L
405.779 201.925 L
406.213 201.925 L
406.647 201.925 L
407.081 201.925 L
407.515 201.925 L
407.949 201.925 L
408.383 201.925 L
408.817 201.925 L
409.251 201.925 L
409.685 201.925 L
410.119 201.925 L
410.553 201.925 L
410.987 201.925 L
411.421 201.925 L
411.855 201.925 L
412.289 201.925 L
412.723 201.925 L
413.157 201.925 L
413.591 201.925 L
414.025 201.925 L
414.459 201.925 L
414.893 201.925 L
415.327 201.925 L
415.761 201.925 L
416.195 201.925 L
416.629 201.925 L
S
GR
GS
[0.75 0 0 0.75 0 0] CT
1 0 1 RC
1 LJ
0.667 LW
N
416.195 201.925 M
416.629 201.925 L
417.063 201.925 L
417.497 201.925 L
417.931 201.925 L
418.365 201.925 L
418.799 201.925 L
419.233 201.925 L
419.667 201.925 L
420.101 201.925 L
420.535 201.925 L
420.969 201.925 L
421.403 201.925 L
421.837 201.925 L
422.271 201.925 L
422.705 201.925 L
423.139 201.925 L
423.573 201.925 L
424.007 201.925 L
424.441 201.925 L
424.875 201.925 L
425.309 201.925 L
425.743 201.925 L
426.177 201.925 L
426.611 201.925 L
427.045 201.925 L
427.479 201.925 L
427.913 201.925 L
428.347 201.925 L
428.781 201.925 L
429.215 201.925 L
429.649 201.925 L
430.083 201.925 L
430.517 201.925 L
430.951 201.925 L
431.385 201.925 L
431.819 201.925 L
432.253 201.925 L
432.687 201.925 L
433.121 201.925 L
433.555 201.925 L
433.989 201.925 L
434.423 201.925 L
434.857 201.925 L
435.291 201.925 L
435.725 201.925 L
436.159 201.925 L
436.593 201.925 L
437.027 201.925 L
437.461 201.925 L
437.895 201.925 L
438.329 201.925 L
S
GR
GS
[0.75 0 0 0.75 0 0] CT
1 0 1 RC
1 LJ
0.667 LW
N
437.895 201.925 M
438.329 201.925 L
438.763 201.925 L
439.197 201.925 L
439.631 201.925 L
440.065 201.925 L
440.499 201.925 L
440.933 201.925 L
441.367 201.925 L
441.801 201.925 L
442.235 201.925 L
442.669 201.925 L
443.103 201.925 L
443.537 201.925 L
443.971 201.925 L
444.405 201.925 L
444.839 201.925 L
445.273 201.925 L
445.707 201.925 L
446.141 201.925 L
446.575 201.925 L
447.009 201.925 L
447.443 201.925 L
447.877 201.925 L
448.311 201.925 L
448.745 201.925 L
449.179 201.925 L
449.613 201.925 L
450.047 201.925 L
450.481 201.925 L
450.915 201.925 L
451.349 201.925 L
451.783 201.925 L
452.217 201.925 L
452.651 201.925 L
453.085 201.925 L
453.519 201.925 L
453.953 201.925 L
454.387 201.925 L
454.821 201.925 L
455.255 201.925 L
455.689 201.925 L
456.123 201.925 L
456.557 201.925 L
456.991 201.925 L
457.425 201.925 L
457.859 201.925 L
458.293 201.925 L
458.727 201.925 L
459.161 201.925 L
459.595 201.925 L
460.029 201.925 L
S
GR
GS
[0.75 0 0 0.75 0 0] CT
1 0 1 RC
1 LJ
0.667 LW
N
459.595 201.925 M
460.029 201.925 L
460.463 201.925 L
460.897 201.925 L
461.331 201.925 L
461.765 201.925 L
462.199 201.925 L
462.633 201.925 L
463.067 201.925 L
463.501 201.925 L
463.935 201.925 L
464.369 201.925 L
464.803 201.925 L
465.237 201.925 L
465.671 201.925 L
466.105 201.925 L
466.539 201.925 L
466.973 201.925 L
467.407 201.925 L
467.841 201.925 L
468.275 201.925 L
468.709 201.925 L
469.143 201.925 L
469.577 201.925 L
470.011 201.925 L
470.445 201.925 L
470.879 201.925 L
471.313 201.925 L
471.747 201.925 L
472.181 201.925 L
472.615 201.925 L
473.049 201.925 L
473.483 201.925 L
473.917 201.925 L
474.351 201.925 L
474.785 201.925 L
475.219 201.925 L
475.653 201.925 L
476.087 201.925 L
476.521 201.925 L
476.955 201.925 L
477.389 201.925 L
477.823 201.925 L
478.257 201.925 L
478.691 201.925 L
479.125 201.925 L
479.559 201.925 L
479.993 201.925 L
480.427 201.925 L
480.861 201.925 L
481.295 201.925 L
481.729 201.925 L
S
GR
GS
[0.75 0 0 0.75 0 0] CT
1 0 1 RC
1 LJ
0.667 LW
N
481.295 201.925 M
481.729 201.925 L
482.163 201.925 L
482.597 201.925 L
483.031 201.925 L
483.465 201.925 L
483.899 201.925 L
484.333 201.925 L
484.767 201.925 L
485.201 201.925 L
485.635 201.925 L
486.069 201.925 L
486.503 201.925 L
486.937 201.925 L
487.371 201.925 L
487.805 201.925 L
488.239 201.925 L
488.673 201.925 L
489.107 201.925 L
489.541 201.925 L
489.975 201.925 L
490.409 201.925 L
490.843 201.925 L
491.277 201.925 L
491.711 201.925 L
492.145 201.925 L
492.579 201.925 L
493.013 201.925 L
493.447 201.925 L
493.881 201.925 L
494.315 201.925 L
494.749 201.925 L
495.183 201.925 L
495.617 201.925 L
496.051 201.925 L
496.485 201.925 L
496.919 201.925 L
497.353 201.925 L
497.787 201.925 L
498.221 201.925 L
498.655 201.925 L
499.089 201.925 L
499.523 201.925 L
499.957 201.925 L
500.391 201.925 L
500.825 201.925 L
501.259 201.925 L
501.693 201.925 L
502.127 201.925 L
502.561 201.925 L
502.995 201.925 L
503.429 201.925 L
S
GR
GS
[0.75 0 0 0.75 0 0] CT
1 0 1 RC
1 LJ
0.667 LW
N
502.995 201.925 M
503.429 201.925 L
503.863 201.925 L
504.297 201.925 L
504.731 201.925 L
505.165 201.925 L
505.599 201.925 L
506.033 201.925 L
506.467 201.925 L
506.901 201.925 L
507 201.925 L
S
GR
GS
[0.75 0 0 0.75 0 0] CT
1 GC
N
422 112 M
422 44 L
494 44 L
494 112 L
cp
f
GR
GS
[0.75 0 0 0.75 355.5 40.7005] CT
/Helvetica 12 F
GS
[1 0 0 1 0 0] CT
0 4.5 moveto 
1 -1 scale
(w1) t 
GR
GR
GS
[0.75 0 0 0.75 0 0] CT
0 0 1 RC
1 LJ
0.667 LW
N
430 54.267 M
470 54.267 L
S
GR
GS
[0.75 0 0 0.75 355.5 52.56683] CT
/Helvetica 12 F
GS
[1 0 0 1 0 0] CT
0 4.5 moveto 
1 -1 scale
(w2) t 
GR
GR
GS
[0.75 0 0 0.75 0 0] CT
0 1 1 RC
1 LJ
0.667 LW
N
430 70.089 M
470 70.089 L
S
GR
GS
[0.75 0 0 0.75 355.5 64.43317] CT
/Helvetica 12 F
GS
[1 0 0 1 0 0] CT
0 4.5 moveto 
1 -1 scale
(u1) t 
GR
GR
GS
[0.75 0 0 0.75 0 0] CT
1 0 0 RC
1 LJ
0.667 LW
N
430 85.911 M
470 85.911 L
S
GR
GS
[0.75 0 0 0.75 355.5 76.29951] CT
/Helvetica 12 F
GS
[1 0 0 1 0 0] CT
0 4.5 moveto 
1 -1 scale
(u2) t 
GR
GR
GS
[0.75 0 0 0.75 0 0] CT
1 0 1 RC
1 LJ
0.667 LW
N
430 101.733 M
470 101.733 L
S
GR
GS
[0.75 0 0 0.75 0 0] CT
0.149 GC
10.0 ML
0.667 LW
N
422 112 M
422 44 L
494 44 L
494 112 L
cp
S
GR
%%Trailer
%%Pages: 1
%%EOF
