%!PS-Adobe-3.0 EPSF-3.0
%%Creator: (MATLAB, The Mathworks, Inc. Version 8.6.0.267246 \(R2015b\). Operating System: Windows 8)
%%Title: E:/Projects/skola/rls/pics/SP2/state_reg_input_error_u.eps
%%CreationDate: 2017-03-06T10:18:43
%%Pages: (atend)
%%BoundingBox: 0 0 420 315
%%LanguageLevel: 2
%%EndComments
%%BeginProlog
%%BeginResource: procset (Apache XML Graphics Std ProcSet) 1.2 0
%%Version: 1.2 0
%%Copyright: (Copyright 2001-2003,2010 The Apache Software Foundation. License terms: http://www.apache.org/licenses/LICENSE-2.0)
/bd{bind def}bind def
/ld{load def}bd
/GR/grestore ld
/M/moveto ld
/LJ/setlinejoin ld
/C/curveto ld
/f/fill ld
/LW/setlinewidth ld
/GC/setgray ld
/t/show ld
/N/newpath ld
/CT/concat ld
/cp/closepath ld
/S/stroke ld
/L/lineto ld
/CC/setcmykcolor ld
/A/ashow ld
/GS/gsave ld
/RC/setrgbcolor ld
/RM/rmoveto ld
/ML/setmiterlimit ld
/re {4 2 roll M
1 index 0 rlineto
0 exch rlineto
neg 0 rlineto
cp } bd
/_ctm matrix def
/_tm matrix def
/BT { _ctm currentmatrix pop matrix _tm copy pop 0 0 moveto } bd
/ET { _ctm setmatrix } bd
/iTm { _ctm setmatrix _tm concat } bd
/Tm { _tm astore pop iTm 0 0 moveto } bd
/ux 0.0 def
/uy 0.0 def
/F {
  /Tp exch def
  /Tf exch def
  Tf findfont Tp scalefont setfont
  /cf Tf def  /cs Tp def
} bd
/ULS {currentpoint /uy exch def /ux exch def} bd
/ULE {
  /Tcx currentpoint pop def
  gsave
  newpath
  cf findfont cs scalefont dup
  /FontMatrix get 0 get /Ts exch def /FontInfo get dup
  /UnderlinePosition get Ts mul /To exch def
  /UnderlineThickness get Ts mul /Tt exch def
  ux uy To add moveto  Tcx uy To add lineto
  Tt setlinewidth stroke
  grestore
} bd
/OLE {
  /Tcx currentpoint pop def
  gsave
  newpath
  cf findfont cs scalefont dup
  /FontMatrix get 0 get /Ts exch def /FontInfo get dup
  /UnderlinePosition get Ts mul /To exch def
  /UnderlineThickness get Ts mul /Tt exch def
  ux uy To add cs add moveto Tcx uy To add cs add lineto
  Tt setlinewidth stroke
  grestore
} bd
/SOE {
  /Tcx currentpoint pop def
  gsave
  newpath
  cf findfont cs scalefont dup
  /FontMatrix get 0 get /Ts exch def /FontInfo get dup
  /UnderlinePosition get Ts mul /To exch def
  /UnderlineThickness get Ts mul /Tt exch def
  ux uy To add cs 10 mul 26 idiv add moveto Tcx uy To add cs 10 mul 26 idiv add lineto
  Tt setlinewidth stroke
  grestore
} bd
/QT {
/Y22 exch store
/X22 exch store
/Y21 exch store
/X21 exch store
currentpoint
/Y21 load 2 mul add 3 div exch
/X21 load 2 mul add 3 div exch
/X21 load 2 mul /X22 load add 3 div
/Y21 load 2 mul /Y22 load add 3 div
/X22 load /Y22 load curveto
} bd
/SSPD {
dup length /d exch dict def
{
/v exch def
/k exch def
currentpagedevice k known {
/cpdv currentpagedevice k get def
v cpdv ne {
/upd false def
/nullv v type /nulltype eq def
/nullcpdv cpdv type /nulltype eq def
nullv nullcpdv or
{
/upd true def
} {
/sametype v type cpdv type eq def
sametype {
v type /arraytype eq {
/vlen v length def
/cpdvlen cpdv length def
vlen cpdvlen eq {
0 1 vlen 1 sub {
/i exch def
/obj v i get def
/cpdobj cpdv i get def
obj cpdobj ne {
/upd true def
exit
} if
} for
} {
/upd true def
} ifelse
} {
v type /dicttype eq {
v {
/dv exch def
/dk exch def
/cpddv cpdv dk get def
dv cpddv ne {
/upd true def
exit
} if
} forall
} {
/upd true def
} ifelse
} ifelse
} if
} ifelse
upd true eq {
d k v put
} if
} if
} if
} forall
d length 0 gt {
d setpagedevice
} if
} bd
%%EndResource
%%BeginResource: procset (Apache XML Graphics EPS ProcSet) 1.0 0
%%Version: 1.0 0
%%Copyright: (Copyright 2002-2003 The Apache Software Foundation. License terms: http://www.apache.org/licenses/LICENSE-2.0)
/BeginEPSF { %def
/b4_Inc_state save def         % Save state for cleanup
/dict_count countdictstack def % Count objects on dict stack
/op_count count 1 sub def      % Count objects on operand stack
userdict begin                 % Push userdict on dict stack
/showpage { } def              % Redefine showpage, { } = null proc
0 setgray 0 setlinecap         % Prepare graphics state
1 setlinewidth 0 setlinejoin
10 setmiterlimit [ ] 0 setdash newpath
/languagelevel where           % If level not equal to 1 then
{pop languagelevel             % set strokeadjust and
1 ne                           % overprint to their defaults.
{false setstrokeadjust false setoverprint
} if
} if
} bd
/EndEPSF { %def
count op_count sub {pop} repeat            % Clean up stacks
countdictstack dict_count sub {end} repeat
b4_Inc_state restore
} bd
%%EndResource
%FOPBeginFontDict
%%IncludeResource: font Courier-Bold
%%IncludeResource: font Helvetica
%%IncludeResource: font Courier-BoldOblique
%%IncludeResource: font Courier-Oblique
%%IncludeResource: font Times-Roman
%%IncludeResource: font Helvetica-BoldOblique
%%IncludeResource: font Helvetica-Bold
%%IncludeResource: font Helvetica-Oblique
%%IncludeResource: font Times-BoldItalic
%%IncludeResource: font Courier
%%IncludeResource: font Times-Italic
%%IncludeResource: font Times-Bold
%%IncludeResource: font Symbol
%%IncludeResource: font ZapfDingbats
%FOPEndFontDict
%%BeginResource: encoding WinAnsiEncoding
/WinAnsiEncoding [
/.notdef /.notdef /.notdef /.notdef /.notdef
/.notdef /.notdef /.notdef /.notdef /.notdef
/.notdef /.notdef /.notdef /.notdef /.notdef
/.notdef /.notdef /.notdef /.notdef /.notdef
/.notdef /.notdef /.notdef /.notdef /.notdef
/.notdef /.notdef /.notdef /.notdef /.notdef
/.notdef /.notdef /space /exclam /quotedbl
/numbersign /dollar /percent /ampersand /quotesingle
/parenleft /parenright /asterisk /plus /comma
/hyphen /period /slash /zero /one
/two /three /four /five /six
/seven /eight /nine /colon /semicolon
/less /equal /greater /question /at
/A /B /C /D /E
/F /G /H /I /J
/K /L /M /N /O
/P /Q /R /S /T
/U /V /W /X /Y
/Z /bracketleft /backslash /bracketright /asciicircum
/underscore /quoteleft /a /b /c
/d /e /f /g /h
/i /j /k /l /m
/n /o /p /q /r
/s /t /u /v /w
/x /y /z /braceleft /bar
/braceright /asciitilde /bullet /Euro /bullet
/quotesinglbase /florin /quotedblbase /ellipsis /dagger
/daggerdbl /circumflex /perthousand /Scaron /guilsinglleft
/OE /bullet /Zcaron /bullet /bullet
/quoteleft /quoteright /quotedblleft /quotedblright /bullet
/endash /emdash /asciitilde /trademark /scaron
/guilsinglright /oe /bullet /zcaron /Ydieresis
/space /exclamdown /cent /sterling /currency
/yen /brokenbar /section /dieresis /copyright
/ordfeminine /guillemotleft /logicalnot /sfthyphen /registered
/macron /degree /plusminus /twosuperior /threesuperior
/acute /mu /paragraph /middot /cedilla
/onesuperior /ordmasculine /guillemotright /onequarter /onehalf
/threequarters /questiondown /Agrave /Aacute /Acircumflex
/Atilde /Adieresis /Aring /AE /Ccedilla
/Egrave /Eacute /Ecircumflex /Edieresis /Igrave
/Iacute /Icircumflex /Idieresis /Eth /Ntilde
/Ograve /Oacute /Ocircumflex /Otilde /Odieresis
/multiply /Oslash /Ugrave /Uacute /Ucircumflex
/Udieresis /Yacute /Thorn /germandbls /agrave
/aacute /acircumflex /atilde /adieresis /aring
/ae /ccedilla /egrave /eacute /ecircumflex
/edieresis /igrave /iacute /icircumflex /idieresis
/eth /ntilde /ograve /oacute /ocircumflex
/otilde /odieresis /divide /oslash /ugrave
/uacute /ucircumflex /udieresis /yacute /thorn
/ydieresis
] def
%%EndResource
%FOPBeginFontReencode
/Courier-Bold findfont
dup length dict begin
  {1 index /FID ne {def} {pop pop} ifelse} forall
  /Encoding WinAnsiEncoding def
  currentdict
end
/Courier-Bold exch definefont pop
/Helvetica findfont
dup length dict begin
  {1 index /FID ne {def} {pop pop} ifelse} forall
  /Encoding WinAnsiEncoding def
  currentdict
end
/Helvetica exch definefont pop
/Courier-BoldOblique findfont
dup length dict begin
  {1 index /FID ne {def} {pop pop} ifelse} forall
  /Encoding WinAnsiEncoding def
  currentdict
end
/Courier-BoldOblique exch definefont pop
/Courier-Oblique findfont
dup length dict begin
  {1 index /FID ne {def} {pop pop} ifelse} forall
  /Encoding WinAnsiEncoding def
  currentdict
end
/Courier-Oblique exch definefont pop
/Times-Roman findfont
dup length dict begin
  {1 index /FID ne {def} {pop pop} ifelse} forall
  /Encoding WinAnsiEncoding def
  currentdict
end
/Times-Roman exch definefont pop
/Helvetica-BoldOblique findfont
dup length dict begin
  {1 index /FID ne {def} {pop pop} ifelse} forall
  /Encoding WinAnsiEncoding def
  currentdict
end
/Helvetica-BoldOblique exch definefont pop
/Helvetica-Bold findfont
dup length dict begin
  {1 index /FID ne {def} {pop pop} ifelse} forall
  /Encoding WinAnsiEncoding def
  currentdict
end
/Helvetica-Bold exch definefont pop
/Helvetica-Oblique findfont
dup length dict begin
  {1 index /FID ne {def} {pop pop} ifelse} forall
  /Encoding WinAnsiEncoding def
  currentdict
end
/Helvetica-Oblique exch definefont pop
/Times-BoldItalic findfont
dup length dict begin
  {1 index /FID ne {def} {pop pop} ifelse} forall
  /Encoding WinAnsiEncoding def
  currentdict
end
/Times-BoldItalic exch definefont pop
/Courier findfont
dup length dict begin
  {1 index /FID ne {def} {pop pop} ifelse} forall
  /Encoding WinAnsiEncoding def
  currentdict
end
/Courier exch definefont pop
/Times-Italic findfont
dup length dict begin
  {1 index /FID ne {def} {pop pop} ifelse} forall
  /Encoding WinAnsiEncoding def
  currentdict
end
/Times-Italic exch definefont pop
/Times-Bold findfont
dup length dict begin
  {1 index /FID ne {def} {pop pop} ifelse} forall
  /Encoding WinAnsiEncoding def
  currentdict
end
/Times-Bold exch definefont pop
%FOPEndFontReencode
%%EndProlog
%%Page: 1 1
%%PageBoundingBox: 0 0 420 315
%%BeginPageSetup
[1 0 0 -1 0 315] CT
%%EndPageSetup
GS
[0.75 0 0 0.75 0 0] CT
1 GC
N
0 0 560 420 re
f
GR
GS
[0.75 0 0 0.75 0 0] CT
1 GC
N
0 0 560 420 re
f
GR
GS
[0.75 0 0 0.75 0 0] CT
1 GC
N
73 374 M
507 374 L
507 31 L
73 31 L
cp
f
GR
GS
[0.75 0 0 0.75 0 0] CT
0.149 GC
2 setlinecap
1 LJ
0.667 LW
N
73 374 M
507 374 L
S
GR
GS
[0.75 0 0 0.75 0 0] CT
0.149 GC
2 setlinecap
1 LJ
0.667 LW
N
73 374 M
73 369.66 L
S
GR
GS
[0.75 0 0 0.75 0 0] CT
0.149 GC
2 setlinecap
1 LJ
0.667 LW
N
116.4 374 M
116.4 369.66 L
S
GR
GS
[0.75 0 0 0.75 0 0] CT
0.149 GC
2 setlinecap
1 LJ
0.667 LW
N
159.8 374 M
159.8 369.66 L
S
GR
GS
[0.75 0 0 0.75 0 0] CT
0.149 GC
2 setlinecap
1 LJ
0.667 LW
N
203.2 374 M
203.2 369.66 L
S
GR
GS
[0.75 0 0 0.75 0 0] CT
0.149 GC
2 setlinecap
1 LJ
0.667 LW
N
246.6 374 M
246.6 369.66 L
S
GR
GS
[0.75 0 0 0.75 0 0] CT
0.149 GC
2 setlinecap
1 LJ
0.667 LW
N
290 374 M
290 369.66 L
S
GR
GS
[0.75 0 0 0.75 0 0] CT
0.149 GC
2 setlinecap
1 LJ
0.667 LW
N
333.4 374 M
333.4 369.66 L
S
GR
GS
[0.75 0 0 0.75 0 0] CT
0.149 GC
2 setlinecap
1 LJ
0.667 LW
N
376.8 374 M
376.8 369.66 L
S
GR
GS
[0.75 0 0 0.75 0 0] CT
0.149 GC
2 setlinecap
1 LJ
0.667 LW
N
420.2 374 M
420.2 369.66 L
S
GR
GS
[0.75 0 0 0.75 0 0] CT
0.149 GC
2 setlinecap
1 LJ
0.667 LW
N
463.6 374 M
463.6 369.66 L
S
GR
GS
[0.75 0 0 0.75 0 0] CT
0.149 GC
2 setlinecap
1 LJ
0.667 LW
N
507 374 M
507 369.66 L
S
GR
GS
[0.75 0 0 0.75 54.75 284.50001] CT
0.149 GC
/Helvetica 13 F
GS
[1 0 0 1 0 0] CT
-4 13 moveto 
1 -1 scale
(0) t 
GR
GR
GS
[0.75 0 0 0.75 87.3 284.50001] CT
0.149 GC
/Helvetica 13 F
GS
[1 0 0 1 0 0] CT
-11 13 moveto 
1 -1 scale
(100) t 
GR
GR
GS
[0.75 0 0 0.75 119.85 284.50001] CT
0.149 GC
/Helvetica 13 F
GS
[1 0 0 1 0 0] CT
-11 13 moveto 
1 -1 scale
(200) t 
GR
GR
GS
[0.75 0 0 0.75 152.4 284.50001] CT
0.149 GC
/Helvetica 13 F
GS
[1 0 0 1 0 0] CT
-11 13 moveto 
1 -1 scale
(300) t 
GR
GR
GS
[0.75 0 0 0.75 184.95 284.50001] CT
0.149 GC
/Helvetica 13 F
GS
[1 0 0 1 0 0] CT
-11 13 moveto 
1 -1 scale
(400) t 
GR
GR
GS
[0.75 0 0 0.75 217.5 284.50001] CT
0.149 GC
/Helvetica 13 F
GS
[1 0 0 1 0 0] CT
-11 13 moveto 
1 -1 scale
(500) t 
GR
GR
GS
[0.75 0 0 0.75 250.05 284.50001] CT
0.149 GC
/Helvetica 13 F
GS
[1 0 0 1 0 0] CT
-11 13 moveto 
1 -1 scale
(600) t 
GR
GR
GS
[0.75 0 0 0.75 282.59999 284.50001] CT
0.149 GC
/Helvetica 13 F
GS
[1 0 0 1 0 0] CT
-11 13 moveto 
1 -1 scale
(700) t 
GR
GR
GS
[0.75 0 0 0.75 315.15001 284.50001] CT
0.149 GC
/Helvetica 13 F
GS
[1 0 0 1 0 0] CT
-11 13 moveto 
1 -1 scale
(800) t 
GR
GR
GS
[0.75 0 0 0.75 347.7 284.50001] CT
0.149 GC
/Helvetica 13 F
GS
[1 0 0 1 0 0] CT
-11 13 moveto 
1 -1 scale
(900) t 
GR
GR
GS
[0.75 0 0 0.75 380.25 284.50001] CT
0.149 GC
/Helvetica 13 F
GS
[1 0 0 1 0 0] CT
-14.5 13 moveto 
1 -1 scale
(1000) t 
GR
GR
GS
[0.75 0 0 0.75 217.50016 297.49999] CT
0.149 GC
/Helvetica 15 F
GS
[1 0 0 1 0 0] CT
-11 14 moveto 
1 -1 scale
(t\(s\)) t 
GR
GR
GS
[0.75 0 0 0.75 0 0] CT
0.149 GC
2 setlinecap
1 LJ
0.667 LW
N
73 374 M
73 31 L
S
GR
GS
[0.75 0 0 0.75 0 0] CT
0.149 GC
2 setlinecap
1 LJ
0.667 LW
N
73 374 M
77.34 374 L
S
GR
GS
[0.75 0 0 0.75 0 0] CT
0.149 GC
2 setlinecap
1 LJ
0.667 LW
N
73 339.7 M
77.34 339.7 L
S
GR
GS
[0.75 0 0 0.75 0 0] CT
0.149 GC
2 setlinecap
1 LJ
0.667 LW
N
73 305.4 M
77.34 305.4 L
S
GR
GS
[0.75 0 0 0.75 0 0] CT
0.149 GC
2 setlinecap
1 LJ
0.667 LW
N
73 271.1 M
77.34 271.1 L
S
GR
GS
[0.75 0 0 0.75 0 0] CT
0.149 GC
2 setlinecap
1 LJ
0.667 LW
N
73 236.8 M
77.34 236.8 L
S
GR
GS
[0.75 0 0 0.75 0 0] CT
0.149 GC
2 setlinecap
1 LJ
0.667 LW
N
73 202.5 M
77.34 202.5 L
S
GR
GS
[0.75 0 0 0.75 0 0] CT
0.149 GC
2 setlinecap
1 LJ
0.667 LW
N
73 168.2 M
77.34 168.2 L
S
GR
GS
[0.75 0 0 0.75 0 0] CT
0.149 GC
2 setlinecap
1 LJ
0.667 LW
N
73 133.9 M
77.34 133.9 L
S
GR
GS
[0.75 0 0 0.75 0 0] CT
0.149 GC
2 setlinecap
1 LJ
0.667 LW
N
73 99.6 M
77.34 99.6 L
S
GR
GS
[0.75 0 0 0.75 0 0] CT
0.149 GC
2 setlinecap
1 LJ
0.667 LW
N
73 65.3 M
77.34 65.3 L
S
GR
GS
[0.75 0 0 0.75 0 0] CT
0.149 GC
2 setlinecap
1 LJ
0.667 LW
N
73 31 M
77.34 31 L
S
GR
GS
[0.75 0 0 0.75 50.75 280.5] CT
0.149 GC
/Helvetica 13 F
GS
[1 0 0 1 0 0] CT
-23 5 moveto 
1 -1 scale
(-0.5) t 
GR
GR
GS
[0.75 0 0 0.75 50.75 254.77501] CT
0.149 GC
/Helvetica 13 F
GS
[1 0 0 1 0 0] CT
-8 5 moveto 
1 -1 scale
(0) t 
GR
GR
GS
[0.75 0 0 0.75 50.75 229.05] CT
0.149 GC
/Helvetica 13 F
GS
[1 0 0 1 0 0] CT
-19 5 moveto 
1 -1 scale
(0.5) t 
GR
GR
GS
[0.75 0 0 0.75 50.75 203.325] CT
0.149 GC
/Helvetica 13 F
GS
[1 0 0 1 0 0] CT
-8 5 moveto 
1 -1 scale
(1) t 
GR
GR
GS
[0.75 0 0 0.75 50.75 177.6] CT
0.149 GC
/Helvetica 13 F
GS
[1 0 0 1 0 0] CT
-19 5 moveto 
1 -1 scale
(1.5) t 
GR
GR
GS
[0.75 0 0 0.75 50.75 151.875] CT
0.149 GC
/Helvetica 13 F
GS
[1 0 0 1 0 0] CT
-8 5 moveto 
1 -1 scale
(2) t 
GR
GR
GS
[0.75 0 0 0.75 50.75 126.15] CT
0.149 GC
/Helvetica 13 F
GS
[1 0 0 1 0 0] CT
-19 5 moveto 
1 -1 scale
(2.5) t 
GR
GR
GS
[0.75 0 0 0.75 50.75 100.425] CT
0.149 GC
/Helvetica 13 F
GS
[1 0 0 1 0 0] CT
-8 5 moveto 
1 -1 scale
(3) t 
GR
GR
GS
[0.75 0 0 0.75 50.75 74.7] CT
0.149 GC
/Helvetica 13 F
GS
[1 0 0 1 0 0] CT
-19 5 moveto 
1 -1 scale
(3.5) t 
GR
GR
GS
[0.75 0 0 0.75 50.75 48.975] CT
0.149 GC
/Helvetica 13 F
GS
[1 0 0 1 0 0] CT
-8 5 moveto 
1 -1 scale
(4) t 
GR
GR
GS
[0.75 0 0 0.75 50.75 23.25] CT
0.149 GC
/Helvetica 13 F
GS
[1 0 0 1 0 0] CT
-19 5 moveto 
1 -1 scale
(4.5) t 
GR
GR
GS
[0.75 0 0 0.75 217.50021 21.18749] CT
/any-Bold 15 F
GS
[1 0 0 1 0 0] CT
-162.5 -4 moveto 
1 -1 scale
(Response of system with input error - control) t 
GR
GR
GS
[0.75 0 0 0.75 0 0] CT
0 0 1 RC
1 LJ
0.667 LW
N
73 339.7 M
73.434 339.7 L
73.434 332.84 L
73.434 332.84 L
74.127 332.84 L
74.821 332.84 L
75.959 332.84 L
77.116 332.84 L
78.387 332.84 L
79.842 332.84 L
81.48 332.84 L
83.311 332.84 L
85.242 332.84 L
87.287 332.84 L
89.462 332.84 L
91.785 332.84 L
94.278 332.84 L
96.973 332.84 L
99.907 332.84 L
103.135 332.84 L
106.735 332.84 L
110.832 332.84 L
115.655 332.84 L
121.718 332.84 L
128.53 332.84 L
135.533 332.84 L
142.763 332.84 L
150.689 332.84 L
159.369 332.84 L
168.049 332.84 L
176.729 332.84 L
185.409 332.84 L
194.089 332.84 L
202.769 332.84 L
211.449 332.84 L
217.522 332.84 L
223.596 332.84 L
229.923 332.84 L
236.036 332.84 L
241.725 332.84 L
247.284 332.84 L
253.16 332.84 L
259.459 332.84 L
265.764 332.84 L
271.628 332.84 L
277.145 332.84 L
282.804 332.84 L
288.955 332.84 L
290 332.84 L
290 332.84 L
S
GR
GS
[0.75 0 0 0.75 0 0] CT
0 0 1 RC
1 LJ
0.667 LW
N
290 332.84 M
290 332.84 L
290 332.84 L
292.589 332.84 L
295.179 332.84 L
298.107 332.84 L
301.269 332.84 L
304.727 332.84 L
308.541 332.84 L
312.794 332.84 L
317.608 332.84 L
323.163 332.84 L
329.768 332.84 L
338.057 332.84 L
346.737 332.84 L
355.417 332.84 L
364.097 332.84 L
372.777 332.84 L
381.457 332.84 L
386.909 332.84 L
392.361 332.84 L
398.935 332.84 L
405.98 332.84 L
412.112 332.84 L
417.191 332.84 L
422.229 332.84 L
428.254 332.84 L
435.302 332.84 L
442.036 332.84 L
447.52 332.84 L
452.379 332.84 L
457.821 332.84 L
464.488 332.84 L
471.627 332.84 L
477.733 332.84 L
482.723 332.84 L
487.707 332.84 L
493.768 332.84 L
500.916 332.84 L
507 332.84 L
S
GR
GS
[0.75 0 0 0.75 0 0] CT
0 1 1 RC
1 LJ
0.667 LW
N
73 339.7 M
73.434 339.7 L
73.434 332.84 L
73.434 332.84 L
74.127 332.84 L
74.821 332.84 L
75.959 332.84 L
77.116 332.84 L
78.387 332.84 L
79.842 332.84 L
81.48 332.84 L
83.311 332.84 L
85.242 332.84 L
87.287 332.84 L
89.462 332.84 L
91.785 332.84 L
94.278 332.84 L
96.973 332.84 L
99.907 332.84 L
103.135 332.84 L
106.735 332.84 L
110.832 332.84 L
115.655 332.84 L
121.718 332.84 L
128.53 332.84 L
135.533 332.84 L
142.763 332.84 L
150.689 332.84 L
159.369 332.84 L
168.049 332.84 L
176.729 332.84 L
185.409 332.84 L
194.089 332.84 L
202.769 332.84 L
211.449 332.84 L
217.522 332.84 L
223.596 332.84 L
229.923 332.84 L
236.036 332.84 L
241.725 332.84 L
247.284 332.84 L
253.16 332.84 L
259.459 332.84 L
265.764 332.84 L
271.628 332.84 L
277.145 332.84 L
282.804 332.84 L
288.955 332.84 L
290 332.84 L
290 332.84 L
S
GR
GS
[0.75 0 0 0.75 0 0] CT
0 1 1 RC
1 LJ
0.667 LW
N
290 332.84 M
290 332.84 L
290 332.84 L
292.589 332.84 L
295.179 332.84 L
298.107 332.84 L
301.269 332.84 L
304.727 332.84 L
308.541 332.84 L
312.794 332.84 L
317.608 332.84 L
323.163 332.84 L
329.768 332.84 L
338.057 332.84 L
346.737 332.84 L
355.417 332.84 L
364.097 332.84 L
372.777 332.84 L
381.457 332.84 L
386.909 332.84 L
392.361 332.84 L
398.935 332.84 L
405.98 332.84 L
412.112 332.84 L
417.191 332.84 L
422.229 332.84 L
428.254 332.84 L
435.302 332.84 L
442.036 332.84 L
447.52 332.84 L
452.379 332.84 L
457.821 332.84 L
464.488 332.84 L
471.627 332.84 L
477.733 332.84 L
482.723 332.84 L
487.707 332.84 L
493.768 332.84 L
500.916 332.84 L
507 332.84 L
S
GR
GS
[0.75 0 0 0.75 0 0] CT
1 1 0 RC
1 LJ
0.667 LW
N
73 339.7 M
73.434 339.7 L
73.434 339.7 L
73.434 339.7 L
74.127 339.7 L
74.821 339.7 L
75.959 339.7 L
77.116 339.7 L
78.387 339.7 L
79.842 339.7 L
81.48 339.7 L
83.311 339.7 L
85.242 339.7 L
87.287 339.7 L
89.462 339.7 L
91.785 339.7 L
94.278 339.7 L
96.973 339.7 L
99.907 339.7 L
103.135 339.7 L
106.735 339.7 L
110.832 339.7 L
115.655 339.7 L
121.718 339.7 L
128.53 339.7 L
135.533 339.7 L
142.763 339.7 L
150.689 339.7 L
159.369 339.7 L
168.049 339.7 L
176.729 339.7 L
185.409 339.7 L
194.089 339.7 L
202.769 339.7 L
211.449 339.7 L
217.522 339.7 L
223.596 339.7 L
229.923 339.7 L
236.036 339.7 L
241.725 339.7 L
247.284 339.7 L
253.16 339.7 L
259.459 339.7 L
265.764 339.7 L
271.628 339.7 L
277.145 339.7 L
282.804 339.7 L
288.955 339.7 L
290 339.7 L
290 343.13 L
S
GR
GS
[0.75 0 0 0.75 0 0] CT
1 1 0 RC
1 LJ
0.667 LW
N
290 339.7 M
290 343.13 L
290 343.13 L
292.589 343.13 L
295.179 343.13 L
298.107 343.13 L
301.269 343.13 L
304.727 343.13 L
308.541 343.13 L
312.794 343.13 L
317.608 343.13 L
323.163 343.13 L
329.768 343.13 L
338.057 343.13 L
346.737 343.13 L
355.417 343.13 L
364.097 343.13 L
372.777 343.13 L
381.457 343.13 L
386.909 343.13 L
392.361 343.13 L
398.935 343.13 L
405.98 343.13 L
412.112 343.13 L
417.191 343.13 L
422.229 343.13 L
428.254 343.13 L
435.302 343.13 L
442.036 343.13 L
447.52 343.13 L
452.379 343.13 L
457.821 343.13 L
464.488 343.13 L
471.627 343.13 L
477.733 343.13 L
482.723 343.13 L
487.707 343.13 L
493.768 343.13 L
500.916 343.13 L
507 343.13 L
S
GR
GS
[0.75 0 0 0.75 0 0] CT
0 1 0 RC
1 LJ
0.667 LW
N
73 339.7 M
73.434 339.7 L
73.434 339.7 L
73.434 339.7 L
74.127 339.7 L
74.821 339.7 L
75.959 339.7 L
77.116 339.7 L
78.387 339.7 L
79.842 339.7 L
81.48 339.7 L
83.311 339.7 L
85.242 339.7 L
87.287 339.7 L
89.462 339.7 L
91.785 339.7 L
94.278 339.7 L
96.973 339.7 L
99.907 339.7 L
103.135 339.7 L
106.735 339.7 L
110.832 339.7 L
115.655 339.7 L
121.718 339.7 L
128.53 339.7 L
135.533 339.7 L
142.763 339.7 L
150.689 339.7 L
159.369 339.7 L
168.049 339.7 L
176.729 339.7 L
185.409 339.7 L
194.089 339.7 L
202.769 339.7 L
211.449 339.7 L
217.522 339.7 L
223.596 339.7 L
229.923 339.7 L
236.036 339.7 L
241.725 339.7 L
247.284 339.7 L
253.16 339.7 L
259.459 339.7 L
265.764 339.7 L
271.628 339.7 L
277.145 339.7 L
282.804 339.7 L
288.955 339.7 L
290 339.7 L
290 343.13 L
S
GR
GS
[0.75 0 0 0.75 0 0] CT
0 1 0 RC
1 LJ
0.667 LW
N
290 339.7 M
290 343.13 L
290 343.13 L
292.589 343.13 L
295.179 343.13 L
298.107 343.13 L
301.269 343.13 L
304.727 343.13 L
308.541 343.13 L
312.794 343.13 L
317.608 343.13 L
323.163 343.13 L
329.768 343.13 L
338.057 343.13 L
346.737 343.13 L
355.417 343.13 L
364.097 343.13 L
372.777 343.13 L
381.457 343.13 L
386.909 343.13 L
392.361 343.13 L
398.935 343.13 L
405.98 343.13 L
412.112 343.13 L
417.191 343.13 L
422.229 343.13 L
428.254 343.13 L
435.302 343.13 L
442.036 343.13 L
447.52 343.13 L
452.379 343.13 L
457.821 343.13 L
464.488 343.13 L
471.627 343.13 L
477.733 343.13 L
482.723 343.13 L
487.707 343.13 L
493.768 343.13 L
500.916 343.13 L
507 343.13 L
S
GR
GS
[0.75 0 0 0.75 0 0] CT
1 0 0 RC
1 LJ
0.667 LW
N
73 339.7 M
73.434 339.7 L
73.434 154.813 L
73.434 154.813 L
74.127 131.655 L
74.821 112.429 L
75.959 88.104 L
77.116 70.934 L
78.387 58.943 L
79.842 51.923 L
81.48 50.169 L
83.311 53.373 L
85.242 60.353 L
87.287 69.862 L
89.462 80.854 L
91.785 92.475 L
94.278 104.047 L
96.973 115.048 L
99.907 125.1 L
103.135 133.953 L
106.735 141.469 L
110.832 147.61 L
115.655 152.425 L
121.718 156.029 L
128.53 158.163 L
135.533 159.239 L
142.763 159.763 L
150.689 160.018 L
159.369 160.131 L
168.049 160.175 L
176.729 160.191 L
185.409 160.197 L
194.089 160.2 L
202.769 160.201 L
211.449 160.201 L
217.522 160.201 L
223.596 160.201 L
229.923 160.201 L
236.036 160.201 L
241.725 160.201 L
247.284 160.201 L
253.16 160.201 L
259.459 160.201 L
265.764 160.201 L
271.628 160.201 L
277.145 160.201 L
282.804 160.201 L
288.955 160.201 L
290 160.201 L
290 163.631 L
S
GR
GS
[0.75 0 0 0.75 0 0] CT
1 0 0 RC
1 LJ
0.667 LW
N
290 160.201 M
290 163.631 L
290 163.631 L
292.589 164.903 L
295.179 165.464 L
298.107 165.614 L
301.269 165.482 L
304.727 165.197 L
308.541 164.853 L
312.794 164.513 L
317.608 164.218 L
323.163 163.987 L
329.768 163.823 L
338.057 163.719 L
346.737 163.673 L
355.417 163.654 L
364.097 163.646 L
372.777 163.643 L
381.457 163.642 L
386.909 163.642 L
392.361 163.642 L
398.935 163.641 L
405.98 163.641 L
412.112 163.641 L
417.191 163.641 L
422.229 163.641 L
428.254 163.641 L
435.302 163.641 L
442.036 163.641 L
447.52 163.641 L
452.379 163.641 L
457.821 163.641 L
464.488 163.641 L
471.627 163.641 L
477.733 163.641 L
482.723 163.641 L
487.707 163.641 L
493.768 163.641 L
500.916 163.641 L
507 163.641 L
S
GR
GS
[0.75 0 0 0.75 0 0] CT
1 0 1 RC
1 LJ
0.667 LW
N
73 339.7 M
73.434 339.7 L
73.434 272.87 L
73.434 272.87 L
74.127 258.74 L
74.821 246.97 L
75.959 231.998 L
77.116 221.326 L
78.387 213.743 L
79.842 209.116 L
81.48 207.635 L
83.311 209.128 L
85.242 212.919 L
87.287 218.261 L
89.462 224.531 L
91.785 231.216 L
94.278 237.908 L
96.973 244.294 L
99.907 250.146 L
103.135 255.311 L
106.735 259.703 L
110.832 263.297 L
115.655 266.119 L
121.718 268.233 L
128.53 269.485 L
135.533 270.117 L
142.763 270.425 L
150.689 270.575 L
159.369 270.642 L
168.049 270.668 L
176.729 270.677 L
185.409 270.681 L
194.089 270.682 L
202.769 270.683 L
211.449 270.683 L
217.522 270.683 L
223.596 270.683 L
229.923 270.683 L
236.036 270.683 L
241.725 270.683 L
247.284 270.683 L
253.16 270.683 L
259.459 270.683 L
265.764 270.683 L
271.628 270.683 L
277.145 270.683 L
282.804 270.683 L
288.955 270.683 L
290 270.683 L
290 274.113 L
S
GR
GS
[0.75 0 0 0.75 0 0] CT
1 0 1 RC
1 LJ
0.667 LW
N
290 270.683 M
290 274.113 L
290 274.113 L
292.589 276.272 L
295.179 277.253 L
298.107 277.551 L
301.269 277.378 L
304.727 276.946 L
308.541 276.409 L
312.794 275.873 L
317.608 275.404 L
323.163 275.034 L
329.768 274.771 L
338.057 274.605 L
346.737 274.53 L
355.417 274.499 L
364.097 274.487 L
372.777 274.483 L
381.457 274.481 L
386.909 274.48 L
392.361 274.48 L
398.935 274.48 L
405.98 274.48 L
412.112 274.48 L
417.191 274.48 L
422.229 274.48 L
428.254 274.48 L
435.302 274.48 L
442.036 274.48 L
447.52 274.48 L
452.379 274.48 L
457.821 274.48 L
464.488 274.48 L
471.627 274.48 L
477.733 274.48 L
482.723 274.48 L
487.707 274.48 L
493.768 274.48 L
500.916 274.48 L
507 274.48 L
S
GR
GS
[0.75 0 0 0.75 0 0] CT
1 GC
N
421 143 M
421 44 L
494 44 L
494 143 L
cp
f
GR
GS
[0.75 0 0 0.75 354.75 40.65076] CT
/Helvetica 12 F
GS
[1 0 0 1 0 0] CT
0 4.5 moveto 
1 -1 scale
(w1) t 
GR
GR
GS
[0.75 0 0 0.75 0 0] CT
0 0 1 RC
1 LJ
0.667 LW
N
429 54.201 M
469 54.201 L
S
GR
GS
[0.75 0 0 0.75 354.75 52.44046] CT
/Helvetica 12 F
GS
[1 0 0 1 0 0] CT
0 4.5 moveto 
1 -1 scale
(w2) t 
GR
GR
GS
[0.75 0 0 0.75 0 0] CT
0 1 1 RC
1 LJ
0.667 LW
N
429 69.921 M
469 69.921 L
S
GR
GS
[0.75 0 0 0.75 354.75 64.23015] CT
/Helvetica 12 F
GS
[1 0 0 1 0 0] CT
0 4.5 moveto 
1 -1 scale
(di1) t 
GR
GR
GS
[0.75 0 0 0.75 0 0] CT
1 1 0 RC
1 LJ
0.667 LW
N
429 85.64 M
469 85.64 L
S
GR
GS
[0.75 0 0 0.75 354.75 76.01985] CT
/Helvetica 12 F
GS
[1 0 0 1 0 0] CT
0 4.5 moveto 
1 -1 scale
(di2) t 
GR
GR
GS
[0.75 0 0 0.75 0 0] CT
0 1 0 RC
1 LJ
0.667 LW
N
429 101.36 M
469 101.36 L
S
GR
GS
[0.75 0 0 0.75 354.75 87.80954] CT
/Helvetica 12 F
GS
[1 0 0 1 0 0] CT
0 4.5 moveto 
1 -1 scale
(u1) t 
GR
GR
GS
[0.75 0 0 0.75 0 0] CT
1 0 0 RC
1 LJ
0.667 LW
N
429 117.079 M
469 117.079 L
S
GR
GS
[0.75 0 0 0.75 354.75 99.59924] CT
/Helvetica 12 F
GS
[1 0 0 1 0 0] CT
0 4.5 moveto 
1 -1 scale
(u2) t 
GR
GR
GS
[0.75 0 0 0.75 0 0] CT
1 0 1 RC
1 LJ
0.667 LW
N
429 132.799 M
469 132.799 L
S
GR
GS
[0.75 0 0 0.75 0 0] CT
0.149 GC
10.0 ML
0.667 LW
N
421 143 M
421 44 L
494 44 L
494 143 L
cp
S
GR
%%Trailer
%%Pages: 1
%%EOF
