%!PS-Adobe-3.0 EPSF-3.0
%%Creator: (MATLAB, The Mathworks, Inc. Version 8.6.0.267246 \(R2015b\). Operating System: Windows 8)
%%Title: E:/Projects/skola/rls/pics/SP2/state_reg_i_error_y.eps
%%CreationDate: 2017-03-06T10:25:20
%%Pages: (atend)
%%BoundingBox: 0 0 420 315
%%LanguageLevel: 2
%%EndComments
%%BeginProlog
%%BeginResource: procset (Apache XML Graphics Std ProcSet) 1.2 0
%%Version: 1.2 0
%%Copyright: (Copyright 2001-2003,2010 The Apache Software Foundation. License terms: http://www.apache.org/licenses/LICENSE-2.0)
/bd{bind def}bind def
/ld{load def}bd
/GR/grestore ld
/M/moveto ld
/LJ/setlinejoin ld
/C/curveto ld
/f/fill ld
/LW/setlinewidth ld
/GC/setgray ld
/t/show ld
/N/newpath ld
/CT/concat ld
/cp/closepath ld
/S/stroke ld
/L/lineto ld
/CC/setcmykcolor ld
/A/ashow ld
/GS/gsave ld
/RC/setrgbcolor ld
/RM/rmoveto ld
/ML/setmiterlimit ld
/re {4 2 roll M
1 index 0 rlineto
0 exch rlineto
neg 0 rlineto
cp } bd
/_ctm matrix def
/_tm matrix def
/BT { _ctm currentmatrix pop matrix _tm copy pop 0 0 moveto } bd
/ET { _ctm setmatrix } bd
/iTm { _ctm setmatrix _tm concat } bd
/Tm { _tm astore pop iTm 0 0 moveto } bd
/ux 0.0 def
/uy 0.0 def
/F {
  /Tp exch def
  /Tf exch def
  Tf findfont Tp scalefont setfont
  /cf Tf def  /cs Tp def
} bd
/ULS {currentpoint /uy exch def /ux exch def} bd
/ULE {
  /Tcx currentpoint pop def
  gsave
  newpath
  cf findfont cs scalefont dup
  /FontMatrix get 0 get /Ts exch def /FontInfo get dup
  /UnderlinePosition get Ts mul /To exch def
  /UnderlineThickness get Ts mul /Tt exch def
  ux uy To add moveto  Tcx uy To add lineto
  Tt setlinewidth stroke
  grestore
} bd
/OLE {
  /Tcx currentpoint pop def
  gsave
  newpath
  cf findfont cs scalefont dup
  /FontMatrix get 0 get /Ts exch def /FontInfo get dup
  /UnderlinePosition get Ts mul /To exch def
  /UnderlineThickness get Ts mul /Tt exch def
  ux uy To add cs add moveto Tcx uy To add cs add lineto
  Tt setlinewidth stroke
  grestore
} bd
/SOE {
  /Tcx currentpoint pop def
  gsave
  newpath
  cf findfont cs scalefont dup
  /FontMatrix get 0 get /Ts exch def /FontInfo get dup
  /UnderlinePosition get Ts mul /To exch def
  /UnderlineThickness get Ts mul /Tt exch def
  ux uy To add cs 10 mul 26 idiv add moveto Tcx uy To add cs 10 mul 26 idiv add lineto
  Tt setlinewidth stroke
  grestore
} bd
/QT {
/Y22 exch store
/X22 exch store
/Y21 exch store
/X21 exch store
currentpoint
/Y21 load 2 mul add 3 div exch
/X21 load 2 mul add 3 div exch
/X21 load 2 mul /X22 load add 3 div
/Y21 load 2 mul /Y22 load add 3 div
/X22 load /Y22 load curveto
} bd
/SSPD {
dup length /d exch dict def
{
/v exch def
/k exch def
currentpagedevice k known {
/cpdv currentpagedevice k get def
v cpdv ne {
/upd false def
/nullv v type /nulltype eq def
/nullcpdv cpdv type /nulltype eq def
nullv nullcpdv or
{
/upd true def
} {
/sametype v type cpdv type eq def
sametype {
v type /arraytype eq {
/vlen v length def
/cpdvlen cpdv length def
vlen cpdvlen eq {
0 1 vlen 1 sub {
/i exch def
/obj v i get def
/cpdobj cpdv i get def
obj cpdobj ne {
/upd true def
exit
} if
} for
} {
/upd true def
} ifelse
} {
v type /dicttype eq {
v {
/dv exch def
/dk exch def
/cpddv cpdv dk get def
dv cpddv ne {
/upd true def
exit
} if
} forall
} {
/upd true def
} ifelse
} ifelse
} if
} ifelse
upd true eq {
d k v put
} if
} if
} if
} forall
d length 0 gt {
d setpagedevice
} if
} bd
%%EndResource
%%BeginResource: procset (Apache XML Graphics EPS ProcSet) 1.0 0
%%Version: 1.0 0
%%Copyright: (Copyright 2002-2003 The Apache Software Foundation. License terms: http://www.apache.org/licenses/LICENSE-2.0)
/BeginEPSF { %def
/b4_Inc_state save def         % Save state for cleanup
/dict_count countdictstack def % Count objects on dict stack
/op_count count 1 sub def      % Count objects on operand stack
userdict begin                 % Push userdict on dict stack
/showpage { } def              % Redefine showpage, { } = null proc
0 setgray 0 setlinecap         % Prepare graphics state
1 setlinewidth 0 setlinejoin
10 setmiterlimit [ ] 0 setdash newpath
/languagelevel where           % If level not equal to 1 then
{pop languagelevel             % set strokeadjust and
1 ne                           % overprint to their defaults.
{false setstrokeadjust false setoverprint
} if
} if
} bd
/EndEPSF { %def
count op_count sub {pop} repeat            % Clean up stacks
countdictstack dict_count sub {end} repeat
b4_Inc_state restore
} bd
%%EndResource
%FOPBeginFontDict
%%IncludeResource: font Courier-Bold
%%IncludeResource: font Helvetica
%%IncludeResource: font Courier-BoldOblique
%%IncludeResource: font Courier-Oblique
%%IncludeResource: font Times-Roman
%%IncludeResource: font Helvetica-BoldOblique
%%IncludeResource: font Helvetica-Bold
%%IncludeResource: font Helvetica-Oblique
%%IncludeResource: font Times-BoldItalic
%%IncludeResource: font Courier
%%IncludeResource: font Times-Italic
%%IncludeResource: font Times-Bold
%%IncludeResource: font Symbol
%%IncludeResource: font ZapfDingbats
%FOPEndFontDict
%%BeginResource: encoding WinAnsiEncoding
/WinAnsiEncoding [
/.notdef /.notdef /.notdef /.notdef /.notdef
/.notdef /.notdef /.notdef /.notdef /.notdef
/.notdef /.notdef /.notdef /.notdef /.notdef
/.notdef /.notdef /.notdef /.notdef /.notdef
/.notdef /.notdef /.notdef /.notdef /.notdef
/.notdef /.notdef /.notdef /.notdef /.notdef
/.notdef /.notdef /space /exclam /quotedbl
/numbersign /dollar /percent /ampersand /quotesingle
/parenleft /parenright /asterisk /plus /comma
/hyphen /period /slash /zero /one
/two /three /four /five /six
/seven /eight /nine /colon /semicolon
/less /equal /greater /question /at
/A /B /C /D /E
/F /G /H /I /J
/K /L /M /N /O
/P /Q /R /S /T
/U /V /W /X /Y
/Z /bracketleft /backslash /bracketright /asciicircum
/underscore /quoteleft /a /b /c
/d /e /f /g /h
/i /j /k /l /m
/n /o /p /q /r
/s /t /u /v /w
/x /y /z /braceleft /bar
/braceright /asciitilde /bullet /Euro /bullet
/quotesinglbase /florin /quotedblbase /ellipsis /dagger
/daggerdbl /circumflex /perthousand /Scaron /guilsinglleft
/OE /bullet /Zcaron /bullet /bullet
/quoteleft /quoteright /quotedblleft /quotedblright /bullet
/endash /emdash /asciitilde /trademark /scaron
/guilsinglright /oe /bullet /zcaron /Ydieresis
/space /exclamdown /cent /sterling /currency
/yen /brokenbar /section /dieresis /copyright
/ordfeminine /guillemotleft /logicalnot /sfthyphen /registered
/macron /degree /plusminus /twosuperior /threesuperior
/acute /mu /paragraph /middot /cedilla
/onesuperior /ordmasculine /guillemotright /onequarter /onehalf
/threequarters /questiondown /Agrave /Aacute /Acircumflex
/Atilde /Adieresis /Aring /AE /Ccedilla
/Egrave /Eacute /Ecircumflex /Edieresis /Igrave
/Iacute /Icircumflex /Idieresis /Eth /Ntilde
/Ograve /Oacute /Ocircumflex /Otilde /Odieresis
/multiply /Oslash /Ugrave /Uacute /Ucircumflex
/Udieresis /Yacute /Thorn /germandbls /agrave
/aacute /acircumflex /atilde /adieresis /aring
/ae /ccedilla /egrave /eacute /ecircumflex
/edieresis /igrave /iacute /icircumflex /idieresis
/eth /ntilde /ograve /oacute /ocircumflex
/otilde /odieresis /divide /oslash /ugrave
/uacute /ucircumflex /udieresis /yacute /thorn
/ydieresis
] def
%%EndResource
%FOPBeginFontReencode
/Courier-Bold findfont
dup length dict begin
  {1 index /FID ne {def} {pop pop} ifelse} forall
  /Encoding WinAnsiEncoding def
  currentdict
end
/Courier-Bold exch definefont pop
/Helvetica findfont
dup length dict begin
  {1 index /FID ne {def} {pop pop} ifelse} forall
  /Encoding WinAnsiEncoding def
  currentdict
end
/Helvetica exch definefont pop
/Courier-BoldOblique findfont
dup length dict begin
  {1 index /FID ne {def} {pop pop} ifelse} forall
  /Encoding WinAnsiEncoding def
  currentdict
end
/Courier-BoldOblique exch definefont pop
/Courier-Oblique findfont
dup length dict begin
  {1 index /FID ne {def} {pop pop} ifelse} forall
  /Encoding WinAnsiEncoding def
  currentdict
end
/Courier-Oblique exch definefont pop
/Times-Roman findfont
dup length dict begin
  {1 index /FID ne {def} {pop pop} ifelse} forall
  /Encoding WinAnsiEncoding def
  currentdict
end
/Times-Roman exch definefont pop
/Helvetica-BoldOblique findfont
dup length dict begin
  {1 index /FID ne {def} {pop pop} ifelse} forall
  /Encoding WinAnsiEncoding def
  currentdict
end
/Helvetica-BoldOblique exch definefont pop
/Helvetica-Bold findfont
dup length dict begin
  {1 index /FID ne {def} {pop pop} ifelse} forall
  /Encoding WinAnsiEncoding def
  currentdict
end
/Helvetica-Bold exch definefont pop
/Helvetica-Oblique findfont
dup length dict begin
  {1 index /FID ne {def} {pop pop} ifelse} forall
  /Encoding WinAnsiEncoding def
  currentdict
end
/Helvetica-Oblique exch definefont pop
/Times-BoldItalic findfont
dup length dict begin
  {1 index /FID ne {def} {pop pop} ifelse} forall
  /Encoding WinAnsiEncoding def
  currentdict
end
/Times-BoldItalic exch definefont pop
/Courier findfont
dup length dict begin
  {1 index /FID ne {def} {pop pop} ifelse} forall
  /Encoding WinAnsiEncoding def
  currentdict
end
/Courier exch definefont pop
/Times-Italic findfont
dup length dict begin
  {1 index /FID ne {def} {pop pop} ifelse} forall
  /Encoding WinAnsiEncoding def
  currentdict
end
/Times-Italic exch definefont pop
/Times-Bold findfont
dup length dict begin
  {1 index /FID ne {def} {pop pop} ifelse} forall
  /Encoding WinAnsiEncoding def
  currentdict
end
/Times-Bold exch definefont pop
%FOPEndFontReencode
%%EndProlog
%%Page: 1 1
%%PageBoundingBox: 0 0 420 315
%%BeginPageSetup
[1 0 0 -1 0 315] CT
%%EndPageSetup
GS
[0.75 0 0 0.75 0 0] CT
1 GC
N
0 0 560 420 re
f
GR
GS
[0.75 0 0 0.75 0 0] CT
1 GC
N
0 0 560 420 re
f
GR
GS
[0.75 0 0 0.75 0 0] CT
1 GC
N
73 374 M
507 374 L
507 31 L
73 31 L
cp
f
GR
GS
[0.75 0 0 0.75 0 0] CT
0.149 GC
2 setlinecap
1 LJ
0.667 LW
N
73 374 M
507 374 L
S
GR
GS
[0.75 0 0 0.75 0 0] CT
0.149 GC
2 setlinecap
1 LJ
0.667 LW
N
73 374 M
73 369.66 L
S
GR
GS
[0.75 0 0 0.75 0 0] CT
0.149 GC
2 setlinecap
1 LJ
0.667 LW
N
116.4 374 M
116.4 369.66 L
S
GR
GS
[0.75 0 0 0.75 0 0] CT
0.149 GC
2 setlinecap
1 LJ
0.667 LW
N
159.8 374 M
159.8 369.66 L
S
GR
GS
[0.75 0 0 0.75 0 0] CT
0.149 GC
2 setlinecap
1 LJ
0.667 LW
N
203.2 374 M
203.2 369.66 L
S
GR
GS
[0.75 0 0 0.75 0 0] CT
0.149 GC
2 setlinecap
1 LJ
0.667 LW
N
246.6 374 M
246.6 369.66 L
S
GR
GS
[0.75 0 0 0.75 0 0] CT
0.149 GC
2 setlinecap
1 LJ
0.667 LW
N
290 374 M
290 369.66 L
S
GR
GS
[0.75 0 0 0.75 0 0] CT
0.149 GC
2 setlinecap
1 LJ
0.667 LW
N
333.4 374 M
333.4 369.66 L
S
GR
GS
[0.75 0 0 0.75 0 0] CT
0.149 GC
2 setlinecap
1 LJ
0.667 LW
N
376.8 374 M
376.8 369.66 L
S
GR
GS
[0.75 0 0 0.75 0 0] CT
0.149 GC
2 setlinecap
1 LJ
0.667 LW
N
420.2 374 M
420.2 369.66 L
S
GR
GS
[0.75 0 0 0.75 0 0] CT
0.149 GC
2 setlinecap
1 LJ
0.667 LW
N
463.6 374 M
463.6 369.66 L
S
GR
GS
[0.75 0 0 0.75 0 0] CT
0.149 GC
2 setlinecap
1 LJ
0.667 LW
N
507 374 M
507 369.66 L
S
GR
GS
[0.75 0 0 0.75 54.75 284.50001] CT
0.149 GC
/Helvetica 13 F
GS
[1 0 0 1 0 0] CT
-4 13 moveto 
1 -1 scale
(0) t 
GR
GR
GS
[0.75 0 0 0.75 87.3 284.50001] CT
0.149 GC
/Helvetica 13 F
GS
[1 0 0 1 0 0] CT
-11 13 moveto 
1 -1 scale
(100) t 
GR
GR
GS
[0.75 0 0 0.75 119.85 284.50001] CT
0.149 GC
/Helvetica 13 F
GS
[1 0 0 1 0 0] CT
-11 13 moveto 
1 -1 scale
(200) t 
GR
GR
GS
[0.75 0 0 0.75 152.4 284.50001] CT
0.149 GC
/Helvetica 13 F
GS
[1 0 0 1 0 0] CT
-11 13 moveto 
1 -1 scale
(300) t 
GR
GR
GS
[0.75 0 0 0.75 184.95 284.50001] CT
0.149 GC
/Helvetica 13 F
GS
[1 0 0 1 0 0] CT
-11 13 moveto 
1 -1 scale
(400) t 
GR
GR
GS
[0.75 0 0 0.75 217.5 284.50001] CT
0.149 GC
/Helvetica 13 F
GS
[1 0 0 1 0 0] CT
-11 13 moveto 
1 -1 scale
(500) t 
GR
GR
GS
[0.75 0 0 0.75 250.05 284.50001] CT
0.149 GC
/Helvetica 13 F
GS
[1 0 0 1 0 0] CT
-11 13 moveto 
1 -1 scale
(600) t 
GR
GR
GS
[0.75 0 0 0.75 282.59999 284.50001] CT
0.149 GC
/Helvetica 13 F
GS
[1 0 0 1 0 0] CT
-11 13 moveto 
1 -1 scale
(700) t 
GR
GR
GS
[0.75 0 0 0.75 315.15001 284.50001] CT
0.149 GC
/Helvetica 13 F
GS
[1 0 0 1 0 0] CT
-11 13 moveto 
1 -1 scale
(800) t 
GR
GR
GS
[0.75 0 0 0.75 347.7 284.50001] CT
0.149 GC
/Helvetica 13 F
GS
[1 0 0 1 0 0] CT
-11 13 moveto 
1 -1 scale
(900) t 
GR
GR
GS
[0.75 0 0 0.75 380.25 284.50001] CT
0.149 GC
/Helvetica 13 F
GS
[1 0 0 1 0 0] CT
-14.5 13 moveto 
1 -1 scale
(1000) t 
GR
GR
GS
[0.75 0 0 0.75 217.50016 297.49999] CT
0.149 GC
/Helvetica 15 F
GS
[1 0 0 1 0 0] CT
-11 14 moveto 
1 -1 scale
(t\(s\)) t 
GR
GR
GS
[0.75 0 0 0.75 0 0] CT
0.149 GC
2 setlinecap
1 LJ
0.667 LW
N
73 374 M
73 31 L
S
GR
GS
[0.75 0 0 0.75 0 0] CT
0.149 GC
2 setlinecap
1 LJ
0.667 LW
N
73 374 M
77.34 374 L
S
GR
GS
[0.75 0 0 0.75 0 0] CT
0.149 GC
2 setlinecap
1 LJ
0.667 LW
N
73 335.889 M
77.34 335.889 L
S
GR
GS
[0.75 0 0 0.75 0 0] CT
0.149 GC
2 setlinecap
1 LJ
0.667 LW
N
73 297.778 M
77.34 297.778 L
S
GR
GS
[0.75 0 0 0.75 0 0] CT
0.149 GC
2 setlinecap
1 LJ
0.667 LW
N
73 259.667 M
77.34 259.667 L
S
GR
GS
[0.75 0 0 0.75 0 0] CT
0.149 GC
2 setlinecap
1 LJ
0.667 LW
N
73 221.556 M
77.34 221.556 L
S
GR
GS
[0.75 0 0 0.75 0 0] CT
0.149 GC
2 setlinecap
1 LJ
0.667 LW
N
73 183.444 M
77.34 183.444 L
S
GR
GS
[0.75 0 0 0.75 0 0] CT
0.149 GC
2 setlinecap
1 LJ
0.667 LW
N
73 145.333 M
77.34 145.333 L
S
GR
GS
[0.75 0 0 0.75 0 0] CT
0.149 GC
2 setlinecap
1 LJ
0.667 LW
N
73 107.222 M
77.34 107.222 L
S
GR
GS
[0.75 0 0 0.75 0 0] CT
0.149 GC
2 setlinecap
1 LJ
0.667 LW
N
73 69.111 M
77.34 69.111 L
S
GR
GS
[0.75 0 0 0.75 0 0] CT
0.149 GC
2 setlinecap
1 LJ
0.667 LW
N
73 31 M
77.34 31 L
S
GR
GS
[0.75 0 0 0.75 50.75 280.5] CT
0.149 GC
/Helvetica 13 F
GS
[1 0 0 1 0 0] CT
-30 5 moveto 
1 -1 scale
(-0.06) t 
GR
GR
GS
[0.75 0 0 0.75 50.75 251.91666] CT
0.149 GC
/Helvetica 13 F
GS
[1 0 0 1 0 0] CT
-30 5 moveto 
1 -1 scale
(-0.04) t 
GR
GR
GS
[0.75 0 0 0.75 50.75 223.33333] CT
0.149 GC
/Helvetica 13 F
GS
[1 0 0 1 0 0] CT
-30 5 moveto 
1 -1 scale
(-0.02) t 
GR
GR
GS
[0.75 0 0 0.75 50.75 194.74999] CT
0.149 GC
/Helvetica 13 F
GS
[1 0 0 1 0 0] CT
-8 5 moveto 
1 -1 scale
(0) t 
GR
GR
GS
[0.75 0 0 0.75 50.75 166.16667] CT
0.149 GC
/Helvetica 13 F
GS
[1 0 0 1 0 0] CT
-26 5 moveto 
1 -1 scale
(0.02) t 
GR
GR
GS
[0.75 0 0 0.75 50.75 137.58333] CT
0.149 GC
/Helvetica 13 F
GS
[1 0 0 1 0 0] CT
-26 5 moveto 
1 -1 scale
(0.04) t 
GR
GR
GS
[0.75 0 0 0.75 50.75 109.00001] CT
0.149 GC
/Helvetica 13 F
GS
[1 0 0 1 0 0] CT
-26 5 moveto 
1 -1 scale
(0.06) t 
GR
GR
GS
[0.75 0 0 0.75 50.75 80.41667] CT
0.149 GC
/Helvetica 13 F
GS
[1 0 0 1 0 0] CT
-26 5 moveto 
1 -1 scale
(0.08) t 
GR
GR
GS
[0.75 0 0 0.75 50.75 51.83333] CT
0.149 GC
/Helvetica 13 F
GS
[1 0 0 1 0 0] CT
-19 5 moveto 
1 -1 scale
(0.1) t 
GR
GR
GS
[0.75 0 0 0.75 50.75 23.25] CT
0.149 GC
/Helvetica 13 F
GS
[1 0 0 1 0 0] CT
-26 5 moveto 
1 -1 scale
(0.12) t 
GR
GR
GS
[0.75 0 0 0.75 217.50021 21.18751] CT
/any-Bold 15 F
GS
[1 0 0 1 0 0] CT
-131 -4 moveto 
1 -1 scale
(Response of system with integration) t 
GR
GR
GS
[0.75 0 0 0.75 0 0] CT
0 0 1 RC
1 LJ
0.667 LW
N
73 259.667 M
73.434 259.667 L
73.434 69.111 L
73.434 69.111 L
73.868 69.111 L
74.302 69.111 L
74.906 69.111 L
75.523 69.111 L
76.171 69.111 L
76.9 69.111 L
77.71 69.111 L
78.592 69.111 L
79.555 69.111 L
80.631 69.111 L
81.808 69.111 L
83.099 69.111 L
84.519 69.111 L
86.096 69.111 L
87.882 69.111 L
89.993 69.111 L
92.706 69.111 L
95.522 69.111 L
98.152 69.111 L
100.86 69.111 L
103.748 69.111 L
106.895 69.111 L
110.4 69.111 L
114.418 69.111 L
119.262 69.111 L
125.574 69.111 L
132.123 69.111 L
138.564 69.111 L
145.536 69.111 L
153.313 69.111 L
161.993 69.111 L
170.673 69.111 L
179.353 69.111 L
188.033 69.111 L
196.713 69.111 L
205.393 69.111 L
214.073 69.111 L
222.753 69.111 L
229.074 69.111 L
235.394 69.111 L
241.618 69.111 L
247.399 69.111 L
252.925 69.111 L
258.678 69.111 L
264.903 69.111 L
271.285 69.111 L
S
GR
GS
[0.75 0 0 0.75 0 0] CT
0 0 1 RC
1 LJ
0.667 LW
N
264.903 69.111 M
271.285 69.111 L
277.283 69.111 L
282.832 69.111 L
288.386 69.111 L
290 69.111 L
290 69.111 L
290 69.111 L
291.371 69.111 L
292.742 69.111 L
294.379 69.111 L
296.147 69.111 L
298.095 69.111 L
300.264 69.111 L
302.712 69.111 L
305.529 69.111 L
308.866 69.111 L
313.036 69.111 L
319.197 69.111 L
325.603 69.111 L
332.377 69.111 L
340.698 69.111 L
349.378 69.111 L
358.057 69.111 L
366.737 69.111 L
375.418 69.111 L
380.672 69.111 L
385.927 69.111 L
392.53 69.111 L
399.852 69.111 L
404.832 69.111 L
409.812 69.111 L
416.117 69.111 L
423.506 69.111 L
428.673 69.111 L
433.841 69.111 L
440.17 69.111 L
447.35 69.111 L
453.838 69.111 L
459.05 69.111 L
463.898 69.111 L
469.597 69.111 L
476.539 69.111 L
483.585 69.111 L
489.369 69.111 L
494.207 69.111 L
499.345 69.111 L
505.719 69.111 L
507 69.111 L
S
GR
GS
[0.75 0 0 0.75 0 0] CT
0 1 1 RC
1 LJ
0.667 LW
N
73 259.667 M
73.434 259.667 L
73.434 69.111 L
73.434 69.111 L
73.868 69.111 L
74.302 69.111 L
74.906 69.111 L
75.523 69.111 L
76.171 69.111 L
76.9 69.111 L
77.71 69.111 L
78.592 69.111 L
79.555 69.111 L
80.631 69.111 L
81.808 69.111 L
83.099 69.111 L
84.519 69.111 L
86.096 69.111 L
87.882 69.111 L
89.993 69.111 L
92.706 69.111 L
95.522 69.111 L
98.152 69.111 L
100.86 69.111 L
103.748 69.111 L
106.895 69.111 L
110.4 69.111 L
114.418 69.111 L
119.262 69.111 L
125.574 69.111 L
132.123 69.111 L
138.564 69.111 L
145.536 69.111 L
153.313 69.111 L
161.993 69.111 L
170.673 69.111 L
179.353 69.111 L
188.033 69.111 L
196.713 69.111 L
205.393 69.111 L
214.073 69.111 L
222.753 69.111 L
229.074 69.111 L
235.394 69.111 L
241.618 69.111 L
247.399 69.111 L
252.925 69.111 L
258.678 69.111 L
264.903 69.111 L
271.285 69.111 L
S
GR
GS
[0.75 0 0 0.75 0 0] CT
0 1 1 RC
1 LJ
0.667 LW
N
264.903 69.111 M
271.285 69.111 L
277.283 69.111 L
282.832 69.111 L
288.386 69.111 L
290 69.111 L
290 69.111 L
290 69.111 L
291.371 69.111 L
292.742 69.111 L
294.379 69.111 L
296.147 69.111 L
298.095 69.111 L
300.264 69.111 L
302.712 69.111 L
305.529 69.111 L
308.866 69.111 L
313.036 69.111 L
319.197 69.111 L
325.603 69.111 L
332.377 69.111 L
340.698 69.111 L
349.378 69.111 L
358.057 69.111 L
366.737 69.111 L
375.418 69.111 L
380.672 69.111 L
385.927 69.111 L
392.53 69.111 L
399.852 69.111 L
404.832 69.111 L
409.812 69.111 L
416.117 69.111 L
423.506 69.111 L
428.673 69.111 L
433.841 69.111 L
440.17 69.111 L
447.35 69.111 L
453.838 69.111 L
459.05 69.111 L
463.898 69.111 L
469.597 69.111 L
476.539 69.111 L
483.585 69.111 L
489.369 69.111 L
494.207 69.111 L
499.345 69.111 L
505.719 69.111 L
507 69.111 L
S
GR
GS
[0.75 0 0 0.75 0 0] CT
1 1 0 RC
1 LJ
0.667 LW
N
73 259.667 M
73.434 259.667 L
73.434 259.667 L
73.434 259.667 L
73.868 259.667 L
74.302 259.667 L
74.906 259.667 L
75.523 259.667 L
76.171 259.667 L
76.9 259.667 L
77.71 259.667 L
78.592 259.667 L
79.555 259.667 L
80.631 259.667 L
81.808 259.667 L
83.099 259.667 L
84.519 259.667 L
86.096 259.667 L
87.882 259.667 L
89.993 259.667 L
92.706 259.667 L
95.522 259.667 L
98.152 259.667 L
100.86 259.667 L
103.748 259.667 L
106.895 259.667 L
110.4 259.667 L
114.418 259.667 L
119.262 259.667 L
125.574 259.667 L
132.123 259.667 L
138.564 259.667 L
145.536 259.667 L
153.313 259.667 L
161.993 259.667 L
170.673 259.667 L
179.353 259.667 L
188.033 259.667 L
196.713 259.667 L
205.393 259.667 L
214.073 259.667 L
222.753 259.667 L
229.074 259.667 L
235.394 259.667 L
241.618 259.667 L
247.399 259.667 L
252.925 259.667 L
258.678 259.667 L
264.903 259.667 L
271.285 259.667 L
S
GR
GS
[0.75 0 0 0.75 0 0] CT
1 1 0 RC
1 LJ
0.667 LW
N
264.903 259.667 M
271.285 259.667 L
277.283 259.667 L
282.832 259.667 L
288.386 259.667 L
290 259.667 L
290 354.944 L
290 354.944 L
291.371 354.944 L
292.742 354.944 L
294.379 354.944 L
296.147 354.944 L
298.095 354.944 L
300.264 354.944 L
302.712 354.944 L
305.529 354.944 L
308.866 354.944 L
313.036 354.944 L
319.197 354.944 L
325.603 354.944 L
332.377 354.944 L
340.698 354.944 L
349.378 354.944 L
358.057 354.944 L
366.737 354.944 L
375.418 354.944 L
380.672 354.944 L
385.927 354.944 L
392.53 354.944 L
399.852 354.944 L
404.832 354.944 L
409.812 354.944 L
416.117 354.944 L
423.506 354.944 L
428.673 354.944 L
433.841 354.944 L
440.17 354.944 L
447.35 354.944 L
453.838 354.944 L
459.05 354.944 L
463.898 354.944 L
469.597 354.944 L
476.539 354.944 L
483.585 354.944 L
489.369 354.944 L
494.207 354.944 L
499.345 354.944 L
505.719 354.944 L
507 354.944 L
S
GR
GS
[0.75 0 0 0.75 0 0] CT
0 1 0 RC
1 LJ
0.667 LW
N
73 259.667 M
73.434 259.667 L
73.434 259.667 L
73.434 259.667 L
73.868 259.667 L
74.302 259.667 L
74.906 259.667 L
75.523 259.667 L
76.171 259.667 L
76.9 259.667 L
77.71 259.667 L
78.592 259.667 L
79.555 259.667 L
80.631 259.667 L
81.808 259.667 L
83.099 259.667 L
84.519 259.667 L
86.096 259.667 L
87.882 259.667 L
89.993 259.667 L
92.706 259.667 L
95.522 259.667 L
98.152 259.667 L
100.86 259.667 L
103.748 259.667 L
106.895 259.667 L
110.4 259.667 L
114.418 259.667 L
119.262 259.667 L
125.574 259.667 L
132.123 259.667 L
138.564 259.667 L
145.536 259.667 L
153.313 259.667 L
161.993 259.667 L
170.673 259.667 L
179.353 259.667 L
188.033 259.667 L
196.713 259.667 L
205.393 259.667 L
214.073 259.667 L
222.753 259.667 L
229.074 259.667 L
235.394 259.667 L
241.618 259.667 L
247.399 259.667 L
252.925 259.667 L
258.678 259.667 L
264.903 259.667 L
271.285 259.667 L
S
GR
GS
[0.75 0 0 0.75 0 0] CT
0 1 0 RC
1 LJ
0.667 LW
N
264.903 259.667 M
271.285 259.667 L
277.283 259.667 L
282.832 259.667 L
288.386 259.667 L
290 259.667 L
290 354.944 L
290 354.944 L
291.371 354.944 L
292.742 354.944 L
294.379 354.944 L
296.147 354.944 L
298.095 354.944 L
300.264 354.944 L
302.712 354.944 L
305.529 354.944 L
308.866 354.944 L
313.036 354.944 L
319.197 354.944 L
325.603 354.944 L
332.377 354.944 L
340.698 354.944 L
349.378 354.944 L
358.057 354.944 L
366.737 354.944 L
375.418 354.944 L
380.672 354.944 L
385.927 354.944 L
392.53 354.944 L
399.852 354.944 L
404.832 354.944 L
409.812 354.944 L
416.117 354.944 L
423.506 354.944 L
428.673 354.944 L
433.841 354.944 L
440.17 354.944 L
447.35 354.944 L
453.838 354.944 L
459.05 354.944 L
463.898 354.944 L
469.597 354.944 L
476.539 354.944 L
483.585 354.944 L
489.369 354.944 L
494.207 354.944 L
499.345 354.944 L
505.719 354.944 L
507 354.944 L
S
GR
GS
[0.75 0 0 0.75 0 0] CT
1 0 0 RC
1 LJ
0.667 LW
N
73 259.667 M
73.434 259.667 L
73.434 259.667 L
73.434 259.667 L
73.868 259.526 L
74.302 259.095 L
74.906 257.996 L
75.523 256.272 L
76.171 253.836 L
76.9 250.377 L
77.71 245.731 L
78.592 239.868 L
79.555 232.677 L
80.631 223.931 L
81.808 213.819 L
83.099 202.423 L
84.519 189.889 L
86.096 176.388 L
87.882 162.003 L
89.993 146.603 L
92.706 129.617 L
95.522 115.287 L
98.152 104.633 L
100.86 96.016 L
103.748 88.976 L
106.895 83.293 L
110.4 78.795 L
114.418 75.326 L
119.262 72.729 L
125.574 70.886 L
132.123 69.954 L
138.564 69.515 L
145.536 69.293 L
153.313 69.186 L
161.993 69.139 L
170.673 69.121 L
179.353 69.115 L
188.033 69.112 L
196.713 69.112 L
205.393 69.111 L
214.073 69.111 L
222.753 69.111 L
229.074 69.111 L
235.394 69.111 L
241.618 69.111 L
247.399 69.111 L
252.925 69.111 L
258.678 69.111 L
264.903 69.111 L
271.285 69.111 L
S
GR
GS
[0.75 0 0 0.75 0 0] CT
1 0 0 RC
1 LJ
0.667 LW
N
264.903 69.111 M
271.285 69.111 L
277.283 69.111 L
282.832 69.111 L
288.386 69.111 L
290 69.111 L
290 69.111 L
290 69.111 L
291.371 69.252 L
292.742 69.427 L
294.379 69.619 L
296.147 69.775 L
298.095 69.876 L
300.264 69.91 L
302.712 69.88 L
305.529 69.795 L
308.866 69.666 L
313.036 69.512 L
319.197 69.339 L
325.603 69.23 L
332.377 69.169 L
340.698 69.134 L
349.378 69.12 L
358.057 69.114 L
366.737 69.112 L
375.418 69.112 L
380.672 69.111 L
385.927 69.111 L
392.53 69.111 L
399.852 69.111 L
404.832 69.111 L
409.812 69.111 L
416.117 69.111 L
423.506 69.111 L
428.673 69.111 L
433.841 69.111 L
440.17 69.111 L
447.35 69.111 L
453.838 69.111 L
459.05 69.111 L
463.898 69.111 L
469.597 69.111 L
476.539 69.111 L
483.585 69.111 L
489.369 69.111 L
494.207 69.111 L
499.345 69.111 L
505.719 69.111 L
507 69.111 L
S
GR
GS
[0.75 0 0 0.75 0 0] CT
1 0 1 RC
1 LJ
0.667 LW
N
73 259.667 M
73.434 259.667 L
73.434 259.667 L
73.434 259.667 L
73.868 259.618 L
74.302 259.433 L
74.906 258.863 L
75.523 257.825 L
76.171 256.192 L
76.9 253.671 L
77.71 250.038 L
78.592 245.18 L
79.555 238.933 L
80.631 231.019 L
81.808 221.549 L
83.099 210.559 L
84.519 198.165 L
86.096 184.523 L
87.882 169.711 L
89.993 153.585 L
92.706 135.518 L
95.522 120.072 L
98.152 108.475 L
100.86 99.026 L
103.748 91.262 L
106.895 84.964 L
110.4 79.959 L
114.418 76.086 L
119.262 73.178 L
125.574 71.109 L
132.123 70.061 L
138.564 69.566 L
145.536 69.316 L
153.313 69.195 L
161.993 69.142 L
170.673 69.123 L
179.353 69.115 L
188.033 69.113 L
196.713 69.112 L
205.393 69.111 L
214.073 69.111 L
222.753 69.111 L
229.074 69.111 L
235.394 69.111 L
241.618 69.111 L
247.399 69.111 L
252.925 69.111 L
258.678 69.111 L
264.903 69.111 L
271.285 69.111 L
S
GR
GS
[0.75 0 0 0.75 0 0] CT
1 0 1 RC
1 LJ
0.667 LW
N
264.903 69.111 M
271.285 69.111 L
277.283 69.111 L
282.832 69.111 L
288.386 69.111 L
290 69.111 L
290 69.111 L
290 69.111 L
291.371 69.216 L
292.742 69.346 L
294.379 69.489 L
296.147 69.605 L
298.095 69.679 L
300.264 69.705 L
302.712 69.683 L
305.529 69.619 L
308.866 69.523 L
313.036 69.409 L
319.197 69.28 L
325.603 69.2 L
332.377 69.154 L
340.698 69.128 L
349.378 69.118 L
358.057 69.114 L
366.737 69.112 L
375.418 69.111 L
380.672 69.111 L
385.927 69.111 L
392.53 69.111 L
399.852 69.111 L
404.832 69.111 L
409.812 69.111 L
416.117 69.111 L
423.506 69.111 L
428.673 69.111 L
433.841 69.111 L
440.17 69.111 L
447.35 69.111 L
453.838 69.111 L
459.05 69.111 L
463.898 69.111 L
469.597 69.111 L
476.539 69.111 L
483.585 69.111 L
489.369 69.111 L
494.207 69.111 L
499.345 69.111 L
505.719 69.111 L
507 69.111 L
S
GR
GS
[0.75 0 0 0.75 0 0] CT
1 GC
N
421 143 M
421 44 L
494 44 L
494 143 L
cp
f
GR
GS
[0.75 0 0 0.75 354.75 40.65076] CT
/Helvetica 12 F
GS
[1 0 0 1 0 0] CT
0 4.5 moveto 
1 -1 scale
(w1) t 
GR
GR
GS
[0.75 0 0 0.75 0 0] CT
0 0 1 RC
1 LJ
0.667 LW
N
429 54.201 M
469 54.201 L
S
GR
GS
[0.75 0 0 0.75 354.75 52.44046] CT
/Helvetica 12 F
GS
[1 0 0 1 0 0] CT
0 4.5 moveto 
1 -1 scale
(w2) t 
GR
GR
GS
[0.75 0 0 0.75 0 0] CT
0 1 1 RC
1 LJ
0.667 LW
N
429 69.921 M
469 69.921 L
S
GR
GS
[0.75 0 0 0.75 354.75 64.23015] CT
/Helvetica 12 F
GS
[1 0 0 1 0 0] CT
0 4.5 moveto 
1 -1 scale
(di1) t 
GR
GR
GS
[0.75 0 0 0.75 0 0] CT
1 1 0 RC
1 LJ
0.667 LW
N
429 85.64 M
469 85.64 L
S
GR
GS
[0.75 0 0 0.75 354.75 76.01985] CT
/Helvetica 12 F
GS
[1 0 0 1 0 0] CT
0 4.5 moveto 
1 -1 scale
(di2) t 
GR
GR
GS
[0.75 0 0 0.75 0 0] CT
0 1 0 RC
1 LJ
0.667 LW
N
429 101.36 M
469 101.36 L
S
GR
GS
[0.75 0 0 0.75 354.75 87.80954] CT
/Helvetica 12 F
GS
[1 0 0 1 0 0] CT
0 4.5 moveto 
1 -1 scale
(y1) t 
GR
GR
GS
[0.75 0 0 0.75 0 0] CT
1 0 0 RC
1 LJ
0.667 LW
N
429 117.079 M
469 117.079 L
S
GR
GS
[0.75 0 0 0.75 354.75 99.59924] CT
/Helvetica 12 F
GS
[1 0 0 1 0 0] CT
0 4.5 moveto 
1 -1 scale
(y2) t 
GR
GR
GS
[0.75 0 0 0.75 0 0] CT
1 0 1 RC
1 LJ
0.667 LW
N
429 132.799 M
469 132.799 L
S
GR
GS
[0.75 0 0 0.75 0 0] CT
0.149 GC
10.0 ML
0.667 LW
N
421 143 M
421 44 L
494 44 L
494 143 L
cp
S
GR
%%Trailer
%%Pages: 1
%%EOF
