%!PS-Adobe-3.0 EPSF-3.0
%%Creator: (MATLAB, The Mathworks, Inc. Version 8.6.0.267246 \(R2015b\). Operating System: Windows 8)
%%Title: E:/Projects/skola/rls/pics/SP2/state_reg_static_gain_u.eps
%%CreationDate: 2017-03-06T10:17:48
%%Pages: (atend)
%%BoundingBox: 0 0 420 315
%%LanguageLevel: 2
%%EndComments
%%BeginProlog
%%BeginResource: procset (Apache XML Graphics Std ProcSet) 1.2 0
%%Version: 1.2 0
%%Copyright: (Copyright 2001-2003,2010 The Apache Software Foundation. License terms: http://www.apache.org/licenses/LICENSE-2.0)
/bd{bind def}bind def
/ld{load def}bd
/GR/grestore ld
/M/moveto ld
/LJ/setlinejoin ld
/C/curveto ld
/f/fill ld
/LW/setlinewidth ld
/GC/setgray ld
/t/show ld
/N/newpath ld
/CT/concat ld
/cp/closepath ld
/S/stroke ld
/L/lineto ld
/CC/setcmykcolor ld
/A/ashow ld
/GS/gsave ld
/RC/setrgbcolor ld
/RM/rmoveto ld
/ML/setmiterlimit ld
/re {4 2 roll M
1 index 0 rlineto
0 exch rlineto
neg 0 rlineto
cp } bd
/_ctm matrix def
/_tm matrix def
/BT { _ctm currentmatrix pop matrix _tm copy pop 0 0 moveto } bd
/ET { _ctm setmatrix } bd
/iTm { _ctm setmatrix _tm concat } bd
/Tm { _tm astore pop iTm 0 0 moveto } bd
/ux 0.0 def
/uy 0.0 def
/F {
  /Tp exch def
  /Tf exch def
  Tf findfont Tp scalefont setfont
  /cf Tf def  /cs Tp def
} bd
/ULS {currentpoint /uy exch def /ux exch def} bd
/ULE {
  /Tcx currentpoint pop def
  gsave
  newpath
  cf findfont cs scalefont dup
  /FontMatrix get 0 get /Ts exch def /FontInfo get dup
  /UnderlinePosition get Ts mul /To exch def
  /UnderlineThickness get Ts mul /Tt exch def
  ux uy To add moveto  Tcx uy To add lineto
  Tt setlinewidth stroke
  grestore
} bd
/OLE {
  /Tcx currentpoint pop def
  gsave
  newpath
  cf findfont cs scalefont dup
  /FontMatrix get 0 get /Ts exch def /FontInfo get dup
  /UnderlinePosition get Ts mul /To exch def
  /UnderlineThickness get Ts mul /Tt exch def
  ux uy To add cs add moveto Tcx uy To add cs add lineto
  Tt setlinewidth stroke
  grestore
} bd
/SOE {
  /Tcx currentpoint pop def
  gsave
  newpath
  cf findfont cs scalefont dup
  /FontMatrix get 0 get /Ts exch def /FontInfo get dup
  /UnderlinePosition get Ts mul /To exch def
  /UnderlineThickness get Ts mul /Tt exch def
  ux uy To add cs 10 mul 26 idiv add moveto Tcx uy To add cs 10 mul 26 idiv add lineto
  Tt setlinewidth stroke
  grestore
} bd
/QT {
/Y22 exch store
/X22 exch store
/Y21 exch store
/X21 exch store
currentpoint
/Y21 load 2 mul add 3 div exch
/X21 load 2 mul add 3 div exch
/X21 load 2 mul /X22 load add 3 div
/Y21 load 2 mul /Y22 load add 3 div
/X22 load /Y22 load curveto
} bd
/SSPD {
dup length /d exch dict def
{
/v exch def
/k exch def
currentpagedevice k known {
/cpdv currentpagedevice k get def
v cpdv ne {
/upd false def
/nullv v type /nulltype eq def
/nullcpdv cpdv type /nulltype eq def
nullv nullcpdv or
{
/upd true def
} {
/sametype v type cpdv type eq def
sametype {
v type /arraytype eq {
/vlen v length def
/cpdvlen cpdv length def
vlen cpdvlen eq {
0 1 vlen 1 sub {
/i exch def
/obj v i get def
/cpdobj cpdv i get def
obj cpdobj ne {
/upd true def
exit
} if
} for
} {
/upd true def
} ifelse
} {
v type /dicttype eq {
v {
/dv exch def
/dk exch def
/cpddv cpdv dk get def
dv cpddv ne {
/upd true def
exit
} if
} forall
} {
/upd true def
} ifelse
} ifelse
} if
} ifelse
upd true eq {
d k v put
} if
} if
} if
} forall
d length 0 gt {
d setpagedevice
} if
} bd
%%EndResource
%%BeginResource: procset (Apache XML Graphics EPS ProcSet) 1.0 0
%%Version: 1.0 0
%%Copyright: (Copyright 2002-2003 The Apache Software Foundation. License terms: http://www.apache.org/licenses/LICENSE-2.0)
/BeginEPSF { %def
/b4_Inc_state save def         % Save state for cleanup
/dict_count countdictstack def % Count objects on dict stack
/op_count count 1 sub def      % Count objects on operand stack
userdict begin                 % Push userdict on dict stack
/showpage { } def              % Redefine showpage, { } = null proc
0 setgray 0 setlinecap         % Prepare graphics state
1 setlinewidth 0 setlinejoin
10 setmiterlimit [ ] 0 setdash newpath
/languagelevel where           % If level not equal to 1 then
{pop languagelevel             % set strokeadjust and
1 ne                           % overprint to their defaults.
{false setstrokeadjust false setoverprint
} if
} if
} bd
/EndEPSF { %def
count op_count sub {pop} repeat            % Clean up stacks
countdictstack dict_count sub {end} repeat
b4_Inc_state restore
} bd
%%EndResource
%FOPBeginFontDict
%%IncludeResource: font Courier-Bold
%%IncludeResource: font Helvetica
%%IncludeResource: font Courier-BoldOblique
%%IncludeResource: font Courier-Oblique
%%IncludeResource: font Times-Roman
%%IncludeResource: font Helvetica-BoldOblique
%%IncludeResource: font Helvetica-Bold
%%IncludeResource: font Helvetica-Oblique
%%IncludeResource: font Times-BoldItalic
%%IncludeResource: font Courier
%%IncludeResource: font Times-Italic
%%IncludeResource: font Times-Bold
%%IncludeResource: font Symbol
%%IncludeResource: font ZapfDingbats
%FOPEndFontDict
%%BeginResource: encoding WinAnsiEncoding
/WinAnsiEncoding [
/.notdef /.notdef /.notdef /.notdef /.notdef
/.notdef /.notdef /.notdef /.notdef /.notdef
/.notdef /.notdef /.notdef /.notdef /.notdef
/.notdef /.notdef /.notdef /.notdef /.notdef
/.notdef /.notdef /.notdef /.notdef /.notdef
/.notdef /.notdef /.notdef /.notdef /.notdef
/.notdef /.notdef /space /exclam /quotedbl
/numbersign /dollar /percent /ampersand /quotesingle
/parenleft /parenright /asterisk /plus /comma
/hyphen /period /slash /zero /one
/two /three /four /five /six
/seven /eight /nine /colon /semicolon
/less /equal /greater /question /at
/A /B /C /D /E
/F /G /H /I /J
/K /L /M /N /O
/P /Q /R /S /T
/U /V /W /X /Y
/Z /bracketleft /backslash /bracketright /asciicircum
/underscore /quoteleft /a /b /c
/d /e /f /g /h
/i /j /k /l /m
/n /o /p /q /r
/s /t /u /v /w
/x /y /z /braceleft /bar
/braceright /asciitilde /bullet /Euro /bullet
/quotesinglbase /florin /quotedblbase /ellipsis /dagger
/daggerdbl /circumflex /perthousand /Scaron /guilsinglleft
/OE /bullet /Zcaron /bullet /bullet
/quoteleft /quoteright /quotedblleft /quotedblright /bullet
/endash /emdash /asciitilde /trademark /scaron
/guilsinglright /oe /bullet /zcaron /Ydieresis
/space /exclamdown /cent /sterling /currency
/yen /brokenbar /section /dieresis /copyright
/ordfeminine /guillemotleft /logicalnot /sfthyphen /registered
/macron /degree /plusminus /twosuperior /threesuperior
/acute /mu /paragraph /middot /cedilla
/onesuperior /ordmasculine /guillemotright /onequarter /onehalf
/threequarters /questiondown /Agrave /Aacute /Acircumflex
/Atilde /Adieresis /Aring /AE /Ccedilla
/Egrave /Eacute /Ecircumflex /Edieresis /Igrave
/Iacute /Icircumflex /Idieresis /Eth /Ntilde
/Ograve /Oacute /Ocircumflex /Otilde /Odieresis
/multiply /Oslash /Ugrave /Uacute /Ucircumflex
/Udieresis /Yacute /Thorn /germandbls /agrave
/aacute /acircumflex /atilde /adieresis /aring
/ae /ccedilla /egrave /eacute /ecircumflex
/edieresis /igrave /iacute /icircumflex /idieresis
/eth /ntilde /ograve /oacute /ocircumflex
/otilde /odieresis /divide /oslash /ugrave
/uacute /ucircumflex /udieresis /yacute /thorn
/ydieresis
] def
%%EndResource
%FOPBeginFontReencode
/Courier-Bold findfont
dup length dict begin
  {1 index /FID ne {def} {pop pop} ifelse} forall
  /Encoding WinAnsiEncoding def
  currentdict
end
/Courier-Bold exch definefont pop
/Helvetica findfont
dup length dict begin
  {1 index /FID ne {def} {pop pop} ifelse} forall
  /Encoding WinAnsiEncoding def
  currentdict
end
/Helvetica exch definefont pop
/Courier-BoldOblique findfont
dup length dict begin
  {1 index /FID ne {def} {pop pop} ifelse} forall
  /Encoding WinAnsiEncoding def
  currentdict
end
/Courier-BoldOblique exch definefont pop
/Courier-Oblique findfont
dup length dict begin
  {1 index /FID ne {def} {pop pop} ifelse} forall
  /Encoding WinAnsiEncoding def
  currentdict
end
/Courier-Oblique exch definefont pop
/Times-Roman findfont
dup length dict begin
  {1 index /FID ne {def} {pop pop} ifelse} forall
  /Encoding WinAnsiEncoding def
  currentdict
end
/Times-Roman exch definefont pop
/Helvetica-BoldOblique findfont
dup length dict begin
  {1 index /FID ne {def} {pop pop} ifelse} forall
  /Encoding WinAnsiEncoding def
  currentdict
end
/Helvetica-BoldOblique exch definefont pop
/Helvetica-Bold findfont
dup length dict begin
  {1 index /FID ne {def} {pop pop} ifelse} forall
  /Encoding WinAnsiEncoding def
  currentdict
end
/Helvetica-Bold exch definefont pop
/Helvetica-Oblique findfont
dup length dict begin
  {1 index /FID ne {def} {pop pop} ifelse} forall
  /Encoding WinAnsiEncoding def
  currentdict
end
/Helvetica-Oblique exch definefont pop
/Times-BoldItalic findfont
dup length dict begin
  {1 index /FID ne {def} {pop pop} ifelse} forall
  /Encoding WinAnsiEncoding def
  currentdict
end
/Times-BoldItalic exch definefont pop
/Courier findfont
dup length dict begin
  {1 index /FID ne {def} {pop pop} ifelse} forall
  /Encoding WinAnsiEncoding def
  currentdict
end
/Courier exch definefont pop
/Times-Italic findfont
dup length dict begin
  {1 index /FID ne {def} {pop pop} ifelse} forall
  /Encoding WinAnsiEncoding def
  currentdict
end
/Times-Italic exch definefont pop
/Times-Bold findfont
dup length dict begin
  {1 index /FID ne {def} {pop pop} ifelse} forall
  /Encoding WinAnsiEncoding def
  currentdict
end
/Times-Bold exch definefont pop
%FOPEndFontReencode
%%EndProlog
%%Page: 1 1
%%PageBoundingBox: 0 0 420 315
%%BeginPageSetup
[1 0 0 -1 0 315] CT
%%EndPageSetup
GS
[0.75 0 0 0.75 0 0] CT
1 GC
N
0 0 560 420 re
f
GR
GS
[0.75 0 0 0.75 0 0] CT
1 GC
N
0 0 560 420 re
f
GR
GS
[0.75 0 0 0.75 0 0] CT
1 GC
N
73 374 M
507 374 L
507 31 L
73 31 L
cp
f
GR
GS
[0.75 0 0 0.75 0 0] CT
0.149 GC
2 setlinecap
1 LJ
0.667 LW
N
73 374 M
507 374 L
S
GR
GS
[0.75 0 0 0.75 0 0] CT
0.149 GC
2 setlinecap
1 LJ
0.667 LW
N
73 374 M
73 369.66 L
S
GR
GS
[0.75 0 0 0.75 0 0] CT
0.149 GC
2 setlinecap
1 LJ
0.667 LW
N
145.333 374 M
145.333 369.66 L
S
GR
GS
[0.75 0 0 0.75 0 0] CT
0.149 GC
2 setlinecap
1 LJ
0.667 LW
N
217.667 374 M
217.667 369.66 L
S
GR
GS
[0.75 0 0 0.75 0 0] CT
0.149 GC
2 setlinecap
1 LJ
0.667 LW
N
290 374 M
290 369.66 L
S
GR
GS
[0.75 0 0 0.75 0 0] CT
0.149 GC
2 setlinecap
1 LJ
0.667 LW
N
362.333 374 M
362.333 369.66 L
S
GR
GS
[0.75 0 0 0.75 0 0] CT
0.149 GC
2 setlinecap
1 LJ
0.667 LW
N
434.667 374 M
434.667 369.66 L
S
GR
GS
[0.75 0 0 0.75 0 0] CT
0.149 GC
2 setlinecap
1 LJ
0.667 LW
N
507 374 M
507 369.66 L
S
GR
GS
[0.75 0 0 0.75 54.75 284.50001] CT
0.149 GC
/Helvetica 13 F
GS
[1 0 0 1 0 0] CT
-4 13 moveto 
1 -1 scale
(0) t 
GR
GR
GS
[0.75 0 0 0.75 109 284.50001] CT
0.149 GC
/Helvetica 13 F
GS
[1 0 0 1 0 0] CT
-7.5 13 moveto 
1 -1 scale
(50) t 
GR
GR
GS
[0.75 0 0 0.75 163.25 284.50001] CT
0.149 GC
/Helvetica 13 F
GS
[1 0 0 1 0 0] CT
-11 13 moveto 
1 -1 scale
(100) t 
GR
GR
GS
[0.75 0 0 0.75 217.5 284.50001] CT
0.149 GC
/Helvetica 13 F
GS
[1 0 0 1 0 0] CT
-11 13 moveto 
1 -1 scale
(150) t 
GR
GR
GS
[0.75 0 0 0.75 271.75001 284.50001] CT
0.149 GC
/Helvetica 13 F
GS
[1 0 0 1 0 0] CT
-11 13 moveto 
1 -1 scale
(200) t 
GR
GR
GS
[0.75 0 0 0.75 325.99999 284.50001] CT
0.149 GC
/Helvetica 13 F
GS
[1 0 0 1 0 0] CT
-11 13 moveto 
1 -1 scale
(250) t 
GR
GR
GS
[0.75 0 0 0.75 380.25 284.50001] CT
0.149 GC
/Helvetica 13 F
GS
[1 0 0 1 0 0] CT
-11 13 moveto 
1 -1 scale
(300) t 
GR
GR
GS
[0.75 0 0 0.75 217.50016 297.49999] CT
0.149 GC
/Helvetica 15 F
GS
[1 0 0 1 0 0] CT
-2.5 14 moveto 
1 -1 scale
(t) t 
GR
GR
GS
[0.75 0 0 0.75 0 0] CT
0.149 GC
2 setlinecap
1 LJ
0.667 LW
N
73 374 M
73 31 L
S
GR
GS
[0.75 0 0 0.75 0 0] CT
0.149 GC
2 setlinecap
1 LJ
0.667 LW
N
73 374 M
77.34 374 L
S
GR
GS
[0.75 0 0 0.75 0 0] CT
0.149 GC
2 setlinecap
1 LJ
0.667 LW
N
73 331.125 M
77.34 331.125 L
S
GR
GS
[0.75 0 0 0.75 0 0] CT
0.149 GC
2 setlinecap
1 LJ
0.667 LW
N
73 288.25 M
77.34 288.25 L
S
GR
GS
[0.75 0 0 0.75 0 0] CT
0.149 GC
2 setlinecap
1 LJ
0.667 LW
N
73 245.375 M
77.34 245.375 L
S
GR
GS
[0.75 0 0 0.75 0 0] CT
0.149 GC
2 setlinecap
1 LJ
0.667 LW
N
73 202.5 M
77.34 202.5 L
S
GR
GS
[0.75 0 0 0.75 0 0] CT
0.149 GC
2 setlinecap
1 LJ
0.667 LW
N
73 159.625 M
77.34 159.625 L
S
GR
GS
[0.75 0 0 0.75 0 0] CT
0.149 GC
2 setlinecap
1 LJ
0.667 LW
N
73 116.75 M
77.34 116.75 L
S
GR
GS
[0.75 0 0 0.75 0 0] CT
0.149 GC
2 setlinecap
1 LJ
0.667 LW
N
73 73.875 M
77.34 73.875 L
S
GR
GS
[0.75 0 0 0.75 0 0] CT
0.149 GC
2 setlinecap
1 LJ
0.667 LW
N
73 31 M
77.34 31 L
S
GR
GS
[0.75 0 0 0.75 50.75 280.5] CT
0.149 GC
/Helvetica 13 F
GS
[1 0 0 1 0 0] CT
-19 5 moveto 
1 -1 scale
(0.5) t 
GR
GR
GS
[0.75 0 0 0.75 50.75 248.34375] CT
0.149 GC
/Helvetica 13 F
GS
[1 0 0 1 0 0] CT
-8 5 moveto 
1 -1 scale
(1) t 
GR
GR
GS
[0.75 0 0 0.75 50.75 216.1875] CT
0.149 GC
/Helvetica 13 F
GS
[1 0 0 1 0 0] CT
-19 5 moveto 
1 -1 scale
(1.5) t 
GR
GR
GS
[0.75 0 0 0.75 50.75 184.03125] CT
0.149 GC
/Helvetica 13 F
GS
[1 0 0 1 0 0] CT
-8 5 moveto 
1 -1 scale
(2) t 
GR
GR
GS
[0.75 0 0 0.75 50.75 151.875] CT
0.149 GC
/Helvetica 13 F
GS
[1 0 0 1 0 0] CT
-19 5 moveto 
1 -1 scale
(2.5) t 
GR
GR
GS
[0.75 0 0 0.75 50.75 119.71875] CT
0.149 GC
/Helvetica 13 F
GS
[1 0 0 1 0 0] CT
-8 5 moveto 
1 -1 scale
(3) t 
GR
GR
GS
[0.75 0 0 0.75 50.75 87.5625] CT
0.149 GC
/Helvetica 13 F
GS
[1 0 0 1 0 0] CT
-19 5 moveto 
1 -1 scale
(3.5) t 
GR
GR
GS
[0.75 0 0 0.75 50.75 55.40625] CT
0.149 GC
/Helvetica 13 F
GS
[1 0 0 1 0 0] CT
-8 5 moveto 
1 -1 scale
(4) t 
GR
GR
GS
[0.75 0 0 0.75 50.75 23.25] CT
0.149 GC
/Helvetica 13 F
GS
[1 0 0 1 0 0] CT
-19 5 moveto 
1 -1 scale
(4.5) t 
GR
GR
GS
[0 -0.75 0.75 0 33.5 151.87487] CT
0.149 GC
/Helvetica 15 F
GS
[1 0 0 1 0 0] CT
-11.5 -4 moveto 
1 -1 scale
(u\(t\)) t 
GR
GR
GS
[0.75 0 0 0.75 217.50021 21.18749] CT
/any-Bold 15 F
GS
[1 0 0 1 0 0] CT
-228 -4 moveto 
1 -1 scale
(Step response of system with compensated static gain - control) t 
GR
GR
GS
[0.75 0 0 0.75 0 0] CT
1 0 0 RC
1 LJ
0.667 LW
N
73 185.766 M
74.447 167.032 L
75.893 150.323 L
77.34 135.474 L
78.787 122.333 L
80.233 110.761 L
81.68 100.626 L
83.127 91.808 L
84.573 84.194 L
86.02 77.681 L
87.467 72.173 L
88.913 67.58 L
90.36 63.82 L
91.807 60.818 L
93.253 58.502 L
94.7 56.808 L
96.147 55.676 L
97.593 55.05 L
99.04 54.88 L
100.487 55.119 L
101.933 55.723 L
103.38 56.652 L
104.827 57.871 L
106.273 59.345 L
107.72 61.043 L
109.167 62.938 L
110.613 65.004 L
112.06 67.216 L
113.507 69.554 L
114.953 71.998 L
116.4 74.529 L
117.847 77.132 L
119.293 79.791 L
120.74 82.493 L
122.187 85.227 L
123.633 87.98 L
125.08 90.743 L
126.527 93.508 L
127.973 96.265 L
129.42 99.009 L
130.867 101.733 L
132.313 104.43 L
133.76 107.097 L
135.207 109.729 L
136.653 112.321 L
138.1 114.871 L
139.547 117.376 L
140.993 119.834 L
142.44 122.242 L
143.887 124.598 L
S
GR
GS
[0.75 0 0 0.75 0 0] CT
1 0 0 RC
1 LJ
0.667 LW
N
142.44 122.242 M
143.887 124.598 L
145.333 126.902 L
146.78 129.152 L
148.227 131.348 L
149.673 133.489 L
151.12 135.574 L
152.567 137.604 L
154.013 139.578 L
155.46 141.497 L
156.907 143.361 L
158.353 145.171 L
159.8 146.926 L
161.247 148.628 L
162.693 150.277 L
164.14 151.875 L
165.587 153.421 L
167.033 154.917 L
168.48 156.364 L
169.927 157.763 L
171.373 159.115 L
172.82 160.421 L
174.267 161.682 L
175.713 162.9 L
177.16 164.074 L
178.607 165.207 L
180.053 166.299 L
181.5 167.352 L
182.947 168.367 L
184.393 169.345 L
185.84 170.286 L
187.287 171.193 L
188.733 172.066 L
190.18 172.905 L
191.627 173.713 L
193.073 174.491 L
194.52 175.238 L
195.967 175.956 L
197.413 176.647 L
198.86 177.311 L
200.307 177.949 L
201.753 178.561 L
203.2 179.15 L
204.647 179.715 L
206.093 180.257 L
207.54 180.778 L
208.987 181.278 L
210.433 181.758 L
211.88 182.218 L
213.327 182.659 L
214.773 183.083 L
216.22 183.489 L
S
GR
GS
[0.75 0 0 0.75 0 0] CT
1 0 0 RC
1 LJ
0.667 LW
N
214.773 183.083 M
216.22 183.489 L
217.667 183.878 L
219.113 184.252 L
220.56 184.609 L
222.007 184.952 L
223.453 185.281 L
224.9 185.596 L
226.347 185.898 L
227.793 186.187 L
229.24 186.464 L
230.687 186.729 L
232.133 186.983 L
233.58 187.226 L
235.027 187.459 L
236.473 187.682 L
237.92 187.895 L
239.367 188.1 L
240.813 188.295 L
242.26 188.482 L
243.707 188.661 L
245.153 188.832 L
246.6 188.996 L
248.047 189.153 L
249.493 189.303 L
250.94 189.446 L
252.387 189.583 L
253.833 189.715 L
255.28 189.84 L
256.727 189.96 L
258.173 190.074 L
259.62 190.184 L
261.067 190.289 L
262.513 190.389 L
263.96 190.484 L
265.407 190.576 L
266.853 190.663 L
268.3 190.747 L
269.747 190.827 L
271.193 190.903 L
272.64 190.976 L
274.087 191.045 L
275.533 191.112 L
276.98 191.175 L
278.427 191.236 L
279.873 191.294 L
281.32 191.349 L
282.767 191.402 L
284.213 191.452 L
285.66 191.501 L
287.107 191.547 L
288.553 191.59 L
S
GR
GS
[0.75 0 0 0.75 0 0] CT
1 0 0 RC
1 LJ
0.667 LW
N
287.107 191.547 M
288.553 191.59 L
290 191.632 L
291.447 191.672 L
292.893 191.711 L
294.34 191.747 L
295.787 191.782 L
297.233 191.815 L
298.68 191.847 L
300.127 191.877 L
301.573 191.906 L
303.02 191.934 L
304.467 191.96 L
305.913 191.985 L
307.36 192.009 L
308.807 192.032 L
310.253 192.054 L
311.7 192.075 L
313.147 192.094 L
314.593 192.113 L
316.04 192.131 L
317.487 192.149 L
318.933 192.165 L
320.38 192.181 L
321.827 192.196 L
323.273 192.21 L
324.72 192.224 L
326.167 192.237 L
327.613 192.249 L
329.06 192.261 L
330.507 192.272 L
331.953 192.283 L
333.4 192.293 L
334.847 192.303 L
336.293 192.312 L
337.74 192.321 L
339.187 192.33 L
340.633 192.338 L
342.08 192.345 L
343.527 192.353 L
344.973 192.36 L
346.42 192.366 L
347.867 192.373 L
349.313 192.379 L
350.76 192.385 L
352.207 192.39 L
353.653 192.395 L
355.1 192.4 L
356.547 192.405 L
357.993 192.41 L
359.44 192.414 L
360.887 192.418 L
S
GR
GS
[0.75 0 0 0.75 0 0] CT
1 0 0 RC
1 LJ
0.667 LW
N
359.44 192.414 M
360.887 192.418 L
362.333 192.422 L
363.78 192.426 L
365.227 192.429 L
366.673 192.433 L
368.12 192.436 L
369.567 192.439 L
371.013 192.442 L
372.46 192.445 L
373.907 192.448 L
375.353 192.45 L
376.8 192.453 L
378.247 192.455 L
379.693 192.457 L
381.14 192.459 L
382.587 192.461 L
384.033 192.463 L
385.48 192.465 L
386.927 192.467 L
388.373 192.468 L
389.82 192.47 L
391.267 192.471 L
392.713 192.473 L
394.16 192.474 L
395.607 192.476 L
397.053 192.477 L
398.5 192.478 L
399.947 192.479 L
401.393 192.48 L
402.84 192.481 L
404.287 192.482 L
405.733 192.483 L
407.18 192.484 L
408.627 192.485 L
410.073 192.486 L
411.52 192.486 L
412.967 192.487 L
414.413 192.488 L
415.86 192.488 L
417.307 192.489 L
418.753 192.49 L
420.2 192.49 L
421.647 192.491 L
423.093 192.491 L
424.54 192.492 L
425.987 192.492 L
427.433 192.493 L
428.88 192.493 L
430.327 192.493 L
431.773 192.494 L
433.22 192.494 L
S
GR
GS
[0.75 0 0 0.75 0 0] CT
1 0 0 RC
1 LJ
0.667 LW
N
431.773 192.494 M
433.22 192.494 L
434.667 192.495 L
436.113 192.495 L
437.56 192.495 L
439.007 192.495 L
440.453 192.496 L
441.9 192.496 L
443.347 192.496 L
444.793 192.497 L
446.24 192.497 L
447.687 192.497 L
449.133 192.497 L
450.58 192.497 L
452.027 192.498 L
453.473 192.498 L
454.92 192.498 L
456.367 192.498 L
457.813 192.498 L
459.26 192.498 L
460.707 192.499 L
462.153 192.499 L
463.6 192.499 L
465.047 192.499 L
466.493 192.499 L
467.94 192.499 L
469.387 192.499 L
470.833 192.499 L
472.28 192.5 L
473.727 192.5 L
475.173 192.5 L
476.62 192.5 L
478.067 192.5 L
479.513 192.5 L
480.96 192.5 L
482.407 192.5 L
483.853 192.5 L
485.3 192.5 L
486.747 192.5 L
488.193 192.5 L
489.64 192.5 L
491.087 192.5 L
492.533 192.501 L
493.98 192.501 L
495.427 192.501 L
496.873 192.501 L
498.32 192.501 L
499.767 192.501 L
501.213 192.501 L
502.66 192.501 L
504.107 192.501 L
505.553 192.501 L
S
GR
GS
[0.75 0 0 0.75 0 0] CT
1 0 0 RC
1 LJ
0.667 LW
N
504.107 192.501 M
505.553 192.501 L
507 192.501 L
S
GR
GS
[0.75 0 0 0.75 0 0] CT
1 0 1 RC
1 LJ
0.667 LW
N
73 333.338 M
74.447 321.913 L
75.893 311.703 L
77.34 302.611 L
78.787 294.545 L
80.233 287.421 L
81.68 281.163 L
83.127 275.696 L
84.573 270.955 L
86.02 266.878 L
87.467 263.406 L
88.913 260.486 L
90.36 258.07 L
91.807 256.112 L
93.253 254.569 L
94.7 253.403 L
96.147 252.577 L
97.593 252.059 L
99.04 251.818 L
100.487 251.826 L
101.933 252.057 L
103.38 252.487 L
104.827 253.094 L
106.273 253.858 L
107.72 254.76 L
109.167 255.784 L
110.613 256.914 L
112.06 258.135 L
113.507 259.435 L
114.953 260.801 L
116.4 262.224 L
117.847 263.692 L
119.293 265.198 L
120.74 266.733 L
122.187 268.289 L
123.633 269.86 L
125.08 271.439 L
126.527 273.023 L
127.973 274.605 L
129.42 276.181 L
130.867 277.748 L
132.313 279.301 L
133.76 280.839 L
135.207 282.357 L
136.653 283.855 L
138.1 285.329 L
139.547 286.778 L
140.993 288.201 L
142.44 289.596 L
143.887 290.962 L
S
GR
GS
[0.75 0 0 0.75 0 0] CT
1 0 1 RC
1 LJ
0.667 LW
N
142.44 289.596 M
143.887 290.962 L
145.333 292.298 L
146.78 293.605 L
148.227 294.88 L
149.673 296.123 L
151.12 297.335 L
152.567 298.516 L
154.013 299.664 L
155.46 300.781 L
156.907 301.866 L
158.353 302.92 L
159.8 303.942 L
161.247 304.934 L
162.693 305.896 L
164.14 306.827 L
165.587 307.729 L
167.033 308.602 L
168.48 309.446 L
169.927 310.263 L
171.373 311.052 L
172.82 311.815 L
174.267 312.552 L
175.713 313.263 L
177.16 313.949 L
178.607 314.611 L
180.053 315.25 L
181.5 315.865 L
182.947 316.459 L
184.393 317.03 L
185.84 317.581 L
187.287 318.112 L
188.733 318.622 L
190.18 319.114 L
191.627 319.586 L
193.073 320.041 L
194.52 320.479 L
195.967 320.9 L
197.413 321.304 L
198.86 321.693 L
200.307 322.066 L
201.753 322.425 L
203.2 322.77 L
204.647 323.101 L
206.093 323.419 L
207.54 323.724 L
208.987 324.017 L
210.433 324.298 L
211.88 324.568 L
213.327 324.827 L
214.773 325.075 L
216.22 325.313 L
S
GR
GS
[0.75 0 0 0.75 0 0] CT
1 0 1 RC
1 LJ
0.667 LW
N
214.773 325.075 M
216.22 325.313 L
217.667 325.542 L
219.113 325.76 L
220.56 325.97 L
222.007 326.171 L
223.453 326.364 L
224.9 326.549 L
226.347 326.726 L
227.793 326.896 L
229.24 327.058 L
230.687 327.214 L
232.133 327.363 L
233.58 327.506 L
235.027 327.642 L
236.473 327.773 L
237.92 327.898 L
239.367 328.018 L
240.813 328.133 L
242.26 328.243 L
243.707 328.348 L
245.153 328.448 L
246.6 328.544 L
248.047 328.637 L
249.493 328.725 L
250.94 328.809 L
252.387 328.889 L
253.833 328.966 L
255.28 329.04 L
256.727 329.11 L
258.173 329.178 L
259.62 329.242 L
261.067 329.303 L
262.513 329.362 L
263.96 329.418 L
265.407 329.472 L
266.853 329.524 L
268.3 329.573 L
269.747 329.619 L
271.193 329.664 L
272.64 329.707 L
274.087 329.748 L
275.533 329.787 L
276.98 329.824 L
278.427 329.86 L
279.873 329.894 L
281.32 329.927 L
282.767 329.958 L
284.213 329.987 L
285.66 330.016 L
287.107 330.043 L
288.553 330.068 L
S
GR
GS
[0.75 0 0 0.75 0 0] CT
1 0 1 RC
1 LJ
0.667 LW
N
287.107 330.043 M
288.553 330.068 L
290 330.093 L
291.447 330.117 L
292.893 330.139 L
294.34 330.16 L
295.787 330.181 L
297.233 330.2 L
298.68 330.219 L
300.127 330.237 L
301.573 330.254 L
303.02 330.27 L
304.467 330.286 L
305.913 330.3 L
307.36 330.314 L
308.807 330.328 L
310.253 330.341 L
311.7 330.353 L
313.147 330.365 L
314.593 330.376 L
316.04 330.386 L
317.487 330.397 L
318.933 330.406 L
320.38 330.415 L
321.827 330.424 L
323.273 330.433 L
324.72 330.441 L
326.167 330.448 L
327.613 330.456 L
329.06 330.463 L
330.507 330.469 L
331.953 330.476 L
333.4 330.482 L
334.847 330.487 L
336.293 330.493 L
337.74 330.498 L
339.187 330.503 L
340.633 330.508 L
342.08 330.512 L
343.527 330.517 L
344.973 330.521 L
346.42 330.525 L
347.867 330.528 L
349.313 330.532 L
350.76 330.535 L
352.207 330.539 L
353.653 330.542 L
355.1 330.545 L
356.547 330.547 L
357.993 330.55 L
359.44 330.553 L
360.887 330.555 L
S
GR
GS
[0.75 0 0 0.75 0 0] CT
1 0 1 RC
1 LJ
0.667 LW
N
359.44 330.553 M
360.887 330.555 L
362.333 330.557 L
363.78 330.56 L
365.227 330.562 L
366.673 330.564 L
368.12 330.566 L
369.567 330.567 L
371.013 330.569 L
372.46 330.571 L
373.907 330.572 L
375.353 330.574 L
376.8 330.575 L
378.247 330.577 L
379.693 330.578 L
381.14 330.579 L
382.587 330.58 L
384.033 330.582 L
385.48 330.583 L
386.927 330.584 L
388.373 330.585 L
389.82 330.586 L
391.267 330.586 L
392.713 330.587 L
394.16 330.588 L
395.607 330.589 L
397.053 330.59 L
398.5 330.59 L
399.947 330.591 L
401.393 330.592 L
402.84 330.592 L
404.287 330.593 L
405.733 330.593 L
407.18 330.594 L
408.627 330.594 L
410.073 330.595 L
411.52 330.595 L
412.967 330.596 L
414.413 330.596 L
415.86 330.596 L
417.307 330.597 L
418.753 330.597 L
420.2 330.597 L
421.647 330.598 L
423.093 330.598 L
424.54 330.598 L
425.987 330.599 L
427.433 330.599 L
428.88 330.599 L
430.327 330.599 L
431.773 330.6 L
433.22 330.6 L
S
GR
GS
[0.75 0 0 0.75 0 0] CT
1 0 1 RC
1 LJ
0.667 LW
N
431.773 330.6 M
433.22 330.6 L
434.667 330.6 L
436.113 330.6 L
437.56 330.6 L
439.007 330.601 L
440.453 330.601 L
441.9 330.601 L
443.347 330.601 L
444.793 330.601 L
446.24 330.601 L
447.687 330.601 L
449.133 330.602 L
450.58 330.602 L
452.027 330.602 L
453.473 330.602 L
454.92 330.602 L
456.367 330.602 L
457.813 330.602 L
459.26 330.602 L
460.707 330.602 L
462.153 330.603 L
463.6 330.603 L
465.047 330.603 L
466.493 330.603 L
467.94 330.603 L
469.387 330.603 L
470.833 330.603 L
472.28 330.603 L
473.727 330.603 L
475.173 330.603 L
476.62 330.603 L
478.067 330.603 L
479.513 330.603 L
480.96 330.603 L
482.407 330.603 L
483.853 330.603 L
485.3 330.603 L
486.747 330.603 L
488.193 330.603 L
489.64 330.603 L
491.087 330.604 L
492.533 330.604 L
493.98 330.604 L
495.427 330.604 L
496.873 330.604 L
498.32 330.604 L
499.767 330.604 L
501.213 330.604 L
502.66 330.604 L
504.107 330.604 L
505.553 330.604 L
S
GR
GS
[0.75 0 0 0.75 0 0] CT
1 0 1 RC
1 LJ
0.667 LW
N
504.107 330.604 M
505.553 330.604 L
507 330.604 L
S
GR
GS
[0.75 0 0 0.75 0 0] CT
1 GC
N
424 80 M
424 44 L
494 44 L
494 80 L
cp
f
GR
GS
[0.75 0 0 0.75 357 40.625] CT
/Helvetica 12 F
GS
[1 0 0 1 0 0] CT
0 4.5 moveto 
1 -1 scale
(u1) t 
GR
GR
GS
[0.75 0 0 0.75 0 0] CT
1 0 0 RC
1 LJ
0.667 LW
N
432 54.167 M
472 54.167 L
S
GR
GS
[0.75 0 0 0.75 357 52.375] CT
/Helvetica 12 F
GS
[1 0 0 1 0 0] CT
0 4.5 moveto 
1 -1 scale
(u2) t 
GR
GR
GS
[0.75 0 0 0.75 0 0] CT
1 0 1 RC
1 LJ
0.667 LW
N
432 69.833 M
472 69.833 L
S
GR
GS
[0.75 0 0 0.75 0 0] CT
0.149 GC
10.0 ML
0.667 LW
N
424 80 M
424 44 L
494 44 L
494 80 L
cp
S
GR
%%Trailer
%%Pages: 1
%%EOF
