%!PS-Adobe-3.0 EPSF-3.0
%%Creator: (MATLAB, The Mathworks, Inc. Version 8.6.0.267246 \(R2015b\). Operating System: Windows 8)
%%Title: E:/Projects/skola/rls/pics/SP2/state_reg_i_error_u.eps
%%CreationDate: 2017-03-06T10:25:38
%%Pages: (atend)
%%BoundingBox: 0 0 420 315
%%LanguageLevel: 2
%%EndComments
%%BeginProlog
%%BeginResource: procset (Apache XML Graphics Std ProcSet) 1.2 0
%%Version: 1.2 0
%%Copyright: (Copyright 2001-2003,2010 The Apache Software Foundation. License terms: http://www.apache.org/licenses/LICENSE-2.0)
/bd{bind def}bind def
/ld{load def}bd
/GR/grestore ld
/M/moveto ld
/LJ/setlinejoin ld
/C/curveto ld
/f/fill ld
/LW/setlinewidth ld
/GC/setgray ld
/t/show ld
/N/newpath ld
/CT/concat ld
/cp/closepath ld
/S/stroke ld
/L/lineto ld
/CC/setcmykcolor ld
/A/ashow ld
/GS/gsave ld
/RC/setrgbcolor ld
/RM/rmoveto ld
/ML/setmiterlimit ld
/re {4 2 roll M
1 index 0 rlineto
0 exch rlineto
neg 0 rlineto
cp } bd
/_ctm matrix def
/_tm matrix def
/BT { _ctm currentmatrix pop matrix _tm copy pop 0 0 moveto } bd
/ET { _ctm setmatrix } bd
/iTm { _ctm setmatrix _tm concat } bd
/Tm { _tm astore pop iTm 0 0 moveto } bd
/ux 0.0 def
/uy 0.0 def
/F {
  /Tp exch def
  /Tf exch def
  Tf findfont Tp scalefont setfont
  /cf Tf def  /cs Tp def
} bd
/ULS {currentpoint /uy exch def /ux exch def} bd
/ULE {
  /Tcx currentpoint pop def
  gsave
  newpath
  cf findfont cs scalefont dup
  /FontMatrix get 0 get /Ts exch def /FontInfo get dup
  /UnderlinePosition get Ts mul /To exch def
  /UnderlineThickness get Ts mul /Tt exch def
  ux uy To add moveto  Tcx uy To add lineto
  Tt setlinewidth stroke
  grestore
} bd
/OLE {
  /Tcx currentpoint pop def
  gsave
  newpath
  cf findfont cs scalefont dup
  /FontMatrix get 0 get /Ts exch def /FontInfo get dup
  /UnderlinePosition get Ts mul /To exch def
  /UnderlineThickness get Ts mul /Tt exch def
  ux uy To add cs add moveto Tcx uy To add cs add lineto
  Tt setlinewidth stroke
  grestore
} bd
/SOE {
  /Tcx currentpoint pop def
  gsave
  newpath
  cf findfont cs scalefont dup
  /FontMatrix get 0 get /Ts exch def /FontInfo get dup
  /UnderlinePosition get Ts mul /To exch def
  /UnderlineThickness get Ts mul /Tt exch def
  ux uy To add cs 10 mul 26 idiv add moveto Tcx uy To add cs 10 mul 26 idiv add lineto
  Tt setlinewidth stroke
  grestore
} bd
/QT {
/Y22 exch store
/X22 exch store
/Y21 exch store
/X21 exch store
currentpoint
/Y21 load 2 mul add 3 div exch
/X21 load 2 mul add 3 div exch
/X21 load 2 mul /X22 load add 3 div
/Y21 load 2 mul /Y22 load add 3 div
/X22 load /Y22 load curveto
} bd
/SSPD {
dup length /d exch dict def
{
/v exch def
/k exch def
currentpagedevice k known {
/cpdv currentpagedevice k get def
v cpdv ne {
/upd false def
/nullv v type /nulltype eq def
/nullcpdv cpdv type /nulltype eq def
nullv nullcpdv or
{
/upd true def
} {
/sametype v type cpdv type eq def
sametype {
v type /arraytype eq {
/vlen v length def
/cpdvlen cpdv length def
vlen cpdvlen eq {
0 1 vlen 1 sub {
/i exch def
/obj v i get def
/cpdobj cpdv i get def
obj cpdobj ne {
/upd true def
exit
} if
} for
} {
/upd true def
} ifelse
} {
v type /dicttype eq {
v {
/dv exch def
/dk exch def
/cpddv cpdv dk get def
dv cpddv ne {
/upd true def
exit
} if
} forall
} {
/upd true def
} ifelse
} ifelse
} if
} ifelse
upd true eq {
d k v put
} if
} if
} if
} forall
d length 0 gt {
d setpagedevice
} if
} bd
%%EndResource
%%BeginResource: procset (Apache XML Graphics EPS ProcSet) 1.0 0
%%Version: 1.0 0
%%Copyright: (Copyright 2002-2003 The Apache Software Foundation. License terms: http://www.apache.org/licenses/LICENSE-2.0)
/BeginEPSF { %def
/b4_Inc_state save def         % Save state for cleanup
/dict_count countdictstack def % Count objects on dict stack
/op_count count 1 sub def      % Count objects on operand stack
userdict begin                 % Push userdict on dict stack
/showpage { } def              % Redefine showpage, { } = null proc
0 setgray 0 setlinecap         % Prepare graphics state
1 setlinewidth 0 setlinejoin
10 setmiterlimit [ ] 0 setdash newpath
/languagelevel where           % If level not equal to 1 then
{pop languagelevel             % set strokeadjust and
1 ne                           % overprint to their defaults.
{false setstrokeadjust false setoverprint
} if
} if
} bd
/EndEPSF { %def
count op_count sub {pop} repeat            % Clean up stacks
countdictstack dict_count sub {end} repeat
b4_Inc_state restore
} bd
%%EndResource
%FOPBeginFontDict
%%IncludeResource: font Courier-Bold
%%IncludeResource: font Helvetica
%%IncludeResource: font Courier-BoldOblique
%%IncludeResource: font Courier-Oblique
%%IncludeResource: font Times-Roman
%%IncludeResource: font Helvetica-BoldOblique
%%IncludeResource: font Helvetica-Bold
%%IncludeResource: font Helvetica-Oblique
%%IncludeResource: font Times-BoldItalic
%%IncludeResource: font Courier
%%IncludeResource: font Times-Italic
%%IncludeResource: font Times-Bold
%%IncludeResource: font Symbol
%%IncludeResource: font ZapfDingbats
%FOPEndFontDict
%%BeginResource: encoding WinAnsiEncoding
/WinAnsiEncoding [
/.notdef /.notdef /.notdef /.notdef /.notdef
/.notdef /.notdef /.notdef /.notdef /.notdef
/.notdef /.notdef /.notdef /.notdef /.notdef
/.notdef /.notdef /.notdef /.notdef /.notdef
/.notdef /.notdef /.notdef /.notdef /.notdef
/.notdef /.notdef /.notdef /.notdef /.notdef
/.notdef /.notdef /space /exclam /quotedbl
/numbersign /dollar /percent /ampersand /quotesingle
/parenleft /parenright /asterisk /plus /comma
/hyphen /period /slash /zero /one
/two /three /four /five /six
/seven /eight /nine /colon /semicolon
/less /equal /greater /question /at
/A /B /C /D /E
/F /G /H /I /J
/K /L /M /N /O
/P /Q /R /S /T
/U /V /W /X /Y
/Z /bracketleft /backslash /bracketright /asciicircum
/underscore /quoteleft /a /b /c
/d /e /f /g /h
/i /j /k /l /m
/n /o /p /q /r
/s /t /u /v /w
/x /y /z /braceleft /bar
/braceright /asciitilde /bullet /Euro /bullet
/quotesinglbase /florin /quotedblbase /ellipsis /dagger
/daggerdbl /circumflex /perthousand /Scaron /guilsinglleft
/OE /bullet /Zcaron /bullet /bullet
/quoteleft /quoteright /quotedblleft /quotedblright /bullet
/endash /emdash /asciitilde /trademark /scaron
/guilsinglright /oe /bullet /zcaron /Ydieresis
/space /exclamdown /cent /sterling /currency
/yen /brokenbar /section /dieresis /copyright
/ordfeminine /guillemotleft /logicalnot /sfthyphen /registered
/macron /degree /plusminus /twosuperior /threesuperior
/acute /mu /paragraph /middot /cedilla
/onesuperior /ordmasculine /guillemotright /onequarter /onehalf
/threequarters /questiondown /Agrave /Aacute /Acircumflex
/Atilde /Adieresis /Aring /AE /Ccedilla
/Egrave /Eacute /Ecircumflex /Edieresis /Igrave
/Iacute /Icircumflex /Idieresis /Eth /Ntilde
/Ograve /Oacute /Ocircumflex /Otilde /Odieresis
/multiply /Oslash /Ugrave /Uacute /Ucircumflex
/Udieresis /Yacute /Thorn /germandbls /agrave
/aacute /acircumflex /atilde /adieresis /aring
/ae /ccedilla /egrave /eacute /ecircumflex
/edieresis /igrave /iacute /icircumflex /idieresis
/eth /ntilde /ograve /oacute /ocircumflex
/otilde /odieresis /divide /oslash /ugrave
/uacute /ucircumflex /udieresis /yacute /thorn
/ydieresis
] def
%%EndResource
%FOPBeginFontReencode
/Courier-Bold findfont
dup length dict begin
  {1 index /FID ne {def} {pop pop} ifelse} forall
  /Encoding WinAnsiEncoding def
  currentdict
end
/Courier-Bold exch definefont pop
/Helvetica findfont
dup length dict begin
  {1 index /FID ne {def} {pop pop} ifelse} forall
  /Encoding WinAnsiEncoding def
  currentdict
end
/Helvetica exch definefont pop
/Courier-BoldOblique findfont
dup length dict begin
  {1 index /FID ne {def} {pop pop} ifelse} forall
  /Encoding WinAnsiEncoding def
  currentdict
end
/Courier-BoldOblique exch definefont pop
/Courier-Oblique findfont
dup length dict begin
  {1 index /FID ne {def} {pop pop} ifelse} forall
  /Encoding WinAnsiEncoding def
  currentdict
end
/Courier-Oblique exch definefont pop
/Times-Roman findfont
dup length dict begin
  {1 index /FID ne {def} {pop pop} ifelse} forall
  /Encoding WinAnsiEncoding def
  currentdict
end
/Times-Roman exch definefont pop
/Helvetica-BoldOblique findfont
dup length dict begin
  {1 index /FID ne {def} {pop pop} ifelse} forall
  /Encoding WinAnsiEncoding def
  currentdict
end
/Helvetica-BoldOblique exch definefont pop
/Helvetica-Bold findfont
dup length dict begin
  {1 index /FID ne {def} {pop pop} ifelse} forall
  /Encoding WinAnsiEncoding def
  currentdict
end
/Helvetica-Bold exch definefont pop
/Helvetica-Oblique findfont
dup length dict begin
  {1 index /FID ne {def} {pop pop} ifelse} forall
  /Encoding WinAnsiEncoding def
  currentdict
end
/Helvetica-Oblique exch definefont pop
/Times-BoldItalic findfont
dup length dict begin
  {1 index /FID ne {def} {pop pop} ifelse} forall
  /Encoding WinAnsiEncoding def
  currentdict
end
/Times-BoldItalic exch definefont pop
/Courier findfont
dup length dict begin
  {1 index /FID ne {def} {pop pop} ifelse} forall
  /Encoding WinAnsiEncoding def
  currentdict
end
/Courier exch definefont pop
/Times-Italic findfont
dup length dict begin
  {1 index /FID ne {def} {pop pop} ifelse} forall
  /Encoding WinAnsiEncoding def
  currentdict
end
/Times-Italic exch definefont pop
/Times-Bold findfont
dup length dict begin
  {1 index /FID ne {def} {pop pop} ifelse} forall
  /Encoding WinAnsiEncoding def
  currentdict
end
/Times-Bold exch definefont pop
%FOPEndFontReencode
%%EndProlog
%%Page: 1 1
%%PageBoundingBox: 0 0 420 315
%%BeginPageSetup
[1 0 0 -1 0 315] CT
%%EndPageSetup
GS
[0.75 0 0 0.75 0 0] CT
1 GC
N
0 0 560 420 re
f
GR
GS
[0.75 0 0 0.75 0 0] CT
1 GC
N
0 0 560 420 re
f
GR
GS
[0.75 0 0 0.75 0 0] CT
1 GC
N
73 374 M
507 374 L
507 31 L
73 31 L
cp
f
GR
GS
[0.75 0 0 0.75 0 0] CT
0.149 GC
2 setlinecap
1 LJ
0.667 LW
N
73 374 M
507 374 L
S
GR
GS
[0.75 0 0 0.75 0 0] CT
0.149 GC
2 setlinecap
1 LJ
0.667 LW
N
73 374 M
73 369.66 L
S
GR
GS
[0.75 0 0 0.75 0 0] CT
0.149 GC
2 setlinecap
1 LJ
0.667 LW
N
116.4 374 M
116.4 369.66 L
S
GR
GS
[0.75 0 0 0.75 0 0] CT
0.149 GC
2 setlinecap
1 LJ
0.667 LW
N
159.8 374 M
159.8 369.66 L
S
GR
GS
[0.75 0 0 0.75 0 0] CT
0.149 GC
2 setlinecap
1 LJ
0.667 LW
N
203.2 374 M
203.2 369.66 L
S
GR
GS
[0.75 0 0 0.75 0 0] CT
0.149 GC
2 setlinecap
1 LJ
0.667 LW
N
246.6 374 M
246.6 369.66 L
S
GR
GS
[0.75 0 0 0.75 0 0] CT
0.149 GC
2 setlinecap
1 LJ
0.667 LW
N
290 374 M
290 369.66 L
S
GR
GS
[0.75 0 0 0.75 0 0] CT
0.149 GC
2 setlinecap
1 LJ
0.667 LW
N
333.4 374 M
333.4 369.66 L
S
GR
GS
[0.75 0 0 0.75 0 0] CT
0.149 GC
2 setlinecap
1 LJ
0.667 LW
N
376.8 374 M
376.8 369.66 L
S
GR
GS
[0.75 0 0 0.75 0 0] CT
0.149 GC
2 setlinecap
1 LJ
0.667 LW
N
420.2 374 M
420.2 369.66 L
S
GR
GS
[0.75 0 0 0.75 0 0] CT
0.149 GC
2 setlinecap
1 LJ
0.667 LW
N
463.6 374 M
463.6 369.66 L
S
GR
GS
[0.75 0 0 0.75 0 0] CT
0.149 GC
2 setlinecap
1 LJ
0.667 LW
N
507 374 M
507 369.66 L
S
GR
GS
[0.75 0 0 0.75 54.75 284.50001] CT
0.149 GC
/Helvetica 13 F
GS
[1 0 0 1 0 0] CT
-4 13 moveto 
1 -1 scale
(0) t 
GR
GR
GS
[0.75 0 0 0.75 87.3 284.50001] CT
0.149 GC
/Helvetica 13 F
GS
[1 0 0 1 0 0] CT
-11 13 moveto 
1 -1 scale
(100) t 
GR
GR
GS
[0.75 0 0 0.75 119.85 284.50001] CT
0.149 GC
/Helvetica 13 F
GS
[1 0 0 1 0 0] CT
-11 13 moveto 
1 -1 scale
(200) t 
GR
GR
GS
[0.75 0 0 0.75 152.4 284.50001] CT
0.149 GC
/Helvetica 13 F
GS
[1 0 0 1 0 0] CT
-11 13 moveto 
1 -1 scale
(300) t 
GR
GR
GS
[0.75 0 0 0.75 184.95 284.50001] CT
0.149 GC
/Helvetica 13 F
GS
[1 0 0 1 0 0] CT
-11 13 moveto 
1 -1 scale
(400) t 
GR
GR
GS
[0.75 0 0 0.75 217.5 284.50001] CT
0.149 GC
/Helvetica 13 F
GS
[1 0 0 1 0 0] CT
-11 13 moveto 
1 -1 scale
(500) t 
GR
GR
GS
[0.75 0 0 0.75 250.05 284.50001] CT
0.149 GC
/Helvetica 13 F
GS
[1 0 0 1 0 0] CT
-11 13 moveto 
1 -1 scale
(600) t 
GR
GR
GS
[0.75 0 0 0.75 282.59999 284.50001] CT
0.149 GC
/Helvetica 13 F
GS
[1 0 0 1 0 0] CT
-11 13 moveto 
1 -1 scale
(700) t 
GR
GR
GS
[0.75 0 0 0.75 315.15001 284.50001] CT
0.149 GC
/Helvetica 13 F
GS
[1 0 0 1 0 0] CT
-11 13 moveto 
1 -1 scale
(800) t 
GR
GR
GS
[0.75 0 0 0.75 347.7 284.50001] CT
0.149 GC
/Helvetica 13 F
GS
[1 0 0 1 0 0] CT
-11 13 moveto 
1 -1 scale
(900) t 
GR
GR
GS
[0.75 0 0 0.75 380.25 284.50001] CT
0.149 GC
/Helvetica 13 F
GS
[1 0 0 1 0 0] CT
-14.5 13 moveto 
1 -1 scale
(1000) t 
GR
GR
GS
[0.75 0 0 0.75 217.50016 297.49999] CT
0.149 GC
/Helvetica 15 F
GS
[1 0 0 1 0 0] CT
-11 14 moveto 
1 -1 scale
(t\(s\)) t 
GR
GR
GS
[0.75 0 0 0.75 0 0] CT
0.149 GC
2 setlinecap
1 LJ
0.667 LW
N
73 374 M
73 31 L
S
GR
GS
[0.75 0 0 0.75 0 0] CT
0.149 GC
2 setlinecap
1 LJ
0.667 LW
N
73 374 M
77.34 374 L
S
GR
GS
[0.75 0 0 0.75 0 0] CT
0.149 GC
2 setlinecap
1 LJ
0.667 LW
N
73 339.7 M
77.34 339.7 L
S
GR
GS
[0.75 0 0 0.75 0 0] CT
0.149 GC
2 setlinecap
1 LJ
0.667 LW
N
73 305.4 M
77.34 305.4 L
S
GR
GS
[0.75 0 0 0.75 0 0] CT
0.149 GC
2 setlinecap
1 LJ
0.667 LW
N
73 271.1 M
77.34 271.1 L
S
GR
GS
[0.75 0 0 0.75 0 0] CT
0.149 GC
2 setlinecap
1 LJ
0.667 LW
N
73 236.8 M
77.34 236.8 L
S
GR
GS
[0.75 0 0 0.75 0 0] CT
0.149 GC
2 setlinecap
1 LJ
0.667 LW
N
73 202.5 M
77.34 202.5 L
S
GR
GS
[0.75 0 0 0.75 0 0] CT
0.149 GC
2 setlinecap
1 LJ
0.667 LW
N
73 168.2 M
77.34 168.2 L
S
GR
GS
[0.75 0 0 0.75 0 0] CT
0.149 GC
2 setlinecap
1 LJ
0.667 LW
N
73 133.9 M
77.34 133.9 L
S
GR
GS
[0.75 0 0 0.75 0 0] CT
0.149 GC
2 setlinecap
1 LJ
0.667 LW
N
73 99.6 M
77.34 99.6 L
S
GR
GS
[0.75 0 0 0.75 0 0] CT
0.149 GC
2 setlinecap
1 LJ
0.667 LW
N
73 65.3 M
77.34 65.3 L
S
GR
GS
[0.75 0 0 0.75 0 0] CT
0.149 GC
2 setlinecap
1 LJ
0.667 LW
N
73 31 M
77.34 31 L
S
GR
GS
[0.75 0 0 0.75 50.75 280.5] CT
0.149 GC
/Helvetica 13 F
GS
[1 0 0 1 0 0] CT
-23 5 moveto 
1 -1 scale
(-0.5) t 
GR
GR
GS
[0.75 0 0 0.75 50.75 254.77501] CT
0.149 GC
/Helvetica 13 F
GS
[1 0 0 1 0 0] CT
-8 5 moveto 
1 -1 scale
(0) t 
GR
GR
GS
[0.75 0 0 0.75 50.75 229.05] CT
0.149 GC
/Helvetica 13 F
GS
[1 0 0 1 0 0] CT
-19 5 moveto 
1 -1 scale
(0.5) t 
GR
GR
GS
[0.75 0 0 0.75 50.75 203.325] CT
0.149 GC
/Helvetica 13 F
GS
[1 0 0 1 0 0] CT
-8 5 moveto 
1 -1 scale
(1) t 
GR
GR
GS
[0.75 0 0 0.75 50.75 177.6] CT
0.149 GC
/Helvetica 13 F
GS
[1 0 0 1 0 0] CT
-19 5 moveto 
1 -1 scale
(1.5) t 
GR
GR
GS
[0.75 0 0 0.75 50.75 151.875] CT
0.149 GC
/Helvetica 13 F
GS
[1 0 0 1 0 0] CT
-8 5 moveto 
1 -1 scale
(2) t 
GR
GR
GS
[0.75 0 0 0.75 50.75 126.15] CT
0.149 GC
/Helvetica 13 F
GS
[1 0 0 1 0 0] CT
-19 5 moveto 
1 -1 scale
(2.5) t 
GR
GR
GS
[0.75 0 0 0.75 50.75 100.425] CT
0.149 GC
/Helvetica 13 F
GS
[1 0 0 1 0 0] CT
-8 5 moveto 
1 -1 scale
(3) t 
GR
GR
GS
[0.75 0 0 0.75 50.75 74.7] CT
0.149 GC
/Helvetica 13 F
GS
[1 0 0 1 0 0] CT
-19 5 moveto 
1 -1 scale
(3.5) t 
GR
GR
GS
[0.75 0 0 0.75 50.75 48.975] CT
0.149 GC
/Helvetica 13 F
GS
[1 0 0 1 0 0] CT
-8 5 moveto 
1 -1 scale
(4) t 
GR
GR
GS
[0.75 0 0 0.75 50.75 23.25] CT
0.149 GC
/Helvetica 13 F
GS
[1 0 0 1 0 0] CT
-19 5 moveto 
1 -1 scale
(4.5) t 
GR
GR
GS
[0.75 0 0 0.75 217.50021 21.18749] CT
/any-Bold 15 F
GS
[1 0 0 1 0 0] CT
-163 -4 moveto 
1 -1 scale
(Response of system with integration - control) t 
GR
GR
GS
[0.75 0 0 0.75 0 0] CT
0 0 1 RC
1 LJ
0.667 LW
N
73 339.7 M
73.434 339.7 L
73.434 332.84 L
73.434 332.84 L
73.868 332.84 L
74.302 332.84 L
74.906 332.84 L
75.523 332.84 L
76.171 332.84 L
76.9 332.84 L
77.71 332.84 L
78.592 332.84 L
79.555 332.84 L
80.631 332.84 L
81.808 332.84 L
83.099 332.84 L
84.519 332.84 L
86.096 332.84 L
87.882 332.84 L
89.993 332.84 L
92.706 332.84 L
95.522 332.84 L
98.152 332.84 L
100.86 332.84 L
103.748 332.84 L
106.895 332.84 L
110.4 332.84 L
114.418 332.84 L
119.262 332.84 L
125.574 332.84 L
132.123 332.84 L
138.564 332.84 L
145.536 332.84 L
153.313 332.84 L
161.993 332.84 L
170.673 332.84 L
179.353 332.84 L
188.033 332.84 L
196.713 332.84 L
205.393 332.84 L
214.073 332.84 L
222.753 332.84 L
229.074 332.84 L
235.394 332.84 L
241.618 332.84 L
247.399 332.84 L
252.925 332.84 L
258.678 332.84 L
264.903 332.84 L
271.285 332.84 L
S
GR
GS
[0.75 0 0 0.75 0 0] CT
0 0 1 RC
1 LJ
0.667 LW
N
264.903 332.84 M
271.285 332.84 L
277.283 332.84 L
282.832 332.84 L
288.386 332.84 L
290 332.84 L
290 332.84 L
290 332.84 L
291.371 332.84 L
292.742 332.84 L
294.379 332.84 L
296.147 332.84 L
298.095 332.84 L
300.264 332.84 L
302.712 332.84 L
305.529 332.84 L
308.866 332.84 L
313.036 332.84 L
319.197 332.84 L
325.603 332.84 L
332.377 332.84 L
340.698 332.84 L
349.378 332.84 L
358.057 332.84 L
366.737 332.84 L
375.418 332.84 L
380.672 332.84 L
385.927 332.84 L
392.53 332.84 L
399.852 332.84 L
404.832 332.84 L
409.812 332.84 L
416.117 332.84 L
423.506 332.84 L
428.673 332.84 L
433.841 332.84 L
440.17 332.84 L
447.35 332.84 L
453.838 332.84 L
459.05 332.84 L
463.898 332.84 L
469.597 332.84 L
476.539 332.84 L
483.585 332.84 L
489.369 332.84 L
494.207 332.84 L
499.345 332.84 L
505.719 332.84 L
507 332.84 L
S
GR
GS
[0.75 0 0 0.75 0 0] CT
0 1 1 RC
1 LJ
0.667 LW
N
73 339.7 M
73.434 339.7 L
73.434 332.84 L
73.434 332.84 L
73.868 332.84 L
74.302 332.84 L
74.906 332.84 L
75.523 332.84 L
76.171 332.84 L
76.9 332.84 L
77.71 332.84 L
78.592 332.84 L
79.555 332.84 L
80.631 332.84 L
81.808 332.84 L
83.099 332.84 L
84.519 332.84 L
86.096 332.84 L
87.882 332.84 L
89.993 332.84 L
92.706 332.84 L
95.522 332.84 L
98.152 332.84 L
100.86 332.84 L
103.748 332.84 L
106.895 332.84 L
110.4 332.84 L
114.418 332.84 L
119.262 332.84 L
125.574 332.84 L
132.123 332.84 L
138.564 332.84 L
145.536 332.84 L
153.313 332.84 L
161.993 332.84 L
170.673 332.84 L
179.353 332.84 L
188.033 332.84 L
196.713 332.84 L
205.393 332.84 L
214.073 332.84 L
222.753 332.84 L
229.074 332.84 L
235.394 332.84 L
241.618 332.84 L
247.399 332.84 L
252.925 332.84 L
258.678 332.84 L
264.903 332.84 L
271.285 332.84 L
S
GR
GS
[0.75 0 0 0.75 0 0] CT
0 1 1 RC
1 LJ
0.667 LW
N
264.903 332.84 M
271.285 332.84 L
277.283 332.84 L
282.832 332.84 L
288.386 332.84 L
290 332.84 L
290 332.84 L
290 332.84 L
291.371 332.84 L
292.742 332.84 L
294.379 332.84 L
296.147 332.84 L
298.095 332.84 L
300.264 332.84 L
302.712 332.84 L
305.529 332.84 L
308.866 332.84 L
313.036 332.84 L
319.197 332.84 L
325.603 332.84 L
332.377 332.84 L
340.698 332.84 L
349.378 332.84 L
358.057 332.84 L
366.737 332.84 L
375.418 332.84 L
380.672 332.84 L
385.927 332.84 L
392.53 332.84 L
399.852 332.84 L
404.832 332.84 L
409.812 332.84 L
416.117 332.84 L
423.506 332.84 L
428.673 332.84 L
433.841 332.84 L
440.17 332.84 L
447.35 332.84 L
453.838 332.84 L
459.05 332.84 L
463.898 332.84 L
469.597 332.84 L
476.539 332.84 L
483.585 332.84 L
489.369 332.84 L
494.207 332.84 L
499.345 332.84 L
505.719 332.84 L
507 332.84 L
S
GR
GS
[0.75 0 0 0.75 0 0] CT
1 1 0 RC
1 LJ
0.667 LW
N
73 339.7 M
73.434 339.7 L
73.434 339.7 L
73.434 339.7 L
73.868 339.7 L
74.302 339.7 L
74.906 339.7 L
75.523 339.7 L
76.171 339.7 L
76.9 339.7 L
77.71 339.7 L
78.592 339.7 L
79.555 339.7 L
80.631 339.7 L
81.808 339.7 L
83.099 339.7 L
84.519 339.7 L
86.096 339.7 L
87.882 339.7 L
89.993 339.7 L
92.706 339.7 L
95.522 339.7 L
98.152 339.7 L
100.86 339.7 L
103.748 339.7 L
106.895 339.7 L
110.4 339.7 L
114.418 339.7 L
119.262 339.7 L
125.574 339.7 L
132.123 339.7 L
138.564 339.7 L
145.536 339.7 L
153.313 339.7 L
161.993 339.7 L
170.673 339.7 L
179.353 339.7 L
188.033 339.7 L
196.713 339.7 L
205.393 339.7 L
214.073 339.7 L
222.753 339.7 L
229.074 339.7 L
235.394 339.7 L
241.618 339.7 L
247.399 339.7 L
252.925 339.7 L
258.678 339.7 L
264.903 339.7 L
271.285 339.7 L
S
GR
GS
[0.75 0 0 0.75 0 0] CT
1 1 0 RC
1 LJ
0.667 LW
N
264.903 339.7 M
271.285 339.7 L
277.283 339.7 L
282.832 339.7 L
288.386 339.7 L
290 339.7 L
290 343.13 L
290 343.13 L
291.371 343.13 L
292.742 343.13 L
294.379 343.13 L
296.147 343.13 L
298.095 343.13 L
300.264 343.13 L
302.712 343.13 L
305.529 343.13 L
308.866 343.13 L
313.036 343.13 L
319.197 343.13 L
325.603 343.13 L
332.377 343.13 L
340.698 343.13 L
349.378 343.13 L
358.057 343.13 L
366.737 343.13 L
375.418 343.13 L
380.672 343.13 L
385.927 343.13 L
392.53 343.13 L
399.852 343.13 L
404.832 343.13 L
409.812 343.13 L
416.117 343.13 L
423.506 343.13 L
428.673 343.13 L
433.841 343.13 L
440.17 343.13 L
447.35 343.13 L
453.838 343.13 L
459.05 343.13 L
463.898 343.13 L
469.597 343.13 L
476.539 343.13 L
483.585 343.13 L
489.369 343.13 L
494.207 343.13 L
499.345 343.13 L
505.719 343.13 L
507 343.13 L
S
GR
GS
[0.75 0 0 0.75 0 0] CT
0 1 0 RC
1 LJ
0.667 LW
N
73 339.7 M
73.434 339.7 L
73.434 339.7 L
73.434 339.7 L
73.868 339.7 L
74.302 339.7 L
74.906 339.7 L
75.523 339.7 L
76.171 339.7 L
76.9 339.7 L
77.71 339.7 L
78.592 339.7 L
79.555 339.7 L
80.631 339.7 L
81.808 339.7 L
83.099 339.7 L
84.519 339.7 L
86.096 339.7 L
87.882 339.7 L
89.993 339.7 L
92.706 339.7 L
95.522 339.7 L
98.152 339.7 L
100.86 339.7 L
103.748 339.7 L
106.895 339.7 L
110.4 339.7 L
114.418 339.7 L
119.262 339.7 L
125.574 339.7 L
132.123 339.7 L
138.564 339.7 L
145.536 339.7 L
153.313 339.7 L
161.993 339.7 L
170.673 339.7 L
179.353 339.7 L
188.033 339.7 L
196.713 339.7 L
205.393 339.7 L
214.073 339.7 L
222.753 339.7 L
229.074 339.7 L
235.394 339.7 L
241.618 339.7 L
247.399 339.7 L
252.925 339.7 L
258.678 339.7 L
264.903 339.7 L
271.285 339.7 L
S
GR
GS
[0.75 0 0 0.75 0 0] CT
0 1 0 RC
1 LJ
0.667 LW
N
264.903 339.7 M
271.285 339.7 L
277.283 339.7 L
282.832 339.7 L
288.386 339.7 L
290 339.7 L
290 343.13 L
290 343.13 L
291.371 343.13 L
292.742 343.13 L
294.379 343.13 L
296.147 343.13 L
298.095 343.13 L
300.264 343.13 L
302.712 343.13 L
305.529 343.13 L
308.866 343.13 L
313.036 343.13 L
319.197 343.13 L
325.603 343.13 L
332.377 343.13 L
340.698 343.13 L
349.378 343.13 L
358.057 343.13 L
366.737 343.13 L
375.418 343.13 L
380.672 343.13 L
385.927 343.13 L
392.53 343.13 L
399.852 343.13 L
404.832 343.13 L
409.812 343.13 L
416.117 343.13 L
423.506 343.13 L
428.673 343.13 L
433.841 343.13 L
440.17 343.13 L
447.35 343.13 L
453.838 343.13 L
459.05 343.13 L
463.898 343.13 L
469.597 343.13 L
476.539 343.13 L
483.585 343.13 L
489.369 343.13 L
494.207 343.13 L
499.345 343.13 L
505.719 343.13 L
507 343.13 L
S
GR
GS
[0.75 0 0 0.75 0 0] CT
1 0 0 RC
1 LJ
0.667 LW
N
73 339.7 M
73.434 339.7 L
73.434 339.7 L
73.434 339.7 L
73.868 310.935 L
74.302 283.847 L
74.906 249.034 L
75.523 216.864 L
76.171 186.821 L
76.9 157.361 L
77.71 129.659 L
78.592 105.104 L
79.555 84.153 L
80.631 67.041 L
81.808 54.684 L
83.099 47.241 L
84.519 44.688 L
86.096 46.812 L
87.882 53.333 L
89.993 64.159 L
92.706 79.837 L
95.522 95.634 L
98.152 108.731 L
100.86 120.111 L
103.748 129.916 L
106.895 138.165 L
110.4 144.912 L
114.418 150.256 L
119.262 154.345 L
125.574 157.3 L
132.123 158.814 L
138.564 159.534 L
145.536 159.9 L
153.313 160.078 L
161.993 160.156 L
170.673 160.184 L
179.353 160.195 L
188.033 160.199 L
196.713 160.2 L
205.393 160.201 L
214.073 160.201 L
222.753 160.201 L
229.074 160.201 L
235.394 160.201 L
241.618 160.201 L
247.399 160.201 L
252.925 160.201 L
258.678 160.201 L
264.903 160.201 L
271.285 160.201 L
S
GR
GS
[0.75 0 0 0.75 0 0] CT
1 0 0 RC
1 LJ
0.667 LW
N
264.903 160.201 M
271.285 160.201 L
277.283 160.201 L
282.832 160.201 L
288.386 160.201 L
290 160.201 L
290 163.631 L
290 163.631 L
291.371 163.016 L
292.742 162.398 L
294.379 161.737 L
296.147 161.155 L
298.095 160.676 L
300.264 160.317 L
302.712 160.079 L
305.529 159.951 L
308.866 159.916 L
313.036 159.951 L
319.197 160.038 L
325.603 160.11 L
332.377 160.155 L
340.698 160.182 L
349.378 160.194 L
358.057 160.198 L
366.737 160.2 L
375.418 160.201 L
380.672 160.201 L
385.927 160.201 L
392.53 160.201 L
399.852 160.201 L
404.832 160.201 L
409.812 160.201 L
416.117 160.201 L
423.506 160.201 L
428.673 160.201 L
433.841 160.201 L
440.17 160.201 L
447.35 160.201 L
453.838 160.201 L
459.05 160.201 L
463.898 160.201 L
469.597 160.201 L
476.539 160.201 L
483.585 160.201 L
489.369 160.201 L
494.207 160.201 L
499.345 160.201 L
505.719 160.201 L
507 160.201 L
S
GR
GS
[0.75 0 0 0.75 0 0] CT
1 0 1 RC
1 LJ
0.667 LW
N
73 339.7 M
73.434 339.7 L
73.434 339.7 L
73.434 339.7 L
73.868 329.013 L
74.302 318.445 L
74.906 304.191 L
75.523 290.386 L
76.171 276.967 L
76.9 263.323 L
77.71 250.052 L
78.592 237.913 L
79.555 227.246 L
80.631 218.275 L
81.808 211.589 L
83.099 207.385 L
84.519 205.755 L
86.096 206.669 L
87.882 210.044 L
89.993 215.886 L
92.706 224.553 L
95.522 233.433 L
98.152 240.875 L
100.86 247.392 L
103.748 253.041 L
106.895 257.816 L
110.4 261.738 L
114.418 264.855 L
119.262 267.246 L
125.574 268.978 L
132.123 269.868 L
138.564 270.291 L
145.536 270.506 L
153.313 270.611 L
161.993 270.656 L
170.673 270.673 L
179.353 270.68 L
188.033 270.682 L
196.713 270.683 L
205.393 270.683 L
214.073 270.683 L
222.753 270.683 L
229.074 270.683 L
235.394 270.683 L
241.618 270.683 L
247.399 270.683 L
252.925 270.683 L
258.678 270.683 L
264.903 270.683 L
271.285 270.683 L
S
GR
GS
[0.75 0 0 0.75 0 0] CT
1 0 1 RC
1 LJ
0.667 LW
N
264.903 270.683 M
271.285 270.683 L
277.283 270.683 L
282.832 270.683 L
288.386 270.683 L
290 270.683 L
290 274.113 L
290 274.113 L
291.371 273.931 L
292.742 273.456 L
294.379 272.769 L
296.147 272.058 L
298.095 271.413 L
300.264 270.893 L
302.712 270.528 L
305.529 270.319 L
308.866 270.251 L
313.036 270.296 L
319.197 270.426 L
325.603 270.538 L
332.377 270.61 L
340.698 270.653 L
349.378 270.672 L
358.057 270.679 L
366.737 270.682 L
375.418 270.683 L
380.672 270.683 L
385.927 270.683 L
392.53 270.683 L
399.852 270.683 L
404.832 270.683 L
409.812 270.683 L
416.117 270.683 L
423.506 270.683 L
428.673 270.683 L
433.841 270.683 L
440.17 270.683 L
447.35 270.683 L
453.838 270.683 L
459.05 270.683 L
463.898 270.683 L
469.597 270.683 L
476.539 270.683 L
483.585 270.683 L
489.369 270.683 L
494.207 270.683 L
499.345 270.683 L
505.719 270.683 L
507 270.683 L
S
GR
GS
[0.75 0 0 0.75 0 0] CT
1 GC
N
421 143 M
421 44 L
494 44 L
494 143 L
cp
f
GR
GS
[0.75 0 0 0.75 354.75 40.65076] CT
/Helvetica 12 F
GS
[1 0 0 1 0 0] CT
0 4.5 moveto 
1 -1 scale
(w1) t 
GR
GR
GS
[0.75 0 0 0.75 0 0] CT
0 0 1 RC
1 LJ
0.667 LW
N
429 54.201 M
469 54.201 L
S
GR
GS
[0.75 0 0 0.75 354.75 52.44046] CT
/Helvetica 12 F
GS
[1 0 0 1 0 0] CT
0 4.5 moveto 
1 -1 scale
(w2) t 
GR
GR
GS
[0.75 0 0 0.75 0 0] CT
0 1 1 RC
1 LJ
0.667 LW
N
429 69.921 M
469 69.921 L
S
GR
GS
[0.75 0 0 0.75 354.75 64.23015] CT
/Helvetica 12 F
GS
[1 0 0 1 0 0] CT
0 4.5 moveto 
1 -1 scale
(di1) t 
GR
GR
GS
[0.75 0 0 0.75 0 0] CT
1 1 0 RC
1 LJ
0.667 LW
N
429 85.64 M
469 85.64 L
S
GR
GS
[0.75 0 0 0.75 354.75 76.01985] CT
/Helvetica 12 F
GS
[1 0 0 1 0 0] CT
0 4.5 moveto 
1 -1 scale
(di2) t 
GR
GR
GS
[0.75 0 0 0.75 0 0] CT
0 1 0 RC
1 LJ
0.667 LW
N
429 101.36 M
469 101.36 L
S
GR
GS
[0.75 0 0 0.75 354.75 87.80954] CT
/Helvetica 12 F
GS
[1 0 0 1 0 0] CT
0 4.5 moveto 
1 -1 scale
(u1) t 
GR
GR
GS
[0.75 0 0 0.75 0 0] CT
1 0 0 RC
1 LJ
0.667 LW
N
429 117.079 M
469 117.079 L
S
GR
GS
[0.75 0 0 0.75 354.75 99.59924] CT
/Helvetica 12 F
GS
[1 0 0 1 0 0] CT
0 4.5 moveto 
1 -1 scale
(u2) t 
GR
GR
GS
[0.75 0 0 0.75 0 0] CT
1 0 1 RC
1 LJ
0.667 LW
N
429 132.799 M
469 132.799 L
S
GR
GS
[0.75 0 0 0.75 0 0] CT
0.149 GC
10.0 ML
0.667 LW
N
421 143 M
421 44 L
494 44 L
494 143 L
cp
S
GR
%%Trailer
%%Pages: 1
%%EOF
