%!PS-Adobe-3.0 EPSF-3.0
%%Creator: (MATLAB, The Mathworks, Inc. Version 8.6.0.267246 \(R2015b\). Operating System: Windows 8)
%%Title: E:/Projects/skola/rls/pics/SP2/state_lq_reg_y.eps
%%CreationDate: 2017-03-06T11:09:50
%%Pages: (atend)
%%BoundingBox: 0 0 420 315
%%LanguageLevel: 2
%%EndComments
%%BeginProlog
%%BeginResource: procset (Apache XML Graphics Std ProcSet) 1.2 0
%%Version: 1.2 0
%%Copyright: (Copyright 2001-2003,2010 The Apache Software Foundation. License terms: http://www.apache.org/licenses/LICENSE-2.0)
/bd{bind def}bind def
/ld{load def}bd
/GR/grestore ld
/M/moveto ld
/LJ/setlinejoin ld
/C/curveto ld
/f/fill ld
/LW/setlinewidth ld
/GC/setgray ld
/t/show ld
/N/newpath ld
/CT/concat ld
/cp/closepath ld
/S/stroke ld
/L/lineto ld
/CC/setcmykcolor ld
/A/ashow ld
/GS/gsave ld
/RC/setrgbcolor ld
/RM/rmoveto ld
/ML/setmiterlimit ld
/re {4 2 roll M
1 index 0 rlineto
0 exch rlineto
neg 0 rlineto
cp } bd
/_ctm matrix def
/_tm matrix def
/BT { _ctm currentmatrix pop matrix _tm copy pop 0 0 moveto } bd
/ET { _ctm setmatrix } bd
/iTm { _ctm setmatrix _tm concat } bd
/Tm { _tm astore pop iTm 0 0 moveto } bd
/ux 0.0 def
/uy 0.0 def
/F {
  /Tp exch def
  /Tf exch def
  Tf findfont Tp scalefont setfont
  /cf Tf def  /cs Tp def
} bd
/ULS {currentpoint /uy exch def /ux exch def} bd
/ULE {
  /Tcx currentpoint pop def
  gsave
  newpath
  cf findfont cs scalefont dup
  /FontMatrix get 0 get /Ts exch def /FontInfo get dup
  /UnderlinePosition get Ts mul /To exch def
  /UnderlineThickness get Ts mul /Tt exch def
  ux uy To add moveto  Tcx uy To add lineto
  Tt setlinewidth stroke
  grestore
} bd
/OLE {
  /Tcx currentpoint pop def
  gsave
  newpath
  cf findfont cs scalefont dup
  /FontMatrix get 0 get /Ts exch def /FontInfo get dup
  /UnderlinePosition get Ts mul /To exch def
  /UnderlineThickness get Ts mul /Tt exch def
  ux uy To add cs add moveto Tcx uy To add cs add lineto
  Tt setlinewidth stroke
  grestore
} bd
/SOE {
  /Tcx currentpoint pop def
  gsave
  newpath
  cf findfont cs scalefont dup
  /FontMatrix get 0 get /Ts exch def /FontInfo get dup
  /UnderlinePosition get Ts mul /To exch def
  /UnderlineThickness get Ts mul /Tt exch def
  ux uy To add cs 10 mul 26 idiv add moveto Tcx uy To add cs 10 mul 26 idiv add lineto
  Tt setlinewidth stroke
  grestore
} bd
/QT {
/Y22 exch store
/X22 exch store
/Y21 exch store
/X21 exch store
currentpoint
/Y21 load 2 mul add 3 div exch
/X21 load 2 mul add 3 div exch
/X21 load 2 mul /X22 load add 3 div
/Y21 load 2 mul /Y22 load add 3 div
/X22 load /Y22 load curveto
} bd
/SSPD {
dup length /d exch dict def
{
/v exch def
/k exch def
currentpagedevice k known {
/cpdv currentpagedevice k get def
v cpdv ne {
/upd false def
/nullv v type /nulltype eq def
/nullcpdv cpdv type /nulltype eq def
nullv nullcpdv or
{
/upd true def
} {
/sametype v type cpdv type eq def
sametype {
v type /arraytype eq {
/vlen v length def
/cpdvlen cpdv length def
vlen cpdvlen eq {
0 1 vlen 1 sub {
/i exch def
/obj v i get def
/cpdobj cpdv i get def
obj cpdobj ne {
/upd true def
exit
} if
} for
} {
/upd true def
} ifelse
} {
v type /dicttype eq {
v {
/dv exch def
/dk exch def
/cpddv cpdv dk get def
dv cpddv ne {
/upd true def
exit
} if
} forall
} {
/upd true def
} ifelse
} ifelse
} if
} ifelse
upd true eq {
d k v put
} if
} if
} if
} forall
d length 0 gt {
d setpagedevice
} if
} bd
%%EndResource
%%BeginResource: procset (Apache XML Graphics EPS ProcSet) 1.0 0
%%Version: 1.0 0
%%Copyright: (Copyright 2002-2003 The Apache Software Foundation. License terms: http://www.apache.org/licenses/LICENSE-2.0)
/BeginEPSF { %def
/b4_Inc_state save def         % Save state for cleanup
/dict_count countdictstack def % Count objects on dict stack
/op_count count 1 sub def      % Count objects on operand stack
userdict begin                 % Push userdict on dict stack
/showpage { } def              % Redefine showpage, { } = null proc
0 setgray 0 setlinecap         % Prepare graphics state
1 setlinewidth 0 setlinejoin
10 setmiterlimit [ ] 0 setdash newpath
/languagelevel where           % If level not equal to 1 then
{pop languagelevel             % set strokeadjust and
1 ne                           % overprint to their defaults.
{false setstrokeadjust false setoverprint
} if
} if
} bd
/EndEPSF { %def
count op_count sub {pop} repeat            % Clean up stacks
countdictstack dict_count sub {end} repeat
b4_Inc_state restore
} bd
%%EndResource
%FOPBeginFontDict
%%IncludeResource: font Courier-Bold
%%IncludeResource: font Helvetica
%%IncludeResource: font Courier-BoldOblique
%%IncludeResource: font Courier-Oblique
%%IncludeResource: font Times-Roman
%%IncludeResource: font Helvetica-BoldOblique
%%IncludeResource: font Helvetica-Bold
%%IncludeResource: font Helvetica-Oblique
%%IncludeResource: font Times-BoldItalic
%%IncludeResource: font Courier
%%IncludeResource: font Times-Italic
%%IncludeResource: font Times-Bold
%%IncludeResource: font Symbol
%%IncludeResource: font ZapfDingbats
%FOPEndFontDict
%%BeginResource: encoding WinAnsiEncoding
/WinAnsiEncoding [
/.notdef /.notdef /.notdef /.notdef /.notdef
/.notdef /.notdef /.notdef /.notdef /.notdef
/.notdef /.notdef /.notdef /.notdef /.notdef
/.notdef /.notdef /.notdef /.notdef /.notdef
/.notdef /.notdef /.notdef /.notdef /.notdef
/.notdef /.notdef /.notdef /.notdef /.notdef
/.notdef /.notdef /space /exclam /quotedbl
/numbersign /dollar /percent /ampersand /quotesingle
/parenleft /parenright /asterisk /plus /comma
/hyphen /period /slash /zero /one
/two /three /four /five /six
/seven /eight /nine /colon /semicolon
/less /equal /greater /question /at
/A /B /C /D /E
/F /G /H /I /J
/K /L /M /N /O
/P /Q /R /S /T
/U /V /W /X /Y
/Z /bracketleft /backslash /bracketright /asciicircum
/underscore /quoteleft /a /b /c
/d /e /f /g /h
/i /j /k /l /m
/n /o /p /q /r
/s /t /u /v /w
/x /y /z /braceleft /bar
/braceright /asciitilde /bullet /Euro /bullet
/quotesinglbase /florin /quotedblbase /ellipsis /dagger
/daggerdbl /circumflex /perthousand /Scaron /guilsinglleft
/OE /bullet /Zcaron /bullet /bullet
/quoteleft /quoteright /quotedblleft /quotedblright /bullet
/endash /emdash /asciitilde /trademark /scaron
/guilsinglright /oe /bullet /zcaron /Ydieresis
/space /exclamdown /cent /sterling /currency
/yen /brokenbar /section /dieresis /copyright
/ordfeminine /guillemotleft /logicalnot /sfthyphen /registered
/macron /degree /plusminus /twosuperior /threesuperior
/acute /mu /paragraph /middot /cedilla
/onesuperior /ordmasculine /guillemotright /onequarter /onehalf
/threequarters /questiondown /Agrave /Aacute /Acircumflex
/Atilde /Adieresis /Aring /AE /Ccedilla
/Egrave /Eacute /Ecircumflex /Edieresis /Igrave
/Iacute /Icircumflex /Idieresis /Eth /Ntilde
/Ograve /Oacute /Ocircumflex /Otilde /Odieresis
/multiply /Oslash /Ugrave /Uacute /Ucircumflex
/Udieresis /Yacute /Thorn /germandbls /agrave
/aacute /acircumflex /atilde /adieresis /aring
/ae /ccedilla /egrave /eacute /ecircumflex
/edieresis /igrave /iacute /icircumflex /idieresis
/eth /ntilde /ograve /oacute /ocircumflex
/otilde /odieresis /divide /oslash /ugrave
/uacute /ucircumflex /udieresis /yacute /thorn
/ydieresis
] def
%%EndResource
%FOPBeginFontReencode
/Courier-Bold findfont
dup length dict begin
  {1 index /FID ne {def} {pop pop} ifelse} forall
  /Encoding WinAnsiEncoding def
  currentdict
end
/Courier-Bold exch definefont pop
/Helvetica findfont
dup length dict begin
  {1 index /FID ne {def} {pop pop} ifelse} forall
  /Encoding WinAnsiEncoding def
  currentdict
end
/Helvetica exch definefont pop
/Courier-BoldOblique findfont
dup length dict begin
  {1 index /FID ne {def} {pop pop} ifelse} forall
  /Encoding WinAnsiEncoding def
  currentdict
end
/Courier-BoldOblique exch definefont pop
/Courier-Oblique findfont
dup length dict begin
  {1 index /FID ne {def} {pop pop} ifelse} forall
  /Encoding WinAnsiEncoding def
  currentdict
end
/Courier-Oblique exch definefont pop
/Times-Roman findfont
dup length dict begin
  {1 index /FID ne {def} {pop pop} ifelse} forall
  /Encoding WinAnsiEncoding def
  currentdict
end
/Times-Roman exch definefont pop
/Helvetica-BoldOblique findfont
dup length dict begin
  {1 index /FID ne {def} {pop pop} ifelse} forall
  /Encoding WinAnsiEncoding def
  currentdict
end
/Helvetica-BoldOblique exch definefont pop
/Helvetica-Bold findfont
dup length dict begin
  {1 index /FID ne {def} {pop pop} ifelse} forall
  /Encoding WinAnsiEncoding def
  currentdict
end
/Helvetica-Bold exch definefont pop
/Helvetica-Oblique findfont
dup length dict begin
  {1 index /FID ne {def} {pop pop} ifelse} forall
  /Encoding WinAnsiEncoding def
  currentdict
end
/Helvetica-Oblique exch definefont pop
/Times-BoldItalic findfont
dup length dict begin
  {1 index /FID ne {def} {pop pop} ifelse} forall
  /Encoding WinAnsiEncoding def
  currentdict
end
/Times-BoldItalic exch definefont pop
/Courier findfont
dup length dict begin
  {1 index /FID ne {def} {pop pop} ifelse} forall
  /Encoding WinAnsiEncoding def
  currentdict
end
/Courier exch definefont pop
/Times-Italic findfont
dup length dict begin
  {1 index /FID ne {def} {pop pop} ifelse} forall
  /Encoding WinAnsiEncoding def
  currentdict
end
/Times-Italic exch definefont pop
/Times-Bold findfont
dup length dict begin
  {1 index /FID ne {def} {pop pop} ifelse} forall
  /Encoding WinAnsiEncoding def
  currentdict
end
/Times-Bold exch definefont pop
%FOPEndFontReencode
%%EndProlog
%%Page: 1 1
%%PageBoundingBox: 0 0 420 315
%%BeginPageSetup
[1 0 0 -1 0 315] CT
%%EndPageSetup
GS
[0.75 0 0 0.75 0 0] CT
1 GC
N
0 0 560 420 re
f
GR
GS
[0.75 0 0 0.75 0 0] CT
1 GC
N
0 0 560 420 re
f
GR
GS
[0.75 0 0 0.75 0 0] CT
1 GC
N
73 374 M
507 374 L
507 31 L
73 31 L
cp
f
GR
GS
[0.75 0 0 0.75 0 0] CT
0.149 GC
2 setlinecap
1 LJ
0.667 LW
N
73 374 M
507 374 L
S
GR
GS
[0.75 0 0 0.75 0 0] CT
0.149 GC
2 setlinecap
1 LJ
0.667 LW
N
73 374 M
73 369.66 L
S
GR
GS
[0.75 0 0 0.75 0 0] CT
0.149 GC
2 setlinecap
1 LJ
0.667 LW
N
145.333 374 M
145.333 369.66 L
S
GR
GS
[0.75 0 0 0.75 0 0] CT
0.149 GC
2 setlinecap
1 LJ
0.667 LW
N
217.667 374 M
217.667 369.66 L
S
GR
GS
[0.75 0 0 0.75 0 0] CT
0.149 GC
2 setlinecap
1 LJ
0.667 LW
N
290 374 M
290 369.66 L
S
GR
GS
[0.75 0 0 0.75 0 0] CT
0.149 GC
2 setlinecap
1 LJ
0.667 LW
N
362.333 374 M
362.333 369.66 L
S
GR
GS
[0.75 0 0 0.75 0 0] CT
0.149 GC
2 setlinecap
1 LJ
0.667 LW
N
434.667 374 M
434.667 369.66 L
S
GR
GS
[0.75 0 0 0.75 0 0] CT
0.149 GC
2 setlinecap
1 LJ
0.667 LW
N
507 374 M
507 369.66 L
S
GR
GS
[0.75 0 0 0.75 54.75 284.50001] CT
0.149 GC
/Helvetica 13 F
GS
[1 0 0 1 0 0] CT
-4 13 moveto 
1 -1 scale
(0) t 
GR
GR
GS
[0.75 0 0 0.75 109 284.50001] CT
0.149 GC
/Helvetica 13 F
GS
[1 0 0 1 0 0] CT
-7.5 13 moveto 
1 -1 scale
(50) t 
GR
GR
GS
[0.75 0 0 0.75 163.25 284.50001] CT
0.149 GC
/Helvetica 13 F
GS
[1 0 0 1 0 0] CT
-11 13 moveto 
1 -1 scale
(100) t 
GR
GR
GS
[0.75 0 0 0.75 217.5 284.50001] CT
0.149 GC
/Helvetica 13 F
GS
[1 0 0 1 0 0] CT
-11 13 moveto 
1 -1 scale
(150) t 
GR
GR
GS
[0.75 0 0 0.75 271.75001 284.50001] CT
0.149 GC
/Helvetica 13 F
GS
[1 0 0 1 0 0] CT
-11 13 moveto 
1 -1 scale
(200) t 
GR
GR
GS
[0.75 0 0 0.75 325.99999 284.50001] CT
0.149 GC
/Helvetica 13 F
GS
[1 0 0 1 0 0] CT
-11 13 moveto 
1 -1 scale
(250) t 
GR
GR
GS
[0.75 0 0 0.75 380.25 284.50001] CT
0.149 GC
/Helvetica 13 F
GS
[1 0 0 1 0 0] CT
-11 13 moveto 
1 -1 scale
(300) t 
GR
GR
GS
[0.75 0 0 0.75 217.50016 297.49999] CT
0.149 GC
/Helvetica 15 F
GS
[1 0 0 1 0 0] CT
-11 14 moveto 
1 -1 scale
(t\(s\)) t 
GR
GR
GS
[0.75 0 0 0.75 0 0] CT
0.149 GC
2 setlinecap
1 LJ
0.667 LW
N
73 374 M
73 31 L
S
GR
GS
[0.75 0 0 0.75 0 0] CT
0.149 GC
2 setlinecap
1 LJ
0.667 LW
N
73 374 M
77.34 374 L
S
GR
GS
[0.75 0 0 0.75 0 0] CT
0.149 GC
2 setlinecap
1 LJ
0.667 LW
N
73 316.833 M
77.34 316.833 L
S
GR
GS
[0.75 0 0 0.75 0 0] CT
0.149 GC
2 setlinecap
1 LJ
0.667 LW
N
73 259.667 M
77.34 259.667 L
S
GR
GS
[0.75 0 0 0.75 0 0] CT
0.149 GC
2 setlinecap
1 LJ
0.667 LW
N
73 202.5 M
77.34 202.5 L
S
GR
GS
[0.75 0 0 0.75 0 0] CT
0.149 GC
2 setlinecap
1 LJ
0.667 LW
N
73 145.333 M
77.34 145.333 L
S
GR
GS
[0.75 0 0 0.75 0 0] CT
0.149 GC
2 setlinecap
1 LJ
0.667 LW
N
73 88.167 M
77.34 88.167 L
S
GR
GS
[0.75 0 0 0.75 0 0] CT
0.149 GC
2 setlinecap
1 LJ
0.667 LW
N
73 31 M
77.34 31 L
S
GR
GS
[0.75 0 0 0.75 50.75 280.5] CT
0.149 GC
/Helvetica 13 F
GS
[1 0 0 1 0 0] CT
-8 5 moveto 
1 -1 scale
(0) t 
GR
GR
GS
[0.75 0 0 0.75 50.75 237.62501] CT
0.149 GC
/Helvetica 13 F
GS
[1 0 0 1 0 0] CT
-26 5 moveto 
1 -1 scale
(0.02) t 
GR
GR
GS
[0.75 0 0 0.75 50.75 194.74999] CT
0.149 GC
/Helvetica 13 F
GS
[1 0 0 1 0 0] CT
-26 5 moveto 
1 -1 scale
(0.04) t 
GR
GR
GS
[0.75 0 0 0.75 50.75 151.875] CT
0.149 GC
/Helvetica 13 F
GS
[1 0 0 1 0 0] CT
-26 5 moveto 
1 -1 scale
(0.06) t 
GR
GR
GS
[0.75 0 0 0.75 50.75 109.00001] CT
0.149 GC
/Helvetica 13 F
GS
[1 0 0 1 0 0] CT
-26 5 moveto 
1 -1 scale
(0.08) t 
GR
GR
GS
[0.75 0 0 0.75 50.75 66.125] CT
0.149 GC
/Helvetica 13 F
GS
[1 0 0 1 0 0] CT
-19 5 moveto 
1 -1 scale
(0.1) t 
GR
GR
GS
[0.75 0 0 0.75 50.75 23.25001] CT
0.149 GC
/Helvetica 13 F
GS
[1 0 0 1 0 0] CT
-26 5 moveto 
1 -1 scale
(0.12) t 
GR
GR
GS
[0.75 0 0 0.75 217.50021 21.1875] CT
/any-Bold 15 F
GS
[1 0 0 1 0 0] CT
-200.5 -4 moveto 
1 -1 scale
(Response of system with LQ regulator and Kalman filter) t 
GR
GR
GS
[0.75 0 0 0.75 0 0] CT
0 0 1 RC
1 LJ
0.667 LW
N
73 374 M
74.447 374 L
74.447 88.167 L
74.447 88.167 L
74.664 88.167 L
74.881 88.167 L
75.22 88.167 L
75.593 88.167 L
76.038 88.167 L
76.57 88.167 L
77.226 88.167 L
78.055 88.167 L
79.131 88.167 L
80.537 88.167 L
82.209 88.167 L
83.131 88.167 L
84.053 88.167 L
85.33 88.167 L
86.9 88.167 L
87.876 88.167 L
88.853 88.167 L
90.125 88.167 L
91.627 88.167 L
92.626 88.167 L
93.624 88.167 L
94.885 88.167 L
96.349 88.167 L
97.366 88.167 L
98.384 88.167 L
99.638 88.167 L
101.071 88.167 L
102.103 88.167 L
103.134 88.167 L
104.383 88.167 L
105.793 88.167 L
107.076 88.167 L
108.119 88.167 L
109.091 88.167 L
110.222 88.167 L
111.588 88.167 L
112.977 88.167 L
114.127 88.167 L
115.095 88.167 L
116.12 88.167 L
117.38 88.167 L
118.81 88.167 L
120.095 88.167 L
121.124 88.167 L
122.082 88.167 L
123.215 88.167 L
S
GR
GS
[0.75 0 0 0.75 0 0] CT
0 0 1 RC
1 LJ
0.667 LW
N
122.082 88.167 M
123.215 88.167 L
124.598 88.167 L
125.997 88.167 L
127.14 88.167 L
128.095 88.167 L
129.114 88.167 L
130.383 88.167 L
131.826 88.167 L
132.845 88.167 L
133.864 88.167 L
135.114 88.167 L
136.542 88.167 L
137.836 88.167 L
138.873 88.167 L
139.83 88.167 L
140.953 88.167 L
142.328 88.167 L
143.733 88.167 L
144.886 88.167 L
145.845 88.167 L
146.858 88.167 L
148.116 88.167 L
149.558 88.167 L
150.584 88.167 L
151.611 88.167 L
152.861 88.167 L
154.279 88.167 L
155.566 88.167 L
156.606 88.167 L
157.571 88.167 L
158.699 88.167 L
160.07 88.167 L
161.465 88.167 L
162.616 88.167 L
163.58 88.167 L
164.6 88.167 L
165.86 88.167 L
167.296 88.167 L
168.322 88.167 L
169.349 88.167 L
170.598 88.167 L
172.014 88.167 L
173.302 88.167 L
174.343 88.167 L
175.309 88.167 L
176.437 88.167 L
177.807 88.167 L
179.201 88.167 L
180.353 88.167 L
181.318 88.167 L
182.338 88.167 L
S
GR
GS
[0.75 0 0 0.75 0 0] CT
0 0 1 RC
1 LJ
0.667 LW
N
181.318 88.167 M
182.338 88.167 L
183.597 88.167 L
185.031 88.167 L
186.059 88.167 L
187.087 88.167 L
188.336 88.167 L
189.75 88.167 L
191.037 88.167 L
192.079 88.167 L
193.046 88.167 L
194.175 88.167 L
195.543 88.167 L
196.936 88.167 L
198.088 88.167 L
199.054 88.167 L
200.075 88.167 L
201.334 88.167 L
202.768 88.167 L
203.796 88.167 L
204.824 88.167 L
206.072 88.167 L
207.486 88.167 L
208.773 88.167 L
209.815 88.167 L
210.782 88.167 L
211.911 88.167 L
213.279 88.167 L
214.672 88.167 L
215.824 88.167 L
216.79 88.167 L
217.811 88.167 L
219.071 88.167 L
220.503 88.167 L
221.532 88.167 L
222.56 88.167 L
223.808 88.167 L
225.222 88.167 L
226.509 88.167 L
227.551 88.167 L
228.519 88.167 L
229.647 88.167 L
231.015 88.167 L
232.408 88.167 L
233.56 88.167 L
234.526 88.167 L
235.547 88.167 L
236.807 88.167 L
238.239 88.167 L
239.268 88.167 L
240.296 88.167 L
241.544 88.167 L
S
GR
GS
[0.75 0 0 0.75 0 0] CT
0 0 1 RC
1 LJ
0.667 LW
N
240.296 88.167 M
241.544 88.167 L
242.958 88.167 L
244.245 88.167 L
245.287 88.167 L
246.255 88.167 L
247.383 88.167 L
248.751 88.167 L
250.144 88.167 L
251.295 88.167 L
252.262 88.167 L
253.283 88.167 L
254.543 88.167 L
255.975 88.167 L
257.004 88.167 L
258.032 88.167 L
259.28 88.167 L
260.694 88.167 L
261.981 88.167 L
263.022 88.167 L
263.991 88.167 L
265.119 88.167 L
266.487 88.167 L
267.88 88.167 L
269.031 88.167 L
269.998 88.167 L
271.019 88.167 L
272.279 88.167 L
273.711 88.167 L
274.739 88.167 L
275.768 88.167 L
277.016 88.167 L
278.43 88.167 L
279.716 88.167 L
280.758 88.167 L
281.726 88.167 L
282.855 88.167 L
284.223 88.167 L
285.616 88.167 L
286.767 88.167 L
287.734 88.167 L
288.755 88.167 L
290.015 88.167 L
291.447 88.167 L
292.475 88.167 L
293.504 88.167 L
294.752 88.167 L
296.166 88.167 L
297.452 88.167 L
298.494 88.167 L
299.462 88.167 L
300.591 88.167 L
S
GR
GS
[0.75 0 0 0.75 0 0] CT
0 0 1 RC
1 LJ
0.667 LW
N
299.462 88.167 M
300.591 88.167 L
301.959 88.167 L
303.351 88.167 L
304.503 88.167 L
305.47 88.167 L
306.491 88.167 L
307.75 88.167 L
309.183 88.167 L
310.211 88.167 L
311.24 88.167 L
312.488 88.167 L
313.902 88.167 L
315.188 88.167 L
316.23 88.167 L
317.198 88.167 L
318.327 88.167 L
319.695 88.167 L
321.087 88.167 L
322.239 88.167 L
323.205 88.167 L
324.227 88.167 L
325.486 88.167 L
326.919 88.167 L
327.947 88.167 L
328.975 88.167 L
330.224 88.167 L
331.638 88.167 L
332.924 88.167 L
333.966 88.167 L
334.934 88.167 L
336.063 88.167 L
337.431 88.167 L
338.823 88.167 L
339.975 88.167 L
340.941 88.167 L
341.963 88.167 L
343.222 88.167 L
344.655 88.167 L
345.683 88.167 L
346.711 88.167 L
347.96 88.167 L
349.373 88.167 L
350.66 88.167 L
351.702 88.167 L
352.67 88.167 L
353.799 88.167 L
355.167 88.167 L
356.559 88.167 L
357.711 88.167 L
358.677 88.167 L
359.699 88.167 L
S
GR
GS
[0.75 0 0 0.75 0 0] CT
0 0 1 RC
1 LJ
0.667 LW
N
358.677 88.167 M
359.699 88.167 L
360.958 88.167 L
362.391 88.167 L
363.419 88.167 L
364.447 88.167 L
365.696 88.167 L
367.109 88.167 L
368.396 88.167 L
369.438 88.167 L
370.406 88.167 L
371.535 88.167 L
372.903 88.167 L
374.295 88.167 L
375.447 88.167 L
376.413 88.167 L
377.434 88.167 L
378.694 88.167 L
380.126 88.167 L
381.155 88.167 L
382.183 88.167 L
383.432 88.167 L
384.845 88.167 L
386.132 88.167 L
387.174 88.167 L
388.142 88.167 L
389.27 88.167 L
390.639 88.167 L
392.031 88.167 L
393.182 88.167 L
394.149 88.167 L
395.17 88.167 L
396.43 88.167 L
397.862 88.167 L
398.891 88.167 L
399.919 88.167 L
401.167 88.167 L
402.581 88.167 L
403.868 88.167 L
404.91 88.167 L
405.878 88.167 L
407.006 88.167 L
408.374 88.167 L
409.767 88.167 L
410.918 88.167 L
411.885 88.167 L
412.906 88.167 L
414.166 88.167 L
415.598 88.167 L
416.627 88.167 L
417.655 88.167 L
418.903 88.167 L
S
GR
GS
[0.75 0 0 0.75 0 0] CT
0 0 1 RC
1 LJ
0.667 LW
N
417.655 88.167 M
418.903 88.167 L
420.317 88.167 L
421.603 88.167 L
422.645 88.167 L
423.614 88.167 L
424.742 88.167 L
426.11 88.167 L
427.503 88.167 L
428.654 88.167 L
429.621 88.167 L
430.642 88.167 L
431.902 88.167 L
433.334 88.167 L
434.362 88.167 L
435.391 88.167 L
436.639 88.167 L
438.053 88.167 L
439.339 88.167 L
440.381 88.167 L
441.349 88.167 L
442.478 88.167 L
443.846 88.167 L
445.238 88.167 L
446.39 88.167 L
447.357 88.167 L
448.378 88.167 L
449.638 88.167 L
451.07 88.167 L
452.098 88.167 L
453.127 88.167 L
454.375 88.167 L
455.789 88.167 L
457.075 88.167 L
458.117 88.167 L
459.085 88.167 L
460.214 88.167 L
461.582 88.167 L
462.974 88.167 L
464.126 88.167 L
465.093 88.167 L
466.114 88.167 L
467.373 88.167 L
468.806 88.167 L
469.834 88.167 L
470.862 88.167 L
472.111 88.167 L
473.525 88.167 L
474.811 88.167 L
475.853 88.167 L
476.821 88.167 L
477.95 88.167 L
S
GR
GS
[0.75 0 0 0.75 0 0] CT
0 0 1 RC
1 LJ
0.667 LW
N
476.821 88.167 M
477.95 88.167 L
479.318 88.167 L
480.71 88.167 L
481.862 88.167 L
482.828 88.167 L
483.85 88.167 L
485.109 88.167 L
486.542 88.167 L
487.57 88.167 L
488.598 88.167 L
489.847 88.167 L
491.261 88.167 L
492.547 88.167 L
493.589 88.167 L
494.557 88.167 L
495.686 88.167 L
497.054 88.167 L
498.446 88.167 L
499.598 88.167 L
500.564 88.167 L
501.586 88.167 L
502.845 88.167 L
504.278 88.167 L
505.306 88.167 L
506.334 88.167 L
507 88.167 L
S
GR
GS
[0.75 0 0 0.75 0 0] CT
0 1 1 RC
1 LJ
0.667 LW
N
73 374 M
74.447 374 L
74.447 88.167 L
74.447 88.167 L
74.664 88.167 L
74.881 88.167 L
75.22 88.167 L
75.593 88.167 L
76.038 88.167 L
76.57 88.167 L
77.226 88.167 L
78.055 88.167 L
79.131 88.167 L
80.537 88.167 L
82.209 88.167 L
83.131 88.167 L
84.053 88.167 L
85.33 88.167 L
86.9 88.167 L
87.876 88.167 L
88.853 88.167 L
90.125 88.167 L
91.627 88.167 L
92.626 88.167 L
93.624 88.167 L
94.885 88.167 L
96.349 88.167 L
97.366 88.167 L
98.384 88.167 L
99.638 88.167 L
101.071 88.167 L
102.103 88.167 L
103.134 88.167 L
104.383 88.167 L
105.793 88.167 L
107.076 88.167 L
108.119 88.167 L
109.091 88.167 L
110.222 88.167 L
111.588 88.167 L
112.977 88.167 L
114.127 88.167 L
115.095 88.167 L
116.12 88.167 L
117.38 88.167 L
118.81 88.167 L
120.095 88.167 L
121.124 88.167 L
122.082 88.167 L
123.215 88.167 L
S
GR
GS
[0.75 0 0 0.75 0 0] CT
0 1 1 RC
1 LJ
0.667 LW
N
122.082 88.167 M
123.215 88.167 L
124.598 88.167 L
125.997 88.167 L
127.14 88.167 L
128.095 88.167 L
129.114 88.167 L
130.383 88.167 L
131.826 88.167 L
132.845 88.167 L
133.864 88.167 L
135.114 88.167 L
136.542 88.167 L
137.836 88.167 L
138.873 88.167 L
139.83 88.167 L
140.953 88.167 L
142.328 88.167 L
143.733 88.167 L
144.886 88.167 L
145.845 88.167 L
146.858 88.167 L
148.116 88.167 L
149.558 88.167 L
150.584 88.167 L
151.611 88.167 L
152.861 88.167 L
154.279 88.167 L
155.566 88.167 L
156.606 88.167 L
157.571 88.167 L
158.699 88.167 L
160.07 88.167 L
161.465 88.167 L
162.616 88.167 L
163.58 88.167 L
164.6 88.167 L
165.86 88.167 L
167.296 88.167 L
168.322 88.167 L
169.349 88.167 L
170.598 88.167 L
172.014 88.167 L
173.302 88.167 L
174.343 88.167 L
175.309 88.167 L
176.437 88.167 L
177.807 88.167 L
179.201 88.167 L
180.353 88.167 L
181.318 88.167 L
182.338 88.167 L
S
GR
GS
[0.75 0 0 0.75 0 0] CT
0 1 1 RC
1 LJ
0.667 LW
N
181.318 88.167 M
182.338 88.167 L
183.597 88.167 L
185.031 88.167 L
186.059 88.167 L
187.087 88.167 L
188.336 88.167 L
189.75 88.167 L
191.037 88.167 L
192.079 88.167 L
193.046 88.167 L
194.175 88.167 L
195.543 88.167 L
196.936 88.167 L
198.088 88.167 L
199.054 88.167 L
200.075 88.167 L
201.334 88.167 L
202.768 88.167 L
203.796 88.167 L
204.824 88.167 L
206.072 88.167 L
207.486 88.167 L
208.773 88.167 L
209.815 88.167 L
210.782 88.167 L
211.911 88.167 L
213.279 88.167 L
214.672 88.167 L
215.824 88.167 L
216.79 88.167 L
217.811 88.167 L
219.071 88.167 L
220.503 88.167 L
221.532 88.167 L
222.56 88.167 L
223.808 88.167 L
225.222 88.167 L
226.509 88.167 L
227.551 88.167 L
228.519 88.167 L
229.647 88.167 L
231.015 88.167 L
232.408 88.167 L
233.56 88.167 L
234.526 88.167 L
235.547 88.167 L
236.807 88.167 L
238.239 88.167 L
239.268 88.167 L
240.296 88.167 L
241.544 88.167 L
S
GR
GS
[0.75 0 0 0.75 0 0] CT
0 1 1 RC
1 LJ
0.667 LW
N
240.296 88.167 M
241.544 88.167 L
242.958 88.167 L
244.245 88.167 L
245.287 88.167 L
246.255 88.167 L
247.383 88.167 L
248.751 88.167 L
250.144 88.167 L
251.295 88.167 L
252.262 88.167 L
253.283 88.167 L
254.543 88.167 L
255.975 88.167 L
257.004 88.167 L
258.032 88.167 L
259.28 88.167 L
260.694 88.167 L
261.981 88.167 L
263.022 88.167 L
263.991 88.167 L
265.119 88.167 L
266.487 88.167 L
267.88 88.167 L
269.031 88.167 L
269.998 88.167 L
271.019 88.167 L
272.279 88.167 L
273.711 88.167 L
274.739 88.167 L
275.768 88.167 L
277.016 88.167 L
278.43 88.167 L
279.716 88.167 L
280.758 88.167 L
281.726 88.167 L
282.855 88.167 L
284.223 88.167 L
285.616 88.167 L
286.767 88.167 L
287.734 88.167 L
288.755 88.167 L
290.015 88.167 L
291.447 88.167 L
292.475 88.167 L
293.504 88.167 L
294.752 88.167 L
296.166 88.167 L
297.452 88.167 L
298.494 88.167 L
299.462 88.167 L
300.591 88.167 L
S
GR
GS
[0.75 0 0 0.75 0 0] CT
0 1 1 RC
1 LJ
0.667 LW
N
299.462 88.167 M
300.591 88.167 L
301.959 88.167 L
303.351 88.167 L
304.503 88.167 L
305.47 88.167 L
306.491 88.167 L
307.75 88.167 L
309.183 88.167 L
310.211 88.167 L
311.24 88.167 L
312.488 88.167 L
313.902 88.167 L
315.188 88.167 L
316.23 88.167 L
317.198 88.167 L
318.327 88.167 L
319.695 88.167 L
321.087 88.167 L
322.239 88.167 L
323.205 88.167 L
324.227 88.167 L
325.486 88.167 L
326.919 88.167 L
327.947 88.167 L
328.975 88.167 L
330.224 88.167 L
331.638 88.167 L
332.924 88.167 L
333.966 88.167 L
334.934 88.167 L
336.063 88.167 L
337.431 88.167 L
338.823 88.167 L
339.975 88.167 L
340.941 88.167 L
341.963 88.167 L
343.222 88.167 L
344.655 88.167 L
345.683 88.167 L
346.711 88.167 L
347.96 88.167 L
349.373 88.167 L
350.66 88.167 L
351.702 88.167 L
352.67 88.167 L
353.799 88.167 L
355.167 88.167 L
356.559 88.167 L
357.711 88.167 L
358.677 88.167 L
359.699 88.167 L
S
GR
GS
[0.75 0 0 0.75 0 0] CT
0 1 1 RC
1 LJ
0.667 LW
N
358.677 88.167 M
359.699 88.167 L
360.958 88.167 L
362.391 88.167 L
363.419 88.167 L
364.447 88.167 L
365.696 88.167 L
367.109 88.167 L
368.396 88.167 L
369.438 88.167 L
370.406 88.167 L
371.535 88.167 L
372.903 88.167 L
374.295 88.167 L
375.447 88.167 L
376.413 88.167 L
377.434 88.167 L
378.694 88.167 L
380.126 88.167 L
381.155 88.167 L
382.183 88.167 L
383.432 88.167 L
384.845 88.167 L
386.132 88.167 L
387.174 88.167 L
388.142 88.167 L
389.27 88.167 L
390.639 88.167 L
392.031 88.167 L
393.182 88.167 L
394.149 88.167 L
395.17 88.167 L
396.43 88.167 L
397.862 88.167 L
398.891 88.167 L
399.919 88.167 L
401.167 88.167 L
402.581 88.167 L
403.868 88.167 L
404.91 88.167 L
405.878 88.167 L
407.006 88.167 L
408.374 88.167 L
409.767 88.167 L
410.918 88.167 L
411.885 88.167 L
412.906 88.167 L
414.166 88.167 L
415.598 88.167 L
416.627 88.167 L
417.655 88.167 L
418.903 88.167 L
S
GR
GS
[0.75 0 0 0.75 0 0] CT
0 1 1 RC
1 LJ
0.667 LW
N
417.655 88.167 M
418.903 88.167 L
420.317 88.167 L
421.603 88.167 L
422.645 88.167 L
423.614 88.167 L
424.742 88.167 L
426.11 88.167 L
427.503 88.167 L
428.654 88.167 L
429.621 88.167 L
430.642 88.167 L
431.902 88.167 L
433.334 88.167 L
434.362 88.167 L
435.391 88.167 L
436.639 88.167 L
438.053 88.167 L
439.339 88.167 L
440.381 88.167 L
441.349 88.167 L
442.478 88.167 L
443.846 88.167 L
445.238 88.167 L
446.39 88.167 L
447.357 88.167 L
448.378 88.167 L
449.638 88.167 L
451.07 88.167 L
452.098 88.167 L
453.127 88.167 L
454.375 88.167 L
455.789 88.167 L
457.075 88.167 L
458.117 88.167 L
459.085 88.167 L
460.214 88.167 L
461.582 88.167 L
462.974 88.167 L
464.126 88.167 L
465.093 88.167 L
466.114 88.167 L
467.373 88.167 L
468.806 88.167 L
469.834 88.167 L
470.862 88.167 L
472.111 88.167 L
473.525 88.167 L
474.811 88.167 L
475.853 88.167 L
476.821 88.167 L
477.95 88.167 L
S
GR
GS
[0.75 0 0 0.75 0 0] CT
0 1 1 RC
1 LJ
0.667 LW
N
476.821 88.167 M
477.95 88.167 L
479.318 88.167 L
480.71 88.167 L
481.862 88.167 L
482.828 88.167 L
483.85 88.167 L
485.109 88.167 L
486.542 88.167 L
487.57 88.167 L
488.598 88.167 L
489.847 88.167 L
491.261 88.167 L
492.547 88.167 L
493.589 88.167 L
494.557 88.167 L
495.686 88.167 L
497.054 88.167 L
498.446 88.167 L
499.598 88.167 L
500.564 88.167 L
501.586 88.167 L
502.845 88.167 L
504.278 88.167 L
505.306 88.167 L
506.334 88.167 L
507 88.167 L
S
GR
GS
[0.75 0 0 0.75 0 0] CT
1 0 0 RC
1 LJ
0.667 LW
N
73 374 M
74.447 374 L
74.447 374 L
74.447 374 L
74.664 373.388 L
74.881 372.756 L
75.22 371.728 L
75.593 370.549 L
76.038 369.083 L
76.57 367.246 L
77.226 364.875 L
78.055 361.736 L
79.131 357.473 L
80.537 351.659 L
82.209 344.518 L
83.131 340.515 L
84.053 336.492 L
85.33 330.911 L
86.9 324.072 L
87.876 319.85 L
88.853 315.662 L
90.125 310.264 L
91.627 303.999 L
92.626 299.902 L
93.624 295.864 L
94.885 290.847 L
96.349 285.153 L
97.366 281.275 L
98.384 277.463 L
99.638 272.855 L
101.071 267.718 L
102.103 264.103 L
103.134 260.555 L
104.383 256.351 L
105.793 251.721 L
107.076 247.613 L
108.119 244.347 L
109.091 241.364 L
110.222 237.961 L
111.588 233.947 L
112.977 229.976 L
114.127 226.766 L
115.095 224.119 L
116.12 221.373 L
117.38 218.069 L
118.81 214.418 L
120.095 211.223 L
121.124 208.725 L
122.082 206.44 L
123.215 203.796 L
S
GR
GS
[0.75 0 0 0.75 0 0] CT
1 0 0 RC
1 LJ
0.667 LW
N
122.082 206.44 M
123.215 203.796 L
124.598 200.646 L
125.997 197.545 L
127.14 195.075 L
128.095 193.052 L
129.114 190.937 L
130.383 188.362 L
131.826 185.509 L
132.845 183.544 L
133.864 181.618 L
135.114 179.306 L
136.542 176.736 L
137.836 174.468 L
138.873 172.694 L
139.83 171.087 L
140.953 169.238 L
142.328 167.032 L
143.733 164.84 L
144.886 163.084 L
145.845 161.655 L
146.858 160.175 L
148.116 158.377 L
149.558 156.37 L
150.584 154.977 L
151.611 153.611 L
152.861 151.985 L
154.279 150.189 L
155.566 148.602 L
156.606 147.35 L
157.571 146.21 L
158.699 144.904 L
160.07 143.357 L
161.465 141.826 L
162.616 140.594 L
163.58 139.584 L
164.6 138.537 L
165.86 137.27 L
167.296 135.867 L
168.322 134.888 L
169.349 133.928 L
170.598 132.787 L
172.014 131.526 L
173.302 130.411 L
174.343 129.531 L
175.309 128.729 L
176.437 127.813 L
177.807 126.728 L
179.201 125.654 L
180.353 124.789 L
181.318 124.079 L
182.338 123.344 L
S
GR
GS
[0.75 0 0 0.75 0 0] CT
1 0 0 RC
1 LJ
0.667 LW
N
181.318 124.079 M
182.338 123.344 L
183.597 122.456 L
185.031 121.472 L
186.059 120.785 L
187.087 120.111 L
188.336 119.311 L
189.75 118.428 L
191.037 117.647 L
192.079 117.03 L
193.046 116.467 L
194.175 115.825 L
195.543 115.065 L
196.936 114.313 L
198.088 113.708 L
199.054 113.21 L
200.075 112.695 L
201.334 112.073 L
202.768 111.385 L
203.796 110.904 L
204.824 110.432 L
206.072 109.873 L
207.486 109.255 L
208.773 108.709 L
209.815 108.277 L
210.782 107.884 L
211.911 107.435 L
213.279 106.904 L
214.672 106.379 L
215.824 105.955 L
216.79 105.608 L
217.811 105.248 L
219.071 104.814 L
220.503 104.333 L
221.532 103.997 L
222.56 103.668 L
223.808 103.278 L
225.222 102.847 L
226.509 102.466 L
227.551 102.165 L
228.519 101.891 L
229.647 101.577 L
231.015 101.208 L
232.408 100.842 L
233.56 100.547 L
234.526 100.305 L
235.547 100.054 L
236.807 99.752 L
238.239 99.417 L
239.268 99.183 L
240.296 98.954 L
241.544 98.683 L
S
GR
GS
[0.75 0 0 0.75 0 0] CT
1 0 0 RC
1 LJ
0.667 LW
N
240.296 98.954 M
241.544 98.683 L
242.958 98.383 L
244.245 98.118 L
245.287 97.909 L
246.255 97.718 L
247.383 97.501 L
248.751 97.244 L
250.144 96.99 L
251.295 96.785 L
252.262 96.617 L
253.283 96.443 L
254.543 96.233 L
255.975 96.002 L
257.004 95.839 L
258.032 95.681 L
259.28 95.492 L
260.694 95.285 L
261.981 95.102 L
263.022 94.957 L
263.991 94.825 L
265.119 94.674 L
266.487 94.496 L
267.88 94.321 L
269.031 94.179 L
269.998 94.063 L
271.019 93.943 L
272.279 93.798 L
273.711 93.638 L
274.739 93.526 L
275.768 93.416 L
277.016 93.287 L
278.43 93.144 L
279.716 93.017 L
280.758 92.917 L
281.726 92.826 L
282.855 92.723 L
284.223 92.6 L
285.616 92.479 L
286.767 92.382 L
287.734 92.302 L
288.755 92.219 L
290.015 92.12 L
291.447 92.01 L
292.475 91.933 L
293.504 91.858 L
294.752 91.769 L
296.166 91.671 L
297.452 91.584 L
298.494 91.516 L
299.462 91.454 L
300.591 91.383 L
S
GR
GS
[0.75 0 0 0.75 0 0] CT
1 0 0 RC
1 LJ
0.667 LW
N
299.462 91.454 M
300.591 91.383 L
301.959 91.299 L
303.351 91.216 L
304.503 91.15 L
305.47 91.095 L
306.491 91.039 L
307.75 90.971 L
309.183 90.896 L
310.211 90.843 L
311.24 90.792 L
312.488 90.731 L
313.902 90.665 L
315.188 90.606 L
316.23 90.559 L
317.198 90.517 L
318.327 90.468 L
319.695 90.412 L
321.087 90.355 L
322.239 90.31 L
323.205 90.273 L
324.227 90.235 L
325.486 90.189 L
326.919 90.138 L
327.947 90.103 L
328.975 90.068 L
330.224 90.027 L
331.638 89.982 L
332.924 89.942 L
333.966 89.911 L
334.934 89.882 L
336.063 89.85 L
337.431 89.812 L
338.823 89.774 L
339.975 89.744 L
340.941 89.719 L
341.963 89.693 L
343.222 89.662 L
344.655 89.628 L
345.683 89.605 L
346.711 89.581 L
347.96 89.554 L
349.373 89.524 L
350.66 89.497 L
351.702 89.476 L
352.67 89.457 L
353.799 89.436 L
355.167 89.41 L
356.559 89.385 L
357.711 89.365 L
358.677 89.349 L
359.699 89.332 L
S
GR
GS
[0.75 0 0 0.75 0 0] CT
1 0 0 RC
1 LJ
0.667 LW
N
358.677 89.349 M
359.699 89.332 L
360.958 89.311 L
362.391 89.289 L
363.419 89.273 L
364.447 89.258 L
365.696 89.24 L
367.109 89.22 L
368.396 89.203 L
369.438 89.189 L
370.406 89.176 L
371.535 89.162 L
372.903 89.146 L
374.295 89.129 L
375.447 89.116 L
376.413 89.105 L
377.434 89.094 L
378.694 89.081 L
380.126 89.067 L
381.155 89.056 L
382.183 89.046 L
383.432 89.035 L
384.845 89.022 L
386.132 89.011 L
387.174 89.002 L
388.142 88.994 L
389.27 88.985 L
390.639 88.974 L
392.031 88.964 L
393.182 88.955 L
394.149 88.948 L
395.17 88.941 L
396.43 88.933 L
397.862 88.924 L
398.891 88.917 L
399.919 88.911 L
401.167 88.904 L
402.581 88.896 L
403.868 88.889 L
404.91 88.883 L
405.878 88.878 L
407.006 88.872 L
408.374 88.866 L
409.767 88.859 L
410.918 88.854 L
411.885 88.85 L
412.906 88.846 L
414.166 88.84 L
415.598 88.835 L
416.627 88.831 L
417.655 88.827 L
418.903 88.823 L
S
GR
GS
[0.75 0 0 0.75 0 0] CT
1 0 0 RC
1 LJ
0.667 LW
N
417.655 88.827 M
418.903 88.823 L
420.317 88.818 L
421.603 88.814 L
422.645 88.81 L
423.614 88.807 L
424.742 88.804 L
426.11 88.8 L
427.503 88.796 L
428.654 88.793 L
429.621 88.791 L
430.642 88.788 L
431.902 88.785 L
433.334 88.782 L
434.362 88.78 L
435.391 88.777 L
436.639 88.775 L
438.053 88.772 L
439.339 88.77 L
440.381 88.768 L
441.349 88.766 L
442.478 88.764 L
443.846 88.762 L
445.238 88.76 L
446.39 88.758 L
447.357 88.757 L
448.378 88.756 L
449.638 88.754 L
451.07 88.752 L
452.098 88.751 L
453.127 88.75 L
454.375 88.749 L
455.789 88.747 L
457.075 88.746 L
458.117 88.745 L
459.085 88.744 L
460.214 88.744 L
461.582 88.743 L
462.974 88.742 L
464.126 88.741 L
465.093 88.74 L
466.114 88.74 L
467.373 88.739 L
468.806 88.738 L
469.834 88.738 L
470.862 88.737 L
472.111 88.737 L
473.525 88.736 L
474.811 88.736 L
475.853 88.736 L
476.821 88.735 L
477.95 88.735 L
S
GR
GS
[0.75 0 0 0.75 0 0] CT
1 0 0 RC
1 LJ
0.667 LW
N
476.821 88.735 M
477.95 88.735 L
479.318 88.735 L
480.71 88.734 L
481.862 88.734 L
482.828 88.734 L
483.85 88.734 L
485.109 88.734 L
486.542 88.734 L
487.57 88.734 L
488.598 88.734 L
489.847 88.734 L
491.261 88.734 L
492.547 88.734 L
493.589 88.734 L
494.557 88.734 L
495.686 88.734 L
497.054 88.734 L
498.446 88.734 L
499.598 88.734 L
500.564 88.734 L
501.586 88.734 L
502.845 88.735 L
504.278 88.735 L
505.306 88.735 L
506.334 88.735 L
507 88.735 L
S
GR
GS
[0.75 0 0 0.75 0 0] CT
1 0 1 RC
1 LJ
0.667 LW
N
73 374 M
74.447 374 L
74.447 374 L
74.447 374 L
74.664 373.716 L
74.881 373.41 L
75.22 372.888 L
75.593 372.257 L
76.038 371.432 L
76.57 370.345 L
77.226 368.87 L
78.055 366.814 L
79.131 363.871 L
80.537 359.631 L
82.209 354.138 L
83.131 350.946 L
84.053 347.663 L
85.33 343.003 L
86.9 337.139 L
87.876 333.443 L
88.853 329.725 L
90.125 324.862 L
91.627 319.126 L
92.626 315.326 L
93.624 311.544 L
94.885 306.802 L
96.349 301.363 L
97.366 297.626 L
98.384 293.929 L
99.638 289.432 L
101.071 284.382 L
102.103 280.806 L
103.134 277.283 L
104.383 273.087 L
105.793 268.445 L
107.076 264.306 L
108.119 261.005 L
109.091 257.981 L
110.222 254.521 L
111.588 250.426 L
112.977 246.362 L
114.127 243.069 L
115.095 240.346 L
116.12 237.517 L
117.38 234.104 L
118.81 230.325 L
120.095 227.011 L
121.124 224.413 L
122.082 222.035 L
123.215 219.277 L
S
GR
GS
[0.75 0 0 0.75 0 0] CT
1 0 1 RC
1 LJ
0.667 LW
N
122.082 222.035 M
123.215 219.277 L
124.598 215.987 L
125.997 212.74 L
127.14 210.149 L
128.095 208.025 L
129.114 205.8 L
130.383 203.088 L
131.826 200.077 L
132.845 198.001 L
133.864 195.963 L
135.114 193.512 L
136.542 190.784 L
137.836 188.371 L
138.873 186.481 L
139.83 184.767 L
140.953 182.793 L
142.328 180.433 L
143.733 178.084 L
144.886 176.2 L
145.845 174.663 L
146.858 173.07 L
148.116 171.132 L
149.558 168.965 L
150.584 167.458 L
151.611 165.98 L
152.861 164.215 L
154.279 162.264 L
155.566 160.536 L
156.606 159.17 L
157.571 157.926 L
158.699 156.498 L
160.07 154.803 L
161.465 153.123 L
162.616 151.768 L
163.58 150.656 L
164.6 149.5 L
165.86 148.102 L
167.296 146.548 L
168.322 145.462 L
169.349 144.396 L
170.598 143.126 L
172.014 141.721 L
173.302 140.475 L
174.343 139.49 L
175.309 138.592 L
176.437 137.563 L
177.807 136.342 L
179.201 135.131 L
180.353 134.153 L
181.318 133.35 L
182.338 132.516 L
S
GR
GS
[0.75 0 0 0.75 0 0] CT
1 0 1 RC
1 LJ
0.667 LW
N
181.318 133.35 M
182.338 132.516 L
183.597 131.508 L
185.031 130.388 L
186.059 129.603 L
187.087 128.833 L
188.336 127.917 L
189.75 126.904 L
191.037 126.005 L
192.079 125.293 L
193.046 124.643 L
194.175 123.9 L
195.543 123.019 L
196.936 122.145 L
198.088 121.439 L
199.054 120.858 L
200.075 120.255 L
201.334 119.526 L
202.768 118.717 L
203.796 118.149 L
204.824 117.592 L
206.072 116.93 L
207.486 116.197 L
208.773 115.547 L
209.815 115.032 L
210.782 114.562 L
211.911 114.024 L
213.279 113.386 L
214.672 112.754 L
215.824 112.242 L
216.79 111.822 L
217.811 111.385 L
219.071 110.857 L
220.503 110.271 L
221.532 109.86 L
222.56 109.456 L
223.808 108.976 L
225.222 108.446 L
226.509 107.974 L
227.551 107.601 L
228.519 107.26 L
229.647 106.869 L
231.015 106.407 L
232.408 105.948 L
233.56 105.577 L
234.526 105.272 L
235.547 104.955 L
236.807 104.572 L
238.239 104.146 L
239.268 103.848 L
240.296 103.554 L
241.544 103.206 L
S
GR
GS
[0.75 0 0 0.75 0 0] CT
1 0 1 RC
1 LJ
0.667 LW
N
240.296 103.554 M
241.544 103.206 L
242.958 102.82 L
244.245 102.478 L
245.287 102.206 L
246.255 101.958 L
247.383 101.675 L
248.751 101.339 L
250.144 101.005 L
251.295 100.735 L
252.262 100.513 L
253.283 100.282 L
254.543 100.003 L
255.975 99.694 L
257.004 99.476 L
258.032 99.263 L
259.28 99.009 L
260.694 98.728 L
261.981 98.478 L
263.022 98.281 L
263.991 98.1 L
265.119 97.893 L
266.487 97.648 L
267.88 97.405 L
269.031 97.208 L
269.998 97.046 L
271.019 96.877 L
272.279 96.674 L
273.711 96.448 L
274.739 96.289 L
275.768 96.134 L
277.016 95.948 L
278.43 95.743 L
279.716 95.561 L
280.758 95.416 L
281.726 95.284 L
282.855 95.133 L
284.223 94.954 L
285.616 94.776 L
286.767 94.632 L
287.734 94.513 L
288.755 94.39 L
290.015 94.241 L
291.447 94.076 L
292.475 93.959 L
293.504 93.845 L
294.752 93.709 L
296.166 93.559 L
297.452 93.426 L
298.494 93.32 L
299.462 93.223 L
300.591 93.112 L
S
GR
GS
[0.75 0 0 0.75 0 0] CT
1 0 1 RC
1 LJ
0.667 LW
N
299.462 93.223 M
300.591 93.112 L
301.959 92.98 L
303.351 92.85 L
304.503 92.744 L
305.47 92.657 L
306.491 92.567 L
307.75 92.457 L
309.183 92.336 L
310.211 92.251 L
311.24 92.167 L
312.488 92.067 L
313.902 91.956 L
315.188 91.858 L
316.23 91.78 L
317.198 91.709 L
318.327 91.627 L
319.695 91.531 L
321.087 91.435 L
322.239 91.357 L
323.205 91.293 L
324.227 91.226 L
325.486 91.145 L
326.919 91.056 L
327.947 90.993 L
328.975 90.931 L
330.224 90.858 L
331.638 90.776 L
332.924 90.704 L
333.966 90.646 L
334.934 90.593 L
336.063 90.533 L
337.431 90.462 L
338.823 90.391 L
339.975 90.333 L
340.941 90.286 L
341.963 90.237 L
343.222 90.177 L
344.655 90.111 L
345.683 90.064 L
346.711 90.018 L
347.96 89.964 L
349.373 89.904 L
350.66 89.85 L
351.702 89.807 L
352.67 89.768 L
353.799 89.724 L
355.167 89.671 L
356.559 89.618 L
357.711 89.575 L
358.677 89.54 L
359.699 89.504 L
S
GR
GS
[0.75 0 0 0.75 0 0] CT
1 0 1 RC
1 LJ
0.667 LW
N
358.677 89.54 M
359.699 89.504 L
360.958 89.459 L
362.391 89.41 L
363.419 89.376 L
364.447 89.342 L
365.696 89.301 L
367.109 89.256 L
368.396 89.216 L
369.438 89.185 L
370.406 89.156 L
371.535 89.122 L
372.903 89.083 L
374.295 89.044 L
375.447 89.012 L
376.413 88.986 L
377.434 88.959 L
378.694 88.926 L
380.126 88.889 L
381.155 88.863 L
382.183 88.838 L
383.432 88.807 L
384.845 88.774 L
386.132 88.744 L
387.174 88.72 L
388.142 88.699 L
389.27 88.674 L
390.639 88.644 L
392.031 88.615 L
393.182 88.591 L
394.149 88.572 L
395.17 88.551 L
396.43 88.527 L
397.862 88.499 L
398.891 88.48 L
399.919 88.461 L
401.167 88.438 L
402.581 88.413 L
403.868 88.391 L
404.91 88.373 L
405.878 88.357 L
407.006 88.338 L
408.374 88.316 L
409.767 88.294 L
410.918 88.276 L
411.885 88.261 L
412.906 88.246 L
414.166 88.227 L
415.598 88.207 L
416.627 88.192 L
417.655 88.178 L
418.903 88.161 L
S
GR
GS
[0.75 0 0 0.75 0 0] CT
1 0 1 RC
1 LJ
0.667 LW
N
417.655 88.178 M
418.903 88.161 L
420.317 88.142 L
421.603 88.125 L
422.645 88.112 L
423.614 88.099 L
424.742 88.085 L
426.11 88.069 L
427.503 88.052 L
428.654 88.039 L
429.621 88.027 L
430.642 88.016 L
431.902 88.002 L
433.334 87.986 L
434.362 87.975 L
435.391 87.964 L
436.639 87.952 L
438.053 87.937 L
439.339 87.924 L
440.381 87.914 L
441.349 87.905 L
442.478 87.894 L
443.846 87.882 L
445.238 87.869 L
446.39 87.859 L
447.357 87.85 L
448.378 87.842 L
449.638 87.831 L
451.07 87.819 L
452.098 87.811 L
453.127 87.803 L
454.375 87.793 L
455.789 87.782 L
457.075 87.772 L
458.117 87.765 L
459.085 87.757 L
460.214 87.749 L
461.582 87.74 L
462.974 87.73 L
464.126 87.722 L
465.093 87.716 L
466.114 87.709 L
467.373 87.701 L
468.806 87.692 L
469.834 87.686 L
470.862 87.679 L
472.111 87.672 L
473.525 87.664 L
474.811 87.656 L
475.853 87.65 L
476.821 87.645 L
477.95 87.639 L
S
GR
GS
[0.75 0 0 0.75 0 0] CT
1 0 1 RC
1 LJ
0.667 LW
N
476.821 87.645 M
477.95 87.639 L
479.318 87.631 L
480.71 87.624 L
481.862 87.618 L
482.828 87.613 L
483.85 87.608 L
485.109 87.602 L
486.542 87.595 L
487.57 87.59 L
488.598 87.585 L
489.847 87.58 L
491.261 87.573 L
492.547 87.567 L
493.589 87.563 L
494.557 87.559 L
495.686 87.554 L
497.054 87.548 L
498.446 87.543 L
499.598 87.538 L
500.564 87.534 L
501.586 87.53 L
502.845 87.526 L
504.278 87.52 L
505.306 87.517 L
506.334 87.513 L
507 87.51 L
S
GR
GS
[0.75 0 0 0.75 0 0] CT
1 GC
N
422 112 M
422 44 L
494 44 L
494 112 L
cp
f
GR
GS
[0.75 0 0 0.75 355.5 40.7005] CT
/Helvetica 12 F
GS
[1 0 0 1 0 0] CT
0 4.5 moveto 
1 -1 scale
(w1) t 
GR
GR
GS
[0.75 0 0 0.75 0 0] CT
0 0 1 RC
1 LJ
0.667 LW
N
430 54.267 M
470 54.267 L
S
GR
GS
[0.75 0 0 0.75 355.5 52.56683] CT
/Helvetica 12 F
GS
[1 0 0 1 0 0] CT
0 4.5 moveto 
1 -1 scale
(w2) t 
GR
GR
GS
[0.75 0 0 0.75 0 0] CT
0 1 1 RC
1 LJ
0.667 LW
N
430 70.089 M
470 70.089 L
S
GR
GS
[0.75 0 0 0.75 355.5 64.43317] CT
/Helvetica 12 F
GS
[1 0 0 1 0 0] CT
0 4.5 moveto 
1 -1 scale
(y1) t 
GR
GR
GS
[0.75 0 0 0.75 0 0] CT
1 0 0 RC
1 LJ
0.667 LW
N
430 85.911 M
470 85.911 L
S
GR
GS
[0.75 0 0 0.75 355.5 76.29951] CT
/Helvetica 12 F
GS
[1 0 0 1 0 0] CT
0 4.5 moveto 
1 -1 scale
(y2) t 
GR
GR
GS
[0.75 0 0 0.75 0 0] CT
1 0 1 RC
1 LJ
0.667 LW
N
430 101.733 M
470 101.733 L
S
GR
GS
[0.75 0 0 0.75 0 0] CT
0.149 GC
10.0 ML
0.667 LW
N
422 112 M
422 44 L
494 44 L
494 112 L
cp
S
GR
%%Trailer
%%Pages: 1
%%EOF
