%!PS-Adobe-3.0 EPSF-3.0
%%Creator: (MATLAB, The Mathworks, Inc. Version 8.6.0.267246 \(R2015b\). Operating System: Windows 8)
%%Title: E:/Projects/skola/rls/pics/SP2/state_jfa_y.eps
%%CreationDate: 2017-03-15T10:29:39
%%Pages: (atend)
%%BoundingBox: 0 0 420 315
%%LanguageLevel: 2
%%EndComments
%%BeginProlog
%%BeginResource: procset (Apache XML Graphics Std ProcSet) 1.2 0
%%Version: 1.2 0
%%Copyright: (Copyright 2001-2003,2010 The Apache Software Foundation. License terms: http://www.apache.org/licenses/LICENSE-2.0)
/bd{bind def}bind def
/ld{load def}bd
/GR/grestore ld
/M/moveto ld
/LJ/setlinejoin ld
/C/curveto ld
/f/fill ld
/LW/setlinewidth ld
/GC/setgray ld
/t/show ld
/N/newpath ld
/CT/concat ld
/cp/closepath ld
/S/stroke ld
/L/lineto ld
/CC/setcmykcolor ld
/A/ashow ld
/GS/gsave ld
/RC/setrgbcolor ld
/RM/rmoveto ld
/ML/setmiterlimit ld
/re {4 2 roll M
1 index 0 rlineto
0 exch rlineto
neg 0 rlineto
cp } bd
/_ctm matrix def
/_tm matrix def
/BT { _ctm currentmatrix pop matrix _tm copy pop 0 0 moveto } bd
/ET { _ctm setmatrix } bd
/iTm { _ctm setmatrix _tm concat } bd
/Tm { _tm astore pop iTm 0 0 moveto } bd
/ux 0.0 def
/uy 0.0 def
/F {
  /Tp exch def
  /Tf exch def
  Tf findfont Tp scalefont setfont
  /cf Tf def  /cs Tp def
} bd
/ULS {currentpoint /uy exch def /ux exch def} bd
/ULE {
  /Tcx currentpoint pop def
  gsave
  newpath
  cf findfont cs scalefont dup
  /FontMatrix get 0 get /Ts exch def /FontInfo get dup
  /UnderlinePosition get Ts mul /To exch def
  /UnderlineThickness get Ts mul /Tt exch def
  ux uy To add moveto  Tcx uy To add lineto
  Tt setlinewidth stroke
  grestore
} bd
/OLE {
  /Tcx currentpoint pop def
  gsave
  newpath
  cf findfont cs scalefont dup
  /FontMatrix get 0 get /Ts exch def /FontInfo get dup
  /UnderlinePosition get Ts mul /To exch def
  /UnderlineThickness get Ts mul /Tt exch def
  ux uy To add cs add moveto Tcx uy To add cs add lineto
  Tt setlinewidth stroke
  grestore
} bd
/SOE {
  /Tcx currentpoint pop def
  gsave
  newpath
  cf findfont cs scalefont dup
  /FontMatrix get 0 get /Ts exch def /FontInfo get dup
  /UnderlinePosition get Ts mul /To exch def
  /UnderlineThickness get Ts mul /Tt exch def
  ux uy To add cs 10 mul 26 idiv add moveto Tcx uy To add cs 10 mul 26 idiv add lineto
  Tt setlinewidth stroke
  grestore
} bd
/QT {
/Y22 exch store
/X22 exch store
/Y21 exch store
/X21 exch store
currentpoint
/Y21 load 2 mul add 3 div exch
/X21 load 2 mul add 3 div exch
/X21 load 2 mul /X22 load add 3 div
/Y21 load 2 mul /Y22 load add 3 div
/X22 load /Y22 load curveto
} bd
/SSPD {
dup length /d exch dict def
{
/v exch def
/k exch def
currentpagedevice k known {
/cpdv currentpagedevice k get def
v cpdv ne {
/upd false def
/nullv v type /nulltype eq def
/nullcpdv cpdv type /nulltype eq def
nullv nullcpdv or
{
/upd true def
} {
/sametype v type cpdv type eq def
sametype {
v type /arraytype eq {
/vlen v length def
/cpdvlen cpdv length def
vlen cpdvlen eq {
0 1 vlen 1 sub {
/i exch def
/obj v i get def
/cpdobj cpdv i get def
obj cpdobj ne {
/upd true def
exit
} if
} for
} {
/upd true def
} ifelse
} {
v type /dicttype eq {
v {
/dv exch def
/dk exch def
/cpddv cpdv dk get def
dv cpddv ne {
/upd true def
exit
} if
} forall
} {
/upd true def
} ifelse
} ifelse
} if
} ifelse
upd true eq {
d k v put
} if
} if
} if
} forall
d length 0 gt {
d setpagedevice
} if
} bd
%%EndResource
%%BeginResource: procset (Apache XML Graphics EPS ProcSet) 1.0 0
%%Version: 1.0 0
%%Copyright: (Copyright 2002-2003 The Apache Software Foundation. License terms: http://www.apache.org/licenses/LICENSE-2.0)
/BeginEPSF { %def
/b4_Inc_state save def         % Save state for cleanup
/dict_count countdictstack def % Count objects on dict stack
/op_count count 1 sub def      % Count objects on operand stack
userdict begin                 % Push userdict on dict stack
/showpage { } def              % Redefine showpage, { } = null proc
0 setgray 0 setlinecap         % Prepare graphics state
1 setlinewidth 0 setlinejoin
10 setmiterlimit [ ] 0 setdash newpath
/languagelevel where           % If level not equal to 1 then
{pop languagelevel             % set strokeadjust and
1 ne                           % overprint to their defaults.
{false setstrokeadjust false setoverprint
} if
} if
} bd
/EndEPSF { %def
count op_count sub {pop} repeat            % Clean up stacks
countdictstack dict_count sub {end} repeat
b4_Inc_state restore
} bd
%%EndResource
%FOPBeginFontDict
%%IncludeResource: font Courier-Bold
%%IncludeResource: font Helvetica
%%IncludeResource: font Courier-BoldOblique
%%IncludeResource: font Courier-Oblique
%%IncludeResource: font Times-Roman
%%IncludeResource: font Helvetica-BoldOblique
%%IncludeResource: font Helvetica-Bold
%%IncludeResource: font Helvetica-Oblique
%%IncludeResource: font Times-BoldItalic
%%IncludeResource: font Courier
%%IncludeResource: font Times-Italic
%%IncludeResource: font Times-Bold
%%IncludeResource: font Symbol
%%IncludeResource: font ZapfDingbats
%FOPEndFontDict
%%BeginResource: encoding WinAnsiEncoding
/WinAnsiEncoding [
/.notdef /.notdef /.notdef /.notdef /.notdef
/.notdef /.notdef /.notdef /.notdef /.notdef
/.notdef /.notdef /.notdef /.notdef /.notdef
/.notdef /.notdef /.notdef /.notdef /.notdef
/.notdef /.notdef /.notdef /.notdef /.notdef
/.notdef /.notdef /.notdef /.notdef /.notdef
/.notdef /.notdef /space /exclam /quotedbl
/numbersign /dollar /percent /ampersand /quotesingle
/parenleft /parenright /asterisk /plus /comma
/hyphen /period /slash /zero /one
/two /three /four /five /six
/seven /eight /nine /colon /semicolon
/less /equal /greater /question /at
/A /B /C /D /E
/F /G /H /I /J
/K /L /M /N /O
/P /Q /R /S /T
/U /V /W /X /Y
/Z /bracketleft /backslash /bracketright /asciicircum
/underscore /quoteleft /a /b /c
/d /e /f /g /h
/i /j /k /l /m
/n /o /p /q /r
/s /t /u /v /w
/x /y /z /braceleft /bar
/braceright /asciitilde /bullet /Euro /bullet
/quotesinglbase /florin /quotedblbase /ellipsis /dagger
/daggerdbl /circumflex /perthousand /Scaron /guilsinglleft
/OE /bullet /Zcaron /bullet /bullet
/quoteleft /quoteright /quotedblleft /quotedblright /bullet
/endash /emdash /asciitilde /trademark /scaron
/guilsinglright /oe /bullet /zcaron /Ydieresis
/space /exclamdown /cent /sterling /currency
/yen /brokenbar /section /dieresis /copyright
/ordfeminine /guillemotleft /logicalnot /sfthyphen /registered
/macron /degree /plusminus /twosuperior /threesuperior
/acute /mu /paragraph /middot /cedilla
/onesuperior /ordmasculine /guillemotright /onequarter /onehalf
/threequarters /questiondown /Agrave /Aacute /Acircumflex
/Atilde /Adieresis /Aring /AE /Ccedilla
/Egrave /Eacute /Ecircumflex /Edieresis /Igrave
/Iacute /Icircumflex /Idieresis /Eth /Ntilde
/Ograve /Oacute /Ocircumflex /Otilde /Odieresis
/multiply /Oslash /Ugrave /Uacute /Ucircumflex
/Udieresis /Yacute /Thorn /germandbls /agrave
/aacute /acircumflex /atilde /adieresis /aring
/ae /ccedilla /egrave /eacute /ecircumflex
/edieresis /igrave /iacute /icircumflex /idieresis
/eth /ntilde /ograve /oacute /ocircumflex
/otilde /odieresis /divide /oslash /ugrave
/uacute /ucircumflex /udieresis /yacute /thorn
/ydieresis
] def
%%EndResource
%FOPBeginFontReencode
/Courier-Bold findfont
dup length dict begin
  {1 index /FID ne {def} {pop pop} ifelse} forall
  /Encoding WinAnsiEncoding def
  currentdict
end
/Courier-Bold exch definefont pop
/Helvetica findfont
dup length dict begin
  {1 index /FID ne {def} {pop pop} ifelse} forall
  /Encoding WinAnsiEncoding def
  currentdict
end
/Helvetica exch definefont pop
/Courier-BoldOblique findfont
dup length dict begin
  {1 index /FID ne {def} {pop pop} ifelse} forall
  /Encoding WinAnsiEncoding def
  currentdict
end
/Courier-BoldOblique exch definefont pop
/Courier-Oblique findfont
dup length dict begin
  {1 index /FID ne {def} {pop pop} ifelse} forall
  /Encoding WinAnsiEncoding def
  currentdict
end
/Courier-Oblique exch definefont pop
/Times-Roman findfont
dup length dict begin
  {1 index /FID ne {def} {pop pop} ifelse} forall
  /Encoding WinAnsiEncoding def
  currentdict
end
/Times-Roman exch definefont pop
/Helvetica-BoldOblique findfont
dup length dict begin
  {1 index /FID ne {def} {pop pop} ifelse} forall
  /Encoding WinAnsiEncoding def
  currentdict
end
/Helvetica-BoldOblique exch definefont pop
/Helvetica-Bold findfont
dup length dict begin
  {1 index /FID ne {def} {pop pop} ifelse} forall
  /Encoding WinAnsiEncoding def
  currentdict
end
/Helvetica-Bold exch definefont pop
/Helvetica-Oblique findfont
dup length dict begin
  {1 index /FID ne {def} {pop pop} ifelse} forall
  /Encoding WinAnsiEncoding def
  currentdict
end
/Helvetica-Oblique exch definefont pop
/Times-BoldItalic findfont
dup length dict begin
  {1 index /FID ne {def} {pop pop} ifelse} forall
  /Encoding WinAnsiEncoding def
  currentdict
end
/Times-BoldItalic exch definefont pop
/Courier findfont
dup length dict begin
  {1 index /FID ne {def} {pop pop} ifelse} forall
  /Encoding WinAnsiEncoding def
  currentdict
end
/Courier exch definefont pop
/Times-Italic findfont
dup length dict begin
  {1 index /FID ne {def} {pop pop} ifelse} forall
  /Encoding WinAnsiEncoding def
  currentdict
end
/Times-Italic exch definefont pop
/Times-Bold findfont
dup length dict begin
  {1 index /FID ne {def} {pop pop} ifelse} forall
  /Encoding WinAnsiEncoding def
  currentdict
end
/Times-Bold exch definefont pop
%FOPEndFontReencode
%%EndProlog
%%Page: 1 1
%%PageBoundingBox: 0 0 420 315
%%BeginPageSetup
[1 0 0 -1 0 315] CT
%%EndPageSetup
GS
[0.75 0 0 0.75 0 0] CT
1 GC
N
0 0 560 420 re
f
GR
GS
[0.75 0 0 0.75 0 0] CT
1 GC
N
0 0 560 420 re
f
GR
GS
[0.75 0 0 0.75 0 0] CT
1 GC
N
73 374 M
507 374 L
507 31 L
73 31 L
cp
f
GR
GS
[0.75 0 0 0.75 0 0] CT
0.149 GC
2 setlinecap
1 LJ
0.667 LW
N
73 374 M
507 374 L
S
GR
GS
[0.75 0 0 0.75 0 0] CT
0.149 GC
2 setlinecap
1 LJ
0.667 LW
N
73 374 M
73 369.66 L
S
GR
GS
[0.75 0 0 0.75 0 0] CT
0.149 GC
2 setlinecap
1 LJ
0.667 LW
N
116.4 374 M
116.4 369.66 L
S
GR
GS
[0.75 0 0 0.75 0 0] CT
0.149 GC
2 setlinecap
1 LJ
0.667 LW
N
159.8 374 M
159.8 369.66 L
S
GR
GS
[0.75 0 0 0.75 0 0] CT
0.149 GC
2 setlinecap
1 LJ
0.667 LW
N
203.2 374 M
203.2 369.66 L
S
GR
GS
[0.75 0 0 0.75 0 0] CT
0.149 GC
2 setlinecap
1 LJ
0.667 LW
N
246.6 374 M
246.6 369.66 L
S
GR
GS
[0.75 0 0 0.75 0 0] CT
0.149 GC
2 setlinecap
1 LJ
0.667 LW
N
290 374 M
290 369.66 L
S
GR
GS
[0.75 0 0 0.75 0 0] CT
0.149 GC
2 setlinecap
1 LJ
0.667 LW
N
333.4 374 M
333.4 369.66 L
S
GR
GS
[0.75 0 0 0.75 0 0] CT
0.149 GC
2 setlinecap
1 LJ
0.667 LW
N
376.8 374 M
376.8 369.66 L
S
GR
GS
[0.75 0 0 0.75 0 0] CT
0.149 GC
2 setlinecap
1 LJ
0.667 LW
N
420.2 374 M
420.2 369.66 L
S
GR
GS
[0.75 0 0 0.75 0 0] CT
0.149 GC
2 setlinecap
1 LJ
0.667 LW
N
463.6 374 M
463.6 369.66 L
S
GR
GS
[0.75 0 0 0.75 0 0] CT
0.149 GC
2 setlinecap
1 LJ
0.667 LW
N
507 374 M
507 369.66 L
S
GR
GS
[0.75 0 0 0.75 54.75 284.49998] CT
0.149 GC
/Helvetica 13 F
GS
[1 0 0 1 0 0] CT
-4 13 moveto 
1 -1 scale
(0) t 
GR
GR
GS
[0.75 0 0 0.75 87.3 284.49998] CT
0.149 GC
/Helvetica 13 F
GS
[1 0 0 1 0 0] CT
-11 13 moveto 
1 -1 scale
(100) t 
GR
GR
GS
[0.75 0 0 0.75 119.85 284.49998] CT
0.149 GC
/Helvetica 13 F
GS
[1 0 0 1 0 0] CT
-11 13 moveto 
1 -1 scale
(200) t 
GR
GR
GS
[0.75 0 0 0.75 152.4 284.49998] CT
0.149 GC
/Helvetica 13 F
GS
[1 0 0 1 0 0] CT
-11 13 moveto 
1 -1 scale
(300) t 
GR
GR
GS
[0.75 0 0 0.75 184.95 284.49998] CT
0.149 GC
/Helvetica 13 F
GS
[1 0 0 1 0 0] CT
-11 13 moveto 
1 -1 scale
(400) t 
GR
GR
GS
[0.75 0 0 0.75 217.5 284.49998] CT
0.149 GC
/Helvetica 13 F
GS
[1 0 0 1 0 0] CT
-11 13 moveto 
1 -1 scale
(500) t 
GR
GR
GS
[0.75 0 0 0.75 250.05 284.49998] CT
0.149 GC
/Helvetica 13 F
GS
[1 0 0 1 0 0] CT
-11 13 moveto 
1 -1 scale
(600) t 
GR
GR
GS
[0.75 0 0 0.75 282.59999 284.49998] CT
0.149 GC
/Helvetica 13 F
GS
[1 0 0 1 0 0] CT
-11 13 moveto 
1 -1 scale
(700) t 
GR
GR
GS
[0.75 0 0 0.75 315.15001 284.49998] CT
0.149 GC
/Helvetica 13 F
GS
[1 0 0 1 0 0] CT
-11 13 moveto 
1 -1 scale
(800) t 
GR
GR
GS
[0.75 0 0 0.75 347.7 284.49998] CT
0.149 GC
/Helvetica 13 F
GS
[1 0 0 1 0 0] CT
-11 13 moveto 
1 -1 scale
(900) t 
GR
GR
GS
[0.75 0 0 0.75 380.25 284.49998] CT
0.149 GC
/Helvetica 13 F
GS
[1 0 0 1 0 0] CT
-14.5 13 moveto 
1 -1 scale
(1000) t 
GR
GR
GS
[0.75 0 0 0.75 217.50016 297.49999] CT
0.149 GC
/Helvetica 15 F
GS
[1 0 0 1 0 0] CT
-11 14 moveto 
1 -1 scale
(t\(s\)) t 
GR
GR
GS
[0.75 0 0 0.75 0 0] CT
0.149 GC
2 setlinecap
1 LJ
0.667 LW
N
73 374 M
73 31 L
S
GR
GS
[0.75 0 0 0.75 0 0] CT
0.149 GC
2 setlinecap
1 LJ
0.667 LW
N
73 374 M
77.34 374 L
S
GR
GS
[0.75 0 0 0.75 0 0] CT
0.149 GC
2 setlinecap
1 LJ
0.667 LW
N
73 325 M
77.34 325 L
S
GR
GS
[0.75 0 0 0.75 0 0] CT
0.149 GC
2 setlinecap
1 LJ
0.667 LW
N
73 276 M
77.34 276 L
S
GR
GS
[0.75 0 0 0.75 0 0] CT
0.149 GC
2 setlinecap
1 LJ
0.667 LW
N
73 227 M
77.34 227 L
S
GR
GS
[0.75 0 0 0.75 0 0] CT
0.149 GC
2 setlinecap
1 LJ
0.667 LW
N
73 178 M
77.34 178 L
S
GR
GS
[0.75 0 0 0.75 0 0] CT
0.149 GC
2 setlinecap
1 LJ
0.667 LW
N
73 129 M
77.34 129 L
S
GR
GS
[0.75 0 0 0.75 0 0] CT
0.149 GC
2 setlinecap
1 LJ
0.667 LW
N
73 80 M
77.34 80 L
S
GR
GS
[0.75 0 0 0.75 0 0] CT
0.149 GC
2 setlinecap
1 LJ
0.667 LW
N
73 31 M
77.34 31 L
S
GR
GS
[0.75 0 0 0.75 50.75 280.5] CT
0.149 GC
/Helvetica 13 F
GS
[1 0 0 1 0 0] CT
-23 5 moveto 
1 -1 scale
(-2.5) t 
GR
GR
GS
[0.75 0 0 0.75 50.75 243.75] CT
0.149 GC
/Helvetica 13 F
GS
[1 0 0 1 0 0] CT
-12 5 moveto 
1 -1 scale
(-2) t 
GR
GR
GS
[0.75 0 0 0.75 50.75 207] CT
0.149 GC
/Helvetica 13 F
GS
[1 0 0 1 0 0] CT
-23 5 moveto 
1 -1 scale
(-1.5) t 
GR
GR
GS
[0.75 0 0 0.75 50.75 170.25] CT
0.149 GC
/Helvetica 13 F
GS
[1 0 0 1 0 0] CT
-12 5 moveto 
1 -1 scale
(-1) t 
GR
GR
GS
[0.75 0 0 0.75 50.75 133.5] CT
0.149 GC
/Helvetica 13 F
GS
[1 0 0 1 0 0] CT
-23 5 moveto 
1 -1 scale
(-0.5) t 
GR
GR
GS
[0.75 0 0 0.75 50.75 96.75] CT
0.149 GC
/Helvetica 13 F
GS
[1 0 0 1 0 0] CT
-8 5 moveto 
1 -1 scale
(0) t 
GR
GR
GS
[0.75 0 0 0.75 50.75 60] CT
0.149 GC
/Helvetica 13 F
GS
[1 0 0 1 0 0] CT
-19 5 moveto 
1 -1 scale
(0.5) t 
GR
GR
GS
[0.75 0 0 0.75 50.75 23.25] CT
0.149 GC
/Helvetica 13 F
GS
[1 0 0 1 0 0] CT
-8 5 moveto 
1 -1 scale
(1) t 
GR
GR
GS
[0.75 0 0 0.75 217.50021 21.1875] CT
/any-Bold 15 F
GS
[1 0 0 1 0 0] CT
-172 -4 moveto 
1 -1 scale
(Response of system with static output feedback) t 
GR
GR
GS
[0.75 0 0 0.75 0 0] CT
0 0 1 RC
1 LJ
0.667 LW
N
73 119.2 M
73 119.2 L
73 119.2 L
73 119.2 L
73.001 119.2 L
73.003 119.2 L
73.013 119.2 L
73.067 119.2 L
73.335 119.2 L
73.769 119.2 L
74.203 119.2 L
74.637 119.2 L
75.071 119.2 L
75.505 119.2 L
75.939 119.2 L
76.373 119.2 L
76.807 119.2 L
77.241 119.2 L
77.675 119.2 L
78.109 119.2 L
78.543 119.2 L
78.977 119.2 L
79.411 119.2 L
79.845 119.2 L
80.279 119.2 L
80.713 119.2 L
81.147 119.2 L
81.581 119.2 L
82.015 119.2 L
82.449 119.2 L
82.883 119.2 L
83.317 119.2 L
83.751 119.2 L
84.185 119.2 L
84.619 119.2 L
85.053 119.2 L
85.487 119.2 L
85.921 119.2 L
86.355 119.2 L
86.789 119.2 L
87.223 119.2 L
87.657 119.2 L
88.091 119.2 L
88.525 119.2 L
88.959 119.2 L
89.393 119.2 L
89.827 119.2 L
90.261 119.2 L
90.695 119.2 L
91.129 119.2 L
S
GR
GS
[0.75 0 0 0.75 0 0] CT
0 0 1 RC
1 LJ
0.667 LW
N
90.695 119.2 M
91.129 119.2 L
91.563 119.2 L
91.997 119.2 L
92.431 119.2 L
92.865 119.2 L
93.299 119.2 L
93.733 119.2 L
94.167 119.2 L
94.601 119.2 L
95.035 119.2 L
95.469 119.2 L
95.903 119.2 L
96.337 119.2 L
96.771 119.2 L
97.205 119.2 L
97.639 119.2 L
98.073 119.2 L
98.507 119.2 L
98.941 119.2 L
99.375 119.2 L
99.809 119.2 L
100.243 119.2 L
100.677 119.2 L
101.111 119.2 L
101.545 119.2 L
101.979 119.2 L
102.413 119.2 L
102.847 119.2 L
103.281 119.2 L
103.715 119.2 L
104.149 119.2 L
104.583 119.2 L
105.017 119.2 L
105.451 119.2 L
105.885 119.2 L
106.319 119.2 L
106.753 119.2 L
107.187 119.2 L
107.621 119.2 L
108.055 119.2 L
108.489 119.2 L
108.923 119.2 L
109.357 119.2 L
109.791 119.2 L
110.225 119.2 L
110.659 119.2 L
111.093 119.2 L
111.527 119.2 L
111.961 119.2 L
112.395 119.2 L
112.829 119.2 L
S
GR
GS
[0.75 0 0 0.75 0 0] CT
0 0 1 RC
1 LJ
0.667 LW
N
112.395 119.2 M
112.829 119.2 L
113.263 119.2 L
113.697 119.2 L
114.131 119.2 L
114.565 119.2 L
114.999 119.2 L
115.433 119.2 L
115.867 119.2 L
116.301 119.2 L
116.735 119.2 L
117.169 119.2 L
117.603 119.2 L
118.037 119.2 L
118.471 119.2 L
118.905 119.2 L
119.339 119.2 L
119.773 119.2 L
120.207 119.2 L
120.641 119.2 L
121.075 119.2 L
121.509 119.2 L
121.943 119.2 L
122.377 119.2 L
122.811 119.2 L
123.245 119.2 L
123.679 119.2 L
124.113 119.2 L
124.547 119.2 L
124.981 119.2 L
125.415 119.2 L
125.849 119.2 L
126.283 119.2 L
126.717 119.2 L
127.151 119.2 L
127.585 119.2 L
128.019 119.2 L
128.453 119.2 L
128.887 119.2 L
129.321 119.2 L
129.755 119.2 L
130.189 119.2 L
130.623 119.2 L
131.057 119.2 L
131.491 119.2 L
131.925 119.2 L
132.359 119.2 L
132.793 119.2 L
133.227 119.2 L
133.661 119.2 L
134.095 119.2 L
134.529 119.2 L
S
GR
GS
[0.75 0 0 0.75 0 0] CT
0 0 1 RC
1 LJ
0.667 LW
N
134.095 119.2 M
134.529 119.2 L
134.963 119.2 L
135.397 119.2 L
135.831 119.2 L
136.265 119.2 L
136.699 119.2 L
137.133 119.2 L
137.567 119.2 L
138.001 119.2 L
138.435 119.2 L
138.869 119.2 L
139.303 119.2 L
139.737 119.2 L
140.171 119.2 L
140.605 119.2 L
141.039 119.2 L
141.473 119.2 L
141.907 119.2 L
142.341 119.2 L
142.775 119.2 L
143.209 119.2 L
143.643 119.2 L
144.077 119.2 L
144.511 119.2 L
144.945 119.2 L
145.379 119.2 L
145.813 119.2 L
146.247 119.2 L
146.681 119.2 L
147.115 119.2 L
147.549 119.2 L
147.983 119.2 L
148.417 119.2 L
148.851 119.2 L
149.285 119.2 L
149.719 119.2 L
150.153 119.2 L
150.587 119.2 L
151.021 119.2 L
151.455 119.2 L
151.889 119.2 L
152.323 119.2 L
152.757 119.2 L
153.191 119.2 L
153.625 119.2 L
154.059 119.2 L
154.493 119.2 L
154.927 119.2 L
155.361 119.2 L
155.795 119.2 L
156.229 119.2 L
S
GR
GS
[0.75 0 0 0.75 0 0] CT
0 0 1 RC
1 LJ
0.667 LW
N
155.795 119.2 M
156.229 119.2 L
156.663 119.2 L
157.097 119.2 L
157.531 119.2 L
157.965 119.2 L
158.399 119.2 L
158.833 119.2 L
159.267 119.2 L
159.701 119.2 L
160.135 119.2 L
160.569 119.2 L
161.003 119.2 L
161.437 119.2 L
161.871 119.2 L
162.305 119.2 L
162.739 119.2 L
163.173 119.2 L
163.607 119.2 L
164.041 119.2 L
164.475 119.2 L
164.909 119.2 L
165.343 119.2 L
165.777 119.2 L
166.211 119.2 L
166.645 119.2 L
167.079 119.2 L
167.513 119.2 L
167.947 119.2 L
168.381 119.2 L
168.815 119.2 L
169.249 119.2 L
169.683 119.2 L
170.117 119.2 L
170.551 119.2 L
170.985 119.2 L
171.419 119.2 L
171.853 119.2 L
172.287 119.2 L
172.721 119.2 L
173.155 119.2 L
173.589 119.2 L
174.023 119.2 L
174.457 119.2 L
174.891 119.2 L
175.325 119.2 L
175.759 119.2 L
176.193 119.2 L
176.627 119.2 L
177.061 119.2 L
177.495 119.2 L
177.929 119.2 L
S
GR
GS
[0.75 0 0 0.75 0 0] CT
0 0 1 RC
1 LJ
0.667 LW
N
177.495 119.2 M
177.929 119.2 L
178.363 119.2 L
178.797 119.2 L
179.231 119.2 L
179.665 119.2 L
180.099 119.2 L
180.533 119.2 L
180.967 119.2 L
181.401 119.2 L
181.835 119.2 L
182.269 119.2 L
182.703 119.2 L
183.137 119.2 L
183.571 119.2 L
184.005 119.2 L
184.439 119.2 L
184.873 119.2 L
185.307 119.2 L
185.741 119.2 L
186.175 119.2 L
186.609 119.2 L
187.043 119.2 L
187.477 119.2 L
187.911 119.2 L
188.345 119.2 L
188.779 119.2 L
189.213 119.2 L
189.647 119.2 L
190.081 119.2 L
190.515 119.2 L
190.949 119.2 L
191.383 119.2 L
191.817 119.2 L
192.251 119.2 L
192.685 119.2 L
193.119 119.2 L
193.553 119.2 L
193.987 119.2 L
194.421 119.2 L
194.855 119.2 L
195.289 119.2 L
195.723 119.2 L
196.157 119.2 L
196.591 119.2 L
197.025 119.2 L
197.459 119.2 L
197.893 119.2 L
198.327 119.2 L
198.761 119.2 L
199.195 119.2 L
199.629 119.2 L
S
GR
GS
[0.75 0 0 0.75 0 0] CT
0 0 1 RC
1 LJ
0.667 LW
N
199.195 119.2 M
199.629 119.2 L
200.063 119.2 L
200.497 119.2 L
200.931 119.2 L
201.365 119.2 L
201.799 119.2 L
202.233 119.2 L
202.667 119.2 L
203.101 119.2 L
203.535 119.2 L
203.969 119.2 L
204.403 119.2 L
204.837 119.2 L
205.271 119.2 L
205.705 119.2 L
206.139 119.2 L
206.573 119.2 L
207.007 119.2 L
207.441 119.2 L
207.875 119.2 L
208.309 119.2 L
208.743 119.2 L
209.177 119.2 L
209.611 119.2 L
210.045 119.2 L
210.479 119.2 L
210.913 119.2 L
211.347 119.2 L
211.781 119.2 L
212.215 119.2 L
212.649 119.2 L
213.083 119.2 L
213.517 119.2 L
213.951 119.2 L
214.385 119.2 L
214.819 119.2 L
215.253 119.2 L
215.687 119.2 L
216.121 119.2 L
216.555 119.2 L
216.989 119.2 L
217.423 119.2 L
217.857 119.2 L
218.291 119.2 L
218.725 119.2 L
219.159 119.2 L
219.593 119.2 L
220.027 119.2 L
220.461 119.2 L
220.895 119.2 L
221.329 119.2 L
S
GR
GS
[0.75 0 0 0.75 0 0] CT
0 0 1 RC
1 LJ
0.667 LW
N
220.895 119.2 M
221.329 119.2 L
221.763 119.2 L
222.197 119.2 L
222.631 119.2 L
223.065 119.2 L
223.499 119.2 L
223.933 119.2 L
224.367 119.2 L
224.801 119.2 L
225.235 119.2 L
225.669 119.2 L
226.103 119.2 L
226.537 119.2 L
226.971 119.2 L
227.405 119.2 L
227.839 119.2 L
228.273 119.2 L
228.707 119.2 L
229.141 119.2 L
229.575 119.2 L
230.009 119.2 L
230.443 119.2 L
230.877 119.2 L
231.311 119.2 L
231.745 119.2 L
232.179 119.2 L
232.613 119.2 L
233.047 119.2 L
233.481 119.2 L
233.915 119.2 L
234.349 119.2 L
234.783 119.2 L
235.217 119.2 L
235.651 119.2 L
236.085 119.2 L
236.519 119.2 L
236.953 119.2 L
237.387 119.2 L
237.821 119.2 L
238.255 119.2 L
238.689 119.2 L
239.123 119.2 L
239.557 119.2 L
239.991 119.2 L
240.425 119.2 L
240.859 119.2 L
241.293 119.2 L
241.727 119.2 L
242.161 119.2 L
242.595 119.2 L
243.029 119.2 L
S
GR
GS
[0.75 0 0 0.75 0 0] CT
0 0 1 RC
1 LJ
0.667 LW
N
242.595 119.2 M
243.029 119.2 L
243.463 119.2 L
243.897 119.2 L
244.331 119.2 L
244.765 119.2 L
245.199 119.2 L
245.633 119.2 L
246.067 119.2 L
246.501 119.2 L
246.935 119.2 L
247.369 119.2 L
247.803 119.2 L
248.237 119.2 L
248.671 119.2 L
249.105 119.2 L
249.539 119.2 L
249.973 119.2 L
250.407 119.2 L
250.841 119.2 L
251.275 119.2 L
251.709 119.2 L
252.143 119.2 L
252.577 119.2 L
253.011 119.2 L
253.445 119.2 L
253.879 119.2 L
254.313 119.2 L
254.747 119.2 L
255.181 119.2 L
255.615 119.2 L
256.049 119.2 L
256.483 119.2 L
256.917 119.2 L
257.351 119.2 L
257.785 119.2 L
258.219 119.2 L
258.653 119.2 L
259.087 119.2 L
259.521 119.2 L
259.955 119.2 L
260.389 119.2 L
260.823 119.2 L
261.257 119.2 L
261.691 119.2 L
262.125 119.2 L
262.559 119.2 L
262.993 119.2 L
263.427 119.2 L
263.861 119.2 L
264.295 119.2 L
264.729 119.2 L
S
GR
GS
[0.75 0 0 0.75 0 0] CT
0 0 1 RC
1 LJ
0.667 LW
N
264.295 119.2 M
264.729 119.2 L
265.163 119.2 L
265.597 119.2 L
266.031 119.2 L
266.465 119.2 L
266.899 119.2 L
267.333 119.2 L
267.767 119.2 L
268.201 119.2 L
268.635 119.2 L
269.069 119.2 L
269.503 119.2 L
269.937 119.2 L
270.371 119.2 L
270.805 119.2 L
271.239 119.2 L
271.673 119.2 L
272.107 119.2 L
272.541 119.2 L
272.975 119.2 L
273.409 119.2 L
273.843 119.2 L
274.277 119.2 L
274.711 119.2 L
275.145 119.2 L
275.579 119.2 L
276.013 119.2 L
276.447 119.2 L
276.881 119.2 L
277.315 119.2 L
277.749 119.2 L
278.183 119.2 L
278.617 119.2 L
279.051 119.2 L
279.485 119.2 L
279.919 119.2 L
280.353 119.2 L
280.787 119.2 L
281.221 119.2 L
281.655 119.2 L
282.089 119.2 L
282.523 119.2 L
282.957 119.2 L
283.391 119.2 L
283.825 119.2 L
284.259 119.2 L
284.693 119.2 L
285.127 119.2 L
285.561 119.2 L
285.995 119.2 L
286.429 119.2 L
S
GR
GS
[0.75 0 0 0.75 0 0] CT
0 0 1 RC
1 LJ
0.667 LW
N
285.995 119.2 M
286.429 119.2 L
286.863 119.2 L
287.297 119.2 L
287.731 119.2 L
288.165 119.2 L
288.599 119.2 L
289.033 119.2 L
289.467 119.2 L
289.901 119.2 L
290.335 119.2 L
290.769 119.2 L
291.203 119.2 L
291.637 119.2 L
292.071 119.2 L
292.505 119.2 L
292.939 119.2 L
293.373 119.2 L
293.807 119.2 L
294.241 119.2 L
294.675 119.2 L
295.109 119.2 L
295.543 119.2 L
295.977 119.2 L
296.411 119.2 L
296.845 119.2 L
297.279 119.2 L
297.713 119.2 L
298.147 119.2 L
298.581 119.2 L
299.015 119.2 L
299.449 119.2 L
299.883 119.2 L
300.317 119.2 L
300.751 119.2 L
301.185 119.2 L
301.619 119.2 L
302.053 119.2 L
302.487 119.2 L
302.921 119.2 L
303.355 119.2 L
303.789 119.2 L
304.223 119.2 L
304.657 119.2 L
305.091 119.2 L
305.525 119.2 L
305.959 119.2 L
306.393 119.2 L
306.827 119.2 L
307.261 119.2 L
307.695 119.2 L
308.129 119.2 L
S
GR
GS
[0.75 0 0 0.75 0 0] CT
0 0 1 RC
1 LJ
0.667 LW
N
307.695 119.2 M
308.129 119.2 L
308.563 119.2 L
308.997 119.2 L
309.431 119.2 L
309.865 119.2 L
310.299 119.2 L
310.733 119.2 L
311.167 119.2 L
311.601 119.2 L
312.035 119.2 L
312.469 119.2 L
312.903 119.2 L
313.337 119.2 L
313.771 119.2 L
314.205 119.2 L
314.639 119.2 L
315.073 119.2 L
315.507 119.2 L
315.941 119.2 L
316.375 119.2 L
316.809 119.2 L
317.243 119.2 L
317.677 119.2 L
318.111 119.2 L
318.545 119.2 L
318.979 119.2 L
319.413 119.2 L
319.847 119.2 L
320.281 119.2 L
320.715 119.2 L
321.149 119.2 L
321.583 119.2 L
322.017 119.2 L
322.451 119.2 L
322.885 119.2 L
323.319 119.2 L
323.753 119.2 L
324.187 119.2 L
324.621 119.2 L
325.055 119.2 L
325.489 119.2 L
325.923 119.2 L
326.357 119.2 L
326.791 119.2 L
327.225 119.2 L
327.659 119.2 L
328.093 119.2 L
328.527 119.2 L
328.961 119.2 L
329.395 119.2 L
329.829 119.2 L
S
GR
GS
[0.75 0 0 0.75 0 0] CT
0 0 1 RC
1 LJ
0.667 LW
N
329.395 119.2 M
329.829 119.2 L
330.263 119.2 L
330.697 119.2 L
331.131 119.2 L
331.565 119.2 L
331.999 119.2 L
332.433 119.2 L
332.867 119.2 L
333.301 119.2 L
333.735 119.2 L
334.169 119.2 L
334.603 119.2 L
335.037 119.2 L
335.471 119.2 L
335.905 119.2 L
336.339 119.2 L
336.773 119.2 L
337.207 119.2 L
337.641 119.2 L
338.075 119.2 L
338.509 119.2 L
338.943 119.2 L
339.377 119.2 L
339.811 119.2 L
340.245 119.2 L
340.679 119.2 L
341.113 119.2 L
341.547 119.2 L
341.981 119.2 L
342.415 119.2 L
342.849 119.2 L
343.283 119.2 L
343.717 119.2 L
344.151 119.2 L
344.585 119.2 L
345.019 119.2 L
345.453 119.2 L
345.887 119.2 L
346.321 119.2 L
346.755 119.2 L
347.189 119.2 L
347.623 119.2 L
348.057 119.2 L
348.491 119.2 L
348.925 119.2 L
349.359 119.2 L
349.793 119.2 L
350.227 119.2 L
350.661 119.2 L
351.095 119.2 L
351.529 119.2 L
S
GR
GS
[0.75 0 0 0.75 0 0] CT
0 0 1 RC
1 LJ
0.667 LW
N
351.095 119.2 M
351.529 119.2 L
351.963 119.2 L
352.397 119.2 L
352.831 119.2 L
353.265 119.2 L
353.699 119.2 L
354.133 119.2 L
354.567 119.2 L
355.001 119.2 L
355.435 119.2 L
355.869 119.2 L
356.303 119.2 L
356.737 119.2 L
357.171 119.2 L
357.605 119.2 L
358.039 119.2 L
358.473 119.2 L
358.907 119.2 L
359.341 119.2 L
359.775 119.2 L
360.209 119.2 L
360.643 119.2 L
361.077 119.2 L
361.511 119.2 L
361.945 119.2 L
362.379 119.2 L
362.813 119.2 L
363.247 119.2 L
363.681 119.2 L
364.115 119.2 L
364.549 119.2 L
364.983 119.2 L
365.417 119.2 L
365.851 119.2 L
366.285 119.2 L
366.719 119.2 L
367.153 119.2 L
367.587 119.2 L
368.021 119.2 L
368.455 119.2 L
368.889 119.2 L
369.323 119.2 L
369.757 119.2 L
370.191 119.2 L
370.625 119.2 L
371.059 119.2 L
371.493 119.2 L
371.927 119.2 L
372.361 119.2 L
372.795 119.2 L
373.229 119.2 L
S
GR
GS
[0.75 0 0 0.75 0 0] CT
0 0 1 RC
1 LJ
0.667 LW
N
372.795 119.2 M
373.229 119.2 L
373.663 119.2 L
374.097 119.2 L
374.531 119.2 L
374.965 119.2 L
375.399 119.2 L
375.833 119.2 L
376.267 119.2 L
376.701 119.2 L
377.135 119.2 L
377.569 119.2 L
378.003 119.2 L
378.437 119.2 L
378.871 119.2 L
379.305 119.2 L
379.739 119.2 L
380.173 119.2 L
380.607 119.2 L
381.041 119.2 L
381.475 119.2 L
381.909 119.2 L
382.343 119.2 L
382.777 119.2 L
383.211 119.2 L
383.645 119.2 L
384.079 119.2 L
384.513 119.2 L
384.947 119.2 L
385.381 119.2 L
385.815 119.2 L
386.249 119.2 L
386.683 119.2 L
387.117 119.2 L
387.551 119.2 L
387.985 119.2 L
388.419 119.2 L
388.853 119.2 L
389.287 119.2 L
389.721 119.2 L
390.155 119.2 L
390.589 119.2 L
391.023 119.2 L
391.457 119.2 L
391.891 119.2 L
392.325 119.2 L
392.759 119.2 L
393.193 119.2 L
393.627 119.2 L
394.061 119.2 L
394.495 119.2 L
394.929 119.2 L
S
GR
GS
[0.75 0 0 0.75 0 0] CT
0 0 1 RC
1 LJ
0.667 LW
N
394.495 119.2 M
394.929 119.2 L
395.363 119.2 L
395.797 119.2 L
396.231 119.2 L
396.665 119.2 L
397.099 119.2 L
397.533 119.2 L
397.967 119.2 L
398.401 119.2 L
398.835 119.2 L
399.269 119.2 L
399.703 119.2 L
400.137 119.2 L
400.571 119.2 L
401.005 119.2 L
401.439 119.2 L
401.873 119.2 L
402.307 119.2 L
402.741 119.2 L
403.175 119.2 L
403.609 119.2 L
404.043 119.2 L
404.477 119.2 L
404.911 119.2 L
405.345 119.2 L
405.779 119.2 L
406.213 119.2 L
406.647 119.2 L
407.081 119.2 L
407.515 119.2 L
407.949 119.2 L
408.383 119.2 L
408.817 119.2 L
409.251 119.2 L
409.685 119.2 L
410.119 119.2 L
410.553 119.2 L
410.987 119.2 L
411.421 119.2 L
411.855 119.2 L
412.289 119.2 L
412.723 119.2 L
413.157 119.2 L
413.591 119.2 L
414.025 119.2 L
414.459 119.2 L
414.893 119.2 L
415.327 119.2 L
415.761 119.2 L
416.195 119.2 L
416.629 119.2 L
S
GR
GS
[0.75 0 0 0.75 0 0] CT
0 0 1 RC
1 LJ
0.667 LW
N
416.195 119.2 M
416.629 119.2 L
417.063 119.2 L
417.497 119.2 L
417.931 119.2 L
418.365 119.2 L
418.799 119.2 L
419.233 119.2 L
419.667 119.2 L
420.101 119.2 L
420.535 119.2 L
420.969 119.2 L
421.403 119.2 L
421.837 119.2 L
422.271 119.2 L
422.705 119.2 L
423.139 119.2 L
423.573 119.2 L
424.007 119.2 L
424.441 119.2 L
424.875 119.2 L
425.309 119.2 L
425.743 119.2 L
426.177 119.2 L
426.611 119.2 L
427.045 119.2 L
427.479 119.2 L
427.913 119.2 L
428.347 119.2 L
428.781 119.2 L
429.215 119.2 L
429.649 119.2 L
430.083 119.2 L
430.517 119.2 L
430.951 119.2 L
431.385 119.2 L
431.819 119.2 L
432.253 119.2 L
432.687 119.2 L
433.121 119.2 L
433.555 119.2 L
433.989 119.2 L
434.423 119.2 L
434.857 119.2 L
435.291 119.2 L
435.725 119.2 L
436.159 119.2 L
436.593 119.2 L
437.027 119.2 L
437.461 119.2 L
437.895 119.2 L
438.329 119.2 L
S
GR
GS
[0.75 0 0 0.75 0 0] CT
0 0 1 RC
1 LJ
0.667 LW
N
437.895 119.2 M
438.329 119.2 L
438.763 119.2 L
439.197 119.2 L
439.631 119.2 L
440.065 119.2 L
440.499 119.2 L
440.933 119.2 L
441.367 119.2 L
441.801 119.2 L
442.235 119.2 L
442.669 119.2 L
443.103 119.2 L
443.537 119.2 L
443.971 119.2 L
444.405 119.2 L
444.839 119.2 L
445.273 119.2 L
445.707 119.2 L
446.141 119.2 L
446.575 119.2 L
447.009 119.2 L
447.443 119.2 L
447.877 119.2 L
448.311 119.2 L
448.745 119.2 L
449.179 119.2 L
449.613 119.2 L
450.047 119.2 L
450.481 119.2 L
450.915 119.2 L
451.349 119.2 L
451.783 119.2 L
452.217 119.2 L
452.651 119.2 L
453.085 119.2 L
453.519 119.2 L
453.953 119.2 L
454.387 119.2 L
454.821 119.2 L
455.255 119.2 L
455.689 119.2 L
456.123 119.2 L
456.557 119.2 L
456.991 119.2 L
457.425 119.2 L
457.859 119.2 L
458.293 119.2 L
458.727 119.2 L
459.161 119.2 L
459.595 119.2 L
460.029 119.2 L
S
GR
GS
[0.75 0 0 0.75 0 0] CT
0 0 1 RC
1 LJ
0.667 LW
N
459.595 119.2 M
460.029 119.2 L
460.463 119.2 L
460.897 119.2 L
461.331 119.2 L
461.765 119.2 L
462.199 119.2 L
462.633 119.2 L
463.067 119.2 L
463.501 119.2 L
463.935 119.2 L
464.369 119.2 L
464.803 119.2 L
465.237 119.2 L
465.671 119.2 L
466.105 119.2 L
466.539 119.2 L
466.973 119.2 L
467.407 119.2 L
467.841 119.2 L
468.275 119.2 L
468.709 119.2 L
469.143 119.2 L
469.577 119.2 L
470.011 119.2 L
470.445 119.2 L
470.879 119.2 L
471.313 119.2 L
471.747 119.2 L
472.181 119.2 L
472.615 119.2 L
473.049 119.2 L
473.483 119.2 L
473.917 119.2 L
474.351 119.2 L
474.785 119.2 L
475.219 119.2 L
475.653 119.2 L
476.087 119.2 L
476.521 119.2 L
476.955 119.2 L
477.389 119.2 L
477.823 119.2 L
478.257 119.2 L
478.691 119.2 L
479.125 119.2 L
479.559 119.2 L
479.993 119.2 L
480.427 119.2 L
480.861 119.2 L
481.295 119.2 L
481.729 119.2 L
S
GR
GS
[0.75 0 0 0.75 0 0] CT
0 0 1 RC
1 LJ
0.667 LW
N
481.295 119.2 M
481.729 119.2 L
482.163 119.2 L
482.597 119.2 L
483.031 119.2 L
483.465 119.2 L
483.899 119.2 L
484.333 119.2 L
484.767 119.2 L
485.201 119.2 L
485.635 119.2 L
486.069 119.2 L
486.503 119.2 L
486.937 119.2 L
487.371 119.2 L
487.805 119.2 L
488.239 119.2 L
488.673 119.2 L
489.107 119.2 L
489.541 119.2 L
489.975 119.2 L
490.409 119.2 L
490.843 119.2 L
491.277 119.2 L
491.711 119.2 L
492.145 119.2 L
492.579 119.2 L
493.013 119.2 L
493.447 119.2 L
493.881 119.2 L
494.315 119.2 L
494.749 119.2 L
495.183 119.2 L
495.617 119.2 L
496.051 119.2 L
496.485 119.2 L
496.919 119.2 L
497.353 119.2 L
497.787 119.2 L
498.221 119.2 L
498.655 119.2 L
499.089 119.2 L
499.523 119.2 L
499.957 119.2 L
500.391 119.2 L
500.825 119.2 L
501.259 119.2 L
501.693 119.2 L
502.127 119.2 L
502.561 119.2 L
502.995 119.2 L
503.429 119.2 L
S
GR
GS
[0.75 0 0 0.75 0 0] CT
0 0 1 RC
1 LJ
0.667 LW
N
502.995 119.2 M
503.429 119.2 L
503.863 119.2 L
504.297 119.2 L
504.731 119.2 L
505.165 119.2 L
505.599 119.2 L
506.033 119.2 L
506.467 119.2 L
506.901 119.2 L
507 119.2 L
S
GR
GS
[0.75 0 0 0.75 0 0] CT
0 1 1 RC
1 LJ
0.667 LW
N
73 119.2 M
73 119.2 L
73 119.2 L
73 119.2 L
73.001 119.2 L
73.003 119.2 L
73.013 119.2 L
73.067 119.2 L
73.335 119.2 L
73.769 119.2 L
74.203 119.2 L
74.637 119.2 L
75.071 119.2 L
75.505 119.2 L
75.939 119.2 L
76.373 119.2 L
76.807 119.2 L
77.241 119.2 L
77.675 119.2 L
78.109 119.2 L
78.543 119.2 L
78.977 119.2 L
79.411 119.2 L
79.845 119.2 L
80.279 119.2 L
80.713 119.2 L
81.147 119.2 L
81.581 119.2 L
82.015 119.2 L
82.449 119.2 L
82.883 119.2 L
83.317 119.2 L
83.751 119.2 L
84.185 119.2 L
84.619 119.2 L
85.053 119.2 L
85.487 119.2 L
85.921 119.2 L
86.355 119.2 L
86.789 119.2 L
87.223 119.2 L
87.657 119.2 L
88.091 119.2 L
88.525 119.2 L
88.959 119.2 L
89.393 119.2 L
89.827 119.2 L
90.261 119.2 L
90.695 119.2 L
91.129 119.2 L
S
GR
GS
[0.75 0 0 0.75 0 0] CT
0 1 1 RC
1 LJ
0.667 LW
N
90.695 119.2 M
91.129 119.2 L
91.563 119.2 L
91.997 119.2 L
92.431 119.2 L
92.865 119.2 L
93.299 119.2 L
93.733 119.2 L
94.167 119.2 L
94.601 119.2 L
95.035 119.2 L
95.469 119.2 L
95.903 119.2 L
96.337 119.2 L
96.771 119.2 L
97.205 119.2 L
97.639 119.2 L
98.073 119.2 L
98.507 119.2 L
98.941 119.2 L
99.375 119.2 L
99.809 119.2 L
100.243 119.2 L
100.677 119.2 L
101.111 119.2 L
101.545 119.2 L
101.979 119.2 L
102.413 119.2 L
102.847 119.2 L
103.281 119.2 L
103.715 119.2 L
104.149 119.2 L
104.583 119.2 L
105.017 119.2 L
105.451 119.2 L
105.885 119.2 L
106.319 119.2 L
106.753 119.2 L
107.187 119.2 L
107.621 119.2 L
108.055 119.2 L
108.489 119.2 L
108.923 119.2 L
109.357 119.2 L
109.791 119.2 L
110.225 119.2 L
110.659 119.2 L
111.093 119.2 L
111.527 119.2 L
111.961 119.2 L
112.395 119.2 L
112.829 119.2 L
S
GR
GS
[0.75 0 0 0.75 0 0] CT
0 1 1 RC
1 LJ
0.667 LW
N
112.395 119.2 M
112.829 119.2 L
113.263 119.2 L
113.697 119.2 L
114.131 119.2 L
114.565 119.2 L
114.999 119.2 L
115.433 119.2 L
115.867 119.2 L
116.301 119.2 L
116.735 119.2 L
117.169 119.2 L
117.603 119.2 L
118.037 119.2 L
118.471 119.2 L
118.905 119.2 L
119.339 119.2 L
119.773 119.2 L
120.207 119.2 L
120.641 119.2 L
121.075 119.2 L
121.509 119.2 L
121.943 119.2 L
122.377 119.2 L
122.811 119.2 L
123.245 119.2 L
123.679 119.2 L
124.113 119.2 L
124.547 119.2 L
124.981 119.2 L
125.415 119.2 L
125.849 119.2 L
126.283 119.2 L
126.717 119.2 L
127.151 119.2 L
127.585 119.2 L
128.019 119.2 L
128.453 119.2 L
128.887 119.2 L
129.321 119.2 L
129.755 119.2 L
130.189 119.2 L
130.623 119.2 L
131.057 119.2 L
131.491 119.2 L
131.925 119.2 L
132.359 119.2 L
132.793 119.2 L
133.227 119.2 L
133.661 119.2 L
134.095 119.2 L
134.529 119.2 L
S
GR
GS
[0.75 0 0 0.75 0 0] CT
0 1 1 RC
1 LJ
0.667 LW
N
134.095 119.2 M
134.529 119.2 L
134.963 119.2 L
135.397 119.2 L
135.831 119.2 L
136.265 119.2 L
136.699 119.2 L
137.133 119.2 L
137.567 119.2 L
138.001 119.2 L
138.435 119.2 L
138.869 119.2 L
139.303 119.2 L
139.737 119.2 L
140.171 119.2 L
140.605 119.2 L
141.039 119.2 L
141.473 119.2 L
141.907 119.2 L
142.341 119.2 L
142.775 119.2 L
143.209 119.2 L
143.643 119.2 L
144.077 119.2 L
144.511 119.2 L
144.945 119.2 L
145.379 119.2 L
145.813 119.2 L
146.247 119.2 L
146.681 119.2 L
147.115 119.2 L
147.549 119.2 L
147.983 119.2 L
148.417 119.2 L
148.851 119.2 L
149.285 119.2 L
149.719 119.2 L
150.153 119.2 L
150.587 119.2 L
151.021 119.2 L
151.455 119.2 L
151.889 119.2 L
152.323 119.2 L
152.757 119.2 L
153.191 119.2 L
153.625 119.2 L
154.059 119.2 L
154.493 119.2 L
154.927 119.2 L
155.361 119.2 L
155.795 119.2 L
156.229 119.2 L
S
GR
GS
[0.75 0 0 0.75 0 0] CT
0 1 1 RC
1 LJ
0.667 LW
N
155.795 119.2 M
156.229 119.2 L
156.663 119.2 L
157.097 119.2 L
157.531 119.2 L
157.965 119.2 L
158.399 119.2 L
158.833 119.2 L
159.267 119.2 L
159.701 119.2 L
160.135 119.2 L
160.569 119.2 L
161.003 119.2 L
161.437 119.2 L
161.871 119.2 L
162.305 119.2 L
162.739 119.2 L
163.173 119.2 L
163.607 119.2 L
164.041 119.2 L
164.475 119.2 L
164.909 119.2 L
165.343 119.2 L
165.777 119.2 L
166.211 119.2 L
166.645 119.2 L
167.079 119.2 L
167.513 119.2 L
167.947 119.2 L
168.381 119.2 L
168.815 119.2 L
169.249 119.2 L
169.683 119.2 L
170.117 119.2 L
170.551 119.2 L
170.985 119.2 L
171.419 119.2 L
171.853 119.2 L
172.287 119.2 L
172.721 119.2 L
173.155 119.2 L
173.589 119.2 L
174.023 119.2 L
174.457 119.2 L
174.891 119.2 L
175.325 119.2 L
175.759 119.2 L
176.193 119.2 L
176.627 119.2 L
177.061 119.2 L
177.495 119.2 L
177.929 119.2 L
S
GR
GS
[0.75 0 0 0.75 0 0] CT
0 1 1 RC
1 LJ
0.667 LW
N
177.495 119.2 M
177.929 119.2 L
178.363 119.2 L
178.797 119.2 L
179.231 119.2 L
179.665 119.2 L
180.099 119.2 L
180.533 119.2 L
180.967 119.2 L
181.401 119.2 L
181.835 119.2 L
182.269 119.2 L
182.703 119.2 L
183.137 119.2 L
183.571 119.2 L
184.005 119.2 L
184.439 119.2 L
184.873 119.2 L
185.307 119.2 L
185.741 119.2 L
186.175 119.2 L
186.609 119.2 L
187.043 119.2 L
187.477 119.2 L
187.911 119.2 L
188.345 119.2 L
188.779 119.2 L
189.213 119.2 L
189.647 119.2 L
190.081 119.2 L
190.515 119.2 L
190.949 119.2 L
191.383 119.2 L
191.817 119.2 L
192.251 119.2 L
192.685 119.2 L
193.119 119.2 L
193.553 119.2 L
193.987 119.2 L
194.421 119.2 L
194.855 119.2 L
195.289 119.2 L
195.723 119.2 L
196.157 119.2 L
196.591 119.2 L
197.025 119.2 L
197.459 119.2 L
197.893 119.2 L
198.327 119.2 L
198.761 119.2 L
199.195 119.2 L
199.629 119.2 L
S
GR
GS
[0.75 0 0 0.75 0 0] CT
0 1 1 RC
1 LJ
0.667 LW
N
199.195 119.2 M
199.629 119.2 L
200.063 119.2 L
200.497 119.2 L
200.931 119.2 L
201.365 119.2 L
201.799 119.2 L
202.233 119.2 L
202.667 119.2 L
203.101 119.2 L
203.535 119.2 L
203.969 119.2 L
204.403 119.2 L
204.837 119.2 L
205.271 119.2 L
205.705 119.2 L
206.139 119.2 L
206.573 119.2 L
207.007 119.2 L
207.441 119.2 L
207.875 119.2 L
208.309 119.2 L
208.743 119.2 L
209.177 119.2 L
209.611 119.2 L
210.045 119.2 L
210.479 119.2 L
210.913 119.2 L
211.347 119.2 L
211.781 119.2 L
212.215 119.2 L
212.649 119.2 L
213.083 119.2 L
213.517 119.2 L
213.951 119.2 L
214.385 119.2 L
214.819 119.2 L
215.253 119.2 L
215.687 119.2 L
216.121 119.2 L
216.555 119.2 L
216.989 119.2 L
217.423 119.2 L
217.857 119.2 L
218.291 119.2 L
218.725 119.2 L
219.159 119.2 L
219.593 119.2 L
220.027 119.2 L
220.461 119.2 L
220.895 119.2 L
221.329 119.2 L
S
GR
GS
[0.75 0 0 0.75 0 0] CT
0 1 1 RC
1 LJ
0.667 LW
N
220.895 119.2 M
221.329 119.2 L
221.763 119.2 L
222.197 119.2 L
222.631 119.2 L
223.065 119.2 L
223.499 119.2 L
223.933 119.2 L
224.367 119.2 L
224.801 119.2 L
225.235 119.2 L
225.669 119.2 L
226.103 119.2 L
226.537 119.2 L
226.971 119.2 L
227.405 119.2 L
227.839 119.2 L
228.273 119.2 L
228.707 119.2 L
229.141 119.2 L
229.575 119.2 L
230.009 119.2 L
230.443 119.2 L
230.877 119.2 L
231.311 119.2 L
231.745 119.2 L
232.179 119.2 L
232.613 119.2 L
233.047 119.2 L
233.481 119.2 L
233.915 119.2 L
234.349 119.2 L
234.783 119.2 L
235.217 119.2 L
235.651 119.2 L
236.085 119.2 L
236.519 119.2 L
236.953 119.2 L
237.387 119.2 L
237.821 119.2 L
238.255 119.2 L
238.689 119.2 L
239.123 119.2 L
239.557 119.2 L
239.991 119.2 L
240.425 119.2 L
240.859 119.2 L
241.293 119.2 L
241.727 119.2 L
242.161 119.2 L
242.595 119.2 L
243.029 119.2 L
S
GR
GS
[0.75 0 0 0.75 0 0] CT
0 1 1 RC
1 LJ
0.667 LW
N
242.595 119.2 M
243.029 119.2 L
243.463 119.2 L
243.897 119.2 L
244.331 119.2 L
244.765 119.2 L
245.199 119.2 L
245.633 119.2 L
246.067 119.2 L
246.501 119.2 L
246.935 119.2 L
247.369 119.2 L
247.803 119.2 L
248.237 119.2 L
248.671 119.2 L
249.105 119.2 L
249.539 119.2 L
249.973 119.2 L
250.407 119.2 L
250.841 119.2 L
251.275 119.2 L
251.709 119.2 L
252.143 119.2 L
252.577 119.2 L
253.011 119.2 L
253.445 119.2 L
253.879 119.2 L
254.313 119.2 L
254.747 119.2 L
255.181 119.2 L
255.615 119.2 L
256.049 119.2 L
256.483 119.2 L
256.917 119.2 L
257.351 119.2 L
257.785 119.2 L
258.219 119.2 L
258.653 119.2 L
259.087 119.2 L
259.521 119.2 L
259.955 119.2 L
260.389 119.2 L
260.823 119.2 L
261.257 119.2 L
261.691 119.2 L
262.125 119.2 L
262.559 119.2 L
262.993 119.2 L
263.427 119.2 L
263.861 119.2 L
264.295 119.2 L
264.729 119.2 L
S
GR
GS
[0.75 0 0 0.75 0 0] CT
0 1 1 RC
1 LJ
0.667 LW
N
264.295 119.2 M
264.729 119.2 L
265.163 119.2 L
265.597 119.2 L
266.031 119.2 L
266.465 119.2 L
266.899 119.2 L
267.333 119.2 L
267.767 119.2 L
268.201 119.2 L
268.635 119.2 L
269.069 119.2 L
269.503 119.2 L
269.937 119.2 L
270.371 119.2 L
270.805 119.2 L
271.239 119.2 L
271.673 119.2 L
272.107 119.2 L
272.541 119.2 L
272.975 119.2 L
273.409 119.2 L
273.843 119.2 L
274.277 119.2 L
274.711 119.2 L
275.145 119.2 L
275.579 119.2 L
276.013 119.2 L
276.447 119.2 L
276.881 119.2 L
277.315 119.2 L
277.749 119.2 L
278.183 119.2 L
278.617 119.2 L
279.051 119.2 L
279.485 119.2 L
279.919 119.2 L
280.353 119.2 L
280.787 119.2 L
281.221 119.2 L
281.655 119.2 L
282.089 119.2 L
282.523 119.2 L
282.957 119.2 L
283.391 119.2 L
283.825 119.2 L
284.259 119.2 L
284.693 119.2 L
285.127 119.2 L
285.561 119.2 L
285.995 119.2 L
286.429 119.2 L
S
GR
GS
[0.75 0 0 0.75 0 0] CT
0 1 1 RC
1 LJ
0.667 LW
N
285.995 119.2 M
286.429 119.2 L
286.863 119.2 L
287.297 119.2 L
287.731 119.2 L
288.165 119.2 L
288.599 119.2 L
289.033 119.2 L
289.467 119.2 L
289.901 119.2 L
290.335 119.2 L
290.769 119.2 L
291.203 119.2 L
291.637 119.2 L
292.071 119.2 L
292.505 119.2 L
292.939 119.2 L
293.373 119.2 L
293.807 119.2 L
294.241 119.2 L
294.675 119.2 L
295.109 119.2 L
295.543 119.2 L
295.977 119.2 L
296.411 119.2 L
296.845 119.2 L
297.279 119.2 L
297.713 119.2 L
298.147 119.2 L
298.581 119.2 L
299.015 119.2 L
299.449 119.2 L
299.883 119.2 L
300.317 119.2 L
300.751 119.2 L
301.185 119.2 L
301.619 119.2 L
302.053 119.2 L
302.487 119.2 L
302.921 119.2 L
303.355 119.2 L
303.789 119.2 L
304.223 119.2 L
304.657 119.2 L
305.091 119.2 L
305.525 119.2 L
305.959 119.2 L
306.393 119.2 L
306.827 119.2 L
307.261 119.2 L
307.695 119.2 L
308.129 119.2 L
S
GR
GS
[0.75 0 0 0.75 0 0] CT
0 1 1 RC
1 LJ
0.667 LW
N
307.695 119.2 M
308.129 119.2 L
308.563 119.2 L
308.997 119.2 L
309.431 119.2 L
309.865 119.2 L
310.299 119.2 L
310.733 119.2 L
311.167 119.2 L
311.601 119.2 L
312.035 119.2 L
312.469 119.2 L
312.903 119.2 L
313.337 119.2 L
313.771 119.2 L
314.205 119.2 L
314.639 119.2 L
315.073 119.2 L
315.507 119.2 L
315.941 119.2 L
316.375 119.2 L
316.809 119.2 L
317.243 119.2 L
317.677 119.2 L
318.111 119.2 L
318.545 119.2 L
318.979 119.2 L
319.413 119.2 L
319.847 119.2 L
320.281 119.2 L
320.715 119.2 L
321.149 119.2 L
321.583 119.2 L
322.017 119.2 L
322.451 119.2 L
322.885 119.2 L
323.319 119.2 L
323.753 119.2 L
324.187 119.2 L
324.621 119.2 L
325.055 119.2 L
325.489 119.2 L
325.923 119.2 L
326.357 119.2 L
326.791 119.2 L
327.225 119.2 L
327.659 119.2 L
328.093 119.2 L
328.527 119.2 L
328.961 119.2 L
329.395 119.2 L
329.829 119.2 L
S
GR
GS
[0.75 0 0 0.75 0 0] CT
0 1 1 RC
1 LJ
0.667 LW
N
329.395 119.2 M
329.829 119.2 L
330.263 119.2 L
330.697 119.2 L
331.131 119.2 L
331.565 119.2 L
331.999 119.2 L
332.433 119.2 L
332.867 119.2 L
333.301 119.2 L
333.735 119.2 L
334.169 119.2 L
334.603 119.2 L
335.037 119.2 L
335.471 119.2 L
335.905 119.2 L
336.339 119.2 L
336.773 119.2 L
337.207 119.2 L
337.641 119.2 L
338.075 119.2 L
338.509 119.2 L
338.943 119.2 L
339.377 119.2 L
339.811 119.2 L
340.245 119.2 L
340.679 119.2 L
341.113 119.2 L
341.547 119.2 L
341.981 119.2 L
342.415 119.2 L
342.849 119.2 L
343.283 119.2 L
343.717 119.2 L
344.151 119.2 L
344.585 119.2 L
345.019 119.2 L
345.453 119.2 L
345.887 119.2 L
346.321 119.2 L
346.755 119.2 L
347.189 119.2 L
347.623 119.2 L
348.057 119.2 L
348.491 119.2 L
348.925 119.2 L
349.359 119.2 L
349.793 119.2 L
350.227 119.2 L
350.661 119.2 L
351.095 119.2 L
351.529 119.2 L
S
GR
GS
[0.75 0 0 0.75 0 0] CT
0 1 1 RC
1 LJ
0.667 LW
N
351.095 119.2 M
351.529 119.2 L
351.963 119.2 L
352.397 119.2 L
352.831 119.2 L
353.265 119.2 L
353.699 119.2 L
354.133 119.2 L
354.567 119.2 L
355.001 119.2 L
355.435 119.2 L
355.869 119.2 L
356.303 119.2 L
356.737 119.2 L
357.171 119.2 L
357.605 119.2 L
358.039 119.2 L
358.473 119.2 L
358.907 119.2 L
359.341 119.2 L
359.775 119.2 L
360.209 119.2 L
360.643 119.2 L
361.077 119.2 L
361.511 119.2 L
361.945 119.2 L
362.379 119.2 L
362.813 119.2 L
363.247 119.2 L
363.681 119.2 L
364.115 119.2 L
364.549 119.2 L
364.983 119.2 L
365.417 119.2 L
365.851 119.2 L
366.285 119.2 L
366.719 119.2 L
367.153 119.2 L
367.587 119.2 L
368.021 119.2 L
368.455 119.2 L
368.889 119.2 L
369.323 119.2 L
369.757 119.2 L
370.191 119.2 L
370.625 119.2 L
371.059 119.2 L
371.493 119.2 L
371.927 119.2 L
372.361 119.2 L
372.795 119.2 L
373.229 119.2 L
S
GR
GS
[0.75 0 0 0.75 0 0] CT
0 1 1 RC
1 LJ
0.667 LW
N
372.795 119.2 M
373.229 119.2 L
373.663 119.2 L
374.097 119.2 L
374.531 119.2 L
374.965 119.2 L
375.399 119.2 L
375.833 119.2 L
376.267 119.2 L
376.701 119.2 L
377.135 119.2 L
377.569 119.2 L
378.003 119.2 L
378.437 119.2 L
378.871 119.2 L
379.305 119.2 L
379.739 119.2 L
380.173 119.2 L
380.607 119.2 L
381.041 119.2 L
381.475 119.2 L
381.909 119.2 L
382.343 119.2 L
382.777 119.2 L
383.211 119.2 L
383.645 119.2 L
384.079 119.2 L
384.513 119.2 L
384.947 119.2 L
385.381 119.2 L
385.815 119.2 L
386.249 119.2 L
386.683 119.2 L
387.117 119.2 L
387.551 119.2 L
387.985 119.2 L
388.419 119.2 L
388.853 119.2 L
389.287 119.2 L
389.721 119.2 L
390.155 119.2 L
390.589 119.2 L
391.023 119.2 L
391.457 119.2 L
391.891 119.2 L
392.325 119.2 L
392.759 119.2 L
393.193 119.2 L
393.627 119.2 L
394.061 119.2 L
394.495 119.2 L
394.929 119.2 L
S
GR
GS
[0.75 0 0 0.75 0 0] CT
0 1 1 RC
1 LJ
0.667 LW
N
394.495 119.2 M
394.929 119.2 L
395.363 119.2 L
395.797 119.2 L
396.231 119.2 L
396.665 119.2 L
397.099 119.2 L
397.533 119.2 L
397.967 119.2 L
398.401 119.2 L
398.835 119.2 L
399.269 119.2 L
399.703 119.2 L
400.137 119.2 L
400.571 119.2 L
401.005 119.2 L
401.439 119.2 L
401.873 119.2 L
402.307 119.2 L
402.741 119.2 L
403.175 119.2 L
403.609 119.2 L
404.043 119.2 L
404.477 119.2 L
404.911 119.2 L
405.345 119.2 L
405.779 119.2 L
406.213 119.2 L
406.647 119.2 L
407.081 119.2 L
407.515 119.2 L
407.949 119.2 L
408.383 119.2 L
408.817 119.2 L
409.251 119.2 L
409.685 119.2 L
410.119 119.2 L
410.553 119.2 L
410.987 119.2 L
411.421 119.2 L
411.855 119.2 L
412.289 119.2 L
412.723 119.2 L
413.157 119.2 L
413.591 119.2 L
414.025 119.2 L
414.459 119.2 L
414.893 119.2 L
415.327 119.2 L
415.761 119.2 L
416.195 119.2 L
416.629 119.2 L
S
GR
GS
[0.75 0 0 0.75 0 0] CT
0 1 1 RC
1 LJ
0.667 LW
N
416.195 119.2 M
416.629 119.2 L
417.063 119.2 L
417.497 119.2 L
417.931 119.2 L
418.365 119.2 L
418.799 119.2 L
419.233 119.2 L
419.667 119.2 L
420.101 119.2 L
420.535 119.2 L
420.969 119.2 L
421.403 119.2 L
421.837 119.2 L
422.271 119.2 L
422.705 119.2 L
423.139 119.2 L
423.573 119.2 L
424.007 119.2 L
424.441 119.2 L
424.875 119.2 L
425.309 119.2 L
425.743 119.2 L
426.177 119.2 L
426.611 119.2 L
427.045 119.2 L
427.479 119.2 L
427.913 119.2 L
428.347 119.2 L
428.781 119.2 L
429.215 119.2 L
429.649 119.2 L
430.083 119.2 L
430.517 119.2 L
430.951 119.2 L
431.385 119.2 L
431.819 119.2 L
432.253 119.2 L
432.687 119.2 L
433.121 119.2 L
433.555 119.2 L
433.989 119.2 L
434.423 119.2 L
434.857 119.2 L
435.291 119.2 L
435.725 119.2 L
436.159 119.2 L
436.593 119.2 L
437.027 119.2 L
437.461 119.2 L
437.895 119.2 L
438.329 119.2 L
S
GR
GS
[0.75 0 0 0.75 0 0] CT
0 1 1 RC
1 LJ
0.667 LW
N
437.895 119.2 M
438.329 119.2 L
438.763 119.2 L
439.197 119.2 L
439.631 119.2 L
440.065 119.2 L
440.499 119.2 L
440.933 119.2 L
441.367 119.2 L
441.801 119.2 L
442.235 119.2 L
442.669 119.2 L
443.103 119.2 L
443.537 119.2 L
443.971 119.2 L
444.405 119.2 L
444.839 119.2 L
445.273 119.2 L
445.707 119.2 L
446.141 119.2 L
446.575 119.2 L
447.009 119.2 L
447.443 119.2 L
447.877 119.2 L
448.311 119.2 L
448.745 119.2 L
449.179 119.2 L
449.613 119.2 L
450.047 119.2 L
450.481 119.2 L
450.915 119.2 L
451.349 119.2 L
451.783 119.2 L
452.217 119.2 L
452.651 119.2 L
453.085 119.2 L
453.519 119.2 L
453.953 119.2 L
454.387 119.2 L
454.821 119.2 L
455.255 119.2 L
455.689 119.2 L
456.123 119.2 L
456.557 119.2 L
456.991 119.2 L
457.425 119.2 L
457.859 119.2 L
458.293 119.2 L
458.727 119.2 L
459.161 119.2 L
459.595 119.2 L
460.029 119.2 L
S
GR
GS
[0.75 0 0 0.75 0 0] CT
0 1 1 RC
1 LJ
0.667 LW
N
459.595 119.2 M
460.029 119.2 L
460.463 119.2 L
460.897 119.2 L
461.331 119.2 L
461.765 119.2 L
462.199 119.2 L
462.633 119.2 L
463.067 119.2 L
463.501 119.2 L
463.935 119.2 L
464.369 119.2 L
464.803 119.2 L
465.237 119.2 L
465.671 119.2 L
466.105 119.2 L
466.539 119.2 L
466.973 119.2 L
467.407 119.2 L
467.841 119.2 L
468.275 119.2 L
468.709 119.2 L
469.143 119.2 L
469.577 119.2 L
470.011 119.2 L
470.445 119.2 L
470.879 119.2 L
471.313 119.2 L
471.747 119.2 L
472.181 119.2 L
472.615 119.2 L
473.049 119.2 L
473.483 119.2 L
473.917 119.2 L
474.351 119.2 L
474.785 119.2 L
475.219 119.2 L
475.653 119.2 L
476.087 119.2 L
476.521 119.2 L
476.955 119.2 L
477.389 119.2 L
477.823 119.2 L
478.257 119.2 L
478.691 119.2 L
479.125 119.2 L
479.559 119.2 L
479.993 119.2 L
480.427 119.2 L
480.861 119.2 L
481.295 119.2 L
481.729 119.2 L
S
GR
GS
[0.75 0 0 0.75 0 0] CT
0 1 1 RC
1 LJ
0.667 LW
N
481.295 119.2 M
481.729 119.2 L
482.163 119.2 L
482.597 119.2 L
483.031 119.2 L
483.465 119.2 L
483.899 119.2 L
484.333 119.2 L
484.767 119.2 L
485.201 119.2 L
485.635 119.2 L
486.069 119.2 L
486.503 119.2 L
486.937 119.2 L
487.371 119.2 L
487.805 119.2 L
488.239 119.2 L
488.673 119.2 L
489.107 119.2 L
489.541 119.2 L
489.975 119.2 L
490.409 119.2 L
490.843 119.2 L
491.277 119.2 L
491.711 119.2 L
492.145 119.2 L
492.579 119.2 L
493.013 119.2 L
493.447 119.2 L
493.881 119.2 L
494.315 119.2 L
494.749 119.2 L
495.183 119.2 L
495.617 119.2 L
496.051 119.2 L
496.485 119.2 L
496.919 119.2 L
497.353 119.2 L
497.787 119.2 L
498.221 119.2 L
498.655 119.2 L
499.089 119.2 L
499.523 119.2 L
499.957 119.2 L
500.391 119.2 L
500.825 119.2 L
501.259 119.2 L
501.693 119.2 L
502.127 119.2 L
502.561 119.2 L
502.995 119.2 L
503.429 119.2 L
S
GR
GS
[0.75 0 0 0.75 0 0] CT
0 1 1 RC
1 LJ
0.667 LW
N
502.995 119.2 M
503.429 119.2 L
503.863 119.2 L
504.297 119.2 L
504.731 119.2 L
505.165 119.2 L
505.599 119.2 L
506.033 119.2 L
506.467 119.2 L
506.901 119.2 L
507 119.2 L
S
GR
GS
[0.75 0 0 0.75 0 0] CT
1 0 0 RC
1 LJ
0.667 LW
N
73 129 M
73 129 L
73 129 L
73 129.001 L
73.001 129.004 L
73.003 129.022 L
73.013 129.108 L
73.067 129.536 L
73.335 131.592 L
73.769 134.605 L
74.203 137.212 L
74.637 139.404 L
75.071 141.18 L
75.505 142.543 L
75.939 143.504 L
76.373 144.074 L
76.807 144.269 L
77.241 144.108 L
77.675 143.611 L
78.109 142.8 L
78.543 141.698 L
78.977 140.328 L
79.411 138.714 L
79.845 136.879 L
80.279 134.847 L
80.713 132.642 L
81.147 130.284 L
81.581 127.797 L
82.015 125.2 L
82.449 122.515 L
82.883 119.759 L
83.317 116.951 L
83.751 114.108 L
84.185 111.245 L
84.619 108.378 L
85.053 105.519 L
85.487 102.682 L
85.921 99.878 L
86.355 97.118 L
86.789 94.411 L
87.223 91.765 L
87.657 89.19 L
88.091 86.69 L
88.525 84.272 L
88.959 81.942 L
89.393 79.704 L
89.827 77.561 L
90.261 75.517 L
90.695 73.574 L
91.129 71.734 L
S
GR
GS
[0.75 0 0 0.75 0 0] CT
1 0 0 RC
1 LJ
0.667 LW
N
90.695 73.574 M
91.129 71.734 L
91.563 69.997 L
91.997 68.366 L
92.431 66.84 L
92.865 65.419 L
93.299 64.102 L
93.733 62.889 L
94.167 61.779 L
94.601 60.77 L
95.035 59.86 L
95.469 59.047 L
95.903 58.33 L
96.337 57.706 L
96.771 57.172 L
97.205 56.725 L
97.639 56.364 L
98.073 56.085 L
98.507 55.885 L
98.941 55.762 L
99.375 55.711 L
99.809 55.731 L
100.243 55.818 L
100.677 55.968 L
101.111 56.18 L
101.545 56.45 L
101.979 56.775 L
102.413 57.151 L
102.847 57.577 L
103.281 58.049 L
103.715 58.564 L
104.149 59.119 L
104.583 59.712 L
105.017 60.34 L
105.451 61.001 L
105.885 61.692 L
106.319 62.411 L
106.753 63.154 L
107.187 63.921 L
107.621 64.709 L
108.055 65.515 L
108.489 66.338 L
108.923 67.175 L
109.357 68.026 L
109.791 68.887 L
110.225 69.758 L
110.659 70.637 L
111.093 71.522 L
111.527 72.411 L
111.961 73.304 L
112.395 74.199 L
112.829 75.095 L
S
GR
GS
[0.75 0 0 0.75 0 0] CT
1 0 0 RC
1 LJ
0.667 LW
N
112.395 74.199 M
112.829 75.095 L
113.263 75.99 L
113.697 76.883 L
114.131 77.774 L
114.565 78.661 L
114.999 79.544 L
115.433 80.421 L
115.867 81.292 L
116.301 82.156 L
116.735 83.013 L
117.169 83.861 L
117.603 84.7 L
118.037 85.53 L
118.471 86.35 L
118.905 87.159 L
119.339 87.957 L
119.773 88.745 L
120.207 89.52 L
120.641 90.284 L
121.075 91.036 L
121.509 91.776 L
121.943 92.502 L
122.377 93.217 L
122.811 93.918 L
123.245 94.607 L
123.679 95.282 L
124.113 95.944 L
124.547 96.593 L
124.981 97.229 L
125.415 97.852 L
125.849 98.462 L
126.283 99.058 L
126.717 99.642 L
127.151 100.212 L
127.585 100.77 L
128.019 101.315 L
128.453 101.847 L
128.887 102.366 L
129.321 102.873 L
129.755 103.368 L
130.189 103.85 L
130.623 104.321 L
131.057 104.78 L
131.491 105.226 L
131.925 105.662 L
132.359 106.086 L
132.793 106.499 L
133.227 106.9 L
133.661 107.291 L
134.095 107.672 L
134.529 108.042 L
S
GR
GS
[0.75 0 0 0.75 0 0] CT
1 0 0 RC
1 LJ
0.667 LW
N
134.095 107.672 M
134.529 108.042 L
134.963 108.402 L
135.397 108.751 L
135.831 109.091 L
136.265 109.422 L
136.699 109.742 L
137.133 110.054 L
137.567 110.357 L
138.001 110.651 L
138.435 110.936 L
138.869 111.212 L
139.303 111.481 L
139.737 111.741 L
140.171 111.994 L
140.605 112.239 L
141.039 112.476 L
141.473 112.706 L
141.907 112.929 L
142.341 113.145 L
142.775 113.355 L
143.209 113.557 L
143.643 113.754 L
144.077 113.944 L
144.511 114.128 L
144.945 114.306 L
145.379 114.478 L
145.813 114.645 L
146.247 114.807 L
146.681 114.963 L
147.115 115.114 L
147.549 115.26 L
147.983 115.401 L
148.417 115.537 L
148.851 115.669 L
149.285 115.797 L
149.719 115.92 L
150.153 116.039 L
150.587 116.154 L
151.021 116.265 L
151.455 116.373 L
151.889 116.476 L
152.323 116.576 L
152.757 116.673 L
153.191 116.766 L
153.625 116.856 L
154.059 116.943 L
154.493 117.027 L
154.927 117.108 L
155.361 117.186 L
155.795 117.261 L
156.229 117.334 L
S
GR
GS
[0.75 0 0 0.75 0 0] CT
1 0 0 RC
1 LJ
0.667 LW
N
155.795 117.261 M
156.229 117.334 L
156.663 117.404 L
157.097 117.472 L
157.531 117.537 L
157.965 117.6 L
158.399 117.66 L
158.833 117.719 L
159.267 117.775 L
159.701 117.829 L
160.135 117.881 L
160.569 117.932 L
161.003 117.98 L
161.437 118.027 L
161.871 118.072 L
162.305 118.116 L
162.739 118.157 L
163.173 118.198 L
163.607 118.236 L
164.041 118.274 L
164.475 118.31 L
164.909 118.344 L
165.343 118.378 L
165.777 118.41 L
166.211 118.44 L
166.645 118.47 L
167.079 118.499 L
167.513 118.526 L
167.947 118.553 L
168.381 118.578 L
168.815 118.603 L
169.249 118.626 L
169.683 118.649 L
170.117 118.671 L
170.551 118.692 L
170.985 118.712 L
171.419 118.731 L
171.853 118.75 L
172.287 118.768 L
172.721 118.785 L
173.155 118.802 L
173.589 118.818 L
174.023 118.833 L
174.457 118.848 L
174.891 118.862 L
175.325 118.875 L
175.759 118.888 L
176.193 118.901 L
176.627 118.913 L
177.061 118.925 L
177.495 118.936 L
177.929 118.946 L
S
GR
GS
[0.75 0 0 0.75 0 0] CT
1 0 0 RC
1 LJ
0.667 LW
N
177.495 118.936 M
177.929 118.946 L
178.363 118.957 L
178.797 118.967 L
179.231 118.976 L
179.665 118.985 L
180.099 118.994 L
180.533 119.002 L
180.967 119.01 L
181.401 119.018 L
181.835 119.026 L
182.269 119.033 L
182.703 119.04 L
183.137 119.046 L
183.571 119.052 L
184.005 119.059 L
184.439 119.064 L
184.873 119.07 L
185.307 119.075 L
185.741 119.08 L
186.175 119.085 L
186.609 119.09 L
187.043 119.095 L
187.477 119.099 L
187.911 119.103 L
188.345 119.107 L
188.779 119.111 L
189.213 119.115 L
189.647 119.118 L
190.081 119.122 L
190.515 119.125 L
190.949 119.128 L
191.383 119.131 L
191.817 119.134 L
192.251 119.137 L
192.685 119.139 L
193.119 119.142 L
193.553 119.144 L
193.987 119.147 L
194.421 119.149 L
194.855 119.151 L
195.289 119.153 L
195.723 119.155 L
196.157 119.157 L
196.591 119.159 L
197.025 119.161 L
197.459 119.162 L
197.893 119.164 L
198.327 119.165 L
198.761 119.167 L
199.195 119.168 L
199.629 119.17 L
S
GR
GS
[0.75 0 0 0.75 0 0] CT
1 0 0 RC
1 LJ
0.667 LW
N
199.195 119.168 M
199.629 119.17 L
200.063 119.171 L
200.497 119.172 L
200.931 119.173 L
201.365 119.174 L
201.799 119.176 L
202.233 119.177 L
202.667 119.178 L
203.101 119.179 L
203.535 119.179 L
203.969 119.18 L
204.403 119.181 L
204.837 119.182 L
205.271 119.183 L
205.705 119.183 L
206.139 119.184 L
206.573 119.185 L
207.007 119.185 L
207.441 119.186 L
207.875 119.187 L
208.309 119.187 L
208.743 119.188 L
209.177 119.188 L
209.611 119.189 L
210.045 119.189 L
210.479 119.19 L
210.913 119.19 L
211.347 119.191 L
211.781 119.191 L
212.215 119.191 L
212.649 119.192 L
213.083 119.192 L
213.517 119.193 L
213.951 119.193 L
214.385 119.193 L
214.819 119.193 L
215.253 119.194 L
215.687 119.194 L
216.121 119.194 L
216.555 119.195 L
216.989 119.195 L
217.423 119.195 L
217.857 119.195 L
218.291 119.195 L
218.725 119.196 L
219.159 119.196 L
219.593 119.196 L
220.027 119.196 L
220.461 119.196 L
220.895 119.196 L
221.329 119.197 L
S
GR
GS
[0.75 0 0 0.75 0 0] CT
1 0 0 RC
1 LJ
0.667 LW
N
220.895 119.196 M
221.329 119.197 L
221.763 119.197 L
222.197 119.197 L
222.631 119.197 L
223.065 119.197 L
223.499 119.197 L
223.933 119.197 L
224.367 119.198 L
224.801 119.198 L
225.235 119.198 L
225.669 119.198 L
226.103 119.198 L
226.537 119.198 L
226.971 119.198 L
227.405 119.198 L
227.839 119.198 L
228.273 119.198 L
228.707 119.198 L
229.141 119.199 L
229.575 119.199 L
230.009 119.199 L
230.443 119.199 L
230.877 119.199 L
231.311 119.199 L
231.745 119.199 L
232.179 119.199 L
232.613 119.199 L
233.047 119.199 L
233.481 119.199 L
233.915 119.199 L
234.349 119.199 L
234.783 119.199 L
235.217 119.199 L
235.651 119.199 L
236.085 119.199 L
236.519 119.199 L
236.953 119.199 L
237.387 119.199 L
237.821 119.199 L
238.255 119.199 L
238.689 119.199 L
239.123 119.199 L
239.557 119.199 L
239.991 119.2 L
240.425 119.2 L
240.859 119.2 L
241.293 119.2 L
241.727 119.2 L
242.161 119.2 L
242.595 119.2 L
243.029 119.2 L
S
GR
GS
[0.75 0 0 0.75 0 0] CT
1 0 0 RC
1 LJ
0.667 LW
N
242.595 119.2 M
243.029 119.2 L
243.463 119.2 L
243.897 119.2 L
244.331 119.2 L
244.765 119.2 L
245.199 119.2 L
245.633 119.2 L
246.067 119.2 L
246.501 119.2 L
246.935 119.2 L
247.369 119.2 L
247.803 119.2 L
248.237 119.2 L
248.671 119.2 L
249.105 119.2 L
249.539 119.2 L
249.973 119.2 L
250.407 119.2 L
250.841 119.2 L
251.275 119.2 L
251.709 119.2 L
252.143 119.2 L
252.577 119.2 L
253.011 119.2 L
253.445 119.2 L
253.879 119.2 L
254.313 119.2 L
254.747 119.2 L
255.181 119.2 L
255.615 119.2 L
256.049 119.2 L
256.483 119.2 L
256.917 119.2 L
257.351 119.2 L
257.785 119.2 L
258.219 119.2 L
258.653 119.2 L
259.087 119.2 L
259.521 119.2 L
259.955 119.2 L
260.389 119.2 L
260.823 119.2 L
261.257 119.2 L
261.691 119.2 L
262.125 119.2 L
262.559 119.2 L
262.993 119.2 L
263.427 119.2 L
263.861 119.2 L
264.295 119.2 L
264.729 119.2 L
S
GR
GS
[0.75 0 0 0.75 0 0] CT
1 0 0 RC
1 LJ
0.667 LW
N
264.295 119.2 M
264.729 119.2 L
265.163 119.2 L
265.597 119.2 L
266.031 119.2 L
266.465 119.2 L
266.899 119.2 L
267.333 119.2 L
267.767 119.2 L
268.201 119.2 L
268.635 119.2 L
269.069 119.2 L
269.503 119.2 L
269.937 119.2 L
270.371 119.2 L
270.805 119.2 L
271.239 119.2 L
271.673 119.2 L
272.107 119.2 L
272.541 119.2 L
272.975 119.2 L
273.409 119.2 L
273.843 119.2 L
274.277 119.2 L
274.711 119.2 L
275.145 119.2 L
275.579 119.2 L
276.013 119.2 L
276.447 119.2 L
276.881 119.2 L
277.315 119.2 L
277.749 119.2 L
278.183 119.2 L
278.617 119.2 L
279.051 119.2 L
279.485 119.2 L
279.919 119.2 L
280.353 119.2 L
280.787 119.2 L
281.221 119.2 L
281.655 119.2 L
282.089 119.2 L
282.523 119.2 L
282.957 119.2 L
283.391 119.2 L
283.825 119.2 L
284.259 119.2 L
284.693 119.2 L
285.127 119.2 L
285.561 119.2 L
285.995 119.2 L
286.429 119.2 L
S
GR
GS
[0.75 0 0 0.75 0 0] CT
1 0 0 RC
1 LJ
0.667 LW
N
285.995 119.2 M
286.429 119.2 L
286.863 119.2 L
287.297 119.2 L
287.731 119.2 L
288.165 119.2 L
288.599 119.2 L
289.033 119.2 L
289.467 119.2 L
289.901 119.2 L
290.335 119.2 L
290.769 119.2 L
291.203 119.2 L
291.637 119.2 L
292.071 119.2 L
292.505 119.2 L
292.939 119.2 L
293.373 119.2 L
293.807 119.2 L
294.241 119.2 L
294.675 119.2 L
295.109 119.2 L
295.543 119.2 L
295.977 119.2 L
296.411 119.2 L
296.845 119.2 L
297.279 119.2 L
297.713 119.2 L
298.147 119.2 L
298.581 119.2 L
299.015 119.2 L
299.449 119.2 L
299.883 119.2 L
300.317 119.2 L
300.751 119.2 L
301.185 119.2 L
301.619 119.2 L
302.053 119.2 L
302.487 119.2 L
302.921 119.2 L
303.355 119.2 L
303.789 119.2 L
304.223 119.2 L
304.657 119.2 L
305.091 119.2 L
305.525 119.2 L
305.959 119.2 L
306.393 119.2 L
306.827 119.2 L
307.261 119.2 L
307.695 119.2 L
308.129 119.2 L
S
GR
GS
[0.75 0 0 0.75 0 0] CT
1 0 0 RC
1 LJ
0.667 LW
N
307.695 119.2 M
308.129 119.2 L
308.563 119.2 L
308.997 119.2 L
309.431 119.2 L
309.865 119.2 L
310.299 119.2 L
310.733 119.2 L
311.167 119.2 L
311.601 119.2 L
312.035 119.2 L
312.469 119.2 L
312.903 119.2 L
313.337 119.2 L
313.771 119.2 L
314.205 119.2 L
314.639 119.2 L
315.073 119.2 L
315.507 119.2 L
315.941 119.2 L
316.375 119.2 L
316.809 119.2 L
317.243 119.2 L
317.677 119.2 L
318.111 119.2 L
318.545 119.2 L
318.979 119.2 L
319.413 119.2 L
319.847 119.2 L
320.281 119.2 L
320.715 119.2 L
321.149 119.2 L
321.583 119.2 L
322.017 119.2 L
322.451 119.2 L
322.885 119.2 L
323.319 119.2 L
323.753 119.2 L
324.187 119.2 L
324.621 119.2 L
325.055 119.2 L
325.489 119.2 L
325.923 119.2 L
326.357 119.2 L
326.791 119.2 L
327.225 119.2 L
327.659 119.2 L
328.093 119.2 L
328.527 119.2 L
328.961 119.2 L
329.395 119.2 L
329.829 119.2 L
S
GR
GS
[0.75 0 0 0.75 0 0] CT
1 0 0 RC
1 LJ
0.667 LW
N
329.395 119.2 M
329.829 119.2 L
330.263 119.2 L
330.697 119.2 L
331.131 119.2 L
331.565 119.2 L
331.999 119.2 L
332.433 119.2 L
332.867 119.2 L
333.301 119.2 L
333.735 119.2 L
334.169 119.2 L
334.603 119.2 L
335.037 119.2 L
335.471 119.2 L
335.905 119.2 L
336.339 119.2 L
336.773 119.2 L
337.207 119.2 L
337.641 119.2 L
338.075 119.2 L
338.509 119.2 L
338.943 119.2 L
339.377 119.2 L
339.811 119.2 L
340.245 119.2 L
340.679 119.2 L
341.113 119.2 L
341.547 119.2 L
341.981 119.2 L
342.415 119.2 L
342.849 119.2 L
343.283 119.2 L
343.717 119.2 L
344.151 119.2 L
344.585 119.2 L
345.019 119.2 L
345.453 119.2 L
345.887 119.2 L
346.321 119.2 L
346.755 119.2 L
347.189 119.2 L
347.623 119.2 L
348.057 119.2 L
348.491 119.2 L
348.925 119.2 L
349.359 119.2 L
349.793 119.2 L
350.227 119.2 L
350.661 119.2 L
351.095 119.2 L
351.529 119.2 L
S
GR
GS
[0.75 0 0 0.75 0 0] CT
1 0 0 RC
1 LJ
0.667 LW
N
351.095 119.2 M
351.529 119.2 L
351.963 119.2 L
352.397 119.2 L
352.831 119.2 L
353.265 119.2 L
353.699 119.2 L
354.133 119.2 L
354.567 119.2 L
355.001 119.2 L
355.435 119.2 L
355.869 119.2 L
356.303 119.2 L
356.737 119.2 L
357.171 119.2 L
357.605 119.2 L
358.039 119.2 L
358.473 119.2 L
358.907 119.2 L
359.341 119.2 L
359.775 119.2 L
360.209 119.2 L
360.643 119.2 L
361.077 119.2 L
361.511 119.2 L
361.945 119.2 L
362.379 119.2 L
362.813 119.2 L
363.247 119.2 L
363.681 119.2 L
364.115 119.2 L
364.549 119.2 L
364.983 119.2 L
365.417 119.2 L
365.851 119.2 L
366.285 119.2 L
366.719 119.2 L
367.153 119.2 L
367.587 119.2 L
368.021 119.2 L
368.455 119.2 L
368.889 119.2 L
369.323 119.2 L
369.757 119.2 L
370.191 119.2 L
370.625 119.2 L
371.059 119.2 L
371.493 119.2 L
371.927 119.2 L
372.361 119.2 L
372.795 119.2 L
373.229 119.2 L
S
GR
GS
[0.75 0 0 0.75 0 0] CT
1 0 0 RC
1 LJ
0.667 LW
N
372.795 119.2 M
373.229 119.2 L
373.663 119.2 L
374.097 119.2 L
374.531 119.2 L
374.965 119.2 L
375.399 119.2 L
375.833 119.2 L
376.267 119.2 L
376.701 119.2 L
377.135 119.2 L
377.569 119.2 L
378.003 119.2 L
378.437 119.2 L
378.871 119.2 L
379.305 119.2 L
379.739 119.2 L
380.173 119.2 L
380.607 119.2 L
381.041 119.2 L
381.475 119.2 L
381.909 119.2 L
382.343 119.2 L
382.777 119.2 L
383.211 119.2 L
383.645 119.2 L
384.079 119.2 L
384.513 119.2 L
384.947 119.2 L
385.381 119.2 L
385.815 119.2 L
386.249 119.2 L
386.683 119.2 L
387.117 119.2 L
387.551 119.2 L
387.985 119.2 L
388.419 119.2 L
388.853 119.2 L
389.287 119.2 L
389.721 119.2 L
390.155 119.2 L
390.589 119.2 L
391.023 119.2 L
391.457 119.2 L
391.891 119.2 L
392.325 119.2 L
392.759 119.2 L
393.193 119.2 L
393.627 119.2 L
394.061 119.2 L
394.495 119.2 L
394.929 119.2 L
S
GR
GS
[0.75 0 0 0.75 0 0] CT
1 0 0 RC
1 LJ
0.667 LW
N
394.495 119.2 M
394.929 119.2 L
395.363 119.2 L
395.797 119.2 L
396.231 119.2 L
396.665 119.2 L
397.099 119.2 L
397.533 119.2 L
397.967 119.2 L
398.401 119.2 L
398.835 119.2 L
399.269 119.2 L
399.703 119.2 L
400.137 119.2 L
400.571 119.2 L
401.005 119.2 L
401.439 119.2 L
401.873 119.2 L
402.307 119.2 L
402.741 119.2 L
403.175 119.2 L
403.609 119.2 L
404.043 119.2 L
404.477 119.2 L
404.911 119.2 L
405.345 119.2 L
405.779 119.2 L
406.213 119.2 L
406.647 119.2 L
407.081 119.2 L
407.515 119.2 L
407.949 119.2 L
408.383 119.2 L
408.817 119.2 L
409.251 119.2 L
409.685 119.2 L
410.119 119.2 L
410.553 119.2 L
410.987 119.2 L
411.421 119.2 L
411.855 119.2 L
412.289 119.2 L
412.723 119.2 L
413.157 119.2 L
413.591 119.2 L
414.025 119.2 L
414.459 119.2 L
414.893 119.2 L
415.327 119.2 L
415.761 119.2 L
416.195 119.2 L
416.629 119.2 L
S
GR
GS
[0.75 0 0 0.75 0 0] CT
1 0 0 RC
1 LJ
0.667 LW
N
416.195 119.2 M
416.629 119.2 L
417.063 119.2 L
417.497 119.2 L
417.931 119.2 L
418.365 119.2 L
418.799 119.2 L
419.233 119.2 L
419.667 119.2 L
420.101 119.2 L
420.535 119.2 L
420.969 119.2 L
421.403 119.2 L
421.837 119.2 L
422.271 119.2 L
422.705 119.2 L
423.139 119.2 L
423.573 119.2 L
424.007 119.2 L
424.441 119.2 L
424.875 119.2 L
425.309 119.2 L
425.743 119.2 L
426.177 119.2 L
426.611 119.2 L
427.045 119.2 L
427.479 119.2 L
427.913 119.2 L
428.347 119.2 L
428.781 119.2 L
429.215 119.2 L
429.649 119.2 L
430.083 119.2 L
430.517 119.2 L
430.951 119.2 L
431.385 119.2 L
431.819 119.2 L
432.253 119.2 L
432.687 119.2 L
433.121 119.2 L
433.555 119.2 L
433.989 119.2 L
434.423 119.2 L
434.857 119.2 L
435.291 119.2 L
435.725 119.2 L
436.159 119.2 L
436.593 119.2 L
437.027 119.2 L
437.461 119.2 L
437.895 119.2 L
438.329 119.2 L
S
GR
GS
[0.75 0 0 0.75 0 0] CT
1 0 0 RC
1 LJ
0.667 LW
N
437.895 119.2 M
438.329 119.2 L
438.763 119.2 L
439.197 119.2 L
439.631 119.2 L
440.065 119.2 L
440.499 119.2 L
440.933 119.2 L
441.367 119.2 L
441.801 119.2 L
442.235 119.2 L
442.669 119.2 L
443.103 119.2 L
443.537 119.2 L
443.971 119.2 L
444.405 119.2 L
444.839 119.2 L
445.273 119.2 L
445.707 119.2 L
446.141 119.2 L
446.575 119.2 L
447.009 119.2 L
447.443 119.2 L
447.877 119.2 L
448.311 119.2 L
448.745 119.2 L
449.179 119.2 L
449.613 119.2 L
450.047 119.2 L
450.481 119.2 L
450.915 119.2 L
451.349 119.2 L
451.783 119.2 L
452.217 119.2 L
452.651 119.2 L
453.085 119.2 L
453.519 119.2 L
453.953 119.2 L
454.387 119.2 L
454.821 119.2 L
455.255 119.2 L
455.689 119.2 L
456.123 119.2 L
456.557 119.2 L
456.991 119.2 L
457.425 119.2 L
457.859 119.2 L
458.293 119.2 L
458.727 119.2 L
459.161 119.2 L
459.595 119.2 L
460.029 119.2 L
S
GR
GS
[0.75 0 0 0.75 0 0] CT
1 0 0 RC
1 LJ
0.667 LW
N
459.595 119.2 M
460.029 119.2 L
460.463 119.2 L
460.897 119.2 L
461.331 119.2 L
461.765 119.2 L
462.199 119.2 L
462.633 119.2 L
463.067 119.2 L
463.501 119.2 L
463.935 119.2 L
464.369 119.2 L
464.803 119.2 L
465.237 119.2 L
465.671 119.2 L
466.105 119.2 L
466.539 119.2 L
466.973 119.2 L
467.407 119.2 L
467.841 119.2 L
468.275 119.2 L
468.709 119.2 L
469.143 119.2 L
469.577 119.2 L
470.011 119.2 L
470.445 119.2 L
470.879 119.2 L
471.313 119.2 L
471.747 119.2 L
472.181 119.2 L
472.615 119.2 L
473.049 119.2 L
473.483 119.2 L
473.917 119.2 L
474.351 119.2 L
474.785 119.2 L
475.219 119.2 L
475.653 119.2 L
476.087 119.2 L
476.521 119.2 L
476.955 119.2 L
477.389 119.2 L
477.823 119.2 L
478.257 119.2 L
478.691 119.2 L
479.125 119.2 L
479.559 119.2 L
479.993 119.2 L
480.427 119.2 L
480.861 119.2 L
481.295 119.2 L
481.729 119.2 L
S
GR
GS
[0.75 0 0 0.75 0 0] CT
1 0 0 RC
1 LJ
0.667 LW
N
481.295 119.2 M
481.729 119.2 L
482.163 119.2 L
482.597 119.2 L
483.031 119.2 L
483.465 119.2 L
483.899 119.2 L
484.333 119.2 L
484.767 119.2 L
485.201 119.2 L
485.635 119.2 L
486.069 119.2 L
486.503 119.2 L
486.937 119.2 L
487.371 119.2 L
487.805 119.2 L
488.239 119.2 L
488.673 119.2 L
489.107 119.2 L
489.541 119.2 L
489.975 119.2 L
490.409 119.2 L
490.843 119.2 L
491.277 119.2 L
491.711 119.2 L
492.145 119.2 L
492.579 119.2 L
493.013 119.2 L
493.447 119.2 L
493.881 119.2 L
494.315 119.2 L
494.749 119.2 L
495.183 119.2 L
495.617 119.2 L
496.051 119.2 L
496.485 119.2 L
496.919 119.2 L
497.353 119.2 L
497.787 119.2 L
498.221 119.2 L
498.655 119.2 L
499.089 119.2 L
499.523 119.2 L
499.957 119.2 L
500.391 119.2 L
500.825 119.2 L
501.259 119.2 L
501.693 119.2 L
502.127 119.2 L
502.561 119.2 L
502.995 119.2 L
503.429 119.2 L
S
GR
GS
[0.75 0 0 0.75 0 0] CT
1 0 0 RC
1 LJ
0.667 LW
N
502.995 119.2 M
503.429 119.2 L
503.863 119.2 L
504.297 119.2 L
504.731 119.2 L
505.165 119.2 L
505.599 119.2 L
506.033 119.2 L
506.467 119.2 L
506.901 119.2 L
507 119.2 L
S
GR
GS
[0.75 0 0 0.75 0 0] CT
1 0 1 RC
1 LJ
0.667 LW
N
73 129 M
73 129 L
73 129 L
73 129 L
73.001 128.998 L
73.003 128.988 L
73.013 128.939 L
73.067 128.699 L
73.335 127.625 L
73.769 126.36 L
74.203 125.717 L
74.637 125.721 L
75.071 126.381 L
75.505 127.694 L
75.939 129.647 L
76.373 132.217 L
76.807 135.374 L
77.241 139.084 L
77.675 143.307 L
78.109 148.001 L
78.543 153.122 L
78.977 158.623 L
79.411 164.459 L
79.845 170.583 L
80.279 176.95 L
80.713 183.515 L
81.147 190.233 L
81.581 197.065 L
82.015 203.969 L
82.449 210.909 L
82.883 217.847 L
83.317 224.75 L
83.751 231.588 L
84.185 238.331 L
84.619 244.953 L
85.053 251.429 L
85.487 257.737 L
85.921 263.858 L
86.355 269.774 L
86.789 275.469 L
87.223 280.931 L
87.657 286.146 L
88.091 291.106 L
88.525 295.802 L
88.959 300.227 L
89.393 304.378 L
89.827 308.25 L
90.261 311.842 L
90.695 315.152 L
91.129 318.181 L
S
GR
GS
[0.75 0 0 0.75 0 0] CT
1 0 1 RC
1 LJ
0.667 LW
N
90.695 315.152 M
91.129 318.181 L
91.563 320.929 L
91.997 323.4 L
92.431 325.597 L
92.865 327.523 L
93.299 329.183 L
93.733 330.583 L
94.167 331.728 L
94.601 332.625 L
95.035 333.281 L
95.469 333.703 L
95.903 333.898 L
96.337 333.875 L
96.771 333.641 L
97.205 333.205 L
97.639 332.575 L
98.073 331.759 L
98.507 330.766 L
98.941 329.605 L
99.375 328.284 L
99.809 326.811 L
100.243 325.195 L
100.677 323.445 L
101.111 321.567 L
101.545 319.571 L
101.979 317.464 L
102.413 315.254 L
102.847 312.949 L
103.281 310.555 L
103.715 308.081 L
104.149 305.532 L
104.583 302.917 L
105.017 300.241 L
105.451 297.51 L
105.885 294.731 L
106.319 291.91 L
106.753 289.052 L
107.187 286.162 L
107.621 283.247 L
108.055 280.31 L
108.489 277.357 L
108.923 274.391 L
109.357 271.418 L
109.791 268.441 L
110.225 265.465 L
110.659 262.492 L
111.093 259.527 L
111.527 256.572 L
111.961 253.631 L
112.395 250.706 L
112.829 247.8 L
S
GR
GS
[0.75 0 0 0.75 0 0] CT
1 0 1 RC
1 LJ
0.667 LW
N
112.395 250.706 M
112.829 247.8 L
113.263 244.916 L
113.697 242.056 L
114.131 239.222 L
114.565 236.417 L
114.999 233.641 L
115.433 230.897 L
115.867 228.187 L
116.301 225.511 L
116.735 222.871 L
117.169 220.268 L
117.603 217.704 L
118.037 215.179 L
118.471 212.694 L
118.905 210.249 L
119.339 207.846 L
119.773 205.485 L
120.207 203.166 L
120.641 200.89 L
121.075 198.657 L
121.509 196.467 L
121.943 194.32 L
122.377 192.217 L
122.811 190.156 L
123.245 188.14 L
123.679 186.166 L
124.113 184.235 L
124.547 182.347 L
124.981 180.501 L
125.415 178.698 L
125.849 176.936 L
126.283 175.216 L
126.717 173.537 L
127.151 171.898 L
127.585 170.3 L
128.019 168.741 L
128.453 167.221 L
128.887 165.74 L
129.321 164.296 L
129.755 162.89 L
130.189 161.521 L
130.623 160.188 L
131.057 158.891 L
131.491 157.629 L
131.925 156.401 L
132.359 155.207 L
132.793 154.046 L
133.227 152.917 L
133.661 151.82 L
134.095 150.754 L
134.529 149.719 L
S
GR
GS
[0.75 0 0 0.75 0 0] CT
1 0 1 RC
1 LJ
0.667 LW
N
134.095 150.754 M
134.529 149.719 L
134.963 148.713 L
135.397 147.737 L
135.831 146.789 L
136.265 145.869 L
136.699 144.976 L
137.133 144.11 L
137.567 143.27 L
138.001 142.456 L
138.435 141.666 L
138.869 140.9 L
139.303 140.158 L
139.737 139.438 L
140.171 138.741 L
140.605 138.066 L
141.039 137.412 L
141.473 136.779 L
141.907 136.166 L
142.341 135.572 L
142.775 134.997 L
143.209 134.441 L
143.643 133.903 L
144.077 133.383 L
144.511 132.879 L
144.945 132.392 L
145.379 131.921 L
145.813 131.466 L
146.247 131.025 L
146.681 130.6 L
147.115 130.188 L
147.549 129.791 L
147.983 129.407 L
148.417 129.035 L
148.851 128.677 L
149.285 128.331 L
149.719 127.996 L
150.153 127.673 L
150.587 127.362 L
151.021 127.061 L
151.455 126.77 L
151.889 126.49 L
152.323 126.219 L
152.757 125.958 L
153.191 125.706 L
153.625 125.463 L
154.059 125.228 L
154.493 125.002 L
154.927 124.784 L
155.361 124.574 L
155.795 124.371 L
156.229 124.175 L
S
GR
GS
[0.75 0 0 0.75 0 0] CT
1 0 1 RC
1 LJ
0.667 LW
N
155.795 124.371 M
156.229 124.175 L
156.663 123.987 L
157.097 123.805 L
157.531 123.63 L
157.965 123.461 L
158.399 123.298 L
158.833 123.142 L
159.267 122.991 L
159.701 122.845 L
160.135 122.705 L
160.569 122.57 L
161.003 122.44 L
161.437 122.315 L
161.871 122.194 L
162.305 122.078 L
162.739 121.967 L
163.173 121.859 L
163.607 121.755 L
164.041 121.656 L
164.475 121.56 L
164.909 121.467 L
165.343 121.379 L
165.777 121.293 L
166.211 121.211 L
166.645 121.132 L
167.079 121.055 L
167.513 120.982 L
167.947 120.912 L
168.381 120.844 L
168.815 120.779 L
169.249 120.716 L
169.683 120.656 L
170.117 120.598 L
170.551 120.542 L
170.985 120.489 L
171.419 120.437 L
171.853 120.388 L
172.287 120.34 L
172.721 120.294 L
173.155 120.25 L
173.589 120.208 L
174.023 120.168 L
174.457 120.129 L
174.891 120.091 L
175.325 120.055 L
175.759 120.021 L
176.193 119.987 L
176.627 119.955 L
177.061 119.925 L
177.495 119.895 L
177.929 119.867 L
S
GR
GS
[0.75 0 0 0.75 0 0] CT
1 0 1 RC
1 LJ
0.667 LW
N
177.495 119.895 M
177.929 119.867 L
178.363 119.84 L
178.797 119.814 L
179.231 119.789 L
179.665 119.765 L
180.099 119.742 L
180.533 119.719 L
180.967 119.698 L
181.401 119.678 L
181.835 119.658 L
182.269 119.639 L
182.703 119.621 L
183.137 119.604 L
183.571 119.587 L
184.005 119.571 L
184.439 119.556 L
184.873 119.541 L
185.307 119.527 L
185.741 119.513 L
186.175 119.5 L
186.609 119.488 L
187.043 119.476 L
187.477 119.465 L
187.911 119.454 L
188.345 119.443 L
188.779 119.433 L
189.213 119.423 L
189.647 119.414 L
190.081 119.405 L
190.515 119.396 L
190.949 119.388 L
191.383 119.38 L
191.817 119.373 L
192.251 119.365 L
192.685 119.358 L
193.119 119.352 L
193.553 119.345 L
193.987 119.339 L
194.421 119.333 L
194.855 119.328 L
195.289 119.322 L
195.723 119.317 L
196.157 119.312 L
196.591 119.308 L
197.025 119.303 L
197.459 119.299 L
197.893 119.294 L
198.327 119.29 L
198.761 119.287 L
199.195 119.283 L
199.629 119.279 L
S
GR
GS
[0.75 0 0 0.75 0 0] CT
1 0 1 RC
1 LJ
0.667 LW
N
199.195 119.283 M
199.629 119.279 L
200.063 119.276 L
200.497 119.273 L
200.931 119.27 L
201.365 119.267 L
201.799 119.264 L
202.233 119.261 L
202.667 119.259 L
203.101 119.256 L
203.535 119.254 L
203.969 119.251 L
204.403 119.249 L
204.837 119.247 L
205.271 119.245 L
205.705 119.243 L
206.139 119.241 L
206.573 119.239 L
207.007 119.238 L
207.441 119.236 L
207.875 119.235 L
208.309 119.233 L
208.743 119.232 L
209.177 119.23 L
209.611 119.229 L
210.045 119.228 L
210.479 119.227 L
210.913 119.225 L
211.347 119.224 L
211.781 119.223 L
212.215 119.222 L
212.649 119.221 L
213.083 119.22 L
213.517 119.219 L
213.951 119.219 L
214.385 119.218 L
214.819 119.217 L
215.253 119.216 L
215.687 119.216 L
216.121 119.215 L
216.555 119.214 L
216.989 119.214 L
217.423 119.213 L
217.857 119.212 L
218.291 119.212 L
218.725 119.211 L
219.159 119.211 L
219.593 119.21 L
220.027 119.21 L
220.461 119.21 L
220.895 119.209 L
221.329 119.209 L
S
GR
GS
[0.75 0 0 0.75 0 0] CT
1 0 1 RC
1 LJ
0.667 LW
N
220.895 119.209 M
221.329 119.209 L
221.763 119.208 L
222.197 119.208 L
222.631 119.208 L
223.065 119.207 L
223.499 119.207 L
223.933 119.207 L
224.367 119.206 L
224.801 119.206 L
225.235 119.206 L
225.669 119.206 L
226.103 119.205 L
226.537 119.205 L
226.971 119.205 L
227.405 119.205 L
227.839 119.204 L
228.273 119.204 L
228.707 119.204 L
229.141 119.204 L
229.575 119.204 L
230.009 119.204 L
230.443 119.203 L
230.877 119.203 L
231.311 119.203 L
231.745 119.203 L
232.179 119.203 L
232.613 119.203 L
233.047 119.203 L
233.481 119.202 L
233.915 119.202 L
234.349 119.202 L
234.783 119.202 L
235.217 119.202 L
235.651 119.202 L
236.085 119.202 L
236.519 119.202 L
236.953 119.202 L
237.387 119.202 L
237.821 119.202 L
238.255 119.201 L
238.689 119.201 L
239.123 119.201 L
239.557 119.201 L
239.991 119.201 L
240.425 119.201 L
240.859 119.201 L
241.293 119.201 L
241.727 119.201 L
242.161 119.201 L
242.595 119.201 L
243.029 119.201 L
S
GR
GS
[0.75 0 0 0.75 0 0] CT
1 0 1 RC
1 LJ
0.667 LW
N
242.595 119.201 M
243.029 119.201 L
243.463 119.201 L
243.897 119.201 L
244.331 119.201 L
244.765 119.201 L
245.199 119.201 L
245.633 119.201 L
246.067 119.201 L
246.501 119.201 L
246.935 119.201 L
247.369 119.201 L
247.803 119.201 L
248.237 119.201 L
248.671 119.201 L
249.105 119.2 L
249.539 119.2 L
249.973 119.2 L
250.407 119.2 L
250.841 119.2 L
251.275 119.2 L
251.709 119.2 L
252.143 119.2 L
252.577 119.2 L
253.011 119.2 L
253.445 119.2 L
253.879 119.2 L
254.313 119.2 L
254.747 119.2 L
255.181 119.2 L
255.615 119.2 L
256.049 119.2 L
256.483 119.2 L
256.917 119.2 L
257.351 119.2 L
257.785 119.2 L
258.219 119.2 L
258.653 119.2 L
259.087 119.2 L
259.521 119.2 L
259.955 119.2 L
260.389 119.2 L
260.823 119.2 L
261.257 119.2 L
261.691 119.2 L
262.125 119.2 L
262.559 119.2 L
262.993 119.2 L
263.427 119.2 L
263.861 119.2 L
264.295 119.2 L
264.729 119.2 L
S
GR
GS
[0.75 0 0 0.75 0 0] CT
1 0 1 RC
1 LJ
0.667 LW
N
264.295 119.2 M
264.729 119.2 L
265.163 119.2 L
265.597 119.2 L
266.031 119.2 L
266.465 119.2 L
266.899 119.2 L
267.333 119.2 L
267.767 119.2 L
268.201 119.2 L
268.635 119.2 L
269.069 119.2 L
269.503 119.2 L
269.937 119.2 L
270.371 119.2 L
270.805 119.2 L
271.239 119.2 L
271.673 119.2 L
272.107 119.2 L
272.541 119.2 L
272.975 119.2 L
273.409 119.2 L
273.843 119.2 L
274.277 119.2 L
274.711 119.2 L
275.145 119.2 L
275.579 119.2 L
276.013 119.2 L
276.447 119.2 L
276.881 119.2 L
277.315 119.2 L
277.749 119.2 L
278.183 119.2 L
278.617 119.2 L
279.051 119.2 L
279.485 119.2 L
279.919 119.2 L
280.353 119.2 L
280.787 119.2 L
281.221 119.2 L
281.655 119.2 L
282.089 119.2 L
282.523 119.2 L
282.957 119.2 L
283.391 119.2 L
283.825 119.2 L
284.259 119.2 L
284.693 119.2 L
285.127 119.2 L
285.561 119.2 L
285.995 119.2 L
286.429 119.2 L
S
GR
GS
[0.75 0 0 0.75 0 0] CT
1 0 1 RC
1 LJ
0.667 LW
N
285.995 119.2 M
286.429 119.2 L
286.863 119.2 L
287.297 119.2 L
287.731 119.2 L
288.165 119.2 L
288.599 119.2 L
289.033 119.2 L
289.467 119.2 L
289.901 119.2 L
290.335 119.2 L
290.769 119.2 L
291.203 119.2 L
291.637 119.2 L
292.071 119.2 L
292.505 119.2 L
292.939 119.2 L
293.373 119.2 L
293.807 119.2 L
294.241 119.2 L
294.675 119.2 L
295.109 119.2 L
295.543 119.2 L
295.977 119.2 L
296.411 119.2 L
296.845 119.2 L
297.279 119.2 L
297.713 119.2 L
298.147 119.2 L
298.581 119.2 L
299.015 119.2 L
299.449 119.2 L
299.883 119.2 L
300.317 119.2 L
300.751 119.2 L
301.185 119.2 L
301.619 119.2 L
302.053 119.2 L
302.487 119.2 L
302.921 119.2 L
303.355 119.2 L
303.789 119.2 L
304.223 119.2 L
304.657 119.2 L
305.091 119.2 L
305.525 119.2 L
305.959 119.2 L
306.393 119.2 L
306.827 119.2 L
307.261 119.2 L
307.695 119.2 L
308.129 119.2 L
S
GR
GS
[0.75 0 0 0.75 0 0] CT
1 0 1 RC
1 LJ
0.667 LW
N
307.695 119.2 M
308.129 119.2 L
308.563 119.2 L
308.997 119.2 L
309.431 119.2 L
309.865 119.2 L
310.299 119.2 L
310.733 119.2 L
311.167 119.2 L
311.601 119.2 L
312.035 119.2 L
312.469 119.2 L
312.903 119.2 L
313.337 119.2 L
313.771 119.2 L
314.205 119.2 L
314.639 119.2 L
315.073 119.2 L
315.507 119.2 L
315.941 119.2 L
316.375 119.2 L
316.809 119.2 L
317.243 119.2 L
317.677 119.2 L
318.111 119.2 L
318.545 119.2 L
318.979 119.2 L
319.413 119.2 L
319.847 119.2 L
320.281 119.2 L
320.715 119.2 L
321.149 119.2 L
321.583 119.2 L
322.017 119.2 L
322.451 119.2 L
322.885 119.2 L
323.319 119.2 L
323.753 119.2 L
324.187 119.2 L
324.621 119.2 L
325.055 119.2 L
325.489 119.2 L
325.923 119.2 L
326.357 119.2 L
326.791 119.2 L
327.225 119.2 L
327.659 119.2 L
328.093 119.2 L
328.527 119.2 L
328.961 119.2 L
329.395 119.2 L
329.829 119.2 L
S
GR
GS
[0.75 0 0 0.75 0 0] CT
1 0 1 RC
1 LJ
0.667 LW
N
329.395 119.2 M
329.829 119.2 L
330.263 119.2 L
330.697 119.2 L
331.131 119.2 L
331.565 119.2 L
331.999 119.2 L
332.433 119.2 L
332.867 119.2 L
333.301 119.2 L
333.735 119.2 L
334.169 119.2 L
334.603 119.2 L
335.037 119.2 L
335.471 119.2 L
335.905 119.2 L
336.339 119.2 L
336.773 119.2 L
337.207 119.2 L
337.641 119.2 L
338.075 119.2 L
338.509 119.2 L
338.943 119.2 L
339.377 119.2 L
339.811 119.2 L
340.245 119.2 L
340.679 119.2 L
341.113 119.2 L
341.547 119.2 L
341.981 119.2 L
342.415 119.2 L
342.849 119.2 L
343.283 119.2 L
343.717 119.2 L
344.151 119.2 L
344.585 119.2 L
345.019 119.2 L
345.453 119.2 L
345.887 119.2 L
346.321 119.2 L
346.755 119.2 L
347.189 119.2 L
347.623 119.2 L
348.057 119.2 L
348.491 119.2 L
348.925 119.2 L
349.359 119.2 L
349.793 119.2 L
350.227 119.2 L
350.661 119.2 L
351.095 119.2 L
351.529 119.2 L
S
GR
GS
[0.75 0 0 0.75 0 0] CT
1 0 1 RC
1 LJ
0.667 LW
N
351.095 119.2 M
351.529 119.2 L
351.963 119.2 L
352.397 119.2 L
352.831 119.2 L
353.265 119.2 L
353.699 119.2 L
354.133 119.2 L
354.567 119.2 L
355.001 119.2 L
355.435 119.2 L
355.869 119.2 L
356.303 119.2 L
356.737 119.2 L
357.171 119.2 L
357.605 119.2 L
358.039 119.2 L
358.473 119.2 L
358.907 119.2 L
359.341 119.2 L
359.775 119.2 L
360.209 119.2 L
360.643 119.2 L
361.077 119.2 L
361.511 119.2 L
361.945 119.2 L
362.379 119.2 L
362.813 119.2 L
363.247 119.2 L
363.681 119.2 L
364.115 119.2 L
364.549 119.2 L
364.983 119.2 L
365.417 119.2 L
365.851 119.2 L
366.285 119.2 L
366.719 119.2 L
367.153 119.2 L
367.587 119.2 L
368.021 119.2 L
368.455 119.2 L
368.889 119.2 L
369.323 119.2 L
369.757 119.2 L
370.191 119.2 L
370.625 119.2 L
371.059 119.2 L
371.493 119.2 L
371.927 119.2 L
372.361 119.2 L
372.795 119.2 L
373.229 119.2 L
S
GR
GS
[0.75 0 0 0.75 0 0] CT
1 0 1 RC
1 LJ
0.667 LW
N
372.795 119.2 M
373.229 119.2 L
373.663 119.2 L
374.097 119.2 L
374.531 119.2 L
374.965 119.2 L
375.399 119.2 L
375.833 119.2 L
376.267 119.2 L
376.701 119.2 L
377.135 119.2 L
377.569 119.2 L
378.003 119.2 L
378.437 119.2 L
378.871 119.2 L
379.305 119.2 L
379.739 119.2 L
380.173 119.2 L
380.607 119.2 L
381.041 119.2 L
381.475 119.2 L
381.909 119.2 L
382.343 119.2 L
382.777 119.2 L
383.211 119.2 L
383.645 119.2 L
384.079 119.2 L
384.513 119.2 L
384.947 119.2 L
385.381 119.2 L
385.815 119.2 L
386.249 119.2 L
386.683 119.2 L
387.117 119.2 L
387.551 119.2 L
387.985 119.2 L
388.419 119.2 L
388.853 119.2 L
389.287 119.2 L
389.721 119.2 L
390.155 119.2 L
390.589 119.2 L
391.023 119.2 L
391.457 119.2 L
391.891 119.2 L
392.325 119.2 L
392.759 119.2 L
393.193 119.2 L
393.627 119.2 L
394.061 119.2 L
394.495 119.2 L
394.929 119.2 L
S
GR
GS
[0.75 0 0 0.75 0 0] CT
1 0 1 RC
1 LJ
0.667 LW
N
394.495 119.2 M
394.929 119.2 L
395.363 119.2 L
395.797 119.2 L
396.231 119.2 L
396.665 119.2 L
397.099 119.2 L
397.533 119.2 L
397.967 119.2 L
398.401 119.2 L
398.835 119.2 L
399.269 119.2 L
399.703 119.2 L
400.137 119.2 L
400.571 119.2 L
401.005 119.2 L
401.439 119.2 L
401.873 119.2 L
402.307 119.2 L
402.741 119.2 L
403.175 119.2 L
403.609 119.2 L
404.043 119.2 L
404.477 119.2 L
404.911 119.2 L
405.345 119.2 L
405.779 119.2 L
406.213 119.2 L
406.647 119.2 L
407.081 119.2 L
407.515 119.2 L
407.949 119.2 L
408.383 119.2 L
408.817 119.2 L
409.251 119.2 L
409.685 119.2 L
410.119 119.2 L
410.553 119.2 L
410.987 119.2 L
411.421 119.2 L
411.855 119.2 L
412.289 119.2 L
412.723 119.2 L
413.157 119.2 L
413.591 119.2 L
414.025 119.2 L
414.459 119.2 L
414.893 119.2 L
415.327 119.2 L
415.761 119.2 L
416.195 119.2 L
416.629 119.2 L
S
GR
GS
[0.75 0 0 0.75 0 0] CT
1 0 1 RC
1 LJ
0.667 LW
N
416.195 119.2 M
416.629 119.2 L
417.063 119.2 L
417.497 119.2 L
417.931 119.2 L
418.365 119.2 L
418.799 119.2 L
419.233 119.2 L
419.667 119.2 L
420.101 119.2 L
420.535 119.2 L
420.969 119.2 L
421.403 119.2 L
421.837 119.2 L
422.271 119.2 L
422.705 119.2 L
423.139 119.2 L
423.573 119.2 L
424.007 119.2 L
424.441 119.2 L
424.875 119.2 L
425.309 119.2 L
425.743 119.2 L
426.177 119.2 L
426.611 119.2 L
427.045 119.2 L
427.479 119.2 L
427.913 119.2 L
428.347 119.2 L
428.781 119.2 L
429.215 119.2 L
429.649 119.2 L
430.083 119.2 L
430.517 119.2 L
430.951 119.2 L
431.385 119.2 L
431.819 119.2 L
432.253 119.2 L
432.687 119.2 L
433.121 119.2 L
433.555 119.2 L
433.989 119.2 L
434.423 119.2 L
434.857 119.2 L
435.291 119.2 L
435.725 119.2 L
436.159 119.2 L
436.593 119.2 L
437.027 119.2 L
437.461 119.2 L
437.895 119.2 L
438.329 119.2 L
S
GR
GS
[0.75 0 0 0.75 0 0] CT
1 0 1 RC
1 LJ
0.667 LW
N
437.895 119.2 M
438.329 119.2 L
438.763 119.2 L
439.197 119.2 L
439.631 119.2 L
440.065 119.2 L
440.499 119.2 L
440.933 119.2 L
441.367 119.2 L
441.801 119.2 L
442.235 119.2 L
442.669 119.2 L
443.103 119.2 L
443.537 119.2 L
443.971 119.2 L
444.405 119.2 L
444.839 119.2 L
445.273 119.2 L
445.707 119.2 L
446.141 119.2 L
446.575 119.2 L
447.009 119.2 L
447.443 119.2 L
447.877 119.2 L
448.311 119.2 L
448.745 119.2 L
449.179 119.2 L
449.613 119.2 L
450.047 119.2 L
450.481 119.2 L
450.915 119.2 L
451.349 119.2 L
451.783 119.2 L
452.217 119.2 L
452.651 119.2 L
453.085 119.2 L
453.519 119.2 L
453.953 119.2 L
454.387 119.2 L
454.821 119.2 L
455.255 119.2 L
455.689 119.2 L
456.123 119.2 L
456.557 119.2 L
456.991 119.2 L
457.425 119.2 L
457.859 119.2 L
458.293 119.2 L
458.727 119.2 L
459.161 119.2 L
459.595 119.2 L
460.029 119.2 L
S
GR
GS
[0.75 0 0 0.75 0 0] CT
1 0 1 RC
1 LJ
0.667 LW
N
459.595 119.2 M
460.029 119.2 L
460.463 119.2 L
460.897 119.2 L
461.331 119.2 L
461.765 119.2 L
462.199 119.2 L
462.633 119.2 L
463.067 119.2 L
463.501 119.2 L
463.935 119.2 L
464.369 119.2 L
464.803 119.2 L
465.237 119.2 L
465.671 119.2 L
466.105 119.2 L
466.539 119.2 L
466.973 119.2 L
467.407 119.2 L
467.841 119.2 L
468.275 119.2 L
468.709 119.2 L
469.143 119.2 L
469.577 119.2 L
470.011 119.2 L
470.445 119.2 L
470.879 119.2 L
471.313 119.2 L
471.747 119.2 L
472.181 119.2 L
472.615 119.2 L
473.049 119.2 L
473.483 119.2 L
473.917 119.2 L
474.351 119.2 L
474.785 119.2 L
475.219 119.2 L
475.653 119.2 L
476.087 119.2 L
476.521 119.2 L
476.955 119.2 L
477.389 119.2 L
477.823 119.2 L
478.257 119.2 L
478.691 119.2 L
479.125 119.2 L
479.559 119.2 L
479.993 119.2 L
480.427 119.2 L
480.861 119.2 L
481.295 119.2 L
481.729 119.2 L
S
GR
GS
[0.75 0 0 0.75 0 0] CT
1 0 1 RC
1 LJ
0.667 LW
N
481.295 119.2 M
481.729 119.2 L
482.163 119.2 L
482.597 119.2 L
483.031 119.2 L
483.465 119.2 L
483.899 119.2 L
484.333 119.2 L
484.767 119.2 L
485.201 119.2 L
485.635 119.2 L
486.069 119.2 L
486.503 119.2 L
486.937 119.2 L
487.371 119.2 L
487.805 119.2 L
488.239 119.2 L
488.673 119.2 L
489.107 119.2 L
489.541 119.2 L
489.975 119.2 L
490.409 119.2 L
490.843 119.2 L
491.277 119.2 L
491.711 119.2 L
492.145 119.2 L
492.579 119.2 L
493.013 119.2 L
493.447 119.2 L
493.881 119.2 L
494.315 119.2 L
494.749 119.2 L
495.183 119.2 L
495.617 119.2 L
496.051 119.2 L
496.485 119.2 L
496.919 119.2 L
497.353 119.2 L
497.787 119.2 L
498.221 119.2 L
498.655 119.2 L
499.089 119.2 L
499.523 119.2 L
499.957 119.2 L
500.391 119.2 L
500.825 119.2 L
501.259 119.2 L
501.693 119.2 L
502.127 119.2 L
502.561 119.2 L
502.995 119.2 L
503.429 119.2 L
S
GR
GS
[0.75 0 0 0.75 0 0] CT
1 0 1 RC
1 LJ
0.667 LW
N
502.995 119.2 M
503.429 119.2 L
503.863 119.2 L
504.297 119.2 L
504.731 119.2 L
505.165 119.2 L
505.599 119.2 L
506.033 119.2 L
506.467 119.2 L
506.901 119.2 L
507 119.2 L
S
GR
GS
[0.75 0 0 0.75 0 0] CT
1 GC
N
422 112 M
422 44 L
494 44 L
494 112 L
cp
f
GR
GS
[0.75 0 0 0.75 355.5 40.7005] CT
/Helvetica 12 F
GS
[1 0 0 1 0 0] CT
0 4.5 moveto 
1 -1 scale
(w1) t 
GR
GR
GS
[0.75 0 0 0.75 0 0] CT
0 0 1 RC
1 LJ
0.667 LW
N
430 54.267 M
470 54.267 L
S
GR
GS
[0.75 0 0 0.75 355.5 52.56683] CT
/Helvetica 12 F
GS
[1 0 0 1 0 0] CT
0 4.5 moveto 
1 -1 scale
(w2) t 
GR
GR
GS
[0.75 0 0 0.75 0 0] CT
0 1 1 RC
1 LJ
0.667 LW
N
430 70.089 M
470 70.089 L
S
GR
GS
[0.75 0 0 0.75 355.5 64.43317] CT
/Helvetica 12 F
GS
[1 0 0 1 0 0] CT
0 4.5 moveto 
1 -1 scale
(y1) t 
GR
GR
GS
[0.75 0 0 0.75 0 0] CT
1 0 0 RC
1 LJ
0.667 LW
N
430 85.911 M
470 85.911 L
S
GR
GS
[0.75 0 0 0.75 355.5 76.29951] CT
/Helvetica 12 F
GS
[1 0 0 1 0 0] CT
0 4.5 moveto 
1 -1 scale
(y2) t 
GR
GR
GS
[0.75 0 0 0.75 0 0] CT
1 0 1 RC
1 LJ
0.667 LW
N
430 101.733 M
470 101.733 L
S
GR
GS
[0.75 0 0 0.75 0 0] CT
0.149 GC
10.0 ML
0.667 LW
N
422 112 M
422 44 L
494 44 L
494 112 L
cp
S
GR
%%Trailer
%%Pages: 1
%%EOF
