%!PS-Adobe-3.0 EPSF-3.0
%%Creator: (MATLAB, The Mathworks, Inc. Version 8.6.0.267246 \(R2015b\). Operating System: Windows 8)
%%Title: E:/Projects/skola/rls/pics/SP2/state_reg_input_error_y.eps
%%CreationDate: 2017-03-06T10:18:31
%%Pages: (atend)
%%BoundingBox: 0 0 420 315
%%LanguageLevel: 2
%%EndComments
%%BeginProlog
%%BeginResource: procset (Apache XML Graphics Std ProcSet) 1.2 0
%%Version: 1.2 0
%%Copyright: (Copyright 2001-2003,2010 The Apache Software Foundation. License terms: http://www.apache.org/licenses/LICENSE-2.0)
/bd{bind def}bind def
/ld{load def}bd
/GR/grestore ld
/M/moveto ld
/LJ/setlinejoin ld
/C/curveto ld
/f/fill ld
/LW/setlinewidth ld
/GC/setgray ld
/t/show ld
/N/newpath ld
/CT/concat ld
/cp/closepath ld
/S/stroke ld
/L/lineto ld
/CC/setcmykcolor ld
/A/ashow ld
/GS/gsave ld
/RC/setrgbcolor ld
/RM/rmoveto ld
/ML/setmiterlimit ld
/re {4 2 roll M
1 index 0 rlineto
0 exch rlineto
neg 0 rlineto
cp } bd
/_ctm matrix def
/_tm matrix def
/BT { _ctm currentmatrix pop matrix _tm copy pop 0 0 moveto } bd
/ET { _ctm setmatrix } bd
/iTm { _ctm setmatrix _tm concat } bd
/Tm { _tm astore pop iTm 0 0 moveto } bd
/ux 0.0 def
/uy 0.0 def
/F {
  /Tp exch def
  /Tf exch def
  Tf findfont Tp scalefont setfont
  /cf Tf def  /cs Tp def
} bd
/ULS {currentpoint /uy exch def /ux exch def} bd
/ULE {
  /Tcx currentpoint pop def
  gsave
  newpath
  cf findfont cs scalefont dup
  /FontMatrix get 0 get /Ts exch def /FontInfo get dup
  /UnderlinePosition get Ts mul /To exch def
  /UnderlineThickness get Ts mul /Tt exch def
  ux uy To add moveto  Tcx uy To add lineto
  Tt setlinewidth stroke
  grestore
} bd
/OLE {
  /Tcx currentpoint pop def
  gsave
  newpath
  cf findfont cs scalefont dup
  /FontMatrix get 0 get /Ts exch def /FontInfo get dup
  /UnderlinePosition get Ts mul /To exch def
  /UnderlineThickness get Ts mul /Tt exch def
  ux uy To add cs add moveto Tcx uy To add cs add lineto
  Tt setlinewidth stroke
  grestore
} bd
/SOE {
  /Tcx currentpoint pop def
  gsave
  newpath
  cf findfont cs scalefont dup
  /FontMatrix get 0 get /Ts exch def /FontInfo get dup
  /UnderlinePosition get Ts mul /To exch def
  /UnderlineThickness get Ts mul /Tt exch def
  ux uy To add cs 10 mul 26 idiv add moveto Tcx uy To add cs 10 mul 26 idiv add lineto
  Tt setlinewidth stroke
  grestore
} bd
/QT {
/Y22 exch store
/X22 exch store
/Y21 exch store
/X21 exch store
currentpoint
/Y21 load 2 mul add 3 div exch
/X21 load 2 mul add 3 div exch
/X21 load 2 mul /X22 load add 3 div
/Y21 load 2 mul /Y22 load add 3 div
/X22 load /Y22 load curveto
} bd
/SSPD {
dup length /d exch dict def
{
/v exch def
/k exch def
currentpagedevice k known {
/cpdv currentpagedevice k get def
v cpdv ne {
/upd false def
/nullv v type /nulltype eq def
/nullcpdv cpdv type /nulltype eq def
nullv nullcpdv or
{
/upd true def
} {
/sametype v type cpdv type eq def
sametype {
v type /arraytype eq {
/vlen v length def
/cpdvlen cpdv length def
vlen cpdvlen eq {
0 1 vlen 1 sub {
/i exch def
/obj v i get def
/cpdobj cpdv i get def
obj cpdobj ne {
/upd true def
exit
} if
} for
} {
/upd true def
} ifelse
} {
v type /dicttype eq {
v {
/dv exch def
/dk exch def
/cpddv cpdv dk get def
dv cpddv ne {
/upd true def
exit
} if
} forall
} {
/upd true def
} ifelse
} ifelse
} if
} ifelse
upd true eq {
d k v put
} if
} if
} if
} forall
d length 0 gt {
d setpagedevice
} if
} bd
%%EndResource
%%BeginResource: procset (Apache XML Graphics EPS ProcSet) 1.0 0
%%Version: 1.0 0
%%Copyright: (Copyright 2002-2003 The Apache Software Foundation. License terms: http://www.apache.org/licenses/LICENSE-2.0)
/BeginEPSF { %def
/b4_Inc_state save def         % Save state for cleanup
/dict_count countdictstack def % Count objects on dict stack
/op_count count 1 sub def      % Count objects on operand stack
userdict begin                 % Push userdict on dict stack
/showpage { } def              % Redefine showpage, { } = null proc
0 setgray 0 setlinecap         % Prepare graphics state
1 setlinewidth 0 setlinejoin
10 setmiterlimit [ ] 0 setdash newpath
/languagelevel where           % If level not equal to 1 then
{pop languagelevel             % set strokeadjust and
1 ne                           % overprint to their defaults.
{false setstrokeadjust false setoverprint
} if
} if
} bd
/EndEPSF { %def
count op_count sub {pop} repeat            % Clean up stacks
countdictstack dict_count sub {end} repeat
b4_Inc_state restore
} bd
%%EndResource
%FOPBeginFontDict
%%IncludeResource: font Courier-Bold
%%IncludeResource: font Helvetica
%%IncludeResource: font Courier-BoldOblique
%%IncludeResource: font Courier-Oblique
%%IncludeResource: font Times-Roman
%%IncludeResource: font Helvetica-BoldOblique
%%IncludeResource: font Helvetica-Bold
%%IncludeResource: font Helvetica-Oblique
%%IncludeResource: font Times-BoldItalic
%%IncludeResource: font Courier
%%IncludeResource: font Times-Italic
%%IncludeResource: font Times-Bold
%%IncludeResource: font Symbol
%%IncludeResource: font ZapfDingbats
%FOPEndFontDict
%%BeginResource: encoding WinAnsiEncoding
/WinAnsiEncoding [
/.notdef /.notdef /.notdef /.notdef /.notdef
/.notdef /.notdef /.notdef /.notdef /.notdef
/.notdef /.notdef /.notdef /.notdef /.notdef
/.notdef /.notdef /.notdef /.notdef /.notdef
/.notdef /.notdef /.notdef /.notdef /.notdef
/.notdef /.notdef /.notdef /.notdef /.notdef
/.notdef /.notdef /space /exclam /quotedbl
/numbersign /dollar /percent /ampersand /quotesingle
/parenleft /parenright /asterisk /plus /comma
/hyphen /period /slash /zero /one
/two /three /four /five /six
/seven /eight /nine /colon /semicolon
/less /equal /greater /question /at
/A /B /C /D /E
/F /G /H /I /J
/K /L /M /N /O
/P /Q /R /S /T
/U /V /W /X /Y
/Z /bracketleft /backslash /bracketright /asciicircum
/underscore /quoteleft /a /b /c
/d /e /f /g /h
/i /j /k /l /m
/n /o /p /q /r
/s /t /u /v /w
/x /y /z /braceleft /bar
/braceright /asciitilde /bullet /Euro /bullet
/quotesinglbase /florin /quotedblbase /ellipsis /dagger
/daggerdbl /circumflex /perthousand /Scaron /guilsinglleft
/OE /bullet /Zcaron /bullet /bullet
/quoteleft /quoteright /quotedblleft /quotedblright /bullet
/endash /emdash /asciitilde /trademark /scaron
/guilsinglright /oe /bullet /zcaron /Ydieresis
/space /exclamdown /cent /sterling /currency
/yen /brokenbar /section /dieresis /copyright
/ordfeminine /guillemotleft /logicalnot /sfthyphen /registered
/macron /degree /plusminus /twosuperior /threesuperior
/acute /mu /paragraph /middot /cedilla
/onesuperior /ordmasculine /guillemotright /onequarter /onehalf
/threequarters /questiondown /Agrave /Aacute /Acircumflex
/Atilde /Adieresis /Aring /AE /Ccedilla
/Egrave /Eacute /Ecircumflex /Edieresis /Igrave
/Iacute /Icircumflex /Idieresis /Eth /Ntilde
/Ograve /Oacute /Ocircumflex /Otilde /Odieresis
/multiply /Oslash /Ugrave /Uacute /Ucircumflex
/Udieresis /Yacute /Thorn /germandbls /agrave
/aacute /acircumflex /atilde /adieresis /aring
/ae /ccedilla /egrave /eacute /ecircumflex
/edieresis /igrave /iacute /icircumflex /idieresis
/eth /ntilde /ograve /oacute /ocircumflex
/otilde /odieresis /divide /oslash /ugrave
/uacute /ucircumflex /udieresis /yacute /thorn
/ydieresis
] def
%%EndResource
%FOPBeginFontReencode
/Courier-Bold findfont
dup length dict begin
  {1 index /FID ne {def} {pop pop} ifelse} forall
  /Encoding WinAnsiEncoding def
  currentdict
end
/Courier-Bold exch definefont pop
/Helvetica findfont
dup length dict begin
  {1 index /FID ne {def} {pop pop} ifelse} forall
  /Encoding WinAnsiEncoding def
  currentdict
end
/Helvetica exch definefont pop
/Courier-BoldOblique findfont
dup length dict begin
  {1 index /FID ne {def} {pop pop} ifelse} forall
  /Encoding WinAnsiEncoding def
  currentdict
end
/Courier-BoldOblique exch definefont pop
/Courier-Oblique findfont
dup length dict begin
  {1 index /FID ne {def} {pop pop} ifelse} forall
  /Encoding WinAnsiEncoding def
  currentdict
end
/Courier-Oblique exch definefont pop
/Times-Roman findfont
dup length dict begin
  {1 index /FID ne {def} {pop pop} ifelse} forall
  /Encoding WinAnsiEncoding def
  currentdict
end
/Times-Roman exch definefont pop
/Helvetica-BoldOblique findfont
dup length dict begin
  {1 index /FID ne {def} {pop pop} ifelse} forall
  /Encoding WinAnsiEncoding def
  currentdict
end
/Helvetica-BoldOblique exch definefont pop
/Helvetica-Bold findfont
dup length dict begin
  {1 index /FID ne {def} {pop pop} ifelse} forall
  /Encoding WinAnsiEncoding def
  currentdict
end
/Helvetica-Bold exch definefont pop
/Helvetica-Oblique findfont
dup length dict begin
  {1 index /FID ne {def} {pop pop} ifelse} forall
  /Encoding WinAnsiEncoding def
  currentdict
end
/Helvetica-Oblique exch definefont pop
/Times-BoldItalic findfont
dup length dict begin
  {1 index /FID ne {def} {pop pop} ifelse} forall
  /Encoding WinAnsiEncoding def
  currentdict
end
/Times-BoldItalic exch definefont pop
/Courier findfont
dup length dict begin
  {1 index /FID ne {def} {pop pop} ifelse} forall
  /Encoding WinAnsiEncoding def
  currentdict
end
/Courier exch definefont pop
/Times-Italic findfont
dup length dict begin
  {1 index /FID ne {def} {pop pop} ifelse} forall
  /Encoding WinAnsiEncoding def
  currentdict
end
/Times-Italic exch definefont pop
/Times-Bold findfont
dup length dict begin
  {1 index /FID ne {def} {pop pop} ifelse} forall
  /Encoding WinAnsiEncoding def
  currentdict
end
/Times-Bold exch definefont pop
%FOPEndFontReencode
%%EndProlog
%%Page: 1 1
%%PageBoundingBox: 0 0 420 315
%%BeginPageSetup
[1 0 0 -1 0 315] CT
%%EndPageSetup
GS
[0.75 0 0 0.75 0 0] CT
1 GC
N
0 0 560 420 re
f
GR
GS
[0.75 0 0 0.75 0 0] CT
1 GC
N
0 0 560 420 re
f
GR
GS
[0.75 0 0 0.75 0 0] CT
1 GC
N
73 374 M
507 374 L
507 31 L
73 31 L
cp
f
GR
GS
[0.75 0 0 0.75 0 0] CT
0.149 GC
2 setlinecap
1 LJ
0.667 LW
N
73 374 M
507 374 L
S
GR
GS
[0.75 0 0 0.75 0 0] CT
0.149 GC
2 setlinecap
1 LJ
0.667 LW
N
73 374 M
73 369.66 L
S
GR
GS
[0.75 0 0 0.75 0 0] CT
0.149 GC
2 setlinecap
1 LJ
0.667 LW
N
116.4 374 M
116.4 369.66 L
S
GR
GS
[0.75 0 0 0.75 0 0] CT
0.149 GC
2 setlinecap
1 LJ
0.667 LW
N
159.8 374 M
159.8 369.66 L
S
GR
GS
[0.75 0 0 0.75 0 0] CT
0.149 GC
2 setlinecap
1 LJ
0.667 LW
N
203.2 374 M
203.2 369.66 L
S
GR
GS
[0.75 0 0 0.75 0 0] CT
0.149 GC
2 setlinecap
1 LJ
0.667 LW
N
246.6 374 M
246.6 369.66 L
S
GR
GS
[0.75 0 0 0.75 0 0] CT
0.149 GC
2 setlinecap
1 LJ
0.667 LW
N
290 374 M
290 369.66 L
S
GR
GS
[0.75 0 0 0.75 0 0] CT
0.149 GC
2 setlinecap
1 LJ
0.667 LW
N
333.4 374 M
333.4 369.66 L
S
GR
GS
[0.75 0 0 0.75 0 0] CT
0.149 GC
2 setlinecap
1 LJ
0.667 LW
N
376.8 374 M
376.8 369.66 L
S
GR
GS
[0.75 0 0 0.75 0 0] CT
0.149 GC
2 setlinecap
1 LJ
0.667 LW
N
420.2 374 M
420.2 369.66 L
S
GR
GS
[0.75 0 0 0.75 0 0] CT
0.149 GC
2 setlinecap
1 LJ
0.667 LW
N
463.6 374 M
463.6 369.66 L
S
GR
GS
[0.75 0 0 0.75 0 0] CT
0.149 GC
2 setlinecap
1 LJ
0.667 LW
N
507 374 M
507 369.66 L
S
GR
GS
[0.75 0 0 0.75 54.75 284.50001] CT
0.149 GC
/Helvetica 13 F
GS
[1 0 0 1 0 0] CT
-4 13 moveto 
1 -1 scale
(0) t 
GR
GR
GS
[0.75 0 0 0.75 87.3 284.50001] CT
0.149 GC
/Helvetica 13 F
GS
[1 0 0 1 0 0] CT
-11 13 moveto 
1 -1 scale
(100) t 
GR
GR
GS
[0.75 0 0 0.75 119.85 284.50001] CT
0.149 GC
/Helvetica 13 F
GS
[1 0 0 1 0 0] CT
-11 13 moveto 
1 -1 scale
(200) t 
GR
GR
GS
[0.75 0 0 0.75 152.4 284.50001] CT
0.149 GC
/Helvetica 13 F
GS
[1 0 0 1 0 0] CT
-11 13 moveto 
1 -1 scale
(300) t 
GR
GR
GS
[0.75 0 0 0.75 184.95 284.50001] CT
0.149 GC
/Helvetica 13 F
GS
[1 0 0 1 0 0] CT
-11 13 moveto 
1 -1 scale
(400) t 
GR
GR
GS
[0.75 0 0 0.75 217.5 284.50001] CT
0.149 GC
/Helvetica 13 F
GS
[1 0 0 1 0 0] CT
-11 13 moveto 
1 -1 scale
(500) t 
GR
GR
GS
[0.75 0 0 0.75 250.05 284.50001] CT
0.149 GC
/Helvetica 13 F
GS
[1 0 0 1 0 0] CT
-11 13 moveto 
1 -1 scale
(600) t 
GR
GR
GS
[0.75 0 0 0.75 282.59999 284.50001] CT
0.149 GC
/Helvetica 13 F
GS
[1 0 0 1 0 0] CT
-11 13 moveto 
1 -1 scale
(700) t 
GR
GR
GS
[0.75 0 0 0.75 315.15001 284.50001] CT
0.149 GC
/Helvetica 13 F
GS
[1 0 0 1 0 0] CT
-11 13 moveto 
1 -1 scale
(800) t 
GR
GR
GS
[0.75 0 0 0.75 347.7 284.50001] CT
0.149 GC
/Helvetica 13 F
GS
[1 0 0 1 0 0] CT
-11 13 moveto 
1 -1 scale
(900) t 
GR
GR
GS
[0.75 0 0 0.75 380.25 284.50001] CT
0.149 GC
/Helvetica 13 F
GS
[1 0 0 1 0 0] CT
-14.5 13 moveto 
1 -1 scale
(1000) t 
GR
GR
GS
[0.75 0 0 0.75 217.50016 297.49999] CT
0.149 GC
/Helvetica 15 F
GS
[1 0 0 1 0 0] CT
-11 14 moveto 
1 -1 scale
(t\(s\)) t 
GR
GR
GS
[0.75 0 0 0.75 0 0] CT
0.149 GC
2 setlinecap
1 LJ
0.667 LW
N
73 374 M
73 31 L
S
GR
GS
[0.75 0 0 0.75 0 0] CT
0.149 GC
2 setlinecap
1 LJ
0.667 LW
N
73 374 M
77.34 374 L
S
GR
GS
[0.75 0 0 0.75 0 0] CT
0.149 GC
2 setlinecap
1 LJ
0.667 LW
N
73 335.889 M
77.34 335.889 L
S
GR
GS
[0.75 0 0 0.75 0 0] CT
0.149 GC
2 setlinecap
1 LJ
0.667 LW
N
73 297.778 M
77.34 297.778 L
S
GR
GS
[0.75 0 0 0.75 0 0] CT
0.149 GC
2 setlinecap
1 LJ
0.667 LW
N
73 259.667 M
77.34 259.667 L
S
GR
GS
[0.75 0 0 0.75 0 0] CT
0.149 GC
2 setlinecap
1 LJ
0.667 LW
N
73 221.556 M
77.34 221.556 L
S
GR
GS
[0.75 0 0 0.75 0 0] CT
0.149 GC
2 setlinecap
1 LJ
0.667 LW
N
73 183.444 M
77.34 183.444 L
S
GR
GS
[0.75 0 0 0.75 0 0] CT
0.149 GC
2 setlinecap
1 LJ
0.667 LW
N
73 145.333 M
77.34 145.333 L
S
GR
GS
[0.75 0 0 0.75 0 0] CT
0.149 GC
2 setlinecap
1 LJ
0.667 LW
N
73 107.222 M
77.34 107.222 L
S
GR
GS
[0.75 0 0 0.75 0 0] CT
0.149 GC
2 setlinecap
1 LJ
0.667 LW
N
73 69.111 M
77.34 69.111 L
S
GR
GS
[0.75 0 0 0.75 0 0] CT
0.149 GC
2 setlinecap
1 LJ
0.667 LW
N
73 31 M
77.34 31 L
S
GR
GS
[0.75 0 0 0.75 50.75 280.5] CT
0.149 GC
/Helvetica 13 F
GS
[1 0 0 1 0 0] CT
-30 5 moveto 
1 -1 scale
(-0.06) t 
GR
GR
GS
[0.75 0 0 0.75 50.75 251.91666] CT
0.149 GC
/Helvetica 13 F
GS
[1 0 0 1 0 0] CT
-30 5 moveto 
1 -1 scale
(-0.04) t 
GR
GR
GS
[0.75 0 0 0.75 50.75 223.33333] CT
0.149 GC
/Helvetica 13 F
GS
[1 0 0 1 0 0] CT
-30 5 moveto 
1 -1 scale
(-0.02) t 
GR
GR
GS
[0.75 0 0 0.75 50.75 194.74999] CT
0.149 GC
/Helvetica 13 F
GS
[1 0 0 1 0 0] CT
-8 5 moveto 
1 -1 scale
(0) t 
GR
GR
GS
[0.75 0 0 0.75 50.75 166.16667] CT
0.149 GC
/Helvetica 13 F
GS
[1 0 0 1 0 0] CT
-26 5 moveto 
1 -1 scale
(0.02) t 
GR
GR
GS
[0.75 0 0 0.75 50.75 137.58333] CT
0.149 GC
/Helvetica 13 F
GS
[1 0 0 1 0 0] CT
-26 5 moveto 
1 -1 scale
(0.04) t 
GR
GR
GS
[0.75 0 0 0.75 50.75 109.00001] CT
0.149 GC
/Helvetica 13 F
GS
[1 0 0 1 0 0] CT
-26 5 moveto 
1 -1 scale
(0.06) t 
GR
GR
GS
[0.75 0 0 0.75 50.75 80.41667] CT
0.149 GC
/Helvetica 13 F
GS
[1 0 0 1 0 0] CT
-26 5 moveto 
1 -1 scale
(0.08) t 
GR
GR
GS
[0.75 0 0 0.75 50.75 51.83333] CT
0.149 GC
/Helvetica 13 F
GS
[1 0 0 1 0 0] CT
-19 5 moveto 
1 -1 scale
(0.1) t 
GR
GR
GS
[0.75 0 0 0.75 50.75 23.25] CT
0.149 GC
/Helvetica 13 F
GS
[1 0 0 1 0 0] CT
-26 5 moveto 
1 -1 scale
(0.12) t 
GR
GR
GS
[0.75 0 0 0.75 217.50021 21.18751] CT
/any-Bold 15 F
GS
[1 0 0 1 0 0] CT
-130.5 -4 moveto 
1 -1 scale
(Response of system with input error) t 
GR
GR
GS
[0.75 0 0 0.75 0 0] CT
0 0 1 RC
1 LJ
0.667 LW
N
73 259.667 M
73.434 259.667 L
73.434 69.111 L
73.434 69.111 L
74.127 69.111 L
74.821 69.111 L
75.959 69.111 L
77.116 69.111 L
78.387 69.111 L
79.842 69.111 L
81.48 69.111 L
83.311 69.111 L
85.242 69.111 L
87.287 69.111 L
89.462 69.111 L
91.785 69.111 L
94.278 69.111 L
96.973 69.111 L
99.907 69.111 L
103.135 69.111 L
106.735 69.111 L
110.832 69.111 L
115.655 69.111 L
121.718 69.111 L
128.53 69.111 L
135.533 69.111 L
142.763 69.111 L
150.689 69.111 L
159.369 69.111 L
168.049 69.111 L
176.729 69.111 L
185.409 69.111 L
194.089 69.111 L
202.769 69.111 L
211.449 69.111 L
217.522 69.111 L
223.596 69.111 L
229.923 69.111 L
236.036 69.111 L
241.725 69.111 L
247.284 69.111 L
253.16 69.111 L
259.459 69.111 L
265.764 69.111 L
271.628 69.111 L
277.145 69.111 L
282.804 69.111 L
288.955 69.111 L
290 69.111 L
290 69.111 L
S
GR
GS
[0.75 0 0 0.75 0 0] CT
0 0 1 RC
1 LJ
0.667 LW
N
290 69.111 M
290 69.111 L
290 69.111 L
292.589 69.111 L
295.179 69.111 L
298.107 69.111 L
301.269 69.111 L
304.727 69.111 L
308.541 69.111 L
312.794 69.111 L
317.608 69.111 L
323.163 69.111 L
329.768 69.111 L
338.057 69.111 L
346.737 69.111 L
355.417 69.111 L
364.097 69.111 L
372.777 69.111 L
381.457 69.111 L
386.909 69.111 L
392.361 69.111 L
398.935 69.111 L
405.98 69.111 L
412.112 69.111 L
417.191 69.111 L
422.229 69.111 L
428.254 69.111 L
435.302 69.111 L
442.036 69.111 L
447.52 69.111 L
452.379 69.111 L
457.821 69.111 L
464.488 69.111 L
471.627 69.111 L
477.733 69.111 L
482.723 69.111 L
487.707 69.111 L
493.768 69.111 L
500.916 69.111 L
507 69.111 L
S
GR
GS
[0.75 0 0 0.75 0 0] CT
0 1 1 RC
1 LJ
0.667 LW
N
73 259.667 M
73.434 259.667 L
73.434 69.111 L
73.434 69.111 L
74.127 69.111 L
74.821 69.111 L
75.959 69.111 L
77.116 69.111 L
78.387 69.111 L
79.842 69.111 L
81.48 69.111 L
83.311 69.111 L
85.242 69.111 L
87.287 69.111 L
89.462 69.111 L
91.785 69.111 L
94.278 69.111 L
96.973 69.111 L
99.907 69.111 L
103.135 69.111 L
106.735 69.111 L
110.832 69.111 L
115.655 69.111 L
121.718 69.111 L
128.53 69.111 L
135.533 69.111 L
142.763 69.111 L
150.689 69.111 L
159.369 69.111 L
168.049 69.111 L
176.729 69.111 L
185.409 69.111 L
194.089 69.111 L
202.769 69.111 L
211.449 69.111 L
217.522 69.111 L
223.596 69.111 L
229.923 69.111 L
236.036 69.111 L
241.725 69.111 L
247.284 69.111 L
253.16 69.111 L
259.459 69.111 L
265.764 69.111 L
271.628 69.111 L
277.145 69.111 L
282.804 69.111 L
288.955 69.111 L
290 69.111 L
290 69.111 L
S
GR
GS
[0.75 0 0 0.75 0 0] CT
0 1 1 RC
1 LJ
0.667 LW
N
290 69.111 M
290 69.111 L
290 69.111 L
292.589 69.111 L
295.179 69.111 L
298.107 69.111 L
301.269 69.111 L
304.727 69.111 L
308.541 69.111 L
312.794 69.111 L
317.608 69.111 L
323.163 69.111 L
329.768 69.111 L
338.057 69.111 L
346.737 69.111 L
355.417 69.111 L
364.097 69.111 L
372.777 69.111 L
381.457 69.111 L
386.909 69.111 L
392.361 69.111 L
398.935 69.111 L
405.98 69.111 L
412.112 69.111 L
417.191 69.111 L
422.229 69.111 L
428.254 69.111 L
435.302 69.111 L
442.036 69.111 L
447.52 69.111 L
452.379 69.111 L
457.821 69.111 L
464.488 69.111 L
471.627 69.111 L
477.733 69.111 L
482.723 69.111 L
487.707 69.111 L
493.768 69.111 L
500.916 69.111 L
507 69.111 L
S
GR
GS
[0.75 0 0 0.75 0 0] CT
1 1 0 RC
1 LJ
0.667 LW
N
73 259.667 M
73.434 259.667 L
73.434 259.667 L
73.434 259.667 L
74.127 259.667 L
74.821 259.667 L
75.959 259.667 L
77.116 259.667 L
78.387 259.667 L
79.842 259.667 L
81.48 259.667 L
83.311 259.667 L
85.242 259.667 L
87.287 259.667 L
89.462 259.667 L
91.785 259.667 L
94.278 259.667 L
96.973 259.667 L
99.907 259.667 L
103.135 259.667 L
106.735 259.667 L
110.832 259.667 L
115.655 259.667 L
121.718 259.667 L
128.53 259.667 L
135.533 259.667 L
142.763 259.667 L
150.689 259.667 L
159.369 259.667 L
168.049 259.667 L
176.729 259.667 L
185.409 259.667 L
194.089 259.667 L
202.769 259.667 L
211.449 259.667 L
217.522 259.667 L
223.596 259.667 L
229.923 259.667 L
236.036 259.667 L
241.725 259.667 L
247.284 259.667 L
253.16 259.667 L
259.459 259.667 L
265.764 259.667 L
271.628 259.667 L
277.145 259.667 L
282.804 259.667 L
288.955 259.667 L
290 259.667 L
290 354.944 L
S
GR
GS
[0.75 0 0 0.75 0 0] CT
1 1 0 RC
1 LJ
0.667 LW
N
290 259.667 M
290 354.944 L
290 354.944 L
292.589 354.944 L
295.179 354.944 L
298.107 354.944 L
301.269 354.944 L
304.727 354.944 L
308.541 354.944 L
312.794 354.944 L
317.608 354.944 L
323.163 354.944 L
329.768 354.944 L
338.057 354.944 L
346.737 354.944 L
355.417 354.944 L
364.097 354.944 L
372.777 354.944 L
381.457 354.944 L
386.909 354.944 L
392.361 354.944 L
398.935 354.944 L
405.98 354.944 L
412.112 354.944 L
417.191 354.944 L
422.229 354.944 L
428.254 354.944 L
435.302 354.944 L
442.036 354.944 L
447.52 354.944 L
452.379 354.944 L
457.821 354.944 L
464.488 354.944 L
471.627 354.944 L
477.733 354.944 L
482.723 354.944 L
487.707 354.944 L
493.768 354.944 L
500.916 354.944 L
507 354.944 L
S
GR
GS
[0.75 0 0 0.75 0 0] CT
0 1 0 RC
1 LJ
0.667 LW
N
73 259.667 M
73.434 259.667 L
73.434 259.667 L
73.434 259.667 L
74.127 259.667 L
74.821 259.667 L
75.959 259.667 L
77.116 259.667 L
78.387 259.667 L
79.842 259.667 L
81.48 259.667 L
83.311 259.667 L
85.242 259.667 L
87.287 259.667 L
89.462 259.667 L
91.785 259.667 L
94.278 259.667 L
96.973 259.667 L
99.907 259.667 L
103.135 259.667 L
106.735 259.667 L
110.832 259.667 L
115.655 259.667 L
121.718 259.667 L
128.53 259.667 L
135.533 259.667 L
142.763 259.667 L
150.689 259.667 L
159.369 259.667 L
168.049 259.667 L
176.729 259.667 L
185.409 259.667 L
194.089 259.667 L
202.769 259.667 L
211.449 259.667 L
217.522 259.667 L
223.596 259.667 L
229.923 259.667 L
236.036 259.667 L
241.725 259.667 L
247.284 259.667 L
253.16 259.667 L
259.459 259.667 L
265.764 259.667 L
271.628 259.667 L
277.145 259.667 L
282.804 259.667 L
288.955 259.667 L
290 259.667 L
290 354.944 L
S
GR
GS
[0.75 0 0 0.75 0 0] CT
0 1 0 RC
1 LJ
0.667 LW
N
290 259.667 M
290 354.944 L
290 354.944 L
292.589 354.944 L
295.179 354.944 L
298.107 354.944 L
301.269 354.944 L
304.727 354.944 L
308.541 354.944 L
312.794 354.944 L
317.608 354.944 L
323.163 354.944 L
329.768 354.944 L
338.057 354.944 L
346.737 354.944 L
355.417 354.944 L
364.097 354.944 L
372.777 354.944 L
381.457 354.944 L
386.909 354.944 L
392.361 354.944 L
398.935 354.944 L
405.98 354.944 L
412.112 354.944 L
417.191 354.944 L
422.229 354.944 L
428.254 354.944 L
435.302 354.944 L
442.036 354.944 L
447.52 354.944 L
452.379 354.944 L
457.821 354.944 L
464.488 354.944 L
471.627 354.944 L
477.733 354.944 L
482.723 354.944 L
487.707 354.944 L
493.768 354.944 L
500.916 354.944 L
507 354.944 L
S
GR
GS
[0.75 0 0 0.75 0 0] CT
1 0 0 RC
1 LJ
0.667 LW
N
73 259.667 M
73.434 259.667 L
73.434 259.667 L
73.434 259.667 L
74.127 256.474 L
74.821 252.482 L
75.959 244.597 L
77.116 235.391 L
78.387 224.446 L
79.842 211.465 L
81.48 196.865 L
83.311 181.168 L
85.242 165.767 L
87.287 151.032 L
89.462 137.257 L
91.785 124.657 L
94.278 113.378 L
96.973 103.498 L
99.907 95.041 L
103.135 87.981 L
106.735 82.252 L
110.832 77.748 L
115.655 74.334 L
121.718 71.856 L
128.53 70.429 L
135.533 69.725 L
142.763 69.388 L
150.689 69.226 L
159.369 69.155 L
168.049 69.127 L
176.729 69.117 L
185.409 69.113 L
194.089 69.112 L
202.769 69.111 L
211.449 69.111 L
217.522 69.111 L
223.596 69.111 L
229.923 69.111 L
236.036 69.111 L
241.725 69.111 L
247.284 69.111 L
253.16 69.111 L
259.459 69.111 L
265.764 69.111 L
271.628 69.111 L
277.145 69.111 L
282.804 69.111 L
288.955 69.111 L
290 69.111 L
290 69.111 L
S
GR
GS
[0.75 0 0 0.75 0 0] CT
1 0 0 RC
1 LJ
0.667 LW
N
290 69.111 M
290 69.111 L
290 69.111 L
292.589 69.523 L
295.179 70.201 L
298.107 71.066 L
301.269 71.964 L
304.727 72.817 L
308.541 73.571 L
312.794 74.195 L
317.608 74.681 L
323.163 75.033 L
329.768 75.268 L
338.057 75.409 L
346.737 75.47 L
355.417 75.495 L
364.097 75.504 L
372.777 75.508 L
381.457 75.509 L
386.909 75.51 L
392.361 75.51 L
398.935 75.51 L
405.98 75.51 L
412.112 75.51 L
417.191 75.51 L
422.229 75.51 L
428.254 75.51 L
435.302 75.51 L
442.036 75.51 L
447.52 75.51 L
452.379 75.51 L
457.821 75.51 L
464.488 75.51 L
471.627 75.51 L
477.733 75.51 L
482.723 75.51 L
487.707 75.51 L
493.768 75.51 L
500.916 75.51 L
507 75.51 L
S
GR
GS
[0.75 0 0 0.75 0 0] CT
1 0 1 RC
1 LJ
0.667 LW
N
73 259.667 M
73.434 259.667 L
73.434 259.667 L
73.434 259.667 L
74.127 258.3 L
74.821 255.826 L
75.959 249.869 L
77.116 242.031 L
78.387 232.052 L
79.842 219.651 L
81.48 205.222 L
83.311 189.308 L
85.242 173.393 L
87.287 157.944 L
89.462 143.336 L
91.785 129.852 L
94.278 117.689 L
96.973 106.967 L
99.907 97.74 L
103.135 90.001 L
106.735 83.694 L
110.832 78.717 L
115.655 74.933 L
121.718 72.178 L
128.53 70.586 L
135.533 69.799 L
142.763 69.422 L
150.689 69.24 L
159.369 69.16 L
168.049 69.13 L
176.729 69.118 L
185.409 69.114 L
194.089 69.112 L
202.769 69.111 L
211.449 69.111 L
217.522 69.111 L
223.596 69.111 L
229.923 69.111 L
236.036 69.111 L
241.725 69.111 L
247.284 69.111 L
253.16 69.111 L
259.459 69.111 L
265.764 69.111 L
271.628 69.111 L
277.145 69.111 L
282.804 69.111 L
288.955 69.111 L
290 69.111 L
290 69.111 L
S
GR
GS
[0.75 0 0 0.75 0 0] CT
1 0 1 RC
1 LJ
0.667 LW
N
290 69.111 M
290 69.111 L
290 69.111 L
292.589 69.418 L
295.179 69.922 L
298.107 70.565 L
301.269 71.232 L
304.727 71.865 L
308.541 72.425 L
312.794 72.888 L
317.608 73.249 L
323.163 73.51 L
329.768 73.684 L
338.057 73.789 L
346.737 73.835 L
355.417 73.853 L
364.097 73.86 L
372.777 73.863 L
381.457 73.864 L
386.909 73.864 L
392.361 73.864 L
398.935 73.864 L
405.98 73.864 L
412.112 73.864 L
417.191 73.864 L
422.229 73.864 L
428.254 73.864 L
435.302 73.864 L
442.036 73.864 L
447.52 73.864 L
452.379 73.864 L
457.821 73.864 L
464.488 73.864 L
471.627 73.864 L
477.733 73.864 L
482.723 73.864 L
487.707 73.864 L
493.768 73.864 L
500.916 73.864 L
507 73.864 L
S
GR
GS
[0.75 0 0 0.75 0 0] CT
1 GC
N
421 143 M
421 44 L
494 44 L
494 143 L
cp
f
GR
GS
[0.75 0 0 0.75 354.75 40.65076] CT
/Helvetica 12 F
GS
[1 0 0 1 0 0] CT
0 4.5 moveto 
1 -1 scale
(w1) t 
GR
GR
GS
[0.75 0 0 0.75 0 0] CT
0 0 1 RC
1 LJ
0.667 LW
N
429 54.201 M
469 54.201 L
S
GR
GS
[0.75 0 0 0.75 354.75 52.44046] CT
/Helvetica 12 F
GS
[1 0 0 1 0 0] CT
0 4.5 moveto 
1 -1 scale
(w2) t 
GR
GR
GS
[0.75 0 0 0.75 0 0] CT
0 1 1 RC
1 LJ
0.667 LW
N
429 69.921 M
469 69.921 L
S
GR
GS
[0.75 0 0 0.75 354.75 64.23015] CT
/Helvetica 12 F
GS
[1 0 0 1 0 0] CT
0 4.5 moveto 
1 -1 scale
(di1) t 
GR
GR
GS
[0.75 0 0 0.75 0 0] CT
1 1 0 RC
1 LJ
0.667 LW
N
429 85.64 M
469 85.64 L
S
GR
GS
[0.75 0 0 0.75 354.75 76.01985] CT
/Helvetica 12 F
GS
[1 0 0 1 0 0] CT
0 4.5 moveto 
1 -1 scale
(di2) t 
GR
GR
GS
[0.75 0 0 0.75 0 0] CT
0 1 0 RC
1 LJ
0.667 LW
N
429 101.36 M
469 101.36 L
S
GR
GS
[0.75 0 0 0.75 354.75 87.80954] CT
/Helvetica 12 F
GS
[1 0 0 1 0 0] CT
0 4.5 moveto 
1 -1 scale
(y1) t 
GR
GR
GS
[0.75 0 0 0.75 0 0] CT
1 0 0 RC
1 LJ
0.667 LW
N
429 117.079 M
469 117.079 L
S
GR
GS
[0.75 0 0 0.75 354.75 99.59924] CT
/Helvetica 12 F
GS
[1 0 0 1 0 0] CT
0 4.5 moveto 
1 -1 scale
(y2) t 
GR
GR
GS
[0.75 0 0 0.75 0 0] CT
1 0 1 RC
1 LJ
0.667 LW
N
429 132.799 M
469 132.799 L
S
GR
GS
[0.75 0 0 0.75 0 0] CT
0.149 GC
10.0 ML
0.667 LW
N
421 143 M
421 44 L
494 44 L
494 143 L
cp
S
GR
%%Trailer
%%Pages: 1
%%EOF
