%!PS-Adobe-3.0 EPSF-3.0
%%Creator: (MATLAB, The Mathworks, Inc. Version 8.6.0.267246 \(R2015b\). Operating System: Windows 8)
%%Title: E:/Projects/skola/rls/pics/SP2/state_reg_i_rek_u.eps
%%CreationDate: 2017-03-06T10:39:47
%%Pages: (atend)
%%BoundingBox: 0 0 420 315
%%LanguageLevel: 2
%%EndComments
%%BeginProlog
%%BeginResource: procset (Apache XML Graphics Std ProcSet) 1.2 0
%%Version: 1.2 0
%%Copyright: (Copyright 2001-2003,2010 The Apache Software Foundation. License terms: http://www.apache.org/licenses/LICENSE-2.0)
/bd{bind def}bind def
/ld{load def}bd
/GR/grestore ld
/M/moveto ld
/LJ/setlinejoin ld
/C/curveto ld
/f/fill ld
/LW/setlinewidth ld
/GC/setgray ld
/t/show ld
/N/newpath ld
/CT/concat ld
/cp/closepath ld
/S/stroke ld
/L/lineto ld
/CC/setcmykcolor ld
/A/ashow ld
/GS/gsave ld
/RC/setrgbcolor ld
/RM/rmoveto ld
/ML/setmiterlimit ld
/re {4 2 roll M
1 index 0 rlineto
0 exch rlineto
neg 0 rlineto
cp } bd
/_ctm matrix def
/_tm matrix def
/BT { _ctm currentmatrix pop matrix _tm copy pop 0 0 moveto } bd
/ET { _ctm setmatrix } bd
/iTm { _ctm setmatrix _tm concat } bd
/Tm { _tm astore pop iTm 0 0 moveto } bd
/ux 0.0 def
/uy 0.0 def
/F {
  /Tp exch def
  /Tf exch def
  Tf findfont Tp scalefont setfont
  /cf Tf def  /cs Tp def
} bd
/ULS {currentpoint /uy exch def /ux exch def} bd
/ULE {
  /Tcx currentpoint pop def
  gsave
  newpath
  cf findfont cs scalefont dup
  /FontMatrix get 0 get /Ts exch def /FontInfo get dup
  /UnderlinePosition get Ts mul /To exch def
  /UnderlineThickness get Ts mul /Tt exch def
  ux uy To add moveto  Tcx uy To add lineto
  Tt setlinewidth stroke
  grestore
} bd
/OLE {
  /Tcx currentpoint pop def
  gsave
  newpath
  cf findfont cs scalefont dup
  /FontMatrix get 0 get /Ts exch def /FontInfo get dup
  /UnderlinePosition get Ts mul /To exch def
  /UnderlineThickness get Ts mul /Tt exch def
  ux uy To add cs add moveto Tcx uy To add cs add lineto
  Tt setlinewidth stroke
  grestore
} bd
/SOE {
  /Tcx currentpoint pop def
  gsave
  newpath
  cf findfont cs scalefont dup
  /FontMatrix get 0 get /Ts exch def /FontInfo get dup
  /UnderlinePosition get Ts mul /To exch def
  /UnderlineThickness get Ts mul /Tt exch def
  ux uy To add cs 10 mul 26 idiv add moveto Tcx uy To add cs 10 mul 26 idiv add lineto
  Tt setlinewidth stroke
  grestore
} bd
/QT {
/Y22 exch store
/X22 exch store
/Y21 exch store
/X21 exch store
currentpoint
/Y21 load 2 mul add 3 div exch
/X21 load 2 mul add 3 div exch
/X21 load 2 mul /X22 load add 3 div
/Y21 load 2 mul /Y22 load add 3 div
/X22 load /Y22 load curveto
} bd
/SSPD {
dup length /d exch dict def
{
/v exch def
/k exch def
currentpagedevice k known {
/cpdv currentpagedevice k get def
v cpdv ne {
/upd false def
/nullv v type /nulltype eq def
/nullcpdv cpdv type /nulltype eq def
nullv nullcpdv or
{
/upd true def
} {
/sametype v type cpdv type eq def
sametype {
v type /arraytype eq {
/vlen v length def
/cpdvlen cpdv length def
vlen cpdvlen eq {
0 1 vlen 1 sub {
/i exch def
/obj v i get def
/cpdobj cpdv i get def
obj cpdobj ne {
/upd true def
exit
} if
} for
} {
/upd true def
} ifelse
} {
v type /dicttype eq {
v {
/dv exch def
/dk exch def
/cpddv cpdv dk get def
dv cpddv ne {
/upd true def
exit
} if
} forall
} {
/upd true def
} ifelse
} ifelse
} if
} ifelse
upd true eq {
d k v put
} if
} if
} if
} forall
d length 0 gt {
d setpagedevice
} if
} bd
%%EndResource
%%BeginResource: procset (Apache XML Graphics EPS ProcSet) 1.0 0
%%Version: 1.0 0
%%Copyright: (Copyright 2002-2003 The Apache Software Foundation. License terms: http://www.apache.org/licenses/LICENSE-2.0)
/BeginEPSF { %def
/b4_Inc_state save def         % Save state for cleanup
/dict_count countdictstack def % Count objects on dict stack
/op_count count 1 sub def      % Count objects on operand stack
userdict begin                 % Push userdict on dict stack
/showpage { } def              % Redefine showpage, { } = null proc
0 setgray 0 setlinecap         % Prepare graphics state
1 setlinewidth 0 setlinejoin
10 setmiterlimit [ ] 0 setdash newpath
/languagelevel where           % If level not equal to 1 then
{pop languagelevel             % set strokeadjust and
1 ne                           % overprint to their defaults.
{false setstrokeadjust false setoverprint
} if
} if
} bd
/EndEPSF { %def
count op_count sub {pop} repeat            % Clean up stacks
countdictstack dict_count sub {end} repeat
b4_Inc_state restore
} bd
%%EndResource
%FOPBeginFontDict
%%IncludeResource: font Courier-Bold
%%IncludeResource: font Helvetica
%%IncludeResource: font Courier-BoldOblique
%%IncludeResource: font Courier-Oblique
%%IncludeResource: font Times-Roman
%%IncludeResource: font Helvetica-BoldOblique
%%IncludeResource: font Helvetica-Bold
%%IncludeResource: font Helvetica-Oblique
%%IncludeResource: font Times-BoldItalic
%%IncludeResource: font Courier
%%IncludeResource: font Times-Italic
%%IncludeResource: font Times-Bold
%%IncludeResource: font Symbol
%%IncludeResource: font ZapfDingbats
%FOPEndFontDict
%%BeginResource: encoding WinAnsiEncoding
/WinAnsiEncoding [
/.notdef /.notdef /.notdef /.notdef /.notdef
/.notdef /.notdef /.notdef /.notdef /.notdef
/.notdef /.notdef /.notdef /.notdef /.notdef
/.notdef /.notdef /.notdef /.notdef /.notdef
/.notdef /.notdef /.notdef /.notdef /.notdef
/.notdef /.notdef /.notdef /.notdef /.notdef
/.notdef /.notdef /space /exclam /quotedbl
/numbersign /dollar /percent /ampersand /quotesingle
/parenleft /parenright /asterisk /plus /comma
/hyphen /period /slash /zero /one
/two /three /four /five /six
/seven /eight /nine /colon /semicolon
/less /equal /greater /question /at
/A /B /C /D /E
/F /G /H /I /J
/K /L /M /N /O
/P /Q /R /S /T
/U /V /W /X /Y
/Z /bracketleft /backslash /bracketright /asciicircum
/underscore /quoteleft /a /b /c
/d /e /f /g /h
/i /j /k /l /m
/n /o /p /q /r
/s /t /u /v /w
/x /y /z /braceleft /bar
/braceright /asciitilde /bullet /Euro /bullet
/quotesinglbase /florin /quotedblbase /ellipsis /dagger
/daggerdbl /circumflex /perthousand /Scaron /guilsinglleft
/OE /bullet /Zcaron /bullet /bullet
/quoteleft /quoteright /quotedblleft /quotedblright /bullet
/endash /emdash /asciitilde /trademark /scaron
/guilsinglright /oe /bullet /zcaron /Ydieresis
/space /exclamdown /cent /sterling /currency
/yen /brokenbar /section /dieresis /copyright
/ordfeminine /guillemotleft /logicalnot /sfthyphen /registered
/macron /degree /plusminus /twosuperior /threesuperior
/acute /mu /paragraph /middot /cedilla
/onesuperior /ordmasculine /guillemotright /onequarter /onehalf
/threequarters /questiondown /Agrave /Aacute /Acircumflex
/Atilde /Adieresis /Aring /AE /Ccedilla
/Egrave /Eacute /Ecircumflex /Edieresis /Igrave
/Iacute /Icircumflex /Idieresis /Eth /Ntilde
/Ograve /Oacute /Ocircumflex /Otilde /Odieresis
/multiply /Oslash /Ugrave /Uacute /Ucircumflex
/Udieresis /Yacute /Thorn /germandbls /agrave
/aacute /acircumflex /atilde /adieresis /aring
/ae /ccedilla /egrave /eacute /ecircumflex
/edieresis /igrave /iacute /icircumflex /idieresis
/eth /ntilde /ograve /oacute /ocircumflex
/otilde /odieresis /divide /oslash /ugrave
/uacute /ucircumflex /udieresis /yacute /thorn
/ydieresis
] def
%%EndResource
%FOPBeginFontReencode
/Courier-Bold findfont
dup length dict begin
  {1 index /FID ne {def} {pop pop} ifelse} forall
  /Encoding WinAnsiEncoding def
  currentdict
end
/Courier-Bold exch definefont pop
/Helvetica findfont
dup length dict begin
  {1 index /FID ne {def} {pop pop} ifelse} forall
  /Encoding WinAnsiEncoding def
  currentdict
end
/Helvetica exch definefont pop
/Courier-BoldOblique findfont
dup length dict begin
  {1 index /FID ne {def} {pop pop} ifelse} forall
  /Encoding WinAnsiEncoding def
  currentdict
end
/Courier-BoldOblique exch definefont pop
/Courier-Oblique findfont
dup length dict begin
  {1 index /FID ne {def} {pop pop} ifelse} forall
  /Encoding WinAnsiEncoding def
  currentdict
end
/Courier-Oblique exch definefont pop
/Times-Roman findfont
dup length dict begin
  {1 index /FID ne {def} {pop pop} ifelse} forall
  /Encoding WinAnsiEncoding def
  currentdict
end
/Times-Roman exch definefont pop
/Helvetica-BoldOblique findfont
dup length dict begin
  {1 index /FID ne {def} {pop pop} ifelse} forall
  /Encoding WinAnsiEncoding def
  currentdict
end
/Helvetica-BoldOblique exch definefont pop
/Helvetica-Bold findfont
dup length dict begin
  {1 index /FID ne {def} {pop pop} ifelse} forall
  /Encoding WinAnsiEncoding def
  currentdict
end
/Helvetica-Bold exch definefont pop
/Helvetica-Oblique findfont
dup length dict begin
  {1 index /FID ne {def} {pop pop} ifelse} forall
  /Encoding WinAnsiEncoding def
  currentdict
end
/Helvetica-Oblique exch definefont pop
/Times-BoldItalic findfont
dup length dict begin
  {1 index /FID ne {def} {pop pop} ifelse} forall
  /Encoding WinAnsiEncoding def
  currentdict
end
/Times-BoldItalic exch definefont pop
/Courier findfont
dup length dict begin
  {1 index /FID ne {def} {pop pop} ifelse} forall
  /Encoding WinAnsiEncoding def
  currentdict
end
/Courier exch definefont pop
/Times-Italic findfont
dup length dict begin
  {1 index /FID ne {def} {pop pop} ifelse} forall
  /Encoding WinAnsiEncoding def
  currentdict
end
/Times-Italic exch definefont pop
/Times-Bold findfont
dup length dict begin
  {1 index /FID ne {def} {pop pop} ifelse} forall
  /Encoding WinAnsiEncoding def
  currentdict
end
/Times-Bold exch definefont pop
%FOPEndFontReencode
%%EndProlog
%%Page: 1 1
%%PageBoundingBox: 0 0 420 315
%%BeginPageSetup
[1 0 0 -1 0 315] CT
%%EndPageSetup
GS
[0.75 0 0 0.75 0 0] CT
1 GC
N
0 0 560 420 re
f
GR
GS
[0.75 0 0 0.75 0 0] CT
1 GC
N
0 0 560 420 re
f
GR
GS
[0.75 0 0 0.75 0 0] CT
1 GC
N
73 374 M
507 374 L
507 31 L
73 31 L
cp
f
GR
GS
[0.75 0 0 0.75 0 0] CT
0.149 GC
2 setlinecap
1 LJ
0.667 LW
N
73 374 M
507 374 L
S
GR
GS
[0.75 0 0 0.75 0 0] CT
0.149 GC
2 setlinecap
1 LJ
0.667 LW
N
73 374 M
73 369.66 L
S
GR
GS
[0.75 0 0 0.75 0 0] CT
0.149 GC
2 setlinecap
1 LJ
0.667 LW
N
116.4 374 M
116.4 369.66 L
S
GR
GS
[0.75 0 0 0.75 0 0] CT
0.149 GC
2 setlinecap
1 LJ
0.667 LW
N
159.8 374 M
159.8 369.66 L
S
GR
GS
[0.75 0 0 0.75 0 0] CT
0.149 GC
2 setlinecap
1 LJ
0.667 LW
N
203.2 374 M
203.2 369.66 L
S
GR
GS
[0.75 0 0 0.75 0 0] CT
0.149 GC
2 setlinecap
1 LJ
0.667 LW
N
246.6 374 M
246.6 369.66 L
S
GR
GS
[0.75 0 0 0.75 0 0] CT
0.149 GC
2 setlinecap
1 LJ
0.667 LW
N
290 374 M
290 369.66 L
S
GR
GS
[0.75 0 0 0.75 0 0] CT
0.149 GC
2 setlinecap
1 LJ
0.667 LW
N
333.4 374 M
333.4 369.66 L
S
GR
GS
[0.75 0 0 0.75 0 0] CT
0.149 GC
2 setlinecap
1 LJ
0.667 LW
N
376.8 374 M
376.8 369.66 L
S
GR
GS
[0.75 0 0 0.75 0 0] CT
0.149 GC
2 setlinecap
1 LJ
0.667 LW
N
420.2 374 M
420.2 369.66 L
S
GR
GS
[0.75 0 0 0.75 0 0] CT
0.149 GC
2 setlinecap
1 LJ
0.667 LW
N
463.6 374 M
463.6 369.66 L
S
GR
GS
[0.75 0 0 0.75 0 0] CT
0.149 GC
2 setlinecap
1 LJ
0.667 LW
N
507 374 M
507 369.66 L
S
GR
GS
[0.75 0 0 0.75 54.75 284.50001] CT
0.149 GC
/Helvetica 13 F
GS
[1 0 0 1 0 0] CT
-4 13 moveto 
1 -1 scale
(0) t 
GR
GR
GS
[0.75 0 0 0.75 87.3 284.50001] CT
0.149 GC
/Helvetica 13 F
GS
[1 0 0 1 0 0] CT
-11 13 moveto 
1 -1 scale
(100) t 
GR
GR
GS
[0.75 0 0 0.75 119.85 284.50001] CT
0.149 GC
/Helvetica 13 F
GS
[1 0 0 1 0 0] CT
-11 13 moveto 
1 -1 scale
(200) t 
GR
GR
GS
[0.75 0 0 0.75 152.4 284.50001] CT
0.149 GC
/Helvetica 13 F
GS
[1 0 0 1 0 0] CT
-11 13 moveto 
1 -1 scale
(300) t 
GR
GR
GS
[0.75 0 0 0.75 184.95 284.50001] CT
0.149 GC
/Helvetica 13 F
GS
[1 0 0 1 0 0] CT
-11 13 moveto 
1 -1 scale
(400) t 
GR
GR
GS
[0.75 0 0 0.75 217.5 284.50001] CT
0.149 GC
/Helvetica 13 F
GS
[1 0 0 1 0 0] CT
-11 13 moveto 
1 -1 scale
(500) t 
GR
GR
GS
[0.75 0 0 0.75 250.05 284.50001] CT
0.149 GC
/Helvetica 13 F
GS
[1 0 0 1 0 0] CT
-11 13 moveto 
1 -1 scale
(600) t 
GR
GR
GS
[0.75 0 0 0.75 282.59999 284.50001] CT
0.149 GC
/Helvetica 13 F
GS
[1 0 0 1 0 0] CT
-11 13 moveto 
1 -1 scale
(700) t 
GR
GR
GS
[0.75 0 0 0.75 315.15001 284.50001] CT
0.149 GC
/Helvetica 13 F
GS
[1 0 0 1 0 0] CT
-11 13 moveto 
1 -1 scale
(800) t 
GR
GR
GS
[0.75 0 0 0.75 347.7 284.50001] CT
0.149 GC
/Helvetica 13 F
GS
[1 0 0 1 0 0] CT
-11 13 moveto 
1 -1 scale
(900) t 
GR
GR
GS
[0.75 0 0 0.75 380.25 284.50001] CT
0.149 GC
/Helvetica 13 F
GS
[1 0 0 1 0 0] CT
-14.5 13 moveto 
1 -1 scale
(1000) t 
GR
GR
GS
[0.75 0 0 0.75 217.50016 297.49999] CT
0.149 GC
/Helvetica 15 F
GS
[1 0 0 1 0 0] CT
-11 14 moveto 
1 -1 scale
(t\(s\)) t 
GR
GR
GS
[0.75 0 0 0.75 0 0] CT
0.149 GC
2 setlinecap
1 LJ
0.667 LW
N
73 374 M
73 31 L
S
GR
GS
[0.75 0 0 0.75 0 0] CT
0.149 GC
2 setlinecap
1 LJ
0.667 LW
N
73 374 M
77.34 374 L
S
GR
GS
[0.75 0 0 0.75 0 0] CT
0.149 GC
2 setlinecap
1 LJ
0.667 LW
N
73 316.833 M
77.34 316.833 L
S
GR
GS
[0.75 0 0 0.75 0 0] CT
0.149 GC
2 setlinecap
1 LJ
0.667 LW
N
73 259.667 M
77.34 259.667 L
S
GR
GS
[0.75 0 0 0.75 0 0] CT
0.149 GC
2 setlinecap
1 LJ
0.667 LW
N
73 202.5 M
77.34 202.5 L
S
GR
GS
[0.75 0 0 0.75 0 0] CT
0.149 GC
2 setlinecap
1 LJ
0.667 LW
N
73 145.333 M
77.34 145.333 L
S
GR
GS
[0.75 0 0 0.75 0 0] CT
0.149 GC
2 setlinecap
1 LJ
0.667 LW
N
73 88.167 M
77.34 88.167 L
S
GR
GS
[0.75 0 0 0.75 0 0] CT
0.149 GC
2 setlinecap
1 LJ
0.667 LW
N
73 31 M
77.34 31 L
S
GR
GS
[0.75 0 0 0.75 50.75 280.5] CT
0.149 GC
/Helvetica 13 F
GS
[1 0 0 1 0 0] CT
-12 5 moveto 
1 -1 scale
(-1) t 
GR
GR
GS
[0.75 0 0 0.75 50.75 237.62501] CT
0.149 GC
/Helvetica 13 F
GS
[1 0 0 1 0 0] CT
-8 5 moveto 
1 -1 scale
(0) t 
GR
GR
GS
[0.75 0 0 0.75 50.75 194.74999] CT
0.149 GC
/Helvetica 13 F
GS
[1 0 0 1 0 0] CT
-8 5 moveto 
1 -1 scale
(1) t 
GR
GR
GS
[0.75 0 0 0.75 50.75 151.875] CT
0.149 GC
/Helvetica 13 F
GS
[1 0 0 1 0 0] CT
-8 5 moveto 
1 -1 scale
(2) t 
GR
GR
GS
[0.75 0 0 0.75 50.75 109] CT
0.149 GC
/Helvetica 13 F
GS
[1 0 0 1 0 0] CT
-8 5 moveto 
1 -1 scale
(3) t 
GR
GR
GS
[0.75 0 0 0.75 50.75 66.125] CT
0.149 GC
/Helvetica 13 F
GS
[1 0 0 1 0 0] CT
-8 5 moveto 
1 -1 scale
(4) t 
GR
GR
GS
[0.75 0 0 0.75 50.75 23.25] CT
0.149 GC
/Helvetica 13 F
GS
[1 0 0 1 0 0] CT
-8 5 moveto 
1 -1 scale
(5) t 
GR
GR
GS
[0.75 0 0 0.75 217.50021 21.18751] CT
/any-Bold 15 F
GS
[1 0 0 1 0 0] CT
-173 -4 moveto 
1 -1 scale
(Response of system with reconstructor - control) t 
GR
GR
GS
[0.75 0 0 0.75 0 0] CT
0 0 1 RC
1 LJ
0.667 LW
N
73 316.833 M
73.434 316.833 L
73.434 311.117 L
73.434 311.117 L
73.868 311.117 L
74.302 311.117 L
74.849 311.117 L
75.423 311.117 L
76.033 311.117 L
76.737 311.117 L
77.526 311.117 L
78.38 311.117 L
79.306 311.117 L
80.31 311.117 L
81.403 311.117 L
82.601 311.117 L
83.925 311.117 L
85.414 311.117 L
87.087 311.117 L
88.93 311.117 L
91.03 311.117 L
93.348 311.117 L
95.678 311.117 L
98.189 311.117 L
100.878 311.117 L
103.637 311.117 L
106.581 311.117 L
109.815 311.117 L
113.507 311.117 L
118.04 311.117 L
123.123 311.117 L
128.57 311.117 L
134.147 311.117 L
140.419 311.117 L
147.598 311.117 L
155.042 311.117 L
163.502 311.117 L
167.819 311.117 L
172.137 311.117 L
177.449 311.117 L
182.924 311.117 L
187.429 311.117 L
191.146 311.117 L
195.041 311.117 L
199.887 311.117 L
205.485 311.117 L
209.484 311.117 L
213.483 311.117 L
218.332 311.117 L
223.805 311.117 L
S
GR
GS
[0.75 0 0 0.75 0 0] CT
0 0 1 RC
1 LJ
0.667 LW
N
218.332 311.117 M
223.805 311.117 L
228.776 311.117 L
232.811 311.117 L
236.573 311.117 L
240.962 311.117 L
246.269 311.117 L
251.652 311.117 L
256.104 311.117 L
259.852 311.117 L
263.825 311.117 L
268.719 311.117 L
274.267 311.117 L
278.246 311.117 L
282.226 311.117 L
287.064 311.117 L
290 311.117 L
290 311.117 L
291.218 311.117 L
292.436 311.117 L
294.143 311.117 L
295.92 311.117 L
297.811 311.117 L
299.889 311.117 L
302.215 311.117 L
304.88 311.117 L
308.028 311.117 L
311.968 311.117 L
317.635 311.117 L
323.588 311.117 L
329.989 311.117 L
335.004 311.117 L
340.018 311.117 L
344.779 311.117 L
349.054 311.117 L
353.187 311.117 L
357.682 311.117 L
362.665 311.117 L
367.654 311.117 L
372.13 311.117 L
376.219 311.117 L
380.469 311.117 L
385.274 311.117 L
390.399 311.117 L
395.158 311.117 L
399.337 311.117 L
403.396 311.117 L
407.924 311.117 L
413.024 311.117 L
418.07 311.117 L
422.478 311.117 L
426.466 311.117 L
S
GR
GS
[0.75 0 0 0.75 0 0] CT
0 0 1 RC
1 LJ
0.667 LW
N
422.478 311.117 M
426.466 311.117 L
430.694 311.117 L
435.59 311.117 L
440.822 311.117 L
445.566 311.117 L
449.641 311.117 L
453.63 311.117 L
458.199 311.117 L
463.421 311.117 L
468.517 311.117 L
472.85 311.117 L
476.738 311.117 L
480.95 311.117 L
485.941 311.117 L
491.275 311.117 L
495.996 311.117 L
499.972 311.117 L
503.898 311.117 L
507 311.117 L
S
GR
GS
[0.75 0 0 0.75 0 0] CT
0 1 1 RC
1 LJ
0.667 LW
N
73 316.833 M
73.434 316.833 L
73.434 311.117 L
73.434 311.117 L
73.868 311.117 L
74.302 311.117 L
74.849 311.117 L
75.423 311.117 L
76.033 311.117 L
76.737 311.117 L
77.526 311.117 L
78.38 311.117 L
79.306 311.117 L
80.31 311.117 L
81.403 311.117 L
82.601 311.117 L
83.925 311.117 L
85.414 311.117 L
87.087 311.117 L
88.93 311.117 L
91.03 311.117 L
93.348 311.117 L
95.678 311.117 L
98.189 311.117 L
100.878 311.117 L
103.637 311.117 L
106.581 311.117 L
109.815 311.117 L
113.507 311.117 L
118.04 311.117 L
123.123 311.117 L
128.57 311.117 L
134.147 311.117 L
140.419 311.117 L
147.598 311.117 L
155.042 311.117 L
163.502 311.117 L
167.819 311.117 L
172.137 311.117 L
177.449 311.117 L
182.924 311.117 L
187.429 311.117 L
191.146 311.117 L
195.041 311.117 L
199.887 311.117 L
205.485 311.117 L
209.484 311.117 L
213.483 311.117 L
218.332 311.117 L
223.805 311.117 L
S
GR
GS
[0.75 0 0 0.75 0 0] CT
0 1 1 RC
1 LJ
0.667 LW
N
218.332 311.117 M
223.805 311.117 L
228.776 311.117 L
232.811 311.117 L
236.573 311.117 L
240.962 311.117 L
246.269 311.117 L
251.652 311.117 L
256.104 311.117 L
259.852 311.117 L
263.825 311.117 L
268.719 311.117 L
274.267 311.117 L
278.246 311.117 L
282.226 311.117 L
287.064 311.117 L
290 311.117 L
290 311.117 L
291.218 311.117 L
292.436 311.117 L
294.143 311.117 L
295.92 311.117 L
297.811 311.117 L
299.889 311.117 L
302.215 311.117 L
304.88 311.117 L
308.028 311.117 L
311.968 311.117 L
317.635 311.117 L
323.588 311.117 L
329.989 311.117 L
335.004 311.117 L
340.018 311.117 L
344.779 311.117 L
349.054 311.117 L
353.187 311.117 L
357.682 311.117 L
362.665 311.117 L
367.654 311.117 L
372.13 311.117 L
376.219 311.117 L
380.469 311.117 L
385.274 311.117 L
390.399 311.117 L
395.158 311.117 L
399.337 311.117 L
403.396 311.117 L
407.924 311.117 L
413.024 311.117 L
418.07 311.117 L
422.478 311.117 L
426.466 311.117 L
S
GR
GS
[0.75 0 0 0.75 0 0] CT
0 1 1 RC
1 LJ
0.667 LW
N
422.478 311.117 M
426.466 311.117 L
430.694 311.117 L
435.59 311.117 L
440.822 311.117 L
445.566 311.117 L
449.641 311.117 L
453.63 311.117 L
458.199 311.117 L
463.421 311.117 L
468.517 311.117 L
472.85 311.117 L
476.738 311.117 L
480.95 311.117 L
485.941 311.117 L
491.275 311.117 L
495.996 311.117 L
499.972 311.117 L
503.898 311.117 L
507 311.117 L
S
GR
GS
[0.75 0 0 0.75 0 0] CT
1 1 0 RC
1 LJ
0.667 LW
N
73 316.833 M
73.434 316.833 L
73.434 316.833 L
73.434 316.833 L
73.868 316.833 L
74.302 316.833 L
74.849 316.833 L
75.423 316.833 L
76.033 316.833 L
76.737 316.833 L
77.526 316.833 L
78.38 316.833 L
79.306 316.833 L
80.31 316.833 L
81.403 316.833 L
82.601 316.833 L
83.925 316.833 L
85.414 316.833 L
87.087 316.833 L
88.93 316.833 L
91.03 316.833 L
93.348 316.833 L
95.678 316.833 L
98.189 316.833 L
100.878 316.833 L
103.637 316.833 L
106.581 316.833 L
109.815 316.833 L
113.507 316.833 L
118.04 316.833 L
123.123 316.833 L
128.57 316.833 L
134.147 316.833 L
140.419 316.833 L
147.598 316.833 L
155.042 316.833 L
163.502 316.833 L
167.819 316.833 L
172.137 316.833 L
177.449 316.833 L
182.924 316.833 L
187.429 316.833 L
191.146 316.833 L
195.041 316.833 L
199.887 316.833 L
205.485 316.833 L
209.484 316.833 L
213.483 316.833 L
218.332 316.833 L
223.805 316.833 L
S
GR
GS
[0.75 0 0 0.75 0 0] CT
1 1 0 RC
1 LJ
0.667 LW
N
218.332 316.833 M
223.805 316.833 L
228.776 316.833 L
232.811 316.833 L
236.573 316.833 L
240.962 316.833 L
246.269 316.833 L
251.652 316.833 L
256.104 316.833 L
259.852 316.833 L
263.825 316.833 L
268.719 316.833 L
274.267 316.833 L
278.246 316.833 L
282.226 316.833 L
287.064 316.833 L
290 316.833 L
290 319.692 L
291.218 319.692 L
292.436 319.692 L
294.143 319.692 L
295.92 319.692 L
297.811 319.692 L
299.889 319.692 L
302.215 319.692 L
304.88 319.692 L
308.028 319.692 L
311.968 319.692 L
317.635 319.692 L
323.588 319.692 L
329.989 319.692 L
335.004 319.692 L
340.018 319.692 L
344.779 319.692 L
349.054 319.692 L
353.187 319.692 L
357.682 319.692 L
362.665 319.692 L
367.654 319.692 L
372.13 319.692 L
376.219 319.692 L
380.469 319.692 L
385.274 319.692 L
390.399 319.692 L
395.158 319.692 L
399.337 319.692 L
403.396 319.692 L
407.924 319.692 L
413.024 319.692 L
418.07 319.692 L
422.478 319.692 L
426.466 319.692 L
S
GR
GS
[0.75 0 0 0.75 0 0] CT
1 1 0 RC
1 LJ
0.667 LW
N
422.478 319.692 M
426.466 319.692 L
430.694 319.692 L
435.59 319.692 L
440.822 319.692 L
445.566 319.692 L
449.641 319.692 L
453.63 319.692 L
458.199 319.692 L
463.421 319.692 L
468.517 319.692 L
472.85 319.692 L
476.738 319.692 L
480.95 319.692 L
485.941 319.692 L
491.275 319.692 L
495.996 319.692 L
499.972 319.692 L
503.898 319.692 L
507 319.692 L
S
GR
GS
[0.75 0 0 0.75 0 0] CT
0 1 0 RC
1 LJ
0.667 LW
N
73 316.833 M
73.434 316.833 L
73.434 316.833 L
73.434 316.833 L
73.868 316.833 L
74.302 316.833 L
74.849 316.833 L
75.423 316.833 L
76.033 316.833 L
76.737 316.833 L
77.526 316.833 L
78.38 316.833 L
79.306 316.833 L
80.31 316.833 L
81.403 316.833 L
82.601 316.833 L
83.925 316.833 L
85.414 316.833 L
87.087 316.833 L
88.93 316.833 L
91.03 316.833 L
93.348 316.833 L
95.678 316.833 L
98.189 316.833 L
100.878 316.833 L
103.637 316.833 L
106.581 316.833 L
109.815 316.833 L
113.507 316.833 L
118.04 316.833 L
123.123 316.833 L
128.57 316.833 L
134.147 316.833 L
140.419 316.833 L
147.598 316.833 L
155.042 316.833 L
163.502 316.833 L
167.819 316.833 L
172.137 316.833 L
177.449 316.833 L
182.924 316.833 L
187.429 316.833 L
191.146 316.833 L
195.041 316.833 L
199.887 316.833 L
205.485 316.833 L
209.484 316.833 L
213.483 316.833 L
218.332 316.833 L
223.805 316.833 L
S
GR
GS
[0.75 0 0 0.75 0 0] CT
0 1 0 RC
1 LJ
0.667 LW
N
218.332 316.833 M
223.805 316.833 L
228.776 316.833 L
232.811 316.833 L
236.573 316.833 L
240.962 316.833 L
246.269 316.833 L
251.652 316.833 L
256.104 316.833 L
259.852 316.833 L
263.825 316.833 L
268.719 316.833 L
274.267 316.833 L
278.246 316.833 L
282.226 316.833 L
287.064 316.833 L
290 316.833 L
290 319.692 L
291.218 319.692 L
292.436 319.692 L
294.143 319.692 L
295.92 319.692 L
297.811 319.692 L
299.889 319.692 L
302.215 319.692 L
304.88 319.692 L
308.028 319.692 L
311.968 319.692 L
317.635 319.692 L
323.588 319.692 L
329.989 319.692 L
335.004 319.692 L
340.018 319.692 L
344.779 319.692 L
349.054 319.692 L
353.187 319.692 L
357.682 319.692 L
362.665 319.692 L
367.654 319.692 L
372.13 319.692 L
376.219 319.692 L
380.469 319.692 L
385.274 319.692 L
390.399 319.692 L
395.158 319.692 L
399.337 319.692 L
403.396 319.692 L
407.924 319.692 L
413.024 319.692 L
418.07 319.692 L
422.478 319.692 L
426.466 319.692 L
S
GR
GS
[0.75 0 0 0.75 0 0] CT
0 1 0 RC
1 LJ
0.667 LW
N
422.478 319.692 M
426.466 319.692 L
430.694 319.692 L
435.59 319.692 L
440.822 319.692 L
445.566 319.692 L
449.641 319.692 L
453.63 319.692 L
458.199 319.692 L
463.421 319.692 L
468.517 319.692 L
472.85 319.692 L
476.738 319.692 L
480.95 319.692 L
485.941 319.692 L
491.275 319.692 L
495.996 319.692 L
499.972 319.692 L
503.898 319.692 L
507 319.692 L
S
GR
GS
[0.75 0 0 0.75 0 0] CT
1 0 0 RC
1 LJ
0.667 LW
N
73 316.833 M
73.434 316.833 L
73.434 316.833 L
73.434 316.833 L
73.868 292.838 L
74.302 270.117 L
74.849 243.234 L
75.423 217.137 L
76.033 191.693 L
76.737 165.335 L
77.526 139.477 L
78.38 115.819 L
79.306 94.987 L
80.31 77.594 L
81.403 64.171 L
82.601 55.15 L
83.925 50.851 L
85.414 51.496 L
87.087 57.086 L
88.93 66.889 L
91.03 80.214 L
93.348 95.236 L
95.678 109.115 L
98.189 121.842 L
100.878 132.692 L
103.637 141.099 L
106.581 147.587 L
109.815 152.515 L
113.507 156.209 L
118.04 158.995 L
123.123 160.813 L
128.57 161.932 L
134.147 162.59 L
140.419 163.002 L
147.598 163.242 L
155.042 163.36 L
163.502 163.42 L
167.819 163.435 L
172.137 163.444 L
177.449 163.452 L
182.924 163.457 L
187.429 163.459 L
191.146 163.459 L
195.041 163.46 L
199.887 163.461 L
205.485 163.462 L
209.484 163.462 L
213.483 163.462 L
218.332 163.462 L
223.805 163.462 L
S
GR
GS
[0.75 0 0 0.75 0 0] CT
1 0 0 RC
1 LJ
0.667 LW
N
218.332 163.462 M
223.805 163.462 L
228.776 163.462 L
232.811 163.462 L
236.573 163.462 L
240.962 163.462 L
246.269 163.462 L
251.652 163.462 L
256.104 163.462 L
259.852 163.462 L
263.825 163.462 L
268.719 163.462 L
274.267 163.462 L
278.246 163.462 L
282.226 163.462 L
287.064 163.462 L
290 163.461 L
290 166.32 L
291.218 165.908 L
292.436 165.509 L
294.143 164.965 L
295.92 164.45 L
297.811 163.997 L
299.889 163.625 L
302.215 163.356 L
304.88 163.199 L
308.028 163.148 L
311.968 163.188 L
317.635 163.292 L
323.588 163.374 L
329.989 163.421 L
335.004 163.439 L
340.018 163.449 L
344.779 163.454 L
349.054 163.457 L
353.187 163.458 L
357.682 163.46 L
362.665 163.461 L
367.654 163.461 L
372.13 163.462 L
376.219 163.462 L
380.469 163.462 L
385.274 163.462 L
390.399 163.462 L
395.158 163.462 L
399.337 163.462 L
403.396 163.462 L
407.924 163.462 L
413.024 163.462 L
418.07 163.462 L
422.478 163.462 L
426.466 163.462 L
S
GR
GS
[0.75 0 0 0.75 0 0] CT
1 0 0 RC
1 LJ
0.667 LW
N
422.478 163.462 M
426.466 163.462 L
430.694 163.462 L
435.59 163.462 L
440.822 163.462 L
445.566 163.462 L
449.641 163.462 L
453.63 163.462 L
458.199 163.462 L
463.421 163.462 L
468.517 163.462 L
472.85 163.462 L
476.738 163.462 L
480.95 163.462 L
485.941 163.462 L
491.275 163.462 L
495.996 163.462 L
499.972 163.462 L
503.898 163.462 L
507 163.462 L
S
GR
GS
[0.75 0 0 0.75 0 0] CT
1 0 1 RC
1 LJ
0.667 LW
N
73 316.833 M
73.434 316.833 L
73.434 316.833 L
73.434 316.833 L
73.868 307.938 L
74.302 299.193 L
74.849 288.599 L
75.423 278.204 L
76.033 268.086 L
76.737 257.731 L
77.526 247.787 L
78.38 238.949 L
79.306 231.421 L
80.31 225.347 L
81.403 220.798 L
82.601 217.781 L
83.925 216.251 L
85.414 216.145 L
87.087 217.376 L
88.93 219.742 L
91.03 223.141 L
93.348 227.279 L
95.678 231.536 L
98.189 236.004 L
100.878 240.479 L
103.637 244.605 L
106.581 248.403 L
109.815 251.824 L
113.507 254.82 L
118.04 257.374 L
123.123 259.136 L
128.57 260.187 L
134.147 260.744 L
140.419 261.046 L
147.598 261.195 L
155.042 261.256 L
163.502 261.282 L
167.819 261.287 L
172.137 261.29 L
177.449 261.292 L
182.924 261.293 L
187.429 261.293 L
191.146 261.294 L
195.041 261.294 L
199.887 261.294 L
205.485 261.294 L
209.484 261.294 L
213.483 261.294 L
218.332 261.294 L
223.805 261.294 L
S
GR
GS
[0.75 0 0 0.75 0 0] CT
1 0 1 RC
1 LJ
0.667 LW
N
218.332 261.294 M
223.805 261.294 L
228.776 261.293 L
232.811 261.294 L
236.573 261.294 L
240.962 261.294 L
246.269 261.294 L
251.652 261.293 L
256.104 261.293 L
259.852 261.294 L
263.825 261.294 L
268.719 261.294 L
274.267 261.293 L
278.246 261.294 L
282.226 261.294 L
287.064 261.294 L
290 261.294 L
290 264.152 L
291.218 264.019 L
292.436 263.669 L
294.143 263.061 L
295.92 262.455 L
297.811 261.93 L
299.889 261.514 L
302.215 261.22 L
304.88 261.043 L
308.028 260.97 L
311.968 260.98 L
317.635 261.06 L
323.588 261.145 L
329.989 261.211 L
335.004 261.244 L
340.018 261.265 L
344.779 261.277 L
349.054 261.283 L
353.187 261.287 L
357.682 261.29 L
362.665 261.291 L
367.654 261.292 L
372.13 261.293 L
376.219 261.293 L
380.469 261.293 L
385.274 261.293 L
390.399 261.293 L
395.158 261.293 L
399.337 261.294 L
403.396 261.294 L
407.924 261.294 L
413.024 261.294 L
418.07 261.293 L
422.478 261.294 L
426.466 261.294 L
S
GR
GS
[0.75 0 0 0.75 0 0] CT
1 0 1 RC
1 LJ
0.667 LW
N
422.478 261.294 M
426.466 261.294 L
430.694 261.294 L
435.59 261.294 L
440.822 261.294 L
445.566 261.293 L
449.641 261.294 L
453.63 261.294 L
458.199 261.294 L
463.421 261.294 L
468.517 261.293 L
472.85 261.294 L
476.738 261.294 L
480.95 261.294 L
485.941 261.294 L
491.275 261.293 L
495.996 261.293 L
499.972 261.294 L
503.898 261.294 L
507 261.294 L
S
GR
GS
[0.75 0 0 0.75 0 0] CT
1 GC
N
421 143 M
421 44 L
494 44 L
494 143 L
cp
f
GR
GS
[0.75 0 0 0.75 354.75 40.65076] CT
/Helvetica 12 F
GS
[1 0 0 1 0 0] CT
0 4.5 moveto 
1 -1 scale
(w1) t 
GR
GR
GS
[0.75 0 0 0.75 0 0] CT
0 0 1 RC
1 LJ
0.667 LW
N
429 54.201 M
469 54.201 L
S
GR
GS
[0.75 0 0 0.75 354.75 52.44046] CT
/Helvetica 12 F
GS
[1 0 0 1 0 0] CT
0 4.5 moveto 
1 -1 scale
(w2) t 
GR
GR
GS
[0.75 0 0 0.75 0 0] CT
0 1 1 RC
1 LJ
0.667 LW
N
429 69.921 M
469 69.921 L
S
GR
GS
[0.75 0 0 0.75 354.75 64.23015] CT
/Helvetica 12 F
GS
[1 0 0 1 0 0] CT
0 4.5 moveto 
1 -1 scale
(di1) t 
GR
GR
GS
[0.75 0 0 0.75 0 0] CT
1 1 0 RC
1 LJ
0.667 LW
N
429 85.64 M
469 85.64 L
S
GR
GS
[0.75 0 0 0.75 354.75 76.01985] CT
/Helvetica 12 F
GS
[1 0 0 1 0 0] CT
0 4.5 moveto 
1 -1 scale
(di2) t 
GR
GR
GS
[0.75 0 0 0.75 0 0] CT
0 1 0 RC
1 LJ
0.667 LW
N
429 101.36 M
469 101.36 L
S
GR
GS
[0.75 0 0 0.75 354.75 87.80954] CT
/Helvetica 12 F
GS
[1 0 0 1 0 0] CT
0 4.5 moveto 
1 -1 scale
(u1) t 
GR
GR
GS
[0.75 0 0 0.75 0 0] CT
1 0 0 RC
1 LJ
0.667 LW
N
429 117.079 M
469 117.079 L
S
GR
GS
[0.75 0 0 0.75 354.75 99.59924] CT
/Helvetica 12 F
GS
[1 0 0 1 0 0] CT
0 4.5 moveto 
1 -1 scale
(u2) t 
GR
GR
GS
[0.75 0 0 0.75 0 0] CT
1 0 1 RC
1 LJ
0.667 LW
N
429 132.799 M
469 132.799 L
S
GR
GS
[0.75 0 0 0.75 0 0] CT
0.149 GC
10.0 ML
0.667 LW
N
421 143 M
421 44 L
494 44 L
494 143 L
cp
S
GR
%%Trailer
%%Pages: 1
%%EOF
