%!PS-Adobe-3.0 EPSF-3.0
%%Creator: (MATLAB, The Mathworks, Inc. Version 8.6.0.267246 \(R2015b\). Operating System: Windows 8)
%%Title: E:/Projects/skola/rls/pics/SP2/state_lq_reg_u.eps
%%CreationDate: 2017-03-06T11:09:39
%%Pages: (atend)
%%BoundingBox: 0 0 420 315
%%LanguageLevel: 2
%%EndComments
%%BeginProlog
%%BeginResource: procset (Apache XML Graphics Std ProcSet) 1.2 0
%%Version: 1.2 0
%%Copyright: (Copyright 2001-2003,2010 The Apache Software Foundation. License terms: http://www.apache.org/licenses/LICENSE-2.0)
/bd{bind def}bind def
/ld{load def}bd
/GR/grestore ld
/M/moveto ld
/LJ/setlinejoin ld
/C/curveto ld
/f/fill ld
/LW/setlinewidth ld
/GC/setgray ld
/t/show ld
/N/newpath ld
/CT/concat ld
/cp/closepath ld
/S/stroke ld
/L/lineto ld
/CC/setcmykcolor ld
/A/ashow ld
/GS/gsave ld
/RC/setrgbcolor ld
/RM/rmoveto ld
/ML/setmiterlimit ld
/re {4 2 roll M
1 index 0 rlineto
0 exch rlineto
neg 0 rlineto
cp } bd
/_ctm matrix def
/_tm matrix def
/BT { _ctm currentmatrix pop matrix _tm copy pop 0 0 moveto } bd
/ET { _ctm setmatrix } bd
/iTm { _ctm setmatrix _tm concat } bd
/Tm { _tm astore pop iTm 0 0 moveto } bd
/ux 0.0 def
/uy 0.0 def
/F {
  /Tp exch def
  /Tf exch def
  Tf findfont Tp scalefont setfont
  /cf Tf def  /cs Tp def
} bd
/ULS {currentpoint /uy exch def /ux exch def} bd
/ULE {
  /Tcx currentpoint pop def
  gsave
  newpath
  cf findfont cs scalefont dup
  /FontMatrix get 0 get /Ts exch def /FontInfo get dup
  /UnderlinePosition get Ts mul /To exch def
  /UnderlineThickness get Ts mul /Tt exch def
  ux uy To add moveto  Tcx uy To add lineto
  Tt setlinewidth stroke
  grestore
} bd
/OLE {
  /Tcx currentpoint pop def
  gsave
  newpath
  cf findfont cs scalefont dup
  /FontMatrix get 0 get /Ts exch def /FontInfo get dup
  /UnderlinePosition get Ts mul /To exch def
  /UnderlineThickness get Ts mul /Tt exch def
  ux uy To add cs add moveto Tcx uy To add cs add lineto
  Tt setlinewidth stroke
  grestore
} bd
/SOE {
  /Tcx currentpoint pop def
  gsave
  newpath
  cf findfont cs scalefont dup
  /FontMatrix get 0 get /Ts exch def /FontInfo get dup
  /UnderlinePosition get Ts mul /To exch def
  /UnderlineThickness get Ts mul /Tt exch def
  ux uy To add cs 10 mul 26 idiv add moveto Tcx uy To add cs 10 mul 26 idiv add lineto
  Tt setlinewidth stroke
  grestore
} bd
/QT {
/Y22 exch store
/X22 exch store
/Y21 exch store
/X21 exch store
currentpoint
/Y21 load 2 mul add 3 div exch
/X21 load 2 mul add 3 div exch
/X21 load 2 mul /X22 load add 3 div
/Y21 load 2 mul /Y22 load add 3 div
/X22 load /Y22 load curveto
} bd
/SSPD {
dup length /d exch dict def
{
/v exch def
/k exch def
currentpagedevice k known {
/cpdv currentpagedevice k get def
v cpdv ne {
/upd false def
/nullv v type /nulltype eq def
/nullcpdv cpdv type /nulltype eq def
nullv nullcpdv or
{
/upd true def
} {
/sametype v type cpdv type eq def
sametype {
v type /arraytype eq {
/vlen v length def
/cpdvlen cpdv length def
vlen cpdvlen eq {
0 1 vlen 1 sub {
/i exch def
/obj v i get def
/cpdobj cpdv i get def
obj cpdobj ne {
/upd true def
exit
} if
} for
} {
/upd true def
} ifelse
} {
v type /dicttype eq {
v {
/dv exch def
/dk exch def
/cpddv cpdv dk get def
dv cpddv ne {
/upd true def
exit
} if
} forall
} {
/upd true def
} ifelse
} ifelse
} if
} ifelse
upd true eq {
d k v put
} if
} if
} if
} forall
d length 0 gt {
d setpagedevice
} if
} bd
%%EndResource
%%BeginResource: procset (Apache XML Graphics EPS ProcSet) 1.0 0
%%Version: 1.0 0
%%Copyright: (Copyright 2002-2003 The Apache Software Foundation. License terms: http://www.apache.org/licenses/LICENSE-2.0)
/BeginEPSF { %def
/b4_Inc_state save def         % Save state for cleanup
/dict_count countdictstack def % Count objects on dict stack
/op_count count 1 sub def      % Count objects on operand stack
userdict begin                 % Push userdict on dict stack
/showpage { } def              % Redefine showpage, { } = null proc
0 setgray 0 setlinecap         % Prepare graphics state
1 setlinewidth 0 setlinejoin
10 setmiterlimit [ ] 0 setdash newpath
/languagelevel where           % If level not equal to 1 then
{pop languagelevel             % set strokeadjust and
1 ne                           % overprint to their defaults.
{false setstrokeadjust false setoverprint
} if
} if
} bd
/EndEPSF { %def
count op_count sub {pop} repeat            % Clean up stacks
countdictstack dict_count sub {end} repeat
b4_Inc_state restore
} bd
%%EndResource
%FOPBeginFontDict
%%IncludeResource: font Courier-Bold
%%IncludeResource: font Helvetica
%%IncludeResource: font Courier-BoldOblique
%%IncludeResource: font Courier-Oblique
%%IncludeResource: font Times-Roman
%%IncludeResource: font Helvetica-BoldOblique
%%IncludeResource: font Helvetica-Bold
%%IncludeResource: font Helvetica-Oblique
%%IncludeResource: font Times-BoldItalic
%%IncludeResource: font Courier
%%IncludeResource: font Times-Italic
%%IncludeResource: font Times-Bold
%%IncludeResource: font Symbol
%%IncludeResource: font ZapfDingbats
%FOPEndFontDict
%%BeginResource: encoding WinAnsiEncoding
/WinAnsiEncoding [
/.notdef /.notdef /.notdef /.notdef /.notdef
/.notdef /.notdef /.notdef /.notdef /.notdef
/.notdef /.notdef /.notdef /.notdef /.notdef
/.notdef /.notdef /.notdef /.notdef /.notdef
/.notdef /.notdef /.notdef /.notdef /.notdef
/.notdef /.notdef /.notdef /.notdef /.notdef
/.notdef /.notdef /space /exclam /quotedbl
/numbersign /dollar /percent /ampersand /quotesingle
/parenleft /parenright /asterisk /plus /comma
/hyphen /period /slash /zero /one
/two /three /four /five /six
/seven /eight /nine /colon /semicolon
/less /equal /greater /question /at
/A /B /C /D /E
/F /G /H /I /J
/K /L /M /N /O
/P /Q /R /S /T
/U /V /W /X /Y
/Z /bracketleft /backslash /bracketright /asciicircum
/underscore /quoteleft /a /b /c
/d /e /f /g /h
/i /j /k /l /m
/n /o /p /q /r
/s /t /u /v /w
/x /y /z /braceleft /bar
/braceright /asciitilde /bullet /Euro /bullet
/quotesinglbase /florin /quotedblbase /ellipsis /dagger
/daggerdbl /circumflex /perthousand /Scaron /guilsinglleft
/OE /bullet /Zcaron /bullet /bullet
/quoteleft /quoteright /quotedblleft /quotedblright /bullet
/endash /emdash /asciitilde /trademark /scaron
/guilsinglright /oe /bullet /zcaron /Ydieresis
/space /exclamdown /cent /sterling /currency
/yen /brokenbar /section /dieresis /copyright
/ordfeminine /guillemotleft /logicalnot /sfthyphen /registered
/macron /degree /plusminus /twosuperior /threesuperior
/acute /mu /paragraph /middot /cedilla
/onesuperior /ordmasculine /guillemotright /onequarter /onehalf
/threequarters /questiondown /Agrave /Aacute /Acircumflex
/Atilde /Adieresis /Aring /AE /Ccedilla
/Egrave /Eacute /Ecircumflex /Edieresis /Igrave
/Iacute /Icircumflex /Idieresis /Eth /Ntilde
/Ograve /Oacute /Ocircumflex /Otilde /Odieresis
/multiply /Oslash /Ugrave /Uacute /Ucircumflex
/Udieresis /Yacute /Thorn /germandbls /agrave
/aacute /acircumflex /atilde /adieresis /aring
/ae /ccedilla /egrave /eacute /ecircumflex
/edieresis /igrave /iacute /icircumflex /idieresis
/eth /ntilde /ograve /oacute /ocircumflex
/otilde /odieresis /divide /oslash /ugrave
/uacute /ucircumflex /udieresis /yacute /thorn
/ydieresis
] def
%%EndResource
%FOPBeginFontReencode
/Courier-Bold findfont
dup length dict begin
  {1 index /FID ne {def} {pop pop} ifelse} forall
  /Encoding WinAnsiEncoding def
  currentdict
end
/Courier-Bold exch definefont pop
/Helvetica findfont
dup length dict begin
  {1 index /FID ne {def} {pop pop} ifelse} forall
  /Encoding WinAnsiEncoding def
  currentdict
end
/Helvetica exch definefont pop
/Courier-BoldOblique findfont
dup length dict begin
  {1 index /FID ne {def} {pop pop} ifelse} forall
  /Encoding WinAnsiEncoding def
  currentdict
end
/Courier-BoldOblique exch definefont pop
/Courier-Oblique findfont
dup length dict begin
  {1 index /FID ne {def} {pop pop} ifelse} forall
  /Encoding WinAnsiEncoding def
  currentdict
end
/Courier-Oblique exch definefont pop
/Times-Roman findfont
dup length dict begin
  {1 index /FID ne {def} {pop pop} ifelse} forall
  /Encoding WinAnsiEncoding def
  currentdict
end
/Times-Roman exch definefont pop
/Helvetica-BoldOblique findfont
dup length dict begin
  {1 index /FID ne {def} {pop pop} ifelse} forall
  /Encoding WinAnsiEncoding def
  currentdict
end
/Helvetica-BoldOblique exch definefont pop
/Helvetica-Bold findfont
dup length dict begin
  {1 index /FID ne {def} {pop pop} ifelse} forall
  /Encoding WinAnsiEncoding def
  currentdict
end
/Helvetica-Bold exch definefont pop
/Helvetica-Oblique findfont
dup length dict begin
  {1 index /FID ne {def} {pop pop} ifelse} forall
  /Encoding WinAnsiEncoding def
  currentdict
end
/Helvetica-Oblique exch definefont pop
/Times-BoldItalic findfont
dup length dict begin
  {1 index /FID ne {def} {pop pop} ifelse} forall
  /Encoding WinAnsiEncoding def
  currentdict
end
/Times-BoldItalic exch definefont pop
/Courier findfont
dup length dict begin
  {1 index /FID ne {def} {pop pop} ifelse} forall
  /Encoding WinAnsiEncoding def
  currentdict
end
/Courier exch definefont pop
/Times-Italic findfont
dup length dict begin
  {1 index /FID ne {def} {pop pop} ifelse} forall
  /Encoding WinAnsiEncoding def
  currentdict
end
/Times-Italic exch definefont pop
/Times-Bold findfont
dup length dict begin
  {1 index /FID ne {def} {pop pop} ifelse} forall
  /Encoding WinAnsiEncoding def
  currentdict
end
/Times-Bold exch definefont pop
%FOPEndFontReencode
%%EndProlog
%%Page: 1 1
%%PageBoundingBox: 0 0 420 315
%%BeginPageSetup
[1 0 0 -1 0 315] CT
%%EndPageSetup
GS
[0.75 0 0 0.75 0 0] CT
1 GC
N
0 0 560 420 re
f
GR
GS
[0.75 0 0 0.75 0 0] CT
1 GC
N
0 0 560 420 re
f
GR
GS
[0.75 0 0 0.75 0 0] CT
1 GC
N
73 374 M
507 374 L
507 31 L
73 31 L
cp
f
GR
GS
[0.75 0 0 0.75 0 0] CT
0.149 GC
2 setlinecap
1 LJ
0.667 LW
N
73 374 M
507 374 L
S
GR
GS
[0.75 0 0 0.75 0 0] CT
0.149 GC
2 setlinecap
1 LJ
0.667 LW
N
73 374 M
73 369.66 L
S
GR
GS
[0.75 0 0 0.75 0 0] CT
0.149 GC
2 setlinecap
1 LJ
0.667 LW
N
145.333 374 M
145.333 369.66 L
S
GR
GS
[0.75 0 0 0.75 0 0] CT
0.149 GC
2 setlinecap
1 LJ
0.667 LW
N
217.667 374 M
217.667 369.66 L
S
GR
GS
[0.75 0 0 0.75 0 0] CT
0.149 GC
2 setlinecap
1 LJ
0.667 LW
N
290 374 M
290 369.66 L
S
GR
GS
[0.75 0 0 0.75 0 0] CT
0.149 GC
2 setlinecap
1 LJ
0.667 LW
N
362.333 374 M
362.333 369.66 L
S
GR
GS
[0.75 0 0 0.75 0 0] CT
0.149 GC
2 setlinecap
1 LJ
0.667 LW
N
434.667 374 M
434.667 369.66 L
S
GR
GS
[0.75 0 0 0.75 0 0] CT
0.149 GC
2 setlinecap
1 LJ
0.667 LW
N
507 374 M
507 369.66 L
S
GR
GS
[0.75 0 0 0.75 54.75 284.50001] CT
0.149 GC
/Helvetica 13 F
GS
[1 0 0 1 0 0] CT
-4 13 moveto 
1 -1 scale
(0) t 
GR
GR
GS
[0.75 0 0 0.75 109 284.50001] CT
0.149 GC
/Helvetica 13 F
GS
[1 0 0 1 0 0] CT
-7.5 13 moveto 
1 -1 scale
(50) t 
GR
GR
GS
[0.75 0 0 0.75 163.25 284.50001] CT
0.149 GC
/Helvetica 13 F
GS
[1 0 0 1 0 0] CT
-11 13 moveto 
1 -1 scale
(100) t 
GR
GR
GS
[0.75 0 0 0.75 217.5 284.50001] CT
0.149 GC
/Helvetica 13 F
GS
[1 0 0 1 0 0] CT
-11 13 moveto 
1 -1 scale
(150) t 
GR
GR
GS
[0.75 0 0 0.75 271.75001 284.50001] CT
0.149 GC
/Helvetica 13 F
GS
[1 0 0 1 0 0] CT
-11 13 moveto 
1 -1 scale
(200) t 
GR
GR
GS
[0.75 0 0 0.75 325.99999 284.50001] CT
0.149 GC
/Helvetica 13 F
GS
[1 0 0 1 0 0] CT
-11 13 moveto 
1 -1 scale
(250) t 
GR
GR
GS
[0.75 0 0 0.75 380.25 284.50001] CT
0.149 GC
/Helvetica 13 F
GS
[1 0 0 1 0 0] CT
-11 13 moveto 
1 -1 scale
(300) t 
GR
GR
GS
[0.75 0 0 0.75 217.50016 297.49999] CT
0.149 GC
/Helvetica 15 F
GS
[1 0 0 1 0 0] CT
-11 14 moveto 
1 -1 scale
(t\(s\)) t 
GR
GR
GS
[0.75 0 0 0.75 0 0] CT
0.149 GC
2 setlinecap
1 LJ
0.667 LW
N
73 374 M
73 31 L
S
GR
GS
[0.75 0 0 0.75 0 0] CT
0.149 GC
2 setlinecap
1 LJ
0.667 LW
N
73 374 M
77.34 374 L
S
GR
GS
[0.75 0 0 0.75 0 0] CT
0.149 GC
2 setlinecap
1 LJ
0.667 LW
N
73 335.889 M
77.34 335.889 L
S
GR
GS
[0.75 0 0 0.75 0 0] CT
0.149 GC
2 setlinecap
1 LJ
0.667 LW
N
73 297.778 M
77.34 297.778 L
S
GR
GS
[0.75 0 0 0.75 0 0] CT
0.149 GC
2 setlinecap
1 LJ
0.667 LW
N
73 259.667 M
77.34 259.667 L
S
GR
GS
[0.75 0 0 0.75 0 0] CT
0.149 GC
2 setlinecap
1 LJ
0.667 LW
N
73 221.556 M
77.34 221.556 L
S
GR
GS
[0.75 0 0 0.75 0 0] CT
0.149 GC
2 setlinecap
1 LJ
0.667 LW
N
73 183.444 M
77.34 183.444 L
S
GR
GS
[0.75 0 0 0.75 0 0] CT
0.149 GC
2 setlinecap
1 LJ
0.667 LW
N
73 145.333 M
77.34 145.333 L
S
GR
GS
[0.75 0 0 0.75 0 0] CT
0.149 GC
2 setlinecap
1 LJ
0.667 LW
N
73 107.222 M
77.34 107.222 L
S
GR
GS
[0.75 0 0 0.75 0 0] CT
0.149 GC
2 setlinecap
1 LJ
0.667 LW
N
73 69.111 M
77.34 69.111 L
S
GR
GS
[0.75 0 0 0.75 0 0] CT
0.149 GC
2 setlinecap
1 LJ
0.667 LW
N
73 31 M
77.34 31 L
S
GR
GS
[0.75 0 0 0.75 50.75 280.5] CT
0.149 GC
/Helvetica 13 F
GS
[1 0 0 1 0 0] CT
-8 5 moveto 
1 -1 scale
(0) t 
GR
GR
GS
[0.75 0 0 0.75 50.75 251.91666] CT
0.149 GC
/Helvetica 13 F
GS
[1 0 0 1 0 0] CT
-19 5 moveto 
1 -1 scale
(0.5) t 
GR
GR
GS
[0.75 0 0 0.75 50.75 223.33333] CT
0.149 GC
/Helvetica 13 F
GS
[1 0 0 1 0 0] CT
-8 5 moveto 
1 -1 scale
(1) t 
GR
GR
GS
[0.75 0 0 0.75 50.75 194.74999] CT
0.149 GC
/Helvetica 13 F
GS
[1 0 0 1 0 0] CT
-19 5 moveto 
1 -1 scale
(1.5) t 
GR
GR
GS
[0.75 0 0 0.75 50.75 166.16667] CT
0.149 GC
/Helvetica 13 F
GS
[1 0 0 1 0 0] CT
-8 5 moveto 
1 -1 scale
(2) t 
GR
GR
GS
[0.75 0 0 0.75 50.75 137.58333] CT
0.149 GC
/Helvetica 13 F
GS
[1 0 0 1 0 0] CT
-19 5 moveto 
1 -1 scale
(2.5) t 
GR
GR
GS
[0.75 0 0 0.75 50.75 109] CT
0.149 GC
/Helvetica 13 F
GS
[1 0 0 1 0 0] CT
-8 5 moveto 
1 -1 scale
(3) t 
GR
GR
GS
[0.75 0 0 0.75 50.75 80.41667] CT
0.149 GC
/Helvetica 13 F
GS
[1 0 0 1 0 0] CT
-19 5 moveto 
1 -1 scale
(3.5) t 
GR
GR
GS
[0.75 0 0 0.75 50.75 51.83334] CT
0.149 GC
/Helvetica 13 F
GS
[1 0 0 1 0 0] CT
-8 5 moveto 
1 -1 scale
(4) t 
GR
GR
GS
[0.75 0 0 0.75 50.75 23.25] CT
0.149 GC
/Helvetica 13 F
GS
[1 0 0 1 0 0] CT
-19 5 moveto 
1 -1 scale
(4.5) t 
GR
GR
GS
[0.75 0 0 0.75 217.50021 21.18749] CT
/any-Bold 15 F
GS
[1 0 0 1 0 0] CT
-232.5 -4 moveto 
1 -1 scale
(Response of system with LQ regulator and Kalman filter - control) t 
GR
GR
GS
[0.75 0 0 0.75 0 0] CT
0 0 1 RC
1 LJ
0.667 LW
N
73 374 M
74.447 374 L
74.447 366.378 L
74.447 366.378 L
74.664 366.378 L
74.881 366.378 L
75.22 366.378 L
75.593 366.378 L
76.038 366.378 L
76.57 366.378 L
77.226 366.378 L
78.055 366.378 L
79.131 366.378 L
80.537 366.378 L
82.209 366.378 L
83.131 366.378 L
84.053 366.378 L
85.33 366.378 L
86.9 366.378 L
87.876 366.378 L
88.853 366.378 L
90.125 366.378 L
91.627 366.378 L
92.626 366.378 L
93.624 366.378 L
94.885 366.378 L
96.349 366.378 L
97.366 366.378 L
98.384 366.378 L
99.638 366.378 L
101.071 366.378 L
102.103 366.378 L
103.134 366.378 L
104.383 366.378 L
105.793 366.378 L
107.076 366.378 L
108.119 366.378 L
109.091 366.378 L
110.222 366.378 L
111.588 366.378 L
112.977 366.378 L
114.127 366.378 L
115.095 366.378 L
116.12 366.378 L
117.38 366.378 L
118.81 366.378 L
120.095 366.378 L
121.124 366.378 L
122.082 366.378 L
123.215 366.378 L
S
GR
GS
[0.75 0 0 0.75 0 0] CT
0 0 1 RC
1 LJ
0.667 LW
N
122.082 366.378 M
123.215 366.378 L
124.598 366.378 L
125.997 366.378 L
127.14 366.378 L
128.095 366.378 L
129.114 366.378 L
130.383 366.378 L
131.826 366.378 L
132.845 366.378 L
133.864 366.378 L
135.114 366.378 L
136.542 366.378 L
137.836 366.378 L
138.873 366.378 L
139.83 366.378 L
140.953 366.378 L
142.328 366.378 L
143.733 366.378 L
144.886 366.378 L
145.845 366.378 L
146.858 366.378 L
148.116 366.378 L
149.558 366.378 L
150.584 366.378 L
151.611 366.378 L
152.861 366.378 L
154.279 366.378 L
155.566 366.378 L
156.606 366.378 L
157.571 366.378 L
158.699 366.378 L
160.07 366.378 L
161.465 366.378 L
162.616 366.378 L
163.58 366.378 L
164.6 366.378 L
165.86 366.378 L
167.296 366.378 L
168.322 366.378 L
169.349 366.378 L
170.598 366.378 L
172.014 366.378 L
173.302 366.378 L
174.343 366.378 L
175.309 366.378 L
176.437 366.378 L
177.807 366.378 L
179.201 366.378 L
180.353 366.378 L
181.318 366.378 L
182.338 366.378 L
S
GR
GS
[0.75 0 0 0.75 0 0] CT
0 0 1 RC
1 LJ
0.667 LW
N
181.318 366.378 M
182.338 366.378 L
183.597 366.378 L
185.031 366.378 L
186.059 366.378 L
187.087 366.378 L
188.336 366.378 L
189.75 366.378 L
191.037 366.378 L
192.079 366.378 L
193.046 366.378 L
194.175 366.378 L
195.543 366.378 L
196.936 366.378 L
198.088 366.378 L
199.054 366.378 L
200.075 366.378 L
201.334 366.378 L
202.768 366.378 L
203.796 366.378 L
204.824 366.378 L
206.072 366.378 L
207.486 366.378 L
208.773 366.378 L
209.815 366.378 L
210.782 366.378 L
211.911 366.378 L
213.279 366.378 L
214.672 366.378 L
215.824 366.378 L
216.79 366.378 L
217.811 366.378 L
219.071 366.378 L
220.503 366.378 L
221.532 366.378 L
222.56 366.378 L
223.808 366.378 L
225.222 366.378 L
226.509 366.378 L
227.551 366.378 L
228.519 366.378 L
229.647 366.378 L
231.015 366.378 L
232.408 366.378 L
233.56 366.378 L
234.526 366.378 L
235.547 366.378 L
236.807 366.378 L
238.239 366.378 L
239.268 366.378 L
240.296 366.378 L
241.544 366.378 L
S
GR
GS
[0.75 0 0 0.75 0 0] CT
0 0 1 RC
1 LJ
0.667 LW
N
240.296 366.378 M
241.544 366.378 L
242.958 366.378 L
244.245 366.378 L
245.287 366.378 L
246.255 366.378 L
247.383 366.378 L
248.751 366.378 L
250.144 366.378 L
251.295 366.378 L
252.262 366.378 L
253.283 366.378 L
254.543 366.378 L
255.975 366.378 L
257.004 366.378 L
258.032 366.378 L
259.28 366.378 L
260.694 366.378 L
261.981 366.378 L
263.022 366.378 L
263.991 366.378 L
265.119 366.378 L
266.487 366.378 L
267.88 366.378 L
269.031 366.378 L
269.998 366.378 L
271.019 366.378 L
272.279 366.378 L
273.711 366.378 L
274.739 366.378 L
275.768 366.378 L
277.016 366.378 L
278.43 366.378 L
279.716 366.378 L
280.758 366.378 L
281.726 366.378 L
282.855 366.378 L
284.223 366.378 L
285.616 366.378 L
286.767 366.378 L
287.734 366.378 L
288.755 366.378 L
290.015 366.378 L
291.447 366.378 L
292.475 366.378 L
293.504 366.378 L
294.752 366.378 L
296.166 366.378 L
297.452 366.378 L
298.494 366.378 L
299.462 366.378 L
300.591 366.378 L
S
GR
GS
[0.75 0 0 0.75 0 0] CT
0 0 1 RC
1 LJ
0.667 LW
N
299.462 366.378 M
300.591 366.378 L
301.959 366.378 L
303.351 366.378 L
304.503 366.378 L
305.47 366.378 L
306.491 366.378 L
307.75 366.378 L
309.183 366.378 L
310.211 366.378 L
311.24 366.378 L
312.488 366.378 L
313.902 366.378 L
315.188 366.378 L
316.23 366.378 L
317.198 366.378 L
318.327 366.378 L
319.695 366.378 L
321.087 366.378 L
322.239 366.378 L
323.205 366.378 L
324.227 366.378 L
325.486 366.378 L
326.919 366.378 L
327.947 366.378 L
328.975 366.378 L
330.224 366.378 L
331.638 366.378 L
332.924 366.378 L
333.966 366.378 L
334.934 366.378 L
336.063 366.378 L
337.431 366.378 L
338.823 366.378 L
339.975 366.378 L
340.941 366.378 L
341.963 366.378 L
343.222 366.378 L
344.655 366.378 L
345.683 366.378 L
346.711 366.378 L
347.96 366.378 L
349.373 366.378 L
350.66 366.378 L
351.702 366.378 L
352.67 366.378 L
353.799 366.378 L
355.167 366.378 L
356.559 366.378 L
357.711 366.378 L
358.677 366.378 L
359.699 366.378 L
S
GR
GS
[0.75 0 0 0.75 0 0] CT
0 0 1 RC
1 LJ
0.667 LW
N
358.677 366.378 M
359.699 366.378 L
360.958 366.378 L
362.391 366.378 L
363.419 366.378 L
364.447 366.378 L
365.696 366.378 L
367.109 366.378 L
368.396 366.378 L
369.438 366.378 L
370.406 366.378 L
371.535 366.378 L
372.903 366.378 L
374.295 366.378 L
375.447 366.378 L
376.413 366.378 L
377.434 366.378 L
378.694 366.378 L
380.126 366.378 L
381.155 366.378 L
382.183 366.378 L
383.432 366.378 L
384.845 366.378 L
386.132 366.378 L
387.174 366.378 L
388.142 366.378 L
389.27 366.378 L
390.639 366.378 L
392.031 366.378 L
393.182 366.378 L
394.149 366.378 L
395.17 366.378 L
396.43 366.378 L
397.862 366.378 L
398.891 366.378 L
399.919 366.378 L
401.167 366.378 L
402.581 366.378 L
403.868 366.378 L
404.91 366.378 L
405.878 366.378 L
407.006 366.378 L
408.374 366.378 L
409.767 366.378 L
410.918 366.378 L
411.885 366.378 L
412.906 366.378 L
414.166 366.378 L
415.598 366.378 L
416.627 366.378 L
417.655 366.378 L
418.903 366.378 L
S
GR
GS
[0.75 0 0 0.75 0 0] CT
0 0 1 RC
1 LJ
0.667 LW
N
417.655 366.378 M
418.903 366.378 L
420.317 366.378 L
421.603 366.378 L
422.645 366.378 L
423.614 366.378 L
424.742 366.378 L
426.11 366.378 L
427.503 366.378 L
428.654 366.378 L
429.621 366.378 L
430.642 366.378 L
431.902 366.378 L
433.334 366.378 L
434.362 366.378 L
435.391 366.378 L
436.639 366.378 L
438.053 366.378 L
439.339 366.378 L
440.381 366.378 L
441.349 366.378 L
442.478 366.378 L
443.846 366.378 L
445.238 366.378 L
446.39 366.378 L
447.357 366.378 L
448.378 366.378 L
449.638 366.378 L
451.07 366.378 L
452.098 366.378 L
453.127 366.378 L
454.375 366.378 L
455.789 366.378 L
457.075 366.378 L
458.117 366.378 L
459.085 366.378 L
460.214 366.378 L
461.582 366.378 L
462.974 366.378 L
464.126 366.378 L
465.093 366.378 L
466.114 366.378 L
467.373 366.378 L
468.806 366.378 L
469.834 366.378 L
470.862 366.378 L
472.111 366.378 L
473.525 366.378 L
474.811 366.378 L
475.853 366.378 L
476.821 366.378 L
477.95 366.378 L
S
GR
GS
[0.75 0 0 0.75 0 0] CT
0 0 1 RC
1 LJ
0.667 LW
N
476.821 366.378 M
477.95 366.378 L
479.318 366.378 L
480.71 366.378 L
481.862 366.378 L
482.828 366.378 L
483.85 366.378 L
485.109 366.378 L
486.542 366.378 L
487.57 366.378 L
488.598 366.378 L
489.847 366.378 L
491.261 366.378 L
492.547 366.378 L
493.589 366.378 L
494.557 366.378 L
495.686 366.378 L
497.054 366.378 L
498.446 366.378 L
499.598 366.378 L
500.564 366.378 L
501.586 366.378 L
502.845 366.378 L
504.278 366.378 L
505.306 366.378 L
506.334 366.378 L
507 366.378 L
S
GR
GS
[0.75 0 0 0.75 0 0] CT
0 1 1 RC
1 LJ
0.667 LW
N
73 374 M
74.447 374 L
74.447 366.378 L
74.447 366.378 L
74.664 366.378 L
74.881 366.378 L
75.22 366.378 L
75.593 366.378 L
76.038 366.378 L
76.57 366.378 L
77.226 366.378 L
78.055 366.378 L
79.131 366.378 L
80.537 366.378 L
82.209 366.378 L
83.131 366.378 L
84.053 366.378 L
85.33 366.378 L
86.9 366.378 L
87.876 366.378 L
88.853 366.378 L
90.125 366.378 L
91.627 366.378 L
92.626 366.378 L
93.624 366.378 L
94.885 366.378 L
96.349 366.378 L
97.366 366.378 L
98.384 366.378 L
99.638 366.378 L
101.071 366.378 L
102.103 366.378 L
103.134 366.378 L
104.383 366.378 L
105.793 366.378 L
107.076 366.378 L
108.119 366.378 L
109.091 366.378 L
110.222 366.378 L
111.588 366.378 L
112.977 366.378 L
114.127 366.378 L
115.095 366.378 L
116.12 366.378 L
117.38 366.378 L
118.81 366.378 L
120.095 366.378 L
121.124 366.378 L
122.082 366.378 L
123.215 366.378 L
S
GR
GS
[0.75 0 0 0.75 0 0] CT
0 1 1 RC
1 LJ
0.667 LW
N
122.082 366.378 M
123.215 366.378 L
124.598 366.378 L
125.997 366.378 L
127.14 366.378 L
128.095 366.378 L
129.114 366.378 L
130.383 366.378 L
131.826 366.378 L
132.845 366.378 L
133.864 366.378 L
135.114 366.378 L
136.542 366.378 L
137.836 366.378 L
138.873 366.378 L
139.83 366.378 L
140.953 366.378 L
142.328 366.378 L
143.733 366.378 L
144.886 366.378 L
145.845 366.378 L
146.858 366.378 L
148.116 366.378 L
149.558 366.378 L
150.584 366.378 L
151.611 366.378 L
152.861 366.378 L
154.279 366.378 L
155.566 366.378 L
156.606 366.378 L
157.571 366.378 L
158.699 366.378 L
160.07 366.378 L
161.465 366.378 L
162.616 366.378 L
163.58 366.378 L
164.6 366.378 L
165.86 366.378 L
167.296 366.378 L
168.322 366.378 L
169.349 366.378 L
170.598 366.378 L
172.014 366.378 L
173.302 366.378 L
174.343 366.378 L
175.309 366.378 L
176.437 366.378 L
177.807 366.378 L
179.201 366.378 L
180.353 366.378 L
181.318 366.378 L
182.338 366.378 L
S
GR
GS
[0.75 0 0 0.75 0 0] CT
0 1 1 RC
1 LJ
0.667 LW
N
181.318 366.378 M
182.338 366.378 L
183.597 366.378 L
185.031 366.378 L
186.059 366.378 L
187.087 366.378 L
188.336 366.378 L
189.75 366.378 L
191.037 366.378 L
192.079 366.378 L
193.046 366.378 L
194.175 366.378 L
195.543 366.378 L
196.936 366.378 L
198.088 366.378 L
199.054 366.378 L
200.075 366.378 L
201.334 366.378 L
202.768 366.378 L
203.796 366.378 L
204.824 366.378 L
206.072 366.378 L
207.486 366.378 L
208.773 366.378 L
209.815 366.378 L
210.782 366.378 L
211.911 366.378 L
213.279 366.378 L
214.672 366.378 L
215.824 366.378 L
216.79 366.378 L
217.811 366.378 L
219.071 366.378 L
220.503 366.378 L
221.532 366.378 L
222.56 366.378 L
223.808 366.378 L
225.222 366.378 L
226.509 366.378 L
227.551 366.378 L
228.519 366.378 L
229.647 366.378 L
231.015 366.378 L
232.408 366.378 L
233.56 366.378 L
234.526 366.378 L
235.547 366.378 L
236.807 366.378 L
238.239 366.378 L
239.268 366.378 L
240.296 366.378 L
241.544 366.378 L
S
GR
GS
[0.75 0 0 0.75 0 0] CT
0 1 1 RC
1 LJ
0.667 LW
N
240.296 366.378 M
241.544 366.378 L
242.958 366.378 L
244.245 366.378 L
245.287 366.378 L
246.255 366.378 L
247.383 366.378 L
248.751 366.378 L
250.144 366.378 L
251.295 366.378 L
252.262 366.378 L
253.283 366.378 L
254.543 366.378 L
255.975 366.378 L
257.004 366.378 L
258.032 366.378 L
259.28 366.378 L
260.694 366.378 L
261.981 366.378 L
263.022 366.378 L
263.991 366.378 L
265.119 366.378 L
266.487 366.378 L
267.88 366.378 L
269.031 366.378 L
269.998 366.378 L
271.019 366.378 L
272.279 366.378 L
273.711 366.378 L
274.739 366.378 L
275.768 366.378 L
277.016 366.378 L
278.43 366.378 L
279.716 366.378 L
280.758 366.378 L
281.726 366.378 L
282.855 366.378 L
284.223 366.378 L
285.616 366.378 L
286.767 366.378 L
287.734 366.378 L
288.755 366.378 L
290.015 366.378 L
291.447 366.378 L
292.475 366.378 L
293.504 366.378 L
294.752 366.378 L
296.166 366.378 L
297.452 366.378 L
298.494 366.378 L
299.462 366.378 L
300.591 366.378 L
S
GR
GS
[0.75 0 0 0.75 0 0] CT
0 1 1 RC
1 LJ
0.667 LW
N
299.462 366.378 M
300.591 366.378 L
301.959 366.378 L
303.351 366.378 L
304.503 366.378 L
305.47 366.378 L
306.491 366.378 L
307.75 366.378 L
309.183 366.378 L
310.211 366.378 L
311.24 366.378 L
312.488 366.378 L
313.902 366.378 L
315.188 366.378 L
316.23 366.378 L
317.198 366.378 L
318.327 366.378 L
319.695 366.378 L
321.087 366.378 L
322.239 366.378 L
323.205 366.378 L
324.227 366.378 L
325.486 366.378 L
326.919 366.378 L
327.947 366.378 L
328.975 366.378 L
330.224 366.378 L
331.638 366.378 L
332.924 366.378 L
333.966 366.378 L
334.934 366.378 L
336.063 366.378 L
337.431 366.378 L
338.823 366.378 L
339.975 366.378 L
340.941 366.378 L
341.963 366.378 L
343.222 366.378 L
344.655 366.378 L
345.683 366.378 L
346.711 366.378 L
347.96 366.378 L
349.373 366.378 L
350.66 366.378 L
351.702 366.378 L
352.67 366.378 L
353.799 366.378 L
355.167 366.378 L
356.559 366.378 L
357.711 366.378 L
358.677 366.378 L
359.699 366.378 L
S
GR
GS
[0.75 0 0 0.75 0 0] CT
0 1 1 RC
1 LJ
0.667 LW
N
358.677 366.378 M
359.699 366.378 L
360.958 366.378 L
362.391 366.378 L
363.419 366.378 L
364.447 366.378 L
365.696 366.378 L
367.109 366.378 L
368.396 366.378 L
369.438 366.378 L
370.406 366.378 L
371.535 366.378 L
372.903 366.378 L
374.295 366.378 L
375.447 366.378 L
376.413 366.378 L
377.434 366.378 L
378.694 366.378 L
380.126 366.378 L
381.155 366.378 L
382.183 366.378 L
383.432 366.378 L
384.845 366.378 L
386.132 366.378 L
387.174 366.378 L
388.142 366.378 L
389.27 366.378 L
390.639 366.378 L
392.031 366.378 L
393.182 366.378 L
394.149 366.378 L
395.17 366.378 L
396.43 366.378 L
397.862 366.378 L
398.891 366.378 L
399.919 366.378 L
401.167 366.378 L
402.581 366.378 L
403.868 366.378 L
404.91 366.378 L
405.878 366.378 L
407.006 366.378 L
408.374 366.378 L
409.767 366.378 L
410.918 366.378 L
411.885 366.378 L
412.906 366.378 L
414.166 366.378 L
415.598 366.378 L
416.627 366.378 L
417.655 366.378 L
418.903 366.378 L
S
GR
GS
[0.75 0 0 0.75 0 0] CT
0 1 1 RC
1 LJ
0.667 LW
N
417.655 366.378 M
418.903 366.378 L
420.317 366.378 L
421.603 366.378 L
422.645 366.378 L
423.614 366.378 L
424.742 366.378 L
426.11 366.378 L
427.503 366.378 L
428.654 366.378 L
429.621 366.378 L
430.642 366.378 L
431.902 366.378 L
433.334 366.378 L
434.362 366.378 L
435.391 366.378 L
436.639 366.378 L
438.053 366.378 L
439.339 366.378 L
440.381 366.378 L
441.349 366.378 L
442.478 366.378 L
443.846 366.378 L
445.238 366.378 L
446.39 366.378 L
447.357 366.378 L
448.378 366.378 L
449.638 366.378 L
451.07 366.378 L
452.098 366.378 L
453.127 366.378 L
454.375 366.378 L
455.789 366.378 L
457.075 366.378 L
458.117 366.378 L
459.085 366.378 L
460.214 366.378 L
461.582 366.378 L
462.974 366.378 L
464.126 366.378 L
465.093 366.378 L
466.114 366.378 L
467.373 366.378 L
468.806 366.378 L
469.834 366.378 L
470.862 366.378 L
472.111 366.378 L
473.525 366.378 L
474.811 366.378 L
475.853 366.378 L
476.821 366.378 L
477.95 366.378 L
S
GR
GS
[0.75 0 0 0.75 0 0] CT
0 1 1 RC
1 LJ
0.667 LW
N
476.821 366.378 M
477.95 366.378 L
479.318 366.378 L
480.71 366.378 L
481.862 366.378 L
482.828 366.378 L
483.85 366.378 L
485.109 366.378 L
486.542 366.378 L
487.57 366.378 L
488.598 366.378 L
489.847 366.378 L
491.261 366.378 L
492.547 366.378 L
493.589 366.378 L
494.557 366.378 L
495.686 366.378 L
497.054 366.378 L
498.446 366.378 L
499.598 366.378 L
500.564 366.378 L
501.586 366.378 L
502.845 366.378 L
504.278 366.378 L
505.306 366.378 L
506.334 366.378 L
507 366.378 L
S
GR
GS
[0.75 0 0 0.75 0 0] CT
1 0 0 RC
1 LJ
0.667 LW
N
73 374 M
74.447 374 L
74.447 53.384 L
74.447 53.384 L
74.664 53.506 L
74.881 53.802 L
75.22 54.452 L
75.593 55.29 L
76.038 56.354 L
76.57 57.653 L
77.226 59.244 L
78.055 61.218 L
79.131 63.705 L
80.537 66.839 L
82.209 70.406 L
83.131 72.304 L
84.053 74.157 L
85.33 76.652 L
86.9 79.615 L
87.876 81.401 L
88.853 83.147 L
90.125 85.365 L
91.627 87.902 L
92.626 89.542 L
93.624 91.146 L
94.885 93.126 L
96.349 95.356 L
97.366 96.867 L
98.384 98.346 L
99.638 100.128 L
101.071 102.108 L
102.103 103.498 L
103.134 104.86 L
104.383 106.471 L
105.793 108.243 L
107.076 109.813 L
108.119 111.06 L
109.091 112.199 L
110.222 113.498 L
111.588 115.03 L
112.977 116.545 L
114.127 117.77 L
115.095 118.78 L
116.12 119.828 L
117.38 121.089 L
118.81 122.484 L
120.095 123.706 L
121.124 124.66 L
122.082 125.534 L
123.215 126.546 L
S
GR
GS
[0.75 0 0 0.75 0 0] CT
1 0 0 RC
1 LJ
0.667 LW
N
122.082 125.534 M
123.215 126.546 L
124.598 127.753 L
125.997 128.942 L
127.14 129.889 L
128.095 130.665 L
129.114 131.477 L
130.383 132.467 L
131.826 133.564 L
132.845 134.32 L
133.864 135.062 L
135.114 135.953 L
136.542 136.945 L
137.836 137.822 L
138.873 138.507 L
139.83 139.129 L
140.953 139.844 L
142.328 140.699 L
143.733 141.55 L
144.886 142.232 L
145.845 142.787 L
146.858 143.363 L
148.116 144.063 L
149.558 144.845 L
150.584 145.388 L
151.611 145.921 L
152.861 146.557 L
154.279 147.26 L
155.566 147.882 L
156.606 148.373 L
157.571 148.82 L
158.699 149.333 L
160.07 149.941 L
161.465 150.545 L
162.616 151.03 L
163.58 151.428 L
164.6 151.842 L
165.86 152.343 L
167.296 152.899 L
168.322 153.287 L
169.349 153.667 L
170.598 154.121 L
172.014 154.622 L
173.302 155.067 L
174.343 155.418 L
175.309 155.737 L
176.437 156.103 L
177.807 156.538 L
179.201 156.969 L
180.353 157.316 L
181.318 157.6 L
182.338 157.896 L
S
GR
GS
[0.75 0 0 0.75 0 0] CT
1 0 0 RC
1 LJ
0.667 LW
N
181.318 157.6 M
182.338 157.896 L
183.597 158.253 L
185.031 158.65 L
186.059 158.928 L
187.087 159.2 L
188.336 159.524 L
189.75 159.882 L
191.037 160.199 L
192.079 160.45 L
193.046 160.678 L
194.175 160.94 L
195.543 161.25 L
196.936 161.558 L
198.088 161.806 L
199.054 162.01 L
200.075 162.221 L
201.334 162.477 L
202.768 162.76 L
203.796 162.959 L
204.824 163.153 L
206.072 163.385 L
207.486 163.641 L
208.773 163.868 L
209.815 164.047 L
210.782 164.211 L
211.911 164.398 L
213.279 164.62 L
214.672 164.84 L
215.824 165.018 L
216.79 165.163 L
217.811 165.314 L
219.071 165.497 L
220.503 165.7 L
221.532 165.842 L
222.56 165.981 L
223.808 166.147 L
225.222 166.33 L
226.509 166.493 L
227.551 166.621 L
228.519 166.738 L
229.647 166.872 L
231.015 167.031 L
232.408 167.189 L
233.56 167.315 L
234.526 167.42 L
235.547 167.528 L
236.807 167.659 L
238.239 167.804 L
239.268 167.906 L
240.296 168.005 L
241.544 168.124 L
S
GR
GS
[0.75 0 0 0.75 0 0] CT
1 0 0 RC
1 LJ
0.667 LW
N
240.296 168.005 M
241.544 168.124 L
242.958 168.255 L
244.245 168.372 L
245.287 168.464 L
246.255 168.547 L
247.383 168.643 L
248.751 168.757 L
250.144 168.87 L
251.295 168.961 L
252.262 169.036 L
253.283 169.113 L
254.543 169.207 L
255.975 169.312 L
257.004 169.384 L
258.032 169.456 L
259.28 169.541 L
260.694 169.635 L
261.981 169.719 L
263.022 169.784 L
263.991 169.844 L
265.119 169.913 L
266.487 169.995 L
267.88 170.076 L
269.031 170.142 L
269.998 170.195 L
271.019 170.25 L
272.279 170.318 L
273.711 170.393 L
274.739 170.445 L
275.768 170.496 L
277.016 170.557 L
278.43 170.625 L
279.716 170.685 L
280.758 170.732 L
281.726 170.775 L
282.855 170.824 L
284.223 170.883 L
285.616 170.942 L
286.767 170.989 L
287.734 171.027 L
288.755 171.067 L
290.015 171.115 L
291.447 171.169 L
292.475 171.206 L
293.504 171.243 L
294.752 171.287 L
296.166 171.336 L
297.452 171.379 L
298.494 171.413 L
299.462 171.444 L
300.591 171.479 L
S
GR
GS
[0.75 0 0 0.75 0 0] CT
1 0 0 RC
1 LJ
0.667 LW
N
299.462 171.444 M
300.591 171.479 L
301.959 171.521 L
303.351 171.564 L
304.503 171.597 L
305.47 171.625 L
306.491 171.653 L
307.75 171.688 L
309.183 171.727 L
310.211 171.754 L
311.24 171.78 L
312.488 171.812 L
313.902 171.847 L
315.188 171.879 L
316.23 171.903 L
317.198 171.925 L
318.327 171.95 L
319.695 171.981 L
321.087 172.011 L
322.239 172.036 L
323.205 172.055 L
324.227 172.076 L
325.486 172.101 L
326.919 172.129 L
327.947 172.148 L
328.975 172.167 L
330.224 172.19 L
331.638 172.216 L
332.924 172.238 L
333.966 172.255 L
334.934 172.271 L
336.063 172.29 L
337.431 172.312 L
338.823 172.334 L
339.975 172.351 L
340.941 172.365 L
341.963 172.38 L
343.222 172.398 L
344.655 172.419 L
345.683 172.433 L
346.711 172.446 L
347.96 172.463 L
349.373 172.481 L
350.66 172.498 L
351.702 172.51 L
352.67 172.522 L
353.799 172.535 L
355.167 172.551 L
356.559 172.567 L
357.711 172.58 L
358.677 172.59 L
359.699 172.6 L
S
GR
GS
[0.75 0 0 0.75 0 0] CT
1 0 0 RC
1 LJ
0.667 LW
N
358.677 172.59 M
359.699 172.6 L
360.958 172.613 L
362.391 172.628 L
363.419 172.638 L
364.447 172.648 L
365.696 172.66 L
367.109 172.673 L
368.396 172.686 L
369.438 172.694 L
370.406 172.702 L
371.535 172.712 L
372.903 172.724 L
374.295 172.736 L
375.447 172.745 L
376.413 172.752 L
377.434 172.759 L
378.694 172.769 L
380.126 172.78 L
381.155 172.787 L
382.183 172.794 L
383.432 172.803 L
384.845 172.813 L
386.132 172.821 L
387.174 172.828 L
388.142 172.834 L
389.27 172.841 L
390.639 172.849 L
392.031 172.858 L
393.182 172.864 L
394.149 172.869 L
395.17 172.875 L
396.43 172.882 L
397.862 172.89 L
398.891 172.895 L
399.919 172.9 L
401.167 172.906 L
402.581 172.914 L
403.868 172.92 L
404.91 172.925 L
405.878 172.929 L
407.006 172.934 L
408.374 172.94 L
409.767 172.947 L
410.918 172.951 L
411.885 172.955 L
412.906 172.959 L
414.166 172.964 L
415.598 172.97 L
416.627 172.974 L
417.655 172.977 L
418.903 172.982 L
S
GR
GS
[0.75 0 0 0.75 0 0] CT
1 0 0 RC
1 LJ
0.667 LW
N
417.655 172.977 M
418.903 172.982 L
420.317 172.987 L
421.603 172.992 L
422.645 172.995 L
423.614 172.998 L
424.742 173.002 L
426.11 173.007 L
427.503 173.011 L
428.654 173.015 L
429.621 173.017 L
430.642 173.02 L
431.902 173.024 L
433.334 173.028 L
434.362 173.031 L
435.391 173.034 L
436.639 173.037 L
438.053 173.041 L
439.339 173.045 L
440.381 173.047 L
441.349 173.049 L
442.478 173.052 L
443.846 173.055 L
445.238 173.059 L
446.39 173.061 L
447.357 173.063 L
448.378 173.065 L
449.638 173.068 L
451.07 173.071 L
452.098 173.073 L
453.127 173.075 L
454.375 173.077 L
455.789 173.08 L
457.075 173.083 L
458.117 173.085 L
459.085 173.086 L
460.214 173.088 L
461.582 173.091 L
462.974 173.093 L
464.126 173.095 L
465.093 173.096 L
466.114 173.098 L
467.373 173.1 L
468.806 173.102 L
469.834 173.104 L
470.862 173.105 L
472.111 173.107 L
473.525 173.109 L
474.811 173.111 L
475.853 173.112 L
476.821 173.113 L
477.95 173.115 L
S
GR
GS
[0.75 0 0 0.75 0 0] CT
1 0 0 RC
1 LJ
0.667 LW
N
476.821 173.113 M
477.95 173.115 L
479.318 173.117 L
480.71 173.119 L
481.862 173.12 L
482.828 173.121 L
483.85 173.122 L
485.109 173.123 L
486.542 173.125 L
487.57 173.126 L
488.598 173.127 L
489.847 173.129 L
491.261 173.13 L
492.547 173.132 L
493.589 173.133 L
494.557 173.133 L
495.686 173.134 L
497.054 173.136 L
498.446 173.138 L
499.598 173.139 L
500.564 173.139 L
501.586 173.14 L
502.845 173.141 L
504.278 173.143 L
505.306 173.143 L
506.334 173.144 L
507 173.144 L
S
GR
GS
[0.75 0 0 0.75 0 0] CT
1 0 1 RC
1 LJ
0.667 LW
N
73 374 M
74.447 374 L
74.447 180.597 L
74.447 180.597 L
74.664 180.749 L
74.881 181.114 L
75.22 181.908 L
75.593 182.92 L
76.038 184.187 L
76.57 185.712 L
77.226 187.55 L
78.055 189.788 L
79.131 192.548 L
80.537 195.942 L
82.209 199.711 L
83.131 201.683 L
84.053 203.589 L
85.33 206.129 L
86.9 209.114 L
87.876 210.899 L
88.853 212.636 L
90.125 214.833 L
91.627 217.334 L
92.626 218.945 L
93.624 220.519 L
94.885 222.456 L
96.349 224.636 L
97.366 226.109 L
98.384 227.551 L
99.638 229.288 L
101.071 231.216 L
102.103 232.568 L
103.134 233.892 L
104.383 235.458 L
105.793 237.18 L
107.076 238.707 L
108.119 239.917 L
109.091 241.023 L
110.222 242.284 L
111.588 243.771 L
112.977 245.242 L
114.127 246.429 L
115.095 247.408 L
116.12 248.424 L
117.38 249.647 L
118.81 250.999 L
120.095 252.182 L
121.124 253.106 L
122.082 253.951 L
123.215 254.931 L
S
GR
GS
[0.75 0 0 0.75 0 0] CT
1 0 1 RC
1 LJ
0.667 LW
N
122.082 253.951 M
123.215 254.931 L
124.598 256.098 L
125.997 257.247 L
127.14 258.162 L
128.095 258.911 L
129.114 259.696 L
130.383 260.651 L
131.826 261.71 L
132.845 262.439 L
133.864 263.153 L
135.114 264.012 L
136.542 264.967 L
137.836 265.81 L
138.873 266.469 L
139.83 267.067 L
140.953 267.754 L
142.328 268.575 L
143.733 269.392 L
144.886 270.046 L
145.845 270.578 L
146.858 271.129 L
148.116 271.8 L
149.558 272.548 L
150.584 273.068 L
151.611 273.578 L
152.861 274.185 L
154.279 274.856 L
155.566 275.45 L
156.606 275.918 L
157.571 276.344 L
158.699 276.832 L
160.07 277.411 L
161.465 277.986 L
162.616 278.447 L
163.58 278.825 L
164.6 279.218 L
165.86 279.693 L
167.296 280.22 L
168.322 280.587 L
169.349 280.948 L
170.598 281.377 L
172.014 281.851 L
173.302 282.271 L
174.343 282.602 L
175.309 282.904 L
176.437 283.249 L
177.807 283.658 L
179.201 284.064 L
180.353 284.39 L
181.318 284.658 L
182.338 284.935 L
S
GR
GS
[0.75 0 0 0.75 0 0] CT
1 0 1 RC
1 LJ
0.667 LW
N
181.318 284.658 M
182.338 284.935 L
183.597 285.271 L
185.031 285.643 L
186.059 285.903 L
187.087 286.158 L
188.336 286.461 L
189.75 286.796 L
191.037 287.092 L
192.079 287.326 L
193.046 287.539 L
194.175 287.783 L
195.543 288.072 L
196.936 288.359 L
198.088 288.589 L
199.054 288.778 L
200.075 288.974 L
201.334 289.211 L
202.768 289.474 L
203.796 289.657 L
204.824 289.837 L
206.072 290.051 L
207.486 290.288 L
208.773 290.497 L
209.815 290.662 L
210.782 290.812 L
211.911 290.984 L
213.279 291.188 L
214.672 291.391 L
215.824 291.553 L
216.79 291.686 L
217.811 291.825 L
219.071 291.992 L
220.503 292.177 L
221.532 292.307 L
222.56 292.434 L
223.808 292.584 L
225.222 292.751 L
226.509 292.899 L
227.551 293.015 L
228.519 293.121 L
229.647 293.242 L
231.015 293.386 L
232.408 293.529 L
233.56 293.643 L
234.526 293.737 L
235.547 293.834 L
236.807 293.952 L
238.239 294.083 L
239.268 294.174 L
240.296 294.263 L
241.544 294.37 L
S
GR
GS
[0.75 0 0 0.75 0 0] CT
1 0 1 RC
1 LJ
0.667 LW
N
240.296 294.263 M
241.544 294.37 L
242.958 294.487 L
244.245 294.591 L
245.287 294.673 L
246.255 294.747 L
247.383 294.833 L
248.751 294.934 L
250.144 295.035 L
251.295 295.115 L
252.262 295.181 L
253.283 295.249 L
254.543 295.332 L
255.975 295.424 L
257.004 295.488 L
258.032 295.551 L
259.28 295.626 L
260.694 295.709 L
261.981 295.782 L
263.022 295.839 L
263.991 295.891 L
265.119 295.951 L
266.487 296.023 L
267.88 296.094 L
269.031 296.15 L
269.998 296.196 L
271.019 296.244 L
272.279 296.302 L
273.711 296.367 L
274.739 296.412 L
275.768 296.456 L
277.016 296.509 L
278.43 296.567 L
279.716 296.618 L
280.758 296.658 L
281.726 296.695 L
282.855 296.737 L
284.223 296.787 L
285.616 296.837 L
286.767 296.877 L
287.734 296.909 L
288.755 296.942 L
290.015 296.983 L
291.447 297.029 L
292.475 297.06 L
293.504 297.091 L
294.752 297.128 L
296.166 297.168 L
297.452 297.205 L
298.494 297.233 L
299.462 297.258 L
300.591 297.288 L
S
GR
GS
[0.75 0 0 0.75 0 0] CT
1 0 1 RC
1 LJ
0.667 LW
N
299.462 297.258 M
300.591 297.288 L
301.959 297.323 L
303.351 297.358 L
304.503 297.385 L
305.47 297.408 L
306.491 297.431 L
307.75 297.46 L
309.183 297.492 L
310.211 297.513 L
311.24 297.535 L
312.488 297.561 L
313.902 297.589 L
315.188 297.615 L
316.23 297.634 L
317.198 297.652 L
318.327 297.672 L
319.695 297.697 L
321.087 297.722 L
322.239 297.741 L
323.205 297.756 L
324.227 297.773 L
325.486 297.793 L
326.919 297.815 L
327.947 297.83 L
328.975 297.845 L
330.224 297.863 L
331.638 297.883 L
332.924 297.901 L
333.966 297.914 L
334.934 297.926 L
336.063 297.941 L
337.431 297.958 L
338.823 297.975 L
339.975 297.989 L
340.941 297.999 L
341.963 298.01 L
343.222 298.024 L
344.655 298.04 L
345.683 298.05 L
346.711 298.061 L
347.96 298.073 L
349.373 298.087 L
350.66 298.1 L
351.702 298.109 L
352.67 298.117 L
353.799 298.127 L
355.167 298.139 L
356.559 298.151 L
357.711 298.161 L
358.677 298.168 L
359.699 298.176 L
S
GR
GS
[0.75 0 0 0.75 0 0] CT
1 0 1 RC
1 LJ
0.667 LW
N
358.677 298.168 M
359.699 298.176 L
360.958 298.185 L
362.391 298.196 L
363.419 298.203 L
364.447 298.21 L
365.696 298.219 L
367.109 298.229 L
368.396 298.238 L
369.438 298.244 L
370.406 298.249 L
371.535 298.256 L
372.903 298.265 L
374.295 298.273 L
375.447 298.28 L
376.413 298.284 L
377.434 298.29 L
378.694 298.296 L
380.126 298.304 L
381.155 298.309 L
382.183 298.314 L
383.432 298.32 L
384.845 298.327 L
386.132 298.333 L
387.174 298.337 L
388.142 298.34 L
389.27 298.345 L
390.639 298.351 L
392.031 298.357 L
393.182 298.361 L
394.149 298.364 L
395.17 298.368 L
396.43 298.373 L
397.862 298.378 L
398.891 298.381 L
399.919 298.384 L
401.167 298.389 L
402.581 298.393 L
403.868 298.398 L
404.91 298.4 L
405.878 298.403 L
407.006 298.406 L
408.374 298.41 L
409.767 298.414 L
410.918 298.417 L
411.885 298.419 L
412.906 298.422 L
414.166 298.425 L
415.598 298.429 L
416.627 298.431 L
417.655 298.433 L
418.903 298.436 L
S
GR
GS
[0.75 0 0 0.75 0 0] CT
1 0 1 RC
1 LJ
0.667 LW
N
417.655 298.433 M
418.903 298.436 L
420.317 298.439 L
421.603 298.442 L
422.645 298.444 L
423.614 298.445 L
424.742 298.447 L
426.11 298.45 L
427.503 298.453 L
428.654 298.455 L
429.621 298.456 L
430.642 298.458 L
431.902 298.46 L
433.334 298.463 L
434.362 298.464 L
435.391 298.465 L
436.639 298.467 L
438.053 298.47 L
439.339 298.472 L
440.381 298.473 L
441.349 298.474 L
442.478 298.475 L
443.846 298.477 L
445.238 298.48 L
446.39 298.481 L
447.357 298.481 L
448.378 298.482 L
449.638 298.484 L
451.07 298.486 L
452.098 298.486 L
453.127 298.487 L
454.375 298.489 L
455.789 298.49 L
457.075 298.492 L
458.117 298.492 L
459.085 298.493 L
460.214 298.494 L
461.582 298.495 L
462.974 298.497 L
464.126 298.498 L
465.093 298.498 L
466.114 298.498 L
467.373 298.499 L
468.806 298.501 L
469.834 298.501 L
470.862 298.502 L
472.111 298.503 L
473.525 298.504 L
474.811 298.505 L
475.853 298.505 L
476.821 298.505 L
477.95 298.506 L
S
GR
GS
[0.75 0 0 0.75 0 0] CT
1 0 1 RC
1 LJ
0.667 LW
N
476.821 298.505 M
477.95 298.506 L
479.318 298.507 L
480.71 298.508 L
481.862 298.509 L
482.828 298.509 L
483.85 298.509 L
485.109 298.51 L
486.542 298.511 L
487.57 298.511 L
488.598 298.511 L
489.847 298.512 L
491.261 298.513 L
492.547 298.514 L
493.589 298.513 L
494.557 298.513 L
495.686 298.514 L
497.054 298.514 L
498.446 298.516 L
499.598 298.516 L
500.564 298.516 L
501.586 298.516 L
502.845 298.516 L
504.278 298.517 L
505.306 298.517 L
506.334 298.517 L
507 298.517 L
S
GR
GS
[0.75 0 0 0.75 0 0] CT
1 GC
N
422 112 M
422 44 L
494 44 L
494 112 L
cp
f
GR
GS
[0.75 0 0 0.75 355.5 40.7005] CT
/Helvetica 12 F
GS
[1 0 0 1 0 0] CT
0 4.5 moveto 
1 -1 scale
(w1) t 
GR
GR
GS
[0.75 0 0 0.75 0 0] CT
0 0 1 RC
1 LJ
0.667 LW
N
430 54.267 M
470 54.267 L
S
GR
GS
[0.75 0 0 0.75 355.5 52.56683] CT
/Helvetica 12 F
GS
[1 0 0 1 0 0] CT
0 4.5 moveto 
1 -1 scale
(w2) t 
GR
GR
GS
[0.75 0 0 0.75 0 0] CT
0 1 1 RC
1 LJ
0.667 LW
N
430 70.089 M
470 70.089 L
S
GR
GS
[0.75 0 0 0.75 355.5 64.43317] CT
/Helvetica 12 F
GS
[1 0 0 1 0 0] CT
0 4.5 moveto 
1 -1 scale
(u1) t 
GR
GR
GS
[0.75 0 0 0.75 0 0] CT
1 0 0 RC
1 LJ
0.667 LW
N
430 85.911 M
470 85.911 L
S
GR
GS
[0.75 0 0 0.75 355.5 76.29951] CT
/Helvetica 12 F
GS
[1 0 0 1 0 0] CT
0 4.5 moveto 
1 -1 scale
(u2) t 
GR
GR
GS
[0.75 0 0 0.75 0 0] CT
1 0 1 RC
1 LJ
0.667 LW
N
430 101.733 M
470 101.733 L
S
GR
GS
[0.75 0 0 0.75 0 0] CT
0.149 GC
10.0 ML
0.667 LW
N
422 112 M
422 44 L
494 44 L
494 112 L
cp
S
GR
%%Trailer
%%Pages: 1
%%EOF
